%TF.GenerationSoftware,KiCad,Pcbnew,(5.1.10)-1*%
%TF.CreationDate,2021-11-11T12:26:20-06:00*%
%TF.ProjectId,CompleteSchematicV1,436f6d70-6c65-4746-9553-6368656d6174,rev?*%
%TF.SameCoordinates,Original*%
%TF.FileFunction,Paste,Top*%
%TF.FilePolarity,Positive*%
%FSLAX46Y46*%
G04 Gerber Fmt 4.6, Leading zero omitted, Abs format (unit mm)*
G04 Created by KiCad (PCBNEW (5.1.10)-1) date 2021-11-11 12:26:20*
%MOMM*%
%LPD*%
G01*
G04 APERTURE LIST*
%ADD10C,0.100000*%
%ADD11R,0.127000X0.127000*%
%ADD12R,1.450000X0.300000*%
%ADD13R,1.500000X2.500000*%
%ADD14R,7.000000X7.000000*%
%ADD15R,1.528000X0.650000*%
%ADD16R,1.500000X1.900000*%
%ADD17R,0.400000X1.350000*%
G04 APERTURE END LIST*
D10*
%TO.C,U12*%
G36*
X127591400Y-53868800D02*
G01*
X127011400Y-53868800D01*
X127011400Y-54068800D01*
X127661200Y-54068800D01*
X127670954Y-54067839D01*
X127680334Y-54064994D01*
X127688978Y-54060373D01*
X127696300Y-54053900D01*
X127702773Y-54046578D01*
X127707394Y-54037934D01*
X127710239Y-54028554D01*
X127711200Y-54018800D01*
X127711398Y-53988800D01*
X127591400Y-53868800D01*
G37*
X127591400Y-53868800D02*
X127011400Y-53868800D01*
X127011400Y-54068800D01*
X127661200Y-54068800D01*
X127670954Y-54067839D01*
X127680334Y-54064994D01*
X127688978Y-54060373D01*
X127696300Y-54053900D01*
X127702773Y-54046578D01*
X127707394Y-54037934D01*
X127710239Y-54028554D01*
X127711200Y-54018800D01*
X127711398Y-53988800D01*
X127591400Y-53868800D01*
G36*
X127011394Y-54268799D02*
G01*
X127011394Y-54468799D01*
X128111404Y-54468799D01*
X128121159Y-54467838D01*
X128130538Y-54464993D01*
X128139182Y-54460372D01*
X128146759Y-54454154D01*
X128152977Y-54446577D01*
X128157598Y-54437933D01*
X128160443Y-54428553D01*
X128161404Y-54418799D01*
X128161404Y-54368799D01*
X128160443Y-54359045D01*
X128157598Y-54349665D01*
X128152977Y-54341021D01*
X128146759Y-54333444D01*
X128139182Y-54327226D01*
X128130538Y-54322605D01*
X128121159Y-54319760D01*
X128111404Y-54318799D01*
X127711404Y-54318799D01*
X127641394Y-54268799D01*
X127011394Y-54268799D01*
G37*
X127011394Y-54268799D02*
X127011394Y-54468799D01*
X128111404Y-54468799D01*
X128121159Y-54467838D01*
X128130538Y-54464993D01*
X128139182Y-54460372D01*
X128146759Y-54454154D01*
X128152977Y-54446577D01*
X128157598Y-54437933D01*
X128160443Y-54428553D01*
X128161404Y-54418799D01*
X128161404Y-54368799D01*
X128160443Y-54359045D01*
X128157598Y-54349665D01*
X128152977Y-54341021D01*
X128146759Y-54333444D01*
X128139182Y-54327226D01*
X128130538Y-54322605D01*
X128121159Y-54319760D01*
X128111404Y-54318799D01*
X127711404Y-54318799D01*
X127641394Y-54268799D01*
X127011394Y-54268799D01*
G36*
X127011394Y-54668801D02*
G01*
X127011394Y-54868801D01*
X128111404Y-54868801D01*
X128121159Y-54867840D01*
X128130538Y-54864994D01*
X128139182Y-54860374D01*
X128146759Y-54854156D01*
X128152977Y-54846579D01*
X128157598Y-54837935D01*
X128160443Y-54828555D01*
X128161404Y-54818801D01*
X128161599Y-54718499D01*
X128160638Y-54708745D01*
X128157793Y-54699365D01*
X128153172Y-54690721D01*
X128146954Y-54683144D01*
X128139377Y-54676926D01*
X128130733Y-54672305D01*
X128121353Y-54669460D01*
X128111599Y-54668499D01*
X127011394Y-54668801D01*
G37*
X127011394Y-54668801D02*
X127011394Y-54868801D01*
X128111404Y-54868801D01*
X128121159Y-54867840D01*
X128130538Y-54864994D01*
X128139182Y-54860374D01*
X128146759Y-54854156D01*
X128152977Y-54846579D01*
X128157598Y-54837935D01*
X128160443Y-54828555D01*
X128161404Y-54818801D01*
X128161599Y-54718499D01*
X128160638Y-54708745D01*
X128157793Y-54699365D01*
X128153172Y-54690721D01*
X128146954Y-54683144D01*
X128139377Y-54676926D01*
X128130733Y-54672305D01*
X128121353Y-54669460D01*
X128111599Y-54668499D01*
X127011394Y-54668801D01*
G36*
X127011394Y-55068799D02*
G01*
X127011394Y-55268799D01*
X128111404Y-55268799D01*
X128121159Y-55267838D01*
X128130538Y-55264993D01*
X128139182Y-55260372D01*
X128146759Y-55254154D01*
X128152977Y-55246577D01*
X128157598Y-55237933D01*
X128160443Y-55228553D01*
X128161404Y-55218799D01*
X128161404Y-55168799D01*
X128160443Y-55159045D01*
X128157598Y-55149665D01*
X128152977Y-55141021D01*
X128146759Y-55133444D01*
X128139182Y-55127226D01*
X128130538Y-55122605D01*
X128121159Y-55119760D01*
X128111404Y-55118799D01*
X127711404Y-55118799D01*
X127641394Y-55068799D01*
X127011394Y-55068799D01*
G37*
X127011394Y-55068799D02*
X127011394Y-55268799D01*
X128111404Y-55268799D01*
X128121159Y-55267838D01*
X128130538Y-55264993D01*
X128139182Y-55260372D01*
X128146759Y-55254154D01*
X128152977Y-55246577D01*
X128157598Y-55237933D01*
X128160443Y-55228553D01*
X128161404Y-55218799D01*
X128161404Y-55168799D01*
X128160443Y-55159045D01*
X128157598Y-55149665D01*
X128152977Y-55141021D01*
X128146759Y-55133444D01*
X128139182Y-55127226D01*
X128130538Y-55122605D01*
X128121159Y-55119760D01*
X128111404Y-55118799D01*
X127711404Y-55118799D01*
X127641394Y-55068799D01*
X127011394Y-55068799D01*
G36*
X127011394Y-55468801D02*
G01*
X127011394Y-55668801D01*
X128111404Y-55668801D01*
X128121159Y-55667840D01*
X128130538Y-55664994D01*
X128139182Y-55660374D01*
X128146759Y-55654156D01*
X128152977Y-55646579D01*
X128157598Y-55637935D01*
X128160443Y-55628555D01*
X128161404Y-55618801D01*
X128161599Y-55518499D01*
X128160638Y-55508745D01*
X128157793Y-55499365D01*
X128153172Y-55490721D01*
X128146954Y-55483144D01*
X128139377Y-55476926D01*
X128130733Y-55472305D01*
X128121353Y-55469460D01*
X128111599Y-55468499D01*
X127011394Y-55468801D01*
G37*
X127011394Y-55468801D02*
X127011394Y-55668801D01*
X128111404Y-55668801D01*
X128121159Y-55667840D01*
X128130538Y-55664994D01*
X128139182Y-55660374D01*
X128146759Y-55654156D01*
X128152977Y-55646579D01*
X128157598Y-55637935D01*
X128160443Y-55628555D01*
X128161404Y-55618801D01*
X128161599Y-55518499D01*
X128160638Y-55508745D01*
X128157793Y-55499365D01*
X128153172Y-55490721D01*
X128146954Y-55483144D01*
X128139377Y-55476926D01*
X128130733Y-55472305D01*
X128121353Y-55469460D01*
X128111599Y-55468499D01*
X127011394Y-55468801D01*
G36*
X127011399Y-55868301D02*
G01*
X127011399Y-56468301D01*
X127611399Y-56468301D01*
X127611399Y-57468301D01*
X127811399Y-57468301D01*
X127811399Y-56601301D01*
X128011399Y-56468301D01*
X128011399Y-55918301D01*
X128010438Y-55908546D01*
X128007593Y-55899167D01*
X128002972Y-55890523D01*
X127996754Y-55882946D01*
X127989177Y-55876728D01*
X127980533Y-55872107D01*
X127971153Y-55869262D01*
X127961399Y-55868301D01*
X127011399Y-55868301D01*
G37*
X127011399Y-55868301D02*
X127011399Y-56468301D01*
X127611399Y-56468301D01*
X127611399Y-57468301D01*
X127811399Y-57468301D01*
X127811399Y-56601301D01*
X128011399Y-56468301D01*
X128011399Y-55918301D01*
X128010438Y-55908546D01*
X128007593Y-55899167D01*
X128002972Y-55890523D01*
X127996754Y-55882946D01*
X127989177Y-55876728D01*
X127980533Y-55872107D01*
X127971153Y-55869262D01*
X127961399Y-55868301D01*
X127011399Y-55868301D01*
G36*
X128011899Y-57468801D02*
G01*
X128011899Y-56870801D01*
X128426899Y-56468801D01*
X128962000Y-56468400D01*
X128971755Y-56469361D01*
X128981134Y-56472206D01*
X128989779Y-56476827D01*
X128997355Y-56483045D01*
X129003574Y-56490622D01*
X129008194Y-56499266D01*
X129011039Y-56508646D01*
X129012000Y-56518400D01*
X129011899Y-57468801D01*
X128011899Y-57468801D01*
G37*
X128011899Y-57468801D02*
X128011899Y-56870801D01*
X128426899Y-56468801D01*
X128962000Y-56468400D01*
X128971755Y-56469361D01*
X128981134Y-56472206D01*
X128989779Y-56476827D01*
X128997355Y-56483045D01*
X129003574Y-56490622D01*
X129008194Y-56499266D01*
X129011039Y-56508646D01*
X129012000Y-56518400D01*
X129011899Y-57468801D01*
X128011899Y-57468801D01*
G36*
X129211400Y-57468806D02*
G01*
X129411400Y-57468806D01*
X129411400Y-56368796D01*
X129410439Y-56359041D01*
X129407594Y-56349662D01*
X129402973Y-56341018D01*
X129396755Y-56333441D01*
X129389178Y-56327223D01*
X129380534Y-56322602D01*
X129371154Y-56319757D01*
X129361400Y-56318796D01*
X129261098Y-56318601D01*
X129251344Y-56319562D01*
X129241964Y-56322407D01*
X129233320Y-56327028D01*
X129225743Y-56333246D01*
X129219525Y-56340823D01*
X129214904Y-56349467D01*
X129212059Y-56358847D01*
X129211098Y-56368601D01*
X129211400Y-57468806D01*
G37*
X129211400Y-57468806D02*
X129411400Y-57468806D01*
X129411400Y-56368796D01*
X129410439Y-56359041D01*
X129407594Y-56349662D01*
X129402973Y-56341018D01*
X129396755Y-56333441D01*
X129389178Y-56327223D01*
X129380534Y-56322602D01*
X129371154Y-56319757D01*
X129361400Y-56318796D01*
X129261098Y-56318601D01*
X129251344Y-56319562D01*
X129241964Y-56322407D01*
X129233320Y-56327028D01*
X129225743Y-56333246D01*
X129219525Y-56340823D01*
X129214904Y-56349467D01*
X129212059Y-56358847D01*
X129211098Y-56368601D01*
X129211400Y-57468806D01*
G36*
X129811399Y-57468806D02*
G01*
X129611399Y-57468806D01*
X129611399Y-56368796D01*
X129612360Y-56359041D01*
X129615206Y-56349662D01*
X129619826Y-56341018D01*
X129626044Y-56333441D01*
X129633621Y-56327223D01*
X129642265Y-56322602D01*
X129651645Y-56319757D01*
X129661399Y-56318796D01*
X129711399Y-56318796D01*
X129721153Y-56319757D01*
X129730533Y-56322602D01*
X129739177Y-56327223D01*
X129746754Y-56333441D01*
X129752972Y-56341018D01*
X129757593Y-56349662D01*
X129760438Y-56359041D01*
X129761399Y-56368796D01*
X129761399Y-56768796D01*
X129811399Y-56838806D01*
X129811399Y-57468806D01*
G37*
X129811399Y-57468806D02*
X129611399Y-57468806D01*
X129611399Y-56368796D01*
X129612360Y-56359041D01*
X129615206Y-56349662D01*
X129619826Y-56341018D01*
X129626044Y-56333441D01*
X129633621Y-56327223D01*
X129642265Y-56322602D01*
X129651645Y-56319757D01*
X129661399Y-56318796D01*
X129711399Y-56318796D01*
X129721153Y-56319757D01*
X129730533Y-56322602D01*
X129739177Y-56327223D01*
X129746754Y-56333441D01*
X129752972Y-56341018D01*
X129757593Y-56349662D01*
X129760438Y-56359041D01*
X129761399Y-56368796D01*
X129761399Y-56768796D01*
X129811399Y-56838806D01*
X129811399Y-57468806D01*
G36*
X131011900Y-57468801D02*
G01*
X131011900Y-56870801D01*
X130596900Y-56468801D01*
X130061799Y-56468400D01*
X130052044Y-56469361D01*
X130042665Y-56472206D01*
X130034020Y-56476827D01*
X130026444Y-56483045D01*
X130020225Y-56490622D01*
X130015605Y-56499266D01*
X130012760Y-56508646D01*
X130011799Y-56518400D01*
X130011900Y-57468801D01*
X131011900Y-57468801D01*
G37*
X131011900Y-57468801D02*
X131011900Y-56870801D01*
X130596900Y-56468801D01*
X130061799Y-56468400D01*
X130052044Y-56469361D01*
X130042665Y-56472206D01*
X130034020Y-56476827D01*
X130026444Y-56483045D01*
X130020225Y-56490622D01*
X130015605Y-56499266D01*
X130012760Y-56508646D01*
X130011799Y-56518400D01*
X130011900Y-57468801D01*
X131011900Y-57468801D01*
G36*
X130411396Y-55468802D02*
G01*
X130401641Y-55469763D01*
X130392262Y-55472608D01*
X130383617Y-55477229D01*
X130376041Y-55483447D01*
X130369822Y-55491023D01*
X130365202Y-55499668D01*
X130362357Y-55509047D01*
X130361396Y-55518802D01*
X130361201Y-55619103D01*
X130361396Y-55918800D01*
X130361201Y-56019102D01*
X130362162Y-56028856D01*
X130369628Y-56046880D01*
X130375846Y-56054457D01*
X130383423Y-56060675D01*
X130392067Y-56065296D01*
X130401447Y-56068141D01*
X130411201Y-56069102D01*
X130816406Y-56068800D01*
X130961406Y-56255800D01*
X130961406Y-56468800D01*
X131611406Y-56468800D01*
X131611406Y-55468802D01*
X130411396Y-55468802D01*
G37*
X130411396Y-55468802D02*
X130401641Y-55469763D01*
X130392262Y-55472608D01*
X130383617Y-55477229D01*
X130376041Y-55483447D01*
X130369822Y-55491023D01*
X130365202Y-55499668D01*
X130362357Y-55509047D01*
X130361396Y-55518802D01*
X130361201Y-55619103D01*
X130361396Y-55918800D01*
X130361201Y-56019102D01*
X130362162Y-56028856D01*
X130369628Y-56046880D01*
X130375846Y-56054457D01*
X130383423Y-56060675D01*
X130392067Y-56065296D01*
X130401447Y-56068141D01*
X130411201Y-56069102D01*
X130816406Y-56068800D01*
X130961406Y-56255800D01*
X130961406Y-56468800D01*
X131611406Y-56468800D01*
X131611406Y-55468802D01*
X130411396Y-55468802D01*
G36*
X131611406Y-55268801D02*
G01*
X131611406Y-55068801D01*
X130411396Y-55068801D01*
X130401641Y-55069762D01*
X130392262Y-55072607D01*
X130383618Y-55077228D01*
X130376041Y-55083446D01*
X130369823Y-55091023D01*
X130365202Y-55099667D01*
X130362357Y-55109047D01*
X130361396Y-55118801D01*
X130361396Y-55168801D01*
X130362357Y-55178555D01*
X130365202Y-55187935D01*
X130369823Y-55196579D01*
X130376041Y-55204156D01*
X130383618Y-55210374D01*
X130392262Y-55214994D01*
X130401641Y-55217840D01*
X130411396Y-55218801D01*
X130811396Y-55218801D01*
X130881406Y-55268801D01*
X131611406Y-55268801D01*
G37*
X131611406Y-55268801D02*
X131611406Y-55068801D01*
X130411396Y-55068801D01*
X130401641Y-55069762D01*
X130392262Y-55072607D01*
X130383618Y-55077228D01*
X130376041Y-55083446D01*
X130369823Y-55091023D01*
X130365202Y-55099667D01*
X130362357Y-55109047D01*
X130361396Y-55118801D01*
X130361396Y-55168801D01*
X130362357Y-55178555D01*
X130365202Y-55187935D01*
X130369823Y-55196579D01*
X130376041Y-55204156D01*
X130383618Y-55210374D01*
X130392262Y-55214994D01*
X130401641Y-55217840D01*
X130411396Y-55218801D01*
X130811396Y-55218801D01*
X130881406Y-55268801D01*
X131611406Y-55268801D01*
G36*
X131611406Y-54868800D02*
G01*
X131611406Y-54668800D01*
X130411396Y-54668800D01*
X130401641Y-54669761D01*
X130392262Y-54672606D01*
X130383618Y-54677227D01*
X130376041Y-54683445D01*
X130369823Y-54691022D01*
X130365202Y-54699666D01*
X130362357Y-54709046D01*
X130361396Y-54718800D01*
X130361201Y-54819102D01*
X130362162Y-54828856D01*
X130365007Y-54838236D01*
X130369628Y-54846880D01*
X130375846Y-54854457D01*
X130383423Y-54860675D01*
X130392067Y-54865296D01*
X130401447Y-54868141D01*
X130411201Y-54869102D01*
X131611406Y-54868800D01*
G37*
X131611406Y-54868800D02*
X131611406Y-54668800D01*
X130411396Y-54668800D01*
X130401641Y-54669761D01*
X130392262Y-54672606D01*
X130383618Y-54677227D01*
X130376041Y-54683445D01*
X130369823Y-54691022D01*
X130365202Y-54699666D01*
X130362357Y-54709046D01*
X130361396Y-54718800D01*
X130361201Y-54819102D01*
X130362162Y-54828856D01*
X130365007Y-54838236D01*
X130369628Y-54846880D01*
X130375846Y-54854457D01*
X130383423Y-54860675D01*
X130392067Y-54865296D01*
X130401447Y-54868141D01*
X130411201Y-54869102D01*
X131611406Y-54868800D01*
G36*
X130761396Y-54158800D02*
G01*
X130961406Y-53868800D01*
X131611406Y-53868800D01*
X131611406Y-54468799D01*
X130411201Y-54469101D01*
X130401447Y-54468140D01*
X130392067Y-54465295D01*
X130383423Y-54460675D01*
X130375846Y-54454456D01*
X130369628Y-54446880D01*
X130365007Y-54438235D01*
X130362162Y-54428856D01*
X130361201Y-54419101D01*
X130361396Y-54208800D01*
X130362357Y-54199046D01*
X130369822Y-54181022D01*
X130376041Y-54173445D01*
X130383617Y-54167227D01*
X130392262Y-54162607D01*
X130401641Y-54159761D01*
X130411396Y-54158801D01*
X130761396Y-54158800D01*
G37*
X130761396Y-54158800D02*
X130961406Y-53868800D01*
X131611406Y-53868800D01*
X131611406Y-54468799D01*
X130411201Y-54469101D01*
X130401447Y-54468140D01*
X130392067Y-54465295D01*
X130383423Y-54460675D01*
X130375846Y-54454456D01*
X130369628Y-54446880D01*
X130365007Y-54438235D01*
X130362162Y-54428856D01*
X130361201Y-54419101D01*
X130361396Y-54208800D01*
X130362357Y-54199046D01*
X130369822Y-54181022D01*
X130376041Y-54173445D01*
X130383617Y-54167227D01*
X130392262Y-54162607D01*
X130401641Y-54159761D01*
X130411396Y-54158801D01*
X130761396Y-54158800D01*
G36*
X131011399Y-52868800D02*
G01*
X130811400Y-52868800D01*
X130811399Y-53468798D01*
X130813321Y-53488307D01*
X130819012Y-53507066D01*
X130828253Y-53524355D01*
X130840689Y-53539509D01*
X130855842Y-53551945D01*
X130873131Y-53561186D01*
X130891890Y-53566877D01*
X130911400Y-53568798D01*
X130930909Y-53566877D01*
X130949668Y-53561186D01*
X130966957Y-53551945D01*
X130982110Y-53539509D01*
X130994547Y-53524355D01*
X131003788Y-53507066D01*
X131009478Y-53488307D01*
X131011400Y-53468798D01*
X131011399Y-52868800D01*
G37*
X131011399Y-52868800D02*
X130811400Y-52868800D01*
X130811399Y-53468798D01*
X130813321Y-53488307D01*
X130819012Y-53507066D01*
X130828253Y-53524355D01*
X130840689Y-53539509D01*
X130855842Y-53551945D01*
X130873131Y-53561186D01*
X130891890Y-53566877D01*
X130911400Y-53568798D01*
X130930909Y-53566877D01*
X130949668Y-53561186D01*
X130966957Y-53551945D01*
X130982110Y-53539509D01*
X130994547Y-53524355D01*
X131003788Y-53507066D01*
X131009478Y-53488307D01*
X131011400Y-53468798D01*
X131011399Y-52868800D01*
G36*
X130611400Y-52868800D02*
G01*
X130411400Y-52868800D01*
X130411400Y-53468798D01*
X130413322Y-53488307D01*
X130419012Y-53507066D01*
X130428253Y-53524355D01*
X130440690Y-53539509D01*
X130455843Y-53551945D01*
X130473132Y-53561186D01*
X130491891Y-53566877D01*
X130511400Y-53568798D01*
X130530909Y-53566877D01*
X130549669Y-53561186D01*
X130566957Y-53551945D01*
X130582111Y-53539509D01*
X130594547Y-53524355D01*
X130603788Y-53507066D01*
X130609479Y-53488307D01*
X130611400Y-53468798D01*
X130611400Y-52868800D01*
G37*
X130611400Y-52868800D02*
X130411400Y-52868800D01*
X130411400Y-53468798D01*
X130413322Y-53488307D01*
X130419012Y-53507066D01*
X130428253Y-53524355D01*
X130440690Y-53539509D01*
X130455843Y-53551945D01*
X130473132Y-53561186D01*
X130491891Y-53566877D01*
X130511400Y-53568798D01*
X130530909Y-53566877D01*
X130549669Y-53561186D01*
X130566957Y-53551945D01*
X130582111Y-53539509D01*
X130594547Y-53524355D01*
X130603788Y-53507066D01*
X130609479Y-53488307D01*
X130611400Y-53468798D01*
X130611400Y-52868800D01*
G36*
X130211401Y-52868800D02*
G01*
X130011401Y-52868800D01*
X130011401Y-53468798D01*
X130013323Y-53488307D01*
X130019013Y-53507066D01*
X130028254Y-53524355D01*
X130040690Y-53539509D01*
X130055844Y-53551945D01*
X130073133Y-53561186D01*
X130091892Y-53566877D01*
X130111401Y-53568798D01*
X130130910Y-53566877D01*
X130149670Y-53561186D01*
X130166958Y-53551945D01*
X130182112Y-53539509D01*
X130194548Y-53524355D01*
X130203789Y-53507066D01*
X130209480Y-53488307D01*
X130211401Y-53468798D01*
X130211401Y-52868800D01*
G37*
X130211401Y-52868800D02*
X130011401Y-52868800D01*
X130011401Y-53468798D01*
X130013323Y-53488307D01*
X130019013Y-53507066D01*
X130028254Y-53524355D01*
X130040690Y-53539509D01*
X130055844Y-53551945D01*
X130073133Y-53561186D01*
X130091892Y-53566877D01*
X130111401Y-53568798D01*
X130130910Y-53566877D01*
X130149670Y-53561186D01*
X130166958Y-53551945D01*
X130182112Y-53539509D01*
X130194548Y-53524355D01*
X130203789Y-53507066D01*
X130209480Y-53488307D01*
X130211401Y-53468798D01*
X130211401Y-52868800D01*
G36*
X129811399Y-52868800D02*
G01*
X129611399Y-52868800D01*
X129611399Y-53468798D01*
X129613321Y-53488307D01*
X129619011Y-53507066D01*
X129628252Y-53524355D01*
X129640689Y-53539509D01*
X129655842Y-53551945D01*
X129673131Y-53561186D01*
X129691890Y-53566877D01*
X129711399Y-53568798D01*
X129730908Y-53566877D01*
X129749668Y-53561186D01*
X129766956Y-53551945D01*
X129782110Y-53539509D01*
X129794546Y-53524355D01*
X129803787Y-53507066D01*
X129809478Y-53488307D01*
X129811399Y-53468798D01*
X129811399Y-52868800D01*
G37*
X129811399Y-52868800D02*
X129611399Y-52868800D01*
X129611399Y-53468798D01*
X129613321Y-53488307D01*
X129619011Y-53507066D01*
X129628252Y-53524355D01*
X129640689Y-53539509D01*
X129655842Y-53551945D01*
X129673131Y-53561186D01*
X129691890Y-53566877D01*
X129711399Y-53568798D01*
X129730908Y-53566877D01*
X129749668Y-53561186D01*
X129766956Y-53551945D01*
X129782110Y-53539509D01*
X129794546Y-53524355D01*
X129803787Y-53507066D01*
X129809478Y-53488307D01*
X129811399Y-53468798D01*
X129811399Y-52868800D01*
G36*
X129211400Y-52868794D02*
G01*
X129411400Y-52868794D01*
X129411400Y-53968804D01*
X129410439Y-53978559D01*
X129407594Y-53987938D01*
X129402973Y-53996582D01*
X129396755Y-54004159D01*
X129389178Y-54010377D01*
X129380534Y-54014998D01*
X129371154Y-54017843D01*
X129361400Y-54018804D01*
X129261098Y-54018999D01*
X129251344Y-54018038D01*
X129241964Y-54015193D01*
X129233320Y-54010572D01*
X129225743Y-54004354D01*
X129219525Y-53996777D01*
X129214904Y-53988133D01*
X129212059Y-53978753D01*
X129211098Y-53968999D01*
X129211400Y-52868794D01*
G37*
X129211400Y-52868794D02*
X129411400Y-52868794D01*
X129411400Y-53968804D01*
X129410439Y-53978559D01*
X129407594Y-53987938D01*
X129402973Y-53996582D01*
X129396755Y-54004159D01*
X129389178Y-54010377D01*
X129380534Y-54014998D01*
X129371154Y-54017843D01*
X129361400Y-54018804D01*
X129261098Y-54018999D01*
X129251344Y-54018038D01*
X129241964Y-54015193D01*
X129233320Y-54010572D01*
X129225743Y-54004354D01*
X129219525Y-53996777D01*
X129214904Y-53988133D01*
X129212059Y-53978753D01*
X129211098Y-53968999D01*
X129211400Y-52868794D01*
G36*
X129011401Y-52868800D02*
G01*
X128811401Y-52868800D01*
X128811401Y-53468798D01*
X128813322Y-53488307D01*
X128819013Y-53507066D01*
X128828254Y-53524355D01*
X128840690Y-53539509D01*
X128855844Y-53551945D01*
X128873133Y-53561186D01*
X128891892Y-53566877D01*
X128911401Y-53568798D01*
X128930910Y-53566877D01*
X128949669Y-53561186D01*
X128966958Y-53551945D01*
X128982112Y-53539509D01*
X128994548Y-53524355D01*
X129003789Y-53507066D01*
X129009480Y-53488307D01*
X129011401Y-53468798D01*
X129011401Y-52868800D01*
G37*
X129011401Y-52868800D02*
X128811401Y-52868800D01*
X128811401Y-53468798D01*
X128813322Y-53488307D01*
X128819013Y-53507066D01*
X128828254Y-53524355D01*
X128840690Y-53539509D01*
X128855844Y-53551945D01*
X128873133Y-53561186D01*
X128891892Y-53566877D01*
X128911401Y-53568798D01*
X128930910Y-53566877D01*
X128949669Y-53561186D01*
X128966958Y-53551945D01*
X128982112Y-53539509D01*
X128994548Y-53524355D01*
X129003789Y-53507066D01*
X129009480Y-53488307D01*
X129011401Y-53468798D01*
X129011401Y-52868800D01*
G36*
X128611399Y-52868800D02*
G01*
X128411399Y-52868800D01*
X128411399Y-53468798D01*
X128413321Y-53488307D01*
X128419011Y-53507066D01*
X128428252Y-53524355D01*
X128440689Y-53539509D01*
X128455842Y-53551945D01*
X128473131Y-53561186D01*
X128491890Y-53566877D01*
X128511399Y-53568798D01*
X128530908Y-53566877D01*
X128549668Y-53561186D01*
X128566956Y-53551945D01*
X128582110Y-53539509D01*
X128594546Y-53524355D01*
X128603787Y-53507066D01*
X128609478Y-53488307D01*
X128611399Y-53468798D01*
X128611399Y-52868800D01*
G37*
X128611399Y-52868800D02*
X128411399Y-52868800D01*
X128411399Y-53468798D01*
X128413321Y-53488307D01*
X128419011Y-53507066D01*
X128428252Y-53524355D01*
X128440689Y-53539509D01*
X128455842Y-53551945D01*
X128473131Y-53561186D01*
X128491890Y-53566877D01*
X128511399Y-53568798D01*
X128530908Y-53566877D01*
X128549668Y-53561186D01*
X128566956Y-53551945D01*
X128582110Y-53539509D01*
X128594546Y-53524355D01*
X128603787Y-53507066D01*
X128609478Y-53488307D01*
X128611399Y-53468798D01*
X128611399Y-52868800D01*
G36*
X128211400Y-52868800D02*
G01*
X128011400Y-52868800D01*
X128011400Y-53468798D01*
X128013321Y-53488307D01*
X128019012Y-53507066D01*
X128028253Y-53524355D01*
X128040689Y-53539509D01*
X128055843Y-53551945D01*
X128073132Y-53561186D01*
X128091891Y-53566877D01*
X128111400Y-53568798D01*
X128130909Y-53566877D01*
X128149668Y-53561186D01*
X128166957Y-53551945D01*
X128182111Y-53539509D01*
X128194547Y-53524355D01*
X128203788Y-53507066D01*
X128209479Y-53488307D01*
X128211400Y-53468798D01*
X128211400Y-52868800D01*
G37*
X128211400Y-52868800D02*
X128011400Y-52868800D01*
X128011400Y-53468798D01*
X128013321Y-53488307D01*
X128019012Y-53507066D01*
X128028253Y-53524355D01*
X128040689Y-53539509D01*
X128055843Y-53551945D01*
X128073132Y-53561186D01*
X128091891Y-53566877D01*
X128111400Y-53568798D01*
X128130909Y-53566877D01*
X128149668Y-53561186D01*
X128166957Y-53551945D01*
X128182111Y-53539509D01*
X128194547Y-53524355D01*
X128203788Y-53507066D01*
X128209479Y-53488307D01*
X128211400Y-53468798D01*
X128211400Y-52868800D01*
G36*
X127811400Y-52868800D02*
G01*
X127611401Y-52868800D01*
X127611401Y-53468798D01*
X127613322Y-53488307D01*
X127619013Y-53507066D01*
X127628254Y-53524355D01*
X127640690Y-53539509D01*
X127655844Y-53551945D01*
X127673132Y-53561186D01*
X127691892Y-53566877D01*
X127711401Y-53568798D01*
X127730910Y-53566877D01*
X127749669Y-53561186D01*
X127766958Y-53551945D01*
X127782112Y-53539509D01*
X127794548Y-53524355D01*
X127803789Y-53507066D01*
X127809479Y-53488307D01*
X127811401Y-53468798D01*
X127811400Y-52868800D01*
G37*
X127811400Y-52868800D02*
X127611401Y-52868800D01*
X127611401Y-53468798D01*
X127613322Y-53488307D01*
X127619013Y-53507066D01*
X127628254Y-53524355D01*
X127640690Y-53539509D01*
X127655844Y-53551945D01*
X127673132Y-53561186D01*
X127691892Y-53566877D01*
X127711401Y-53568798D01*
X127730910Y-53566877D01*
X127749669Y-53561186D01*
X127766958Y-53551945D01*
X127782112Y-53539509D01*
X127794548Y-53524355D01*
X127803789Y-53507066D01*
X127809479Y-53488307D01*
X127811401Y-53468798D01*
X127811400Y-52868800D01*
%TD*%
D11*
%TO.C,U12*%
X131267200Y-53975000D03*
X131267200Y-55956200D03*
X131267200Y-55575200D03*
X130530600Y-57099200D03*
X130886200Y-57099200D03*
X128524000Y-57099200D03*
X128905000Y-57099200D03*
X127711200Y-56896000D03*
X127355600Y-56337200D03*
X127711401Y-53218799D03*
X128111400Y-53218799D03*
X128511399Y-53218799D03*
X128911401Y-53218799D03*
X129311400Y-53443799D03*
X129711399Y-53218799D03*
X130111401Y-53218799D03*
X130511400Y-53218799D03*
X130911399Y-53218799D03*
X131267200Y-54356000D03*
X131036401Y-55168801D03*
X131036401Y-54768800D03*
X131267200Y-56337200D03*
X130124200Y-57099200D03*
X129711399Y-56893801D03*
X129311400Y-56893801D03*
X128143000Y-57099200D03*
X127355600Y-55981600D03*
X127361399Y-55568799D03*
X127361399Y-55168800D03*
X127361399Y-54768801D03*
X127361399Y-54368799D03*
X127361399Y-53968800D03*
%TD*%
%TO.C,R34*%
G36*
G01*
X126108000Y-77375599D02*
X126108000Y-78275601D01*
G75*
G02*
X125858001Y-78525600I-249999J0D01*
G01*
X125157999Y-78525600D01*
G75*
G02*
X124908000Y-78275601I0J249999D01*
G01*
X124908000Y-77375599D01*
G75*
G02*
X125157999Y-77125600I249999J0D01*
G01*
X125858001Y-77125600D01*
G75*
G02*
X126108000Y-77375599I0J-249999D01*
G01*
G37*
G36*
G01*
X128108000Y-77375599D02*
X128108000Y-78275601D01*
G75*
G02*
X127858001Y-78525600I-249999J0D01*
G01*
X127157999Y-78525600D01*
G75*
G02*
X126908000Y-78275601I0J249999D01*
G01*
X126908000Y-77375599D01*
G75*
G02*
X127157999Y-77125600I249999J0D01*
G01*
X127858001Y-77125600D01*
G75*
G02*
X128108000Y-77375599I0J-249999D01*
G01*
G37*
%TD*%
%TO.C,R31*%
G36*
G01*
X166068200Y-92169401D02*
X166068200Y-91269399D01*
G75*
G02*
X166318199Y-91019400I249999J0D01*
G01*
X167018201Y-91019400D01*
G75*
G02*
X167268200Y-91269399I0J-249999D01*
G01*
X167268200Y-92169401D01*
G75*
G02*
X167018201Y-92419400I-249999J0D01*
G01*
X166318199Y-92419400D01*
G75*
G02*
X166068200Y-92169401I0J249999D01*
G01*
G37*
G36*
G01*
X164068200Y-92169401D02*
X164068200Y-91269399D01*
G75*
G02*
X164318199Y-91019400I249999J0D01*
G01*
X165018201Y-91019400D01*
G75*
G02*
X165268200Y-91269399I0J-249999D01*
G01*
X165268200Y-92169401D01*
G75*
G02*
X165018201Y-92419400I-249999J0D01*
G01*
X164318199Y-92419400D01*
G75*
G02*
X164068200Y-92169401I0J249999D01*
G01*
G37*
%TD*%
%TO.C,L1*%
G36*
G01*
X135144000Y-59493000D02*
X135144000Y-63443000D01*
G75*
G02*
X134894000Y-63693000I-250000J0D01*
G01*
X132194000Y-63693000D01*
G75*
G02*
X131944000Y-63443000I0J250000D01*
G01*
X131944000Y-59493000D01*
G75*
G02*
X132194000Y-59243000I250000J0D01*
G01*
X134894000Y-59243000D01*
G75*
G02*
X135144000Y-59493000I0J-250000D01*
G01*
G37*
G36*
G01*
X140344000Y-59493000D02*
X140344000Y-63443000D01*
G75*
G02*
X140094000Y-63693000I-250000J0D01*
G01*
X137394000Y-63693000D01*
G75*
G02*
X137144000Y-63443000I0J250000D01*
G01*
X137144000Y-59493000D01*
G75*
G02*
X137394000Y-59243000I250000J0D01*
G01*
X140094000Y-59243000D01*
G75*
G02*
X140344000Y-59493000I0J-250000D01*
G01*
G37*
%TD*%
%TO.C,R10*%
G36*
G01*
X136544000Y-48964001D02*
X136544000Y-48063999D01*
G75*
G02*
X136793999Y-47814000I249999J0D01*
G01*
X137494001Y-47814000D01*
G75*
G02*
X137744000Y-48063999I0J-249999D01*
G01*
X137744000Y-48964001D01*
G75*
G02*
X137494001Y-49214000I-249999J0D01*
G01*
X136793999Y-49214000D01*
G75*
G02*
X136544000Y-48964001I0J249999D01*
G01*
G37*
G36*
G01*
X134544000Y-48964001D02*
X134544000Y-48063999D01*
G75*
G02*
X134793999Y-47814000I249999J0D01*
G01*
X135494001Y-47814000D01*
G75*
G02*
X135744000Y-48063999I0J-249999D01*
G01*
X135744000Y-48964001D01*
G75*
G02*
X135494001Y-49214000I-249999J0D01*
G01*
X134793999Y-49214000D01*
G75*
G02*
X134544000Y-48964001I0J249999D01*
G01*
G37*
%TD*%
%TO.C,R9*%
G36*
G01*
X130625001Y-48892000D02*
X129724999Y-48892000D01*
G75*
G02*
X129475000Y-48642001I0J249999D01*
G01*
X129475000Y-47941999D01*
G75*
G02*
X129724999Y-47692000I249999J0D01*
G01*
X130625001Y-47692000D01*
G75*
G02*
X130875000Y-47941999I0J-249999D01*
G01*
X130875000Y-48642001D01*
G75*
G02*
X130625001Y-48892000I-249999J0D01*
G01*
G37*
G36*
G01*
X130625001Y-50892000D02*
X129724999Y-50892000D01*
G75*
G02*
X129475000Y-50642001I0J249999D01*
G01*
X129475000Y-49941999D01*
G75*
G02*
X129724999Y-49692000I249999J0D01*
G01*
X130625001Y-49692000D01*
G75*
G02*
X130875000Y-49941999I0J-249999D01*
G01*
X130875000Y-50642001D01*
G75*
G02*
X130625001Y-50892000I-249999J0D01*
G01*
G37*
%TD*%
%TO.C,R5*%
G36*
G01*
X126053001Y-48876000D02*
X125152999Y-48876000D01*
G75*
G02*
X124903000Y-48626001I0J249999D01*
G01*
X124903000Y-47925999D01*
G75*
G02*
X125152999Y-47676000I249999J0D01*
G01*
X126053001Y-47676000D01*
G75*
G02*
X126303000Y-47925999I0J-249999D01*
G01*
X126303000Y-48626001D01*
G75*
G02*
X126053001Y-48876000I-249999J0D01*
G01*
G37*
G36*
G01*
X126053001Y-50876000D02*
X125152999Y-50876000D01*
G75*
G02*
X124903000Y-50626001I0J249999D01*
G01*
X124903000Y-49925999D01*
G75*
G02*
X125152999Y-49676000I249999J0D01*
G01*
X126053001Y-49676000D01*
G75*
G02*
X126303000Y-49925999I0J-249999D01*
G01*
X126303000Y-50626001D01*
G75*
G02*
X126053001Y-50876000I-249999J0D01*
G01*
G37*
%TD*%
%TO.C,D1*%
G36*
G01*
X132137999Y-49853000D02*
X133038001Y-49853000D01*
G75*
G02*
X133288000Y-50102999I0J-249999D01*
G01*
X133288000Y-50753001D01*
G75*
G02*
X133038001Y-51003000I-249999J0D01*
G01*
X132137999Y-51003000D01*
G75*
G02*
X131888000Y-50753001I0J249999D01*
G01*
X131888000Y-50102999D01*
G75*
G02*
X132137999Y-49853000I249999J0D01*
G01*
G37*
G36*
G01*
X132137999Y-47803000D02*
X133038001Y-47803000D01*
G75*
G02*
X133288000Y-48052999I0J-249999D01*
G01*
X133288000Y-48703001D01*
G75*
G02*
X133038001Y-48953000I-249999J0D01*
G01*
X132137999Y-48953000D01*
G75*
G02*
X131888000Y-48703001I0J249999D01*
G01*
X131888000Y-48052999D01*
G75*
G02*
X132137999Y-47803000I249999J0D01*
G01*
G37*
%TD*%
%TO.C,C31*%
G36*
G01*
X127414000Y-49726000D02*
X128364000Y-49726000D01*
G75*
G02*
X128614000Y-49976000I0J-250000D01*
G01*
X128614000Y-50651000D01*
G75*
G02*
X128364000Y-50901000I-250000J0D01*
G01*
X127414000Y-50901000D01*
G75*
G02*
X127164000Y-50651000I0J250000D01*
G01*
X127164000Y-49976000D01*
G75*
G02*
X127414000Y-49726000I250000J0D01*
G01*
G37*
G36*
G01*
X127414000Y-47651000D02*
X128364000Y-47651000D01*
G75*
G02*
X128614000Y-47901000I0J-250000D01*
G01*
X128614000Y-48576000D01*
G75*
G02*
X128364000Y-48826000I-250000J0D01*
G01*
X127414000Y-48826000D01*
G75*
G02*
X127164000Y-48576000I0J250000D01*
G01*
X127164000Y-47901000D01*
G75*
G02*
X127414000Y-47651000I250000J0D01*
G01*
G37*
%TD*%
%TO.C,C30*%
G36*
G01*
X138763500Y-53754000D02*
X138763500Y-54704000D01*
G75*
G02*
X138513500Y-54954000I-250000J0D01*
G01*
X137838500Y-54954000D01*
G75*
G02*
X137588500Y-54704000I0J250000D01*
G01*
X137588500Y-53754000D01*
G75*
G02*
X137838500Y-53504000I250000J0D01*
G01*
X138513500Y-53504000D01*
G75*
G02*
X138763500Y-53754000I0J-250000D01*
G01*
G37*
G36*
G01*
X140838500Y-53754000D02*
X140838500Y-54704000D01*
G75*
G02*
X140588500Y-54954000I-250000J0D01*
G01*
X139913500Y-54954000D01*
G75*
G02*
X139663500Y-54704000I0J250000D01*
G01*
X139663500Y-53754000D01*
G75*
G02*
X139913500Y-53504000I250000J0D01*
G01*
X140588500Y-53504000D01*
G75*
G02*
X140838500Y-53754000I0J-250000D01*
G01*
G37*
%TD*%
%TO.C,C29*%
G36*
G01*
X134572500Y-54770000D02*
X134572500Y-55720000D01*
G75*
G02*
X134322500Y-55970000I-250000J0D01*
G01*
X133647500Y-55970000D01*
G75*
G02*
X133397500Y-55720000I0J250000D01*
G01*
X133397500Y-54770000D01*
G75*
G02*
X133647500Y-54520000I250000J0D01*
G01*
X134322500Y-54520000D01*
G75*
G02*
X134572500Y-54770000I0J-250000D01*
G01*
G37*
G36*
G01*
X136647500Y-54770000D02*
X136647500Y-55720000D01*
G75*
G02*
X136397500Y-55970000I-250000J0D01*
G01*
X135722500Y-55970000D01*
G75*
G02*
X135472500Y-55720000I0J250000D01*
G01*
X135472500Y-54770000D01*
G75*
G02*
X135722500Y-54520000I250000J0D01*
G01*
X136397500Y-54520000D01*
G75*
G02*
X136647500Y-54770000I0J-250000D01*
G01*
G37*
%TD*%
%TO.C,C9*%
G36*
G01*
X134572500Y-52484000D02*
X134572500Y-53434000D01*
G75*
G02*
X134322500Y-53684000I-250000J0D01*
G01*
X133647500Y-53684000D01*
G75*
G02*
X133397500Y-53434000I0J250000D01*
G01*
X133397500Y-52484000D01*
G75*
G02*
X133647500Y-52234000I250000J0D01*
G01*
X134322500Y-52234000D01*
G75*
G02*
X134572500Y-52484000I0J-250000D01*
G01*
G37*
G36*
G01*
X136647500Y-52484000D02*
X136647500Y-53434000D01*
G75*
G02*
X136397500Y-53684000I-250000J0D01*
G01*
X135722500Y-53684000D01*
G75*
G02*
X135472500Y-53434000I0J250000D01*
G01*
X135472500Y-52484000D01*
G75*
G02*
X135722500Y-52234000I250000J0D01*
G01*
X136397500Y-52234000D01*
G75*
G02*
X136647500Y-52484000I0J-250000D01*
G01*
G37*
%TD*%
%TO.C,C8*%
G36*
G01*
X134572500Y-57183000D02*
X134572500Y-58133000D01*
G75*
G02*
X134322500Y-58383000I-250000J0D01*
G01*
X133647500Y-58383000D01*
G75*
G02*
X133397500Y-58133000I0J250000D01*
G01*
X133397500Y-57183000D01*
G75*
G02*
X133647500Y-56933000I250000J0D01*
G01*
X134322500Y-56933000D01*
G75*
G02*
X134572500Y-57183000I0J-250000D01*
G01*
G37*
G36*
G01*
X136647500Y-57183000D02*
X136647500Y-58133000D01*
G75*
G02*
X136397500Y-58383000I-250000J0D01*
G01*
X135722500Y-58383000D01*
G75*
G02*
X135472500Y-58133000I0J250000D01*
G01*
X135472500Y-57183000D01*
G75*
G02*
X135722500Y-56933000I250000J0D01*
G01*
X136397500Y-56933000D01*
G75*
G02*
X136647500Y-57183000I0J-250000D01*
G01*
G37*
%TD*%
%TO.C,C7*%
G36*
G01*
X129446000Y-61283000D02*
X130396000Y-61283000D01*
G75*
G02*
X130646000Y-61533000I0J-250000D01*
G01*
X130646000Y-62208000D01*
G75*
G02*
X130396000Y-62458000I-250000J0D01*
G01*
X129446000Y-62458000D01*
G75*
G02*
X129196000Y-62208000I0J250000D01*
G01*
X129196000Y-61533000D01*
G75*
G02*
X129446000Y-61283000I250000J0D01*
G01*
G37*
G36*
G01*
X129446000Y-59208000D02*
X130396000Y-59208000D01*
G75*
G02*
X130646000Y-59458000I0J-250000D01*
G01*
X130646000Y-60133000D01*
G75*
G02*
X130396000Y-60383000I-250000J0D01*
G01*
X129446000Y-60383000D01*
G75*
G02*
X129196000Y-60133000I0J250000D01*
G01*
X129196000Y-59458000D01*
G75*
G02*
X129446000Y-59208000I250000J0D01*
G01*
G37*
%TD*%
%TO.C,C5*%
G36*
G01*
X121760000Y-53271000D02*
X120810000Y-53271000D01*
G75*
G02*
X120560000Y-53021000I0J250000D01*
G01*
X120560000Y-52346000D01*
G75*
G02*
X120810000Y-52096000I250000J0D01*
G01*
X121760000Y-52096000D01*
G75*
G02*
X122010000Y-52346000I0J-250000D01*
G01*
X122010000Y-53021000D01*
G75*
G02*
X121760000Y-53271000I-250000J0D01*
G01*
G37*
G36*
G01*
X121760000Y-55346000D02*
X120810000Y-55346000D01*
G75*
G02*
X120560000Y-55096000I0J250000D01*
G01*
X120560000Y-54421000D01*
G75*
G02*
X120810000Y-54171000I250000J0D01*
G01*
X121760000Y-54171000D01*
G75*
G02*
X122010000Y-54421000I0J-250000D01*
G01*
X122010000Y-55096000D01*
G75*
G02*
X121760000Y-55346000I-250000J0D01*
G01*
G37*
%TD*%
%TO.C,C4*%
G36*
G01*
X125062000Y-53271000D02*
X124112000Y-53271000D01*
G75*
G02*
X123862000Y-53021000I0J250000D01*
G01*
X123862000Y-52346000D01*
G75*
G02*
X124112000Y-52096000I250000J0D01*
G01*
X125062000Y-52096000D01*
G75*
G02*
X125312000Y-52346000I0J-250000D01*
G01*
X125312000Y-53021000D01*
G75*
G02*
X125062000Y-53271000I-250000J0D01*
G01*
G37*
G36*
G01*
X125062000Y-55346000D02*
X124112000Y-55346000D01*
G75*
G02*
X123862000Y-55096000I0J250000D01*
G01*
X123862000Y-54421000D01*
G75*
G02*
X124112000Y-54171000I250000J0D01*
G01*
X125062000Y-54171000D01*
G75*
G02*
X125312000Y-54421000I0J-250000D01*
G01*
X125312000Y-55096000D01*
G75*
G02*
X125062000Y-55346000I-250000J0D01*
G01*
G37*
%TD*%
%TO.C,C3*%
G36*
G01*
X126779000Y-61304500D02*
X127729000Y-61304500D01*
G75*
G02*
X127979000Y-61554500I0J-250000D01*
G01*
X127979000Y-62229500D01*
G75*
G02*
X127729000Y-62479500I-250000J0D01*
G01*
X126779000Y-62479500D01*
G75*
G02*
X126529000Y-62229500I0J250000D01*
G01*
X126529000Y-61554500D01*
G75*
G02*
X126779000Y-61304500I250000J0D01*
G01*
G37*
G36*
G01*
X126779000Y-59229500D02*
X127729000Y-59229500D01*
G75*
G02*
X127979000Y-59479500I0J-250000D01*
G01*
X127979000Y-60154500D01*
G75*
G02*
X127729000Y-60404500I-250000J0D01*
G01*
X126779000Y-60404500D01*
G75*
G02*
X126529000Y-60154500I0J250000D01*
G01*
X126529000Y-59479500D01*
G75*
G02*
X126779000Y-59229500I250000J0D01*
G01*
G37*
%TD*%
%TO.C,C2*%
G36*
G01*
X126779000Y-65347000D02*
X127729000Y-65347000D01*
G75*
G02*
X127979000Y-65597000I0J-250000D01*
G01*
X127979000Y-66272000D01*
G75*
G02*
X127729000Y-66522000I-250000J0D01*
G01*
X126779000Y-66522000D01*
G75*
G02*
X126529000Y-66272000I0J250000D01*
G01*
X126529000Y-65597000D01*
G75*
G02*
X126779000Y-65347000I250000J0D01*
G01*
G37*
G36*
G01*
X126779000Y-63272000D02*
X127729000Y-63272000D01*
G75*
G02*
X127979000Y-63522000I0J-250000D01*
G01*
X127979000Y-64197000D01*
G75*
G02*
X127729000Y-64447000I-250000J0D01*
G01*
X126779000Y-64447000D01*
G75*
G02*
X126529000Y-64197000I0J250000D01*
G01*
X126529000Y-63522000D01*
G75*
G02*
X126779000Y-63272000I250000J0D01*
G01*
G37*
%TD*%
%TO.C,C1*%
G36*
G01*
X126779000Y-69411000D02*
X127729000Y-69411000D01*
G75*
G02*
X127979000Y-69661000I0J-250000D01*
G01*
X127979000Y-70336000D01*
G75*
G02*
X127729000Y-70586000I-250000J0D01*
G01*
X126779000Y-70586000D01*
G75*
G02*
X126529000Y-70336000I0J250000D01*
G01*
X126529000Y-69661000D01*
G75*
G02*
X126779000Y-69411000I250000J0D01*
G01*
G37*
G36*
G01*
X126779000Y-67336000D02*
X127729000Y-67336000D01*
G75*
G02*
X127979000Y-67586000I0J-250000D01*
G01*
X127979000Y-68261000D01*
G75*
G02*
X127729000Y-68511000I-250000J0D01*
G01*
X126779000Y-68511000D01*
G75*
G02*
X126529000Y-68261000I0J250000D01*
G01*
X126529000Y-67586000D01*
G75*
G02*
X126779000Y-67336000I250000J0D01*
G01*
G37*
%TD*%
%TO.C,R43*%
G36*
G01*
X140646999Y-95142000D02*
X141547001Y-95142000D01*
G75*
G02*
X141797000Y-95391999I0J-249999D01*
G01*
X141797000Y-96092001D01*
G75*
G02*
X141547001Y-96342000I-249999J0D01*
G01*
X140646999Y-96342000D01*
G75*
G02*
X140397000Y-96092001I0J249999D01*
G01*
X140397000Y-95391999D01*
G75*
G02*
X140646999Y-95142000I249999J0D01*
G01*
G37*
G36*
G01*
X140646999Y-93142000D02*
X141547001Y-93142000D01*
G75*
G02*
X141797000Y-93391999I0J-249999D01*
G01*
X141797000Y-94092001D01*
G75*
G02*
X141547001Y-94342000I-249999J0D01*
G01*
X140646999Y-94342000D01*
G75*
G02*
X140397000Y-94092001I0J249999D01*
G01*
X140397000Y-93391999D01*
G75*
G02*
X140646999Y-93142000I249999J0D01*
G01*
G37*
%TD*%
%TO.C,R42*%
G36*
G01*
X156267999Y-91713000D02*
X157168001Y-91713000D01*
G75*
G02*
X157418000Y-91962999I0J-249999D01*
G01*
X157418000Y-92663001D01*
G75*
G02*
X157168001Y-92913000I-249999J0D01*
G01*
X156267999Y-92913000D01*
G75*
G02*
X156018000Y-92663001I0J249999D01*
G01*
X156018000Y-91962999D01*
G75*
G02*
X156267999Y-91713000I249999J0D01*
G01*
G37*
G36*
G01*
X156267999Y-89713000D02*
X157168001Y-89713000D01*
G75*
G02*
X157418000Y-89962999I0J-249999D01*
G01*
X157418000Y-90663001D01*
G75*
G02*
X157168001Y-90913000I-249999J0D01*
G01*
X156267999Y-90913000D01*
G75*
G02*
X156018000Y-90663001I0J249999D01*
G01*
X156018000Y-89962999D01*
G75*
G02*
X156267999Y-89713000I249999J0D01*
G01*
G37*
%TD*%
%TO.C,R41*%
G36*
G01*
X162176000Y-80321999D02*
X162176000Y-81222001D01*
G75*
G02*
X161926001Y-81472000I-249999J0D01*
G01*
X161225999Y-81472000D01*
G75*
G02*
X160976000Y-81222001I0J249999D01*
G01*
X160976000Y-80321999D01*
G75*
G02*
X161225999Y-80072000I249999J0D01*
G01*
X161926001Y-80072000D01*
G75*
G02*
X162176000Y-80321999I0J-249999D01*
G01*
G37*
G36*
G01*
X164176000Y-80321999D02*
X164176000Y-81222001D01*
G75*
G02*
X163926001Y-81472000I-249999J0D01*
G01*
X163225999Y-81472000D01*
G75*
G02*
X162976000Y-81222001I0J249999D01*
G01*
X162976000Y-80321999D01*
G75*
G02*
X163225999Y-80072000I249999J0D01*
G01*
X163926001Y-80072000D01*
G75*
G02*
X164176000Y-80321999I0J-249999D01*
G01*
G37*
%TD*%
%TO.C,R39*%
G36*
G01*
X104197999Y-89189000D02*
X105098001Y-89189000D01*
G75*
G02*
X105348000Y-89438999I0J-249999D01*
G01*
X105348000Y-90139001D01*
G75*
G02*
X105098001Y-90389000I-249999J0D01*
G01*
X104197999Y-90389000D01*
G75*
G02*
X103948000Y-90139001I0J249999D01*
G01*
X103948000Y-89438999D01*
G75*
G02*
X104197999Y-89189000I249999J0D01*
G01*
G37*
G36*
G01*
X104197999Y-87189000D02*
X105098001Y-87189000D01*
G75*
G02*
X105348000Y-87438999I0J-249999D01*
G01*
X105348000Y-88139001D01*
G75*
G02*
X105098001Y-88389000I-249999J0D01*
G01*
X104197999Y-88389000D01*
G75*
G02*
X103948000Y-88139001I0J249999D01*
G01*
X103948000Y-87438999D01*
G75*
G02*
X104197999Y-87189000I249999J0D01*
G01*
G37*
%TD*%
%TO.C,R38*%
G36*
G01*
X138830000Y-88080001D02*
X138830000Y-87179999D01*
G75*
G02*
X139079999Y-86930000I249999J0D01*
G01*
X139780001Y-86930000D01*
G75*
G02*
X140030000Y-87179999I0J-249999D01*
G01*
X140030000Y-88080001D01*
G75*
G02*
X139780001Y-88330000I-249999J0D01*
G01*
X139079999Y-88330000D01*
G75*
G02*
X138830000Y-88080001I0J249999D01*
G01*
G37*
G36*
G01*
X136830000Y-88080001D02*
X136830000Y-87179999D01*
G75*
G02*
X137079999Y-86930000I249999J0D01*
G01*
X137780001Y-86930000D01*
G75*
G02*
X138030000Y-87179999I0J-249999D01*
G01*
X138030000Y-88080001D01*
G75*
G02*
X137780001Y-88330000I-249999J0D01*
G01*
X137079999Y-88330000D01*
G75*
G02*
X136830000Y-88080001I0J249999D01*
G01*
G37*
%TD*%
%TO.C,R37*%
G36*
G01*
X129470999Y-110620000D02*
X130371001Y-110620000D01*
G75*
G02*
X130621000Y-110869999I0J-249999D01*
G01*
X130621000Y-111570001D01*
G75*
G02*
X130371001Y-111820000I-249999J0D01*
G01*
X129470999Y-111820000D01*
G75*
G02*
X129221000Y-111570001I0J249999D01*
G01*
X129221000Y-110869999D01*
G75*
G02*
X129470999Y-110620000I249999J0D01*
G01*
G37*
G36*
G01*
X129470999Y-108620000D02*
X130371001Y-108620000D01*
G75*
G02*
X130621000Y-108869999I0J-249999D01*
G01*
X130621000Y-109570001D01*
G75*
G02*
X130371001Y-109820000I-249999J0D01*
G01*
X129470999Y-109820000D01*
G75*
G02*
X129221000Y-109570001I0J249999D01*
G01*
X129221000Y-108869999D01*
G75*
G02*
X129470999Y-108620000I249999J0D01*
G01*
G37*
%TD*%
%TO.C,R36*%
G36*
G01*
X119691999Y-108112000D02*
X120592001Y-108112000D01*
G75*
G02*
X120842000Y-108361999I0J-249999D01*
G01*
X120842000Y-109062001D01*
G75*
G02*
X120592001Y-109312000I-249999J0D01*
G01*
X119691999Y-109312000D01*
G75*
G02*
X119442000Y-109062001I0J249999D01*
G01*
X119442000Y-108361999D01*
G75*
G02*
X119691999Y-108112000I249999J0D01*
G01*
G37*
G36*
G01*
X119691999Y-106112000D02*
X120592001Y-106112000D01*
G75*
G02*
X120842000Y-106361999I0J-249999D01*
G01*
X120842000Y-107062001D01*
G75*
G02*
X120592001Y-107312000I-249999J0D01*
G01*
X119691999Y-107312000D01*
G75*
G02*
X119442000Y-107062001I0J249999D01*
G01*
X119442000Y-106361999D01*
G75*
G02*
X119691999Y-106112000I249999J0D01*
G01*
G37*
%TD*%
%TO.C,R32*%
G36*
G01*
X168840999Y-90316000D02*
X169741001Y-90316000D01*
G75*
G02*
X169991000Y-90565999I0J-249999D01*
G01*
X169991000Y-91266001D01*
G75*
G02*
X169741001Y-91516000I-249999J0D01*
G01*
X168840999Y-91516000D01*
G75*
G02*
X168591000Y-91266001I0J249999D01*
G01*
X168591000Y-90565999D01*
G75*
G02*
X168840999Y-90316000I249999J0D01*
G01*
G37*
G36*
G01*
X168840999Y-88316000D02*
X169741001Y-88316000D01*
G75*
G02*
X169991000Y-88565999I0J-249999D01*
G01*
X169991000Y-89266001D01*
G75*
G02*
X169741001Y-89516000I-249999J0D01*
G01*
X168840999Y-89516000D01*
G75*
G02*
X168591000Y-89266001I0J249999D01*
G01*
X168591000Y-88565999D01*
G75*
G02*
X168840999Y-88316000I249999J0D01*
G01*
G37*
%TD*%
%TO.C,C15*%
G36*
G01*
X144620000Y-116411500D02*
X143670000Y-116411500D01*
G75*
G02*
X143420000Y-116161500I0J250000D01*
G01*
X143420000Y-115486500D01*
G75*
G02*
X143670000Y-115236500I250000J0D01*
G01*
X144620000Y-115236500D01*
G75*
G02*
X144870000Y-115486500I0J-250000D01*
G01*
X144870000Y-116161500D01*
G75*
G02*
X144620000Y-116411500I-250000J0D01*
G01*
G37*
G36*
G01*
X144620000Y-114336500D02*
X143670000Y-114336500D01*
G75*
G02*
X143420000Y-114086500I0J250000D01*
G01*
X143420000Y-113411500D01*
G75*
G02*
X143670000Y-113161500I250000J0D01*
G01*
X144620000Y-113161500D01*
G75*
G02*
X144870000Y-113411500I0J-250000D01*
G01*
X144870000Y-114086500D01*
G75*
G02*
X144620000Y-114336500I-250000J0D01*
G01*
G37*
%TD*%
%TO.C,F1*%
G36*
G01*
X164398000Y-78936001D02*
X164398000Y-78035999D01*
G75*
G02*
X164647999Y-77786000I249999J0D01*
G01*
X165298001Y-77786000D01*
G75*
G02*
X165548000Y-78035999I0J-249999D01*
G01*
X165548000Y-78936001D01*
G75*
G02*
X165298001Y-79186000I-249999J0D01*
G01*
X164647999Y-79186000D01*
G75*
G02*
X164398000Y-78936001I0J249999D01*
G01*
G37*
G36*
G01*
X162348000Y-78936001D02*
X162348000Y-78035999D01*
G75*
G02*
X162597999Y-77786000I249999J0D01*
G01*
X163248001Y-77786000D01*
G75*
G02*
X163498000Y-78035999I0J-249999D01*
G01*
X163498000Y-78936001D01*
G75*
G02*
X163248001Y-79186000I-249999J0D01*
G01*
X162597999Y-79186000D01*
G75*
G02*
X162348000Y-78936001I0J249999D01*
G01*
G37*
%TD*%
D12*
%TO.C,U11*%
X137734000Y-77105000D03*
X137734000Y-77605000D03*
X137734000Y-78105000D03*
X137734000Y-78605000D03*
X137734000Y-79105000D03*
X133284000Y-79105000D03*
X133284000Y-78605000D03*
X133284000Y-78105000D03*
X133284000Y-77605000D03*
X133284000Y-77105000D03*
%TD*%
%TO.C,U10*%
X144968000Y-98155000D03*
X144968000Y-97655000D03*
X144968000Y-97155000D03*
X144968000Y-96655000D03*
X144968000Y-96155000D03*
X149418000Y-96155000D03*
X149418000Y-96655000D03*
X149418000Y-97155000D03*
X149418000Y-97655000D03*
X149418000Y-98155000D03*
%TD*%
%TO.C,U8*%
X123129000Y-82566000D03*
X123129000Y-83066000D03*
X123129000Y-83566000D03*
X123129000Y-84066000D03*
X123129000Y-84566000D03*
X118679000Y-84566000D03*
X118679000Y-84066000D03*
X118679000Y-83566000D03*
X118679000Y-83066000D03*
X118679000Y-82566000D03*
%TD*%
%TO.C,U7*%
X108016000Y-82947000D03*
X108016000Y-83447000D03*
X108016000Y-83947000D03*
X108016000Y-84447000D03*
X108016000Y-84947000D03*
X103566000Y-84947000D03*
X103566000Y-84447000D03*
X103566000Y-83947000D03*
X103566000Y-83447000D03*
X103566000Y-82947000D03*
%TD*%
D13*
%TO.C,U6*%
X109841000Y-51054000D03*
D14*
X112141000Y-57904000D03*
D13*
X114441000Y-51054000D03*
%TD*%
D15*
%TO.C,U5*%
X120948000Y-98679000D03*
X120948000Y-99949000D03*
X120948000Y-101219000D03*
X120948000Y-102489000D03*
X115526000Y-102489000D03*
X115526000Y-101219000D03*
X115526000Y-99949000D03*
X115526000Y-98679000D03*
%TD*%
%TO.C,U4*%
G36*
G01*
X137825000Y-83707000D02*
X137825000Y-83507000D01*
G75*
G02*
X137925000Y-83407000I100000J0D01*
G01*
X139350000Y-83407000D01*
G75*
G02*
X139450000Y-83507000I0J-100000D01*
G01*
X139450000Y-83707000D01*
G75*
G02*
X139350000Y-83807000I-100000J0D01*
G01*
X137925000Y-83807000D01*
G75*
G02*
X137825000Y-83707000I0J100000D01*
G01*
G37*
G36*
G01*
X137825000Y-84357000D02*
X137825000Y-84157000D01*
G75*
G02*
X137925000Y-84057000I100000J0D01*
G01*
X139350000Y-84057000D01*
G75*
G02*
X139450000Y-84157000I0J-100000D01*
G01*
X139450000Y-84357000D01*
G75*
G02*
X139350000Y-84457000I-100000J0D01*
G01*
X137925000Y-84457000D01*
G75*
G02*
X137825000Y-84357000I0J100000D01*
G01*
G37*
G36*
G01*
X137825000Y-85007000D02*
X137825000Y-84807000D01*
G75*
G02*
X137925000Y-84707000I100000J0D01*
G01*
X139350000Y-84707000D01*
G75*
G02*
X139450000Y-84807000I0J-100000D01*
G01*
X139450000Y-85007000D01*
G75*
G02*
X139350000Y-85107000I-100000J0D01*
G01*
X137925000Y-85107000D01*
G75*
G02*
X137825000Y-85007000I0J100000D01*
G01*
G37*
G36*
G01*
X137825000Y-85657000D02*
X137825000Y-85457000D01*
G75*
G02*
X137925000Y-85357000I100000J0D01*
G01*
X139350000Y-85357000D01*
G75*
G02*
X139450000Y-85457000I0J-100000D01*
G01*
X139450000Y-85657000D01*
G75*
G02*
X139350000Y-85757000I-100000J0D01*
G01*
X137925000Y-85757000D01*
G75*
G02*
X137825000Y-85657000I0J100000D01*
G01*
G37*
G36*
G01*
X133600000Y-85657000D02*
X133600000Y-85457000D01*
G75*
G02*
X133700000Y-85357000I100000J0D01*
G01*
X135125000Y-85357000D01*
G75*
G02*
X135225000Y-85457000I0J-100000D01*
G01*
X135225000Y-85657000D01*
G75*
G02*
X135125000Y-85757000I-100000J0D01*
G01*
X133700000Y-85757000D01*
G75*
G02*
X133600000Y-85657000I0J100000D01*
G01*
G37*
G36*
G01*
X133600000Y-85007000D02*
X133600000Y-84807000D01*
G75*
G02*
X133700000Y-84707000I100000J0D01*
G01*
X135125000Y-84707000D01*
G75*
G02*
X135225000Y-84807000I0J-100000D01*
G01*
X135225000Y-85007000D01*
G75*
G02*
X135125000Y-85107000I-100000J0D01*
G01*
X133700000Y-85107000D01*
G75*
G02*
X133600000Y-85007000I0J100000D01*
G01*
G37*
G36*
G01*
X133600000Y-84357000D02*
X133600000Y-84157000D01*
G75*
G02*
X133700000Y-84057000I100000J0D01*
G01*
X135125000Y-84057000D01*
G75*
G02*
X135225000Y-84157000I0J-100000D01*
G01*
X135225000Y-84357000D01*
G75*
G02*
X135125000Y-84457000I-100000J0D01*
G01*
X133700000Y-84457000D01*
G75*
G02*
X133600000Y-84357000I0J100000D01*
G01*
G37*
G36*
G01*
X133600000Y-83707000D02*
X133600000Y-83507000D01*
G75*
G02*
X133700000Y-83407000I100000J0D01*
G01*
X135125000Y-83407000D01*
G75*
G02*
X135225000Y-83507000I0J-100000D01*
G01*
X135225000Y-83707000D01*
G75*
G02*
X135125000Y-83807000I-100000J0D01*
G01*
X133700000Y-83807000D01*
G75*
G02*
X133600000Y-83707000I0J100000D01*
G01*
G37*
%TD*%
%TO.C,U3*%
G36*
G01*
X148493000Y-83707000D02*
X148493000Y-83507000D01*
G75*
G02*
X148593000Y-83407000I100000J0D01*
G01*
X150018000Y-83407000D01*
G75*
G02*
X150118000Y-83507000I0J-100000D01*
G01*
X150118000Y-83707000D01*
G75*
G02*
X150018000Y-83807000I-100000J0D01*
G01*
X148593000Y-83807000D01*
G75*
G02*
X148493000Y-83707000I0J100000D01*
G01*
G37*
G36*
G01*
X148493000Y-84357000D02*
X148493000Y-84157000D01*
G75*
G02*
X148593000Y-84057000I100000J0D01*
G01*
X150018000Y-84057000D01*
G75*
G02*
X150118000Y-84157000I0J-100000D01*
G01*
X150118000Y-84357000D01*
G75*
G02*
X150018000Y-84457000I-100000J0D01*
G01*
X148593000Y-84457000D01*
G75*
G02*
X148493000Y-84357000I0J100000D01*
G01*
G37*
G36*
G01*
X148493000Y-85007000D02*
X148493000Y-84807000D01*
G75*
G02*
X148593000Y-84707000I100000J0D01*
G01*
X150018000Y-84707000D01*
G75*
G02*
X150118000Y-84807000I0J-100000D01*
G01*
X150118000Y-85007000D01*
G75*
G02*
X150018000Y-85107000I-100000J0D01*
G01*
X148593000Y-85107000D01*
G75*
G02*
X148493000Y-85007000I0J100000D01*
G01*
G37*
G36*
G01*
X148493000Y-85657000D02*
X148493000Y-85457000D01*
G75*
G02*
X148593000Y-85357000I100000J0D01*
G01*
X150018000Y-85357000D01*
G75*
G02*
X150118000Y-85457000I0J-100000D01*
G01*
X150118000Y-85657000D01*
G75*
G02*
X150018000Y-85757000I-100000J0D01*
G01*
X148593000Y-85757000D01*
G75*
G02*
X148493000Y-85657000I0J100000D01*
G01*
G37*
G36*
G01*
X144268000Y-85657000D02*
X144268000Y-85457000D01*
G75*
G02*
X144368000Y-85357000I100000J0D01*
G01*
X145793000Y-85357000D01*
G75*
G02*
X145893000Y-85457000I0J-100000D01*
G01*
X145893000Y-85657000D01*
G75*
G02*
X145793000Y-85757000I-100000J0D01*
G01*
X144368000Y-85757000D01*
G75*
G02*
X144268000Y-85657000I0J100000D01*
G01*
G37*
G36*
G01*
X144268000Y-85007000D02*
X144268000Y-84807000D01*
G75*
G02*
X144368000Y-84707000I100000J0D01*
G01*
X145793000Y-84707000D01*
G75*
G02*
X145893000Y-84807000I0J-100000D01*
G01*
X145893000Y-85007000D01*
G75*
G02*
X145793000Y-85107000I-100000J0D01*
G01*
X144368000Y-85107000D01*
G75*
G02*
X144268000Y-85007000I0J100000D01*
G01*
G37*
G36*
G01*
X144268000Y-84357000D02*
X144268000Y-84157000D01*
G75*
G02*
X144368000Y-84057000I100000J0D01*
G01*
X145793000Y-84057000D01*
G75*
G02*
X145893000Y-84157000I0J-100000D01*
G01*
X145893000Y-84357000D01*
G75*
G02*
X145793000Y-84457000I-100000J0D01*
G01*
X144368000Y-84457000D01*
G75*
G02*
X144268000Y-84357000I0J100000D01*
G01*
G37*
G36*
G01*
X144268000Y-83707000D02*
X144268000Y-83507000D01*
G75*
G02*
X144368000Y-83407000I100000J0D01*
G01*
X145793000Y-83407000D01*
G75*
G02*
X145893000Y-83507000I0J-100000D01*
G01*
X145893000Y-83707000D01*
G75*
G02*
X145793000Y-83807000I-100000J0D01*
G01*
X144368000Y-83807000D01*
G75*
G02*
X144268000Y-83707000I0J100000D01*
G01*
G37*
%TD*%
D12*
%TO.C,U2*%
X127955000Y-100473000D03*
X127955000Y-100973000D03*
X127955000Y-101473000D03*
X127955000Y-101973000D03*
X127955000Y-102473000D03*
X123505000Y-102473000D03*
X123505000Y-101973000D03*
X123505000Y-101473000D03*
X123505000Y-100973000D03*
X123505000Y-100473000D03*
%TD*%
D15*
%TO.C,U1*%
X167557000Y-83566000D03*
X167557000Y-84836000D03*
X167557000Y-86106000D03*
X167557000Y-87376000D03*
X162135000Y-87376000D03*
X162135000Y-86106000D03*
X162135000Y-84836000D03*
X162135000Y-83566000D03*
%TD*%
%TO.C,R47*%
G36*
G01*
X129597999Y-79648000D02*
X130498001Y-79648000D01*
G75*
G02*
X130748000Y-79897999I0J-249999D01*
G01*
X130748000Y-80598001D01*
G75*
G02*
X130498001Y-80848000I-249999J0D01*
G01*
X129597999Y-80848000D01*
G75*
G02*
X129348000Y-80598001I0J249999D01*
G01*
X129348000Y-79897999D01*
G75*
G02*
X129597999Y-79648000I249999J0D01*
G01*
G37*
G36*
G01*
X129597999Y-77648000D02*
X130498001Y-77648000D01*
G75*
G02*
X130748000Y-77897999I0J-249999D01*
G01*
X130748000Y-78598001D01*
G75*
G02*
X130498001Y-78848000I-249999J0D01*
G01*
X129597999Y-78848000D01*
G75*
G02*
X129348000Y-78598001I0J249999D01*
G01*
X129348000Y-77897999D01*
G75*
G02*
X129597999Y-77648000I249999J0D01*
G01*
G37*
%TD*%
%TO.C,R46*%
G36*
G01*
X129597999Y-75584000D02*
X130498001Y-75584000D01*
G75*
G02*
X130748000Y-75833999I0J-249999D01*
G01*
X130748000Y-76534001D01*
G75*
G02*
X130498001Y-76784000I-249999J0D01*
G01*
X129597999Y-76784000D01*
G75*
G02*
X129348000Y-76534001I0J249999D01*
G01*
X129348000Y-75833999D01*
G75*
G02*
X129597999Y-75584000I249999J0D01*
G01*
G37*
G36*
G01*
X129597999Y-73584000D02*
X130498001Y-73584000D01*
G75*
G02*
X130748000Y-73833999I0J-249999D01*
G01*
X130748000Y-74534001D01*
G75*
G02*
X130498001Y-74784000I-249999J0D01*
G01*
X129597999Y-74784000D01*
G75*
G02*
X129348000Y-74534001I0J249999D01*
G01*
X129348000Y-73833999D01*
G75*
G02*
X129597999Y-73584000I249999J0D01*
G01*
G37*
%TD*%
%TO.C,R45*%
G36*
G01*
X119764000Y-88334001D02*
X119764000Y-87433999D01*
G75*
G02*
X120013999Y-87184000I249999J0D01*
G01*
X120714001Y-87184000D01*
G75*
G02*
X120964000Y-87433999I0J-249999D01*
G01*
X120964000Y-88334001D01*
G75*
G02*
X120714001Y-88584000I-249999J0D01*
G01*
X120013999Y-88584000D01*
G75*
G02*
X119764000Y-88334001I0J249999D01*
G01*
G37*
G36*
G01*
X117764000Y-88334001D02*
X117764000Y-87433999D01*
G75*
G02*
X118013999Y-87184000I249999J0D01*
G01*
X118714001Y-87184000D01*
G75*
G02*
X118964000Y-87433999I0J-249999D01*
G01*
X118964000Y-88334001D01*
G75*
G02*
X118714001Y-88584000I-249999J0D01*
G01*
X118013999Y-88584000D01*
G75*
G02*
X117764000Y-88334001I0J249999D01*
G01*
G37*
%TD*%
%TO.C,R44*%
G36*
G01*
X179381999Y-124860000D02*
X180282001Y-124860000D01*
G75*
G02*
X180532000Y-125109999I0J-249999D01*
G01*
X180532000Y-125810001D01*
G75*
G02*
X180282001Y-126060000I-249999J0D01*
G01*
X179381999Y-126060000D01*
G75*
G02*
X179132000Y-125810001I0J249999D01*
G01*
X179132000Y-125109999D01*
G75*
G02*
X179381999Y-124860000I249999J0D01*
G01*
G37*
G36*
G01*
X179381999Y-122860000D02*
X180282001Y-122860000D01*
G75*
G02*
X180532000Y-123109999I0J-249999D01*
G01*
X180532000Y-123810001D01*
G75*
G02*
X180282001Y-124060000I-249999J0D01*
G01*
X179381999Y-124060000D01*
G75*
G02*
X179132000Y-123810001I0J249999D01*
G01*
X179132000Y-123109999D01*
G75*
G02*
X179381999Y-122860000I249999J0D01*
G01*
G37*
%TD*%
%TO.C,R35*%
G36*
G01*
X161071000Y-50615001D02*
X161071000Y-49714999D01*
G75*
G02*
X161320999Y-49465000I249999J0D01*
G01*
X162021001Y-49465000D01*
G75*
G02*
X162271000Y-49714999I0J-249999D01*
G01*
X162271000Y-50615001D01*
G75*
G02*
X162021001Y-50865000I-249999J0D01*
G01*
X161320999Y-50865000D01*
G75*
G02*
X161071000Y-50615001I0J249999D01*
G01*
G37*
G36*
G01*
X159071000Y-50615001D02*
X159071000Y-49714999D01*
G75*
G02*
X159320999Y-49465000I249999J0D01*
G01*
X160021001Y-49465000D01*
G75*
G02*
X160271000Y-49714999I0J-249999D01*
G01*
X160271000Y-50615001D01*
G75*
G02*
X160021001Y-50865000I-249999J0D01*
G01*
X159320999Y-50865000D01*
G75*
G02*
X159071000Y-50615001I0J249999D01*
G01*
G37*
%TD*%
%TO.C,R30*%
G36*
G01*
X141547001Y-118710000D02*
X140646999Y-118710000D01*
G75*
G02*
X140397000Y-118460001I0J249999D01*
G01*
X140397000Y-117759999D01*
G75*
G02*
X140646999Y-117510000I249999J0D01*
G01*
X141547001Y-117510000D01*
G75*
G02*
X141797000Y-117759999I0J-249999D01*
G01*
X141797000Y-118460001D01*
G75*
G02*
X141547001Y-118710000I-249999J0D01*
G01*
G37*
G36*
G01*
X141547001Y-120710000D02*
X140646999Y-120710000D01*
G75*
G02*
X140397000Y-120460001I0J249999D01*
G01*
X140397000Y-119759999D01*
G75*
G02*
X140646999Y-119510000I249999J0D01*
G01*
X141547001Y-119510000D01*
G75*
G02*
X141797000Y-119759999I0J-249999D01*
G01*
X141797000Y-120460001D01*
G75*
G02*
X141547001Y-120710000I-249999J0D01*
G01*
G37*
%TD*%
%TO.C,R27*%
G36*
G01*
X160470001Y-86579000D02*
X159569999Y-86579000D01*
G75*
G02*
X159320000Y-86329001I0J249999D01*
G01*
X159320000Y-85628999D01*
G75*
G02*
X159569999Y-85379000I249999J0D01*
G01*
X160470001Y-85379000D01*
G75*
G02*
X160720000Y-85628999I0J-249999D01*
G01*
X160720000Y-86329001D01*
G75*
G02*
X160470001Y-86579000I-249999J0D01*
G01*
G37*
G36*
G01*
X160470001Y-88579000D02*
X159569999Y-88579000D01*
G75*
G02*
X159320000Y-88329001I0J249999D01*
G01*
X159320000Y-87628999D01*
G75*
G02*
X159569999Y-87379000I249999J0D01*
G01*
X160470001Y-87379000D01*
G75*
G02*
X160720000Y-87628999I0J-249999D01*
G01*
X160720000Y-88329001D01*
G75*
G02*
X160470001Y-88579000I-249999J0D01*
G01*
G37*
%TD*%
%TO.C,R17*%
G36*
G01*
X113734001Y-101819000D02*
X112833999Y-101819000D01*
G75*
G02*
X112584000Y-101569001I0J249999D01*
G01*
X112584000Y-100868999D01*
G75*
G02*
X112833999Y-100619000I249999J0D01*
G01*
X113734001Y-100619000D01*
G75*
G02*
X113984000Y-100868999I0J-249999D01*
G01*
X113984000Y-101569001D01*
G75*
G02*
X113734001Y-101819000I-249999J0D01*
G01*
G37*
G36*
G01*
X113734001Y-103819000D02*
X112833999Y-103819000D01*
G75*
G02*
X112584000Y-103569001I0J249999D01*
G01*
X112584000Y-102868999D01*
G75*
G02*
X112833999Y-102619000I249999J0D01*
G01*
X113734001Y-102619000D01*
G75*
G02*
X113984000Y-102868999I0J-249999D01*
G01*
X113984000Y-103569001D01*
G75*
G02*
X113734001Y-103819000I-249999J0D01*
G01*
G37*
%TD*%
%TO.C,R15*%
G36*
G01*
X139388001Y-118710000D02*
X138487999Y-118710000D01*
G75*
G02*
X138238000Y-118460001I0J249999D01*
G01*
X138238000Y-117759999D01*
G75*
G02*
X138487999Y-117510000I249999J0D01*
G01*
X139388001Y-117510000D01*
G75*
G02*
X139638000Y-117759999I0J-249999D01*
G01*
X139638000Y-118460001D01*
G75*
G02*
X139388001Y-118710000I-249999J0D01*
G01*
G37*
G36*
G01*
X139388001Y-120710000D02*
X138487999Y-120710000D01*
G75*
G02*
X138238000Y-120460001I0J249999D01*
G01*
X138238000Y-119759999D01*
G75*
G02*
X138487999Y-119510000I249999J0D01*
G01*
X139388001Y-119510000D01*
G75*
G02*
X139638000Y-119759999I0J-249999D01*
G01*
X139638000Y-120460001D01*
G75*
G02*
X139388001Y-120710000I-249999J0D01*
G01*
G37*
%TD*%
%TO.C,R7*%
G36*
G01*
X169399000Y-77527999D02*
X169399000Y-78428001D01*
G75*
G02*
X169149001Y-78678000I-249999J0D01*
G01*
X168448999Y-78678000D01*
G75*
G02*
X168199000Y-78428001I0J249999D01*
G01*
X168199000Y-77527999D01*
G75*
G02*
X168448999Y-77278000I249999J0D01*
G01*
X169149001Y-77278000D01*
G75*
G02*
X169399000Y-77527999I0J-249999D01*
G01*
G37*
G36*
G01*
X171399000Y-77527999D02*
X171399000Y-78428001D01*
G75*
G02*
X171149001Y-78678000I-249999J0D01*
G01*
X170448999Y-78678000D01*
G75*
G02*
X170199000Y-78428001I0J249999D01*
G01*
X170199000Y-77527999D01*
G75*
G02*
X170448999Y-77278000I249999J0D01*
G01*
X171149001Y-77278000D01*
G75*
G02*
X171399000Y-77527999I0J-249999D01*
G01*
G37*
%TD*%
%TO.C,R6*%
G36*
G01*
X141027999Y-82839000D02*
X141928001Y-82839000D01*
G75*
G02*
X142178000Y-83088999I0J-249999D01*
G01*
X142178000Y-83789001D01*
G75*
G02*
X141928001Y-84039000I-249999J0D01*
G01*
X141027999Y-84039000D01*
G75*
G02*
X140778000Y-83789001I0J249999D01*
G01*
X140778000Y-83088999D01*
G75*
G02*
X141027999Y-82839000I249999J0D01*
G01*
G37*
G36*
G01*
X141027999Y-80839000D02*
X141928001Y-80839000D01*
G75*
G02*
X142178000Y-81088999I0J-249999D01*
G01*
X142178000Y-81789001D01*
G75*
G02*
X141928001Y-82039000I-249999J0D01*
G01*
X141027999Y-82039000D01*
G75*
G02*
X140778000Y-81789001I0J249999D01*
G01*
X140778000Y-81088999D01*
G75*
G02*
X141027999Y-80839000I249999J0D01*
G01*
G37*
%TD*%
%TO.C,R4*%
G36*
G01*
X114992999Y-81299000D02*
X115893001Y-81299000D01*
G75*
G02*
X116143000Y-81548999I0J-249999D01*
G01*
X116143000Y-82249001D01*
G75*
G02*
X115893001Y-82499000I-249999J0D01*
G01*
X114992999Y-82499000D01*
G75*
G02*
X114743000Y-82249001I0J249999D01*
G01*
X114743000Y-81548999D01*
G75*
G02*
X114992999Y-81299000I249999J0D01*
G01*
G37*
G36*
G01*
X114992999Y-79299000D02*
X115893001Y-79299000D01*
G75*
G02*
X116143000Y-79548999I0J-249999D01*
G01*
X116143000Y-80249001D01*
G75*
G02*
X115893001Y-80499000I-249999J0D01*
G01*
X114992999Y-80499000D01*
G75*
G02*
X114743000Y-80249001I0J249999D01*
G01*
X114743000Y-79548999D01*
G75*
G02*
X114992999Y-79299000I249999J0D01*
G01*
G37*
%TD*%
%TO.C,R3*%
G36*
G01*
X114265000Y-83750999D02*
X114265000Y-84651001D01*
G75*
G02*
X114015001Y-84901000I-249999J0D01*
G01*
X113314999Y-84901000D01*
G75*
G02*
X113065000Y-84651001I0J249999D01*
G01*
X113065000Y-83750999D01*
G75*
G02*
X113314999Y-83501000I249999J0D01*
G01*
X114015001Y-83501000D01*
G75*
G02*
X114265000Y-83750999I0J-249999D01*
G01*
G37*
G36*
G01*
X116265000Y-83750999D02*
X116265000Y-84651001D01*
G75*
G02*
X116015001Y-84901000I-249999J0D01*
G01*
X115314999Y-84901000D01*
G75*
G02*
X115065000Y-84651001I0J249999D01*
G01*
X115065000Y-83750999D01*
G75*
G02*
X115314999Y-83501000I249999J0D01*
G01*
X116015001Y-83501000D01*
G75*
G02*
X116265000Y-83750999I0J-249999D01*
G01*
G37*
%TD*%
%TO.C,R2*%
G36*
G01*
X120145000Y-79952001D02*
X120145000Y-79051999D01*
G75*
G02*
X120394999Y-78802000I249999J0D01*
G01*
X121095001Y-78802000D01*
G75*
G02*
X121345000Y-79051999I0J-249999D01*
G01*
X121345000Y-79952001D01*
G75*
G02*
X121095001Y-80202000I-249999J0D01*
G01*
X120394999Y-80202000D01*
G75*
G02*
X120145000Y-79952001I0J249999D01*
G01*
G37*
G36*
G01*
X118145000Y-79952001D02*
X118145000Y-79051999D01*
G75*
G02*
X118394999Y-78802000I249999J0D01*
G01*
X119095001Y-78802000D01*
G75*
G02*
X119345000Y-79051999I0J-249999D01*
G01*
X119345000Y-79952001D01*
G75*
G02*
X119095001Y-80202000I-249999J0D01*
G01*
X118394999Y-80202000D01*
G75*
G02*
X118145000Y-79952001I0J249999D01*
G01*
G37*
%TD*%
%TO.C,MAIN1*%
G36*
G01*
X146579001Y-104702000D02*
X146028999Y-104702000D01*
G75*
G02*
X145779000Y-104452001I0J249999D01*
G01*
X145779000Y-103901999D01*
G75*
G02*
X146028999Y-103652000I249999J0D01*
G01*
X146579001Y-103652000D01*
G75*
G02*
X146829000Y-103901999I0J-249999D01*
G01*
X146829000Y-104452001D01*
G75*
G02*
X146579001Y-104702000I-249999J0D01*
G01*
G37*
G36*
G01*
X145279001Y-104702000D02*
X144728999Y-104702000D01*
G75*
G02*
X144479000Y-104452001I0J249999D01*
G01*
X144479000Y-103901999D01*
G75*
G02*
X144728999Y-103652000I249999J0D01*
G01*
X145279001Y-103652000D01*
G75*
G02*
X145529000Y-103901999I0J-249999D01*
G01*
X145529000Y-104452001D01*
G75*
G02*
X145279001Y-104702000I-249999J0D01*
G01*
G37*
G36*
G01*
X143979001Y-104702000D02*
X143428999Y-104702000D01*
G75*
G02*
X143179000Y-104452001I0J249999D01*
G01*
X143179000Y-103901999D01*
G75*
G02*
X143428999Y-103652000I249999J0D01*
G01*
X143979001Y-103652000D01*
G75*
G02*
X144229000Y-103901999I0J-249999D01*
G01*
X144229000Y-104452001D01*
G75*
G02*
X143979001Y-104702000I-249999J0D01*
G01*
G37*
G36*
G01*
X142679001Y-104702000D02*
X142128999Y-104702000D01*
G75*
G02*
X141879000Y-104452001I0J249999D01*
G01*
X141879000Y-103901999D01*
G75*
G02*
X142128999Y-103652000I249999J0D01*
G01*
X142679001Y-103652000D01*
G75*
G02*
X142929000Y-103901999I0J-249999D01*
G01*
X142929000Y-104452001D01*
G75*
G02*
X142679001Y-104702000I-249999J0D01*
G01*
G37*
G36*
G01*
X146579001Y-106002000D02*
X146028999Y-106002000D01*
G75*
G02*
X145779000Y-105752001I0J249999D01*
G01*
X145779000Y-105201999D01*
G75*
G02*
X146028999Y-104952000I249999J0D01*
G01*
X146579001Y-104952000D01*
G75*
G02*
X146829000Y-105201999I0J-249999D01*
G01*
X146829000Y-105752001D01*
G75*
G02*
X146579001Y-106002000I-249999J0D01*
G01*
G37*
G36*
G01*
X145279001Y-106002000D02*
X144728999Y-106002000D01*
G75*
G02*
X144479000Y-105752001I0J249999D01*
G01*
X144479000Y-105201999D01*
G75*
G02*
X144728999Y-104952000I249999J0D01*
G01*
X145279001Y-104952000D01*
G75*
G02*
X145529000Y-105201999I0J-249999D01*
G01*
X145529000Y-105752001D01*
G75*
G02*
X145279001Y-106002000I-249999J0D01*
G01*
G37*
G36*
G01*
X143979001Y-106002000D02*
X143428999Y-106002000D01*
G75*
G02*
X143179000Y-105752001I0J249999D01*
G01*
X143179000Y-105201999D01*
G75*
G02*
X143428999Y-104952000I249999J0D01*
G01*
X143979001Y-104952000D01*
G75*
G02*
X144229000Y-105201999I0J-249999D01*
G01*
X144229000Y-105752001D01*
G75*
G02*
X143979001Y-106002000I-249999J0D01*
G01*
G37*
G36*
G01*
X142679001Y-106002000D02*
X142128999Y-106002000D01*
G75*
G02*
X141879000Y-105752001I0J249999D01*
G01*
X141879000Y-105201999D01*
G75*
G02*
X142128999Y-104952000I249999J0D01*
G01*
X142679001Y-104952000D01*
G75*
G02*
X142929000Y-105201999I0J-249999D01*
G01*
X142929000Y-105752001D01*
G75*
G02*
X142679001Y-106002000I-249999J0D01*
G01*
G37*
G36*
G01*
X146579001Y-107302000D02*
X146028999Y-107302000D01*
G75*
G02*
X145779000Y-107052001I0J249999D01*
G01*
X145779000Y-106501999D01*
G75*
G02*
X146028999Y-106252000I249999J0D01*
G01*
X146579001Y-106252000D01*
G75*
G02*
X146829000Y-106501999I0J-249999D01*
G01*
X146829000Y-107052001D01*
G75*
G02*
X146579001Y-107302000I-249999J0D01*
G01*
G37*
G36*
G01*
X145279001Y-107302000D02*
X144728999Y-107302000D01*
G75*
G02*
X144479000Y-107052001I0J249999D01*
G01*
X144479000Y-106501999D01*
G75*
G02*
X144728999Y-106252000I249999J0D01*
G01*
X145279001Y-106252000D01*
G75*
G02*
X145529000Y-106501999I0J-249999D01*
G01*
X145529000Y-107052001D01*
G75*
G02*
X145279001Y-107302000I-249999J0D01*
G01*
G37*
G36*
G01*
X143979001Y-107302000D02*
X143428999Y-107302000D01*
G75*
G02*
X143179000Y-107052001I0J249999D01*
G01*
X143179000Y-106501999D01*
G75*
G02*
X143428999Y-106252000I249999J0D01*
G01*
X143979001Y-106252000D01*
G75*
G02*
X144229000Y-106501999I0J-249999D01*
G01*
X144229000Y-107052001D01*
G75*
G02*
X143979001Y-107302000I-249999J0D01*
G01*
G37*
G36*
G01*
X142679001Y-107302000D02*
X142128999Y-107302000D01*
G75*
G02*
X141879000Y-107052001I0J249999D01*
G01*
X141879000Y-106501999D01*
G75*
G02*
X142128999Y-106252000I249999J0D01*
G01*
X142679001Y-106252000D01*
G75*
G02*
X142929000Y-106501999I0J-249999D01*
G01*
X142929000Y-107052001D01*
G75*
G02*
X142679001Y-107302000I-249999J0D01*
G01*
G37*
G36*
G01*
X146579001Y-108602000D02*
X146028999Y-108602000D01*
G75*
G02*
X145779000Y-108352001I0J249999D01*
G01*
X145779000Y-107801999D01*
G75*
G02*
X146028999Y-107552000I249999J0D01*
G01*
X146579001Y-107552000D01*
G75*
G02*
X146829000Y-107801999I0J-249999D01*
G01*
X146829000Y-108352001D01*
G75*
G02*
X146579001Y-108602000I-249999J0D01*
G01*
G37*
G36*
G01*
X145279001Y-108602000D02*
X144728999Y-108602000D01*
G75*
G02*
X144479000Y-108352001I0J249999D01*
G01*
X144479000Y-107801999D01*
G75*
G02*
X144728999Y-107552000I249999J0D01*
G01*
X145279001Y-107552000D01*
G75*
G02*
X145529000Y-107801999I0J-249999D01*
G01*
X145529000Y-108352001D01*
G75*
G02*
X145279001Y-108602000I-249999J0D01*
G01*
G37*
G36*
G01*
X143979001Y-108602000D02*
X143428999Y-108602000D01*
G75*
G02*
X143179000Y-108352001I0J249999D01*
G01*
X143179000Y-107801999D01*
G75*
G02*
X143428999Y-107552000I249999J0D01*
G01*
X143979001Y-107552000D01*
G75*
G02*
X144229000Y-107801999I0J-249999D01*
G01*
X144229000Y-108352001D01*
G75*
G02*
X143979001Y-108602000I-249999J0D01*
G01*
G37*
G36*
G01*
X142679001Y-108602000D02*
X142128999Y-108602000D01*
G75*
G02*
X141879000Y-108352001I0J249999D01*
G01*
X141879000Y-107801999D01*
G75*
G02*
X142128999Y-107552000I249999J0D01*
G01*
X142679001Y-107552000D01*
G75*
G02*
X142929000Y-107801999I0J-249999D01*
G01*
X142929000Y-108352001D01*
G75*
G02*
X142679001Y-108602000I-249999J0D01*
G01*
G37*
G36*
G01*
X141491500Y-108752000D02*
X140541500Y-108752000D01*
G75*
G02*
X140479000Y-108689500I0J62500D01*
G01*
X140479000Y-108564500D01*
G75*
G02*
X140541500Y-108502000I62500J0D01*
G01*
X141491500Y-108502000D01*
G75*
G02*
X141554000Y-108564500I0J-62500D01*
G01*
X141554000Y-108689500D01*
G75*
G02*
X141491500Y-108752000I-62500J0D01*
G01*
G37*
G36*
G01*
X141491500Y-108252000D02*
X140541500Y-108252000D01*
G75*
G02*
X140479000Y-108189500I0J62500D01*
G01*
X140479000Y-108064500D01*
G75*
G02*
X140541500Y-108002000I62500J0D01*
G01*
X141491500Y-108002000D01*
G75*
G02*
X141554000Y-108064500I0J-62500D01*
G01*
X141554000Y-108189500D01*
G75*
G02*
X141491500Y-108252000I-62500J0D01*
G01*
G37*
G36*
G01*
X141491500Y-107752000D02*
X140541500Y-107752000D01*
G75*
G02*
X140479000Y-107689500I0J62500D01*
G01*
X140479000Y-107564500D01*
G75*
G02*
X140541500Y-107502000I62500J0D01*
G01*
X141491500Y-107502000D01*
G75*
G02*
X141554000Y-107564500I0J-62500D01*
G01*
X141554000Y-107689500D01*
G75*
G02*
X141491500Y-107752000I-62500J0D01*
G01*
G37*
G36*
G01*
X141491500Y-107252000D02*
X140541500Y-107252000D01*
G75*
G02*
X140479000Y-107189500I0J62500D01*
G01*
X140479000Y-107064500D01*
G75*
G02*
X140541500Y-107002000I62500J0D01*
G01*
X141491500Y-107002000D01*
G75*
G02*
X141554000Y-107064500I0J-62500D01*
G01*
X141554000Y-107189500D01*
G75*
G02*
X141491500Y-107252000I-62500J0D01*
G01*
G37*
G36*
G01*
X141491500Y-106752000D02*
X140541500Y-106752000D01*
G75*
G02*
X140479000Y-106689500I0J62500D01*
G01*
X140479000Y-106564500D01*
G75*
G02*
X140541500Y-106502000I62500J0D01*
G01*
X141491500Y-106502000D01*
G75*
G02*
X141554000Y-106564500I0J-62500D01*
G01*
X141554000Y-106689500D01*
G75*
G02*
X141491500Y-106752000I-62500J0D01*
G01*
G37*
G36*
G01*
X141491500Y-106252000D02*
X140541500Y-106252000D01*
G75*
G02*
X140479000Y-106189500I0J62500D01*
G01*
X140479000Y-106064500D01*
G75*
G02*
X140541500Y-106002000I62500J0D01*
G01*
X141491500Y-106002000D01*
G75*
G02*
X141554000Y-106064500I0J-62500D01*
G01*
X141554000Y-106189500D01*
G75*
G02*
X141491500Y-106252000I-62500J0D01*
G01*
G37*
G36*
G01*
X141491500Y-105752000D02*
X140541500Y-105752000D01*
G75*
G02*
X140479000Y-105689500I0J62500D01*
G01*
X140479000Y-105564500D01*
G75*
G02*
X140541500Y-105502000I62500J0D01*
G01*
X141491500Y-105502000D01*
G75*
G02*
X141554000Y-105564500I0J-62500D01*
G01*
X141554000Y-105689500D01*
G75*
G02*
X141491500Y-105752000I-62500J0D01*
G01*
G37*
G36*
G01*
X141491500Y-105252000D02*
X140541500Y-105252000D01*
G75*
G02*
X140479000Y-105189500I0J62500D01*
G01*
X140479000Y-105064500D01*
G75*
G02*
X140541500Y-105002000I62500J0D01*
G01*
X141491500Y-105002000D01*
G75*
G02*
X141554000Y-105064500I0J-62500D01*
G01*
X141554000Y-105189500D01*
G75*
G02*
X141491500Y-105252000I-62500J0D01*
G01*
G37*
G36*
G01*
X141491500Y-104752000D02*
X140541500Y-104752000D01*
G75*
G02*
X140479000Y-104689500I0J62500D01*
G01*
X140479000Y-104564500D01*
G75*
G02*
X140541500Y-104502000I62500J0D01*
G01*
X141491500Y-104502000D01*
G75*
G02*
X141554000Y-104564500I0J-62500D01*
G01*
X141554000Y-104689500D01*
G75*
G02*
X141491500Y-104752000I-62500J0D01*
G01*
G37*
G36*
G01*
X141491500Y-104252000D02*
X140541500Y-104252000D01*
G75*
G02*
X140479000Y-104189500I0J62500D01*
G01*
X140479000Y-104064500D01*
G75*
G02*
X140541500Y-104002000I62500J0D01*
G01*
X141491500Y-104002000D01*
G75*
G02*
X141554000Y-104064500I0J-62500D01*
G01*
X141554000Y-104189500D01*
G75*
G02*
X141491500Y-104252000I-62500J0D01*
G01*
G37*
G36*
G01*
X141491500Y-103752000D02*
X140541500Y-103752000D01*
G75*
G02*
X140479000Y-103689500I0J62500D01*
G01*
X140479000Y-103564500D01*
G75*
G02*
X140541500Y-103502000I62500J0D01*
G01*
X141491500Y-103502000D01*
G75*
G02*
X141554000Y-103564500I0J-62500D01*
G01*
X141554000Y-103689500D01*
G75*
G02*
X141491500Y-103752000I-62500J0D01*
G01*
G37*
G36*
G01*
X141916500Y-103327000D02*
X141791500Y-103327000D01*
G75*
G02*
X141729000Y-103264500I0J62500D01*
G01*
X141729000Y-102314500D01*
G75*
G02*
X141791500Y-102252000I62500J0D01*
G01*
X141916500Y-102252000D01*
G75*
G02*
X141979000Y-102314500I0J-62500D01*
G01*
X141979000Y-103264500D01*
G75*
G02*
X141916500Y-103327000I-62500J0D01*
G01*
G37*
G36*
G01*
X142416500Y-103327000D02*
X142291500Y-103327000D01*
G75*
G02*
X142229000Y-103264500I0J62500D01*
G01*
X142229000Y-102314500D01*
G75*
G02*
X142291500Y-102252000I62500J0D01*
G01*
X142416500Y-102252000D01*
G75*
G02*
X142479000Y-102314500I0J-62500D01*
G01*
X142479000Y-103264500D01*
G75*
G02*
X142416500Y-103327000I-62500J0D01*
G01*
G37*
G36*
G01*
X142916500Y-103327000D02*
X142791500Y-103327000D01*
G75*
G02*
X142729000Y-103264500I0J62500D01*
G01*
X142729000Y-102314500D01*
G75*
G02*
X142791500Y-102252000I62500J0D01*
G01*
X142916500Y-102252000D01*
G75*
G02*
X142979000Y-102314500I0J-62500D01*
G01*
X142979000Y-103264500D01*
G75*
G02*
X142916500Y-103327000I-62500J0D01*
G01*
G37*
G36*
G01*
X143416500Y-103327000D02*
X143291500Y-103327000D01*
G75*
G02*
X143229000Y-103264500I0J62500D01*
G01*
X143229000Y-102314500D01*
G75*
G02*
X143291500Y-102252000I62500J0D01*
G01*
X143416500Y-102252000D01*
G75*
G02*
X143479000Y-102314500I0J-62500D01*
G01*
X143479000Y-103264500D01*
G75*
G02*
X143416500Y-103327000I-62500J0D01*
G01*
G37*
G36*
G01*
X143916500Y-103327000D02*
X143791500Y-103327000D01*
G75*
G02*
X143729000Y-103264500I0J62500D01*
G01*
X143729000Y-102314500D01*
G75*
G02*
X143791500Y-102252000I62500J0D01*
G01*
X143916500Y-102252000D01*
G75*
G02*
X143979000Y-102314500I0J-62500D01*
G01*
X143979000Y-103264500D01*
G75*
G02*
X143916500Y-103327000I-62500J0D01*
G01*
G37*
G36*
G01*
X144416500Y-103327000D02*
X144291500Y-103327000D01*
G75*
G02*
X144229000Y-103264500I0J62500D01*
G01*
X144229000Y-102314500D01*
G75*
G02*
X144291500Y-102252000I62500J0D01*
G01*
X144416500Y-102252000D01*
G75*
G02*
X144479000Y-102314500I0J-62500D01*
G01*
X144479000Y-103264500D01*
G75*
G02*
X144416500Y-103327000I-62500J0D01*
G01*
G37*
G36*
G01*
X144916500Y-103327000D02*
X144791500Y-103327000D01*
G75*
G02*
X144729000Y-103264500I0J62500D01*
G01*
X144729000Y-102314500D01*
G75*
G02*
X144791500Y-102252000I62500J0D01*
G01*
X144916500Y-102252000D01*
G75*
G02*
X144979000Y-102314500I0J-62500D01*
G01*
X144979000Y-103264500D01*
G75*
G02*
X144916500Y-103327000I-62500J0D01*
G01*
G37*
G36*
G01*
X145416500Y-103327000D02*
X145291500Y-103327000D01*
G75*
G02*
X145229000Y-103264500I0J62500D01*
G01*
X145229000Y-102314500D01*
G75*
G02*
X145291500Y-102252000I62500J0D01*
G01*
X145416500Y-102252000D01*
G75*
G02*
X145479000Y-102314500I0J-62500D01*
G01*
X145479000Y-103264500D01*
G75*
G02*
X145416500Y-103327000I-62500J0D01*
G01*
G37*
G36*
G01*
X145916500Y-103327000D02*
X145791500Y-103327000D01*
G75*
G02*
X145729000Y-103264500I0J62500D01*
G01*
X145729000Y-102314500D01*
G75*
G02*
X145791500Y-102252000I62500J0D01*
G01*
X145916500Y-102252000D01*
G75*
G02*
X145979000Y-102314500I0J-62500D01*
G01*
X145979000Y-103264500D01*
G75*
G02*
X145916500Y-103327000I-62500J0D01*
G01*
G37*
G36*
G01*
X146416500Y-103327000D02*
X146291500Y-103327000D01*
G75*
G02*
X146229000Y-103264500I0J62500D01*
G01*
X146229000Y-102314500D01*
G75*
G02*
X146291500Y-102252000I62500J0D01*
G01*
X146416500Y-102252000D01*
G75*
G02*
X146479000Y-102314500I0J-62500D01*
G01*
X146479000Y-103264500D01*
G75*
G02*
X146416500Y-103327000I-62500J0D01*
G01*
G37*
G36*
G01*
X146916500Y-103327000D02*
X146791500Y-103327000D01*
G75*
G02*
X146729000Y-103264500I0J62500D01*
G01*
X146729000Y-102314500D01*
G75*
G02*
X146791500Y-102252000I62500J0D01*
G01*
X146916500Y-102252000D01*
G75*
G02*
X146979000Y-102314500I0J-62500D01*
G01*
X146979000Y-103264500D01*
G75*
G02*
X146916500Y-103327000I-62500J0D01*
G01*
G37*
G36*
G01*
X148166500Y-103752000D02*
X147216500Y-103752000D01*
G75*
G02*
X147154000Y-103689500I0J62500D01*
G01*
X147154000Y-103564500D01*
G75*
G02*
X147216500Y-103502000I62500J0D01*
G01*
X148166500Y-103502000D01*
G75*
G02*
X148229000Y-103564500I0J-62500D01*
G01*
X148229000Y-103689500D01*
G75*
G02*
X148166500Y-103752000I-62500J0D01*
G01*
G37*
G36*
G01*
X148166500Y-104252000D02*
X147216500Y-104252000D01*
G75*
G02*
X147154000Y-104189500I0J62500D01*
G01*
X147154000Y-104064500D01*
G75*
G02*
X147216500Y-104002000I62500J0D01*
G01*
X148166500Y-104002000D01*
G75*
G02*
X148229000Y-104064500I0J-62500D01*
G01*
X148229000Y-104189500D01*
G75*
G02*
X148166500Y-104252000I-62500J0D01*
G01*
G37*
G36*
G01*
X148166500Y-104752000D02*
X147216500Y-104752000D01*
G75*
G02*
X147154000Y-104689500I0J62500D01*
G01*
X147154000Y-104564500D01*
G75*
G02*
X147216500Y-104502000I62500J0D01*
G01*
X148166500Y-104502000D01*
G75*
G02*
X148229000Y-104564500I0J-62500D01*
G01*
X148229000Y-104689500D01*
G75*
G02*
X148166500Y-104752000I-62500J0D01*
G01*
G37*
G36*
G01*
X148166500Y-105252000D02*
X147216500Y-105252000D01*
G75*
G02*
X147154000Y-105189500I0J62500D01*
G01*
X147154000Y-105064500D01*
G75*
G02*
X147216500Y-105002000I62500J0D01*
G01*
X148166500Y-105002000D01*
G75*
G02*
X148229000Y-105064500I0J-62500D01*
G01*
X148229000Y-105189500D01*
G75*
G02*
X148166500Y-105252000I-62500J0D01*
G01*
G37*
G36*
G01*
X148166500Y-105752000D02*
X147216500Y-105752000D01*
G75*
G02*
X147154000Y-105689500I0J62500D01*
G01*
X147154000Y-105564500D01*
G75*
G02*
X147216500Y-105502000I62500J0D01*
G01*
X148166500Y-105502000D01*
G75*
G02*
X148229000Y-105564500I0J-62500D01*
G01*
X148229000Y-105689500D01*
G75*
G02*
X148166500Y-105752000I-62500J0D01*
G01*
G37*
G36*
G01*
X148166500Y-106252000D02*
X147216500Y-106252000D01*
G75*
G02*
X147154000Y-106189500I0J62500D01*
G01*
X147154000Y-106064500D01*
G75*
G02*
X147216500Y-106002000I62500J0D01*
G01*
X148166500Y-106002000D01*
G75*
G02*
X148229000Y-106064500I0J-62500D01*
G01*
X148229000Y-106189500D01*
G75*
G02*
X148166500Y-106252000I-62500J0D01*
G01*
G37*
G36*
G01*
X148166500Y-106752000D02*
X147216500Y-106752000D01*
G75*
G02*
X147154000Y-106689500I0J62500D01*
G01*
X147154000Y-106564500D01*
G75*
G02*
X147216500Y-106502000I62500J0D01*
G01*
X148166500Y-106502000D01*
G75*
G02*
X148229000Y-106564500I0J-62500D01*
G01*
X148229000Y-106689500D01*
G75*
G02*
X148166500Y-106752000I-62500J0D01*
G01*
G37*
G36*
G01*
X148166500Y-107252000D02*
X147216500Y-107252000D01*
G75*
G02*
X147154000Y-107189500I0J62500D01*
G01*
X147154000Y-107064500D01*
G75*
G02*
X147216500Y-107002000I62500J0D01*
G01*
X148166500Y-107002000D01*
G75*
G02*
X148229000Y-107064500I0J-62500D01*
G01*
X148229000Y-107189500D01*
G75*
G02*
X148166500Y-107252000I-62500J0D01*
G01*
G37*
G36*
G01*
X148166500Y-107752000D02*
X147216500Y-107752000D01*
G75*
G02*
X147154000Y-107689500I0J62500D01*
G01*
X147154000Y-107564500D01*
G75*
G02*
X147216500Y-107502000I62500J0D01*
G01*
X148166500Y-107502000D01*
G75*
G02*
X148229000Y-107564500I0J-62500D01*
G01*
X148229000Y-107689500D01*
G75*
G02*
X148166500Y-107752000I-62500J0D01*
G01*
G37*
G36*
G01*
X148166500Y-108252000D02*
X147216500Y-108252000D01*
G75*
G02*
X147154000Y-108189500I0J62500D01*
G01*
X147154000Y-108064500D01*
G75*
G02*
X147216500Y-108002000I62500J0D01*
G01*
X148166500Y-108002000D01*
G75*
G02*
X148229000Y-108064500I0J-62500D01*
G01*
X148229000Y-108189500D01*
G75*
G02*
X148166500Y-108252000I-62500J0D01*
G01*
G37*
G36*
G01*
X148166500Y-108752000D02*
X147216500Y-108752000D01*
G75*
G02*
X147154000Y-108689500I0J62500D01*
G01*
X147154000Y-108564500D01*
G75*
G02*
X147216500Y-108502000I62500J0D01*
G01*
X148166500Y-108502000D01*
G75*
G02*
X148229000Y-108564500I0J-62500D01*
G01*
X148229000Y-108689500D01*
G75*
G02*
X148166500Y-108752000I-62500J0D01*
G01*
G37*
G36*
G01*
X146916500Y-110002000D02*
X146791500Y-110002000D01*
G75*
G02*
X146729000Y-109939500I0J62500D01*
G01*
X146729000Y-108989500D01*
G75*
G02*
X146791500Y-108927000I62500J0D01*
G01*
X146916500Y-108927000D01*
G75*
G02*
X146979000Y-108989500I0J-62500D01*
G01*
X146979000Y-109939500D01*
G75*
G02*
X146916500Y-110002000I-62500J0D01*
G01*
G37*
G36*
G01*
X146416500Y-110002000D02*
X146291500Y-110002000D01*
G75*
G02*
X146229000Y-109939500I0J62500D01*
G01*
X146229000Y-108989500D01*
G75*
G02*
X146291500Y-108927000I62500J0D01*
G01*
X146416500Y-108927000D01*
G75*
G02*
X146479000Y-108989500I0J-62500D01*
G01*
X146479000Y-109939500D01*
G75*
G02*
X146416500Y-110002000I-62500J0D01*
G01*
G37*
G36*
G01*
X145916500Y-110002000D02*
X145791500Y-110002000D01*
G75*
G02*
X145729000Y-109939500I0J62500D01*
G01*
X145729000Y-108989500D01*
G75*
G02*
X145791500Y-108927000I62500J0D01*
G01*
X145916500Y-108927000D01*
G75*
G02*
X145979000Y-108989500I0J-62500D01*
G01*
X145979000Y-109939500D01*
G75*
G02*
X145916500Y-110002000I-62500J0D01*
G01*
G37*
G36*
G01*
X145416500Y-110002000D02*
X145291500Y-110002000D01*
G75*
G02*
X145229000Y-109939500I0J62500D01*
G01*
X145229000Y-108989500D01*
G75*
G02*
X145291500Y-108927000I62500J0D01*
G01*
X145416500Y-108927000D01*
G75*
G02*
X145479000Y-108989500I0J-62500D01*
G01*
X145479000Y-109939500D01*
G75*
G02*
X145416500Y-110002000I-62500J0D01*
G01*
G37*
G36*
G01*
X144916500Y-110002000D02*
X144791500Y-110002000D01*
G75*
G02*
X144729000Y-109939500I0J62500D01*
G01*
X144729000Y-108989500D01*
G75*
G02*
X144791500Y-108927000I62500J0D01*
G01*
X144916500Y-108927000D01*
G75*
G02*
X144979000Y-108989500I0J-62500D01*
G01*
X144979000Y-109939500D01*
G75*
G02*
X144916500Y-110002000I-62500J0D01*
G01*
G37*
G36*
G01*
X144416500Y-110002000D02*
X144291500Y-110002000D01*
G75*
G02*
X144229000Y-109939500I0J62500D01*
G01*
X144229000Y-108989500D01*
G75*
G02*
X144291500Y-108927000I62500J0D01*
G01*
X144416500Y-108927000D01*
G75*
G02*
X144479000Y-108989500I0J-62500D01*
G01*
X144479000Y-109939500D01*
G75*
G02*
X144416500Y-110002000I-62500J0D01*
G01*
G37*
G36*
G01*
X143916500Y-110002000D02*
X143791500Y-110002000D01*
G75*
G02*
X143729000Y-109939500I0J62500D01*
G01*
X143729000Y-108989500D01*
G75*
G02*
X143791500Y-108927000I62500J0D01*
G01*
X143916500Y-108927000D01*
G75*
G02*
X143979000Y-108989500I0J-62500D01*
G01*
X143979000Y-109939500D01*
G75*
G02*
X143916500Y-110002000I-62500J0D01*
G01*
G37*
G36*
G01*
X143416500Y-110002000D02*
X143291500Y-110002000D01*
G75*
G02*
X143229000Y-109939500I0J62500D01*
G01*
X143229000Y-108989500D01*
G75*
G02*
X143291500Y-108927000I62500J0D01*
G01*
X143416500Y-108927000D01*
G75*
G02*
X143479000Y-108989500I0J-62500D01*
G01*
X143479000Y-109939500D01*
G75*
G02*
X143416500Y-110002000I-62500J0D01*
G01*
G37*
G36*
G01*
X142916500Y-110002000D02*
X142791500Y-110002000D01*
G75*
G02*
X142729000Y-109939500I0J62500D01*
G01*
X142729000Y-108989500D01*
G75*
G02*
X142791500Y-108927000I62500J0D01*
G01*
X142916500Y-108927000D01*
G75*
G02*
X142979000Y-108989500I0J-62500D01*
G01*
X142979000Y-109939500D01*
G75*
G02*
X142916500Y-110002000I-62500J0D01*
G01*
G37*
G36*
G01*
X142416500Y-110002000D02*
X142291500Y-110002000D01*
G75*
G02*
X142229000Y-109939500I0J62500D01*
G01*
X142229000Y-108989500D01*
G75*
G02*
X142291500Y-108927000I62500J0D01*
G01*
X142416500Y-108927000D01*
G75*
G02*
X142479000Y-108989500I0J-62500D01*
G01*
X142479000Y-109939500D01*
G75*
G02*
X142416500Y-110002000I-62500J0D01*
G01*
G37*
G36*
G01*
X141916500Y-110002000D02*
X141791500Y-110002000D01*
G75*
G02*
X141729000Y-109939500I0J62500D01*
G01*
X141729000Y-108989500D01*
G75*
G02*
X141791500Y-108927000I62500J0D01*
G01*
X141916500Y-108927000D01*
G75*
G02*
X141979000Y-108989500I0J-62500D01*
G01*
X141979000Y-109939500D01*
G75*
G02*
X141916500Y-110002000I-62500J0D01*
G01*
G37*
%TD*%
D16*
%TO.C,J3*%
X138954000Y-125062500D03*
D17*
X139954000Y-122362500D03*
X140604000Y-122362500D03*
X141254000Y-122362500D03*
X138654000Y-122362500D03*
X139304000Y-122362500D03*
D16*
X140954000Y-125062500D03*
%TD*%
%TO.C,C28*%
G36*
G01*
X143223000Y-98737000D02*
X142273000Y-98737000D01*
G75*
G02*
X142023000Y-98487000I0J250000D01*
G01*
X142023000Y-97812000D01*
G75*
G02*
X142273000Y-97562000I250000J0D01*
G01*
X143223000Y-97562000D01*
G75*
G02*
X143473000Y-97812000I0J-250000D01*
G01*
X143473000Y-98487000D01*
G75*
G02*
X143223000Y-98737000I-250000J0D01*
G01*
G37*
G36*
G01*
X143223000Y-100812000D02*
X142273000Y-100812000D01*
G75*
G02*
X142023000Y-100562000I0J250000D01*
G01*
X142023000Y-99887000D01*
G75*
G02*
X142273000Y-99637000I250000J0D01*
G01*
X143223000Y-99637000D01*
G75*
G02*
X143473000Y-99887000I0J-250000D01*
G01*
X143473000Y-100562000D01*
G75*
G02*
X143223000Y-100812000I-250000J0D01*
G01*
G37*
%TD*%
%TO.C,C27*%
G36*
G01*
X179230000Y-109902500D02*
X180180000Y-109902500D01*
G75*
G02*
X180430000Y-110152500I0J-250000D01*
G01*
X180430000Y-110827500D01*
G75*
G02*
X180180000Y-111077500I-250000J0D01*
G01*
X179230000Y-111077500D01*
G75*
G02*
X178980000Y-110827500I0J250000D01*
G01*
X178980000Y-110152500D01*
G75*
G02*
X179230000Y-109902500I250000J0D01*
G01*
G37*
G36*
G01*
X179230000Y-107827500D02*
X180180000Y-107827500D01*
G75*
G02*
X180430000Y-108077500I0J-250000D01*
G01*
X180430000Y-108752500D01*
G75*
G02*
X180180000Y-109002500I-250000J0D01*
G01*
X179230000Y-109002500D01*
G75*
G02*
X178980000Y-108752500I0J250000D01*
G01*
X178980000Y-108077500D01*
G75*
G02*
X179230000Y-107827500I250000J0D01*
G01*
G37*
%TD*%
%TO.C,C26*%
G36*
G01*
X141953000Y-86164000D02*
X141003000Y-86164000D01*
G75*
G02*
X140753000Y-85914000I0J250000D01*
G01*
X140753000Y-85239000D01*
G75*
G02*
X141003000Y-84989000I250000J0D01*
G01*
X141953000Y-84989000D01*
G75*
G02*
X142203000Y-85239000I0J-250000D01*
G01*
X142203000Y-85914000D01*
G75*
G02*
X141953000Y-86164000I-250000J0D01*
G01*
G37*
G36*
G01*
X141953000Y-88239000D02*
X141003000Y-88239000D01*
G75*
G02*
X140753000Y-87989000I0J250000D01*
G01*
X140753000Y-87314000D01*
G75*
G02*
X141003000Y-87064000I250000J0D01*
G01*
X141953000Y-87064000D01*
G75*
G02*
X142203000Y-87314000I0J-250000D01*
G01*
X142203000Y-87989000D01*
G75*
G02*
X141953000Y-88239000I-250000J0D01*
G01*
G37*
%TD*%
%TO.C,C25*%
G36*
G01*
X151986000Y-86185500D02*
X151036000Y-86185500D01*
G75*
G02*
X150786000Y-85935500I0J250000D01*
G01*
X150786000Y-85260500D01*
G75*
G02*
X151036000Y-85010500I250000J0D01*
G01*
X151986000Y-85010500D01*
G75*
G02*
X152236000Y-85260500I0J-250000D01*
G01*
X152236000Y-85935500D01*
G75*
G02*
X151986000Y-86185500I-250000J0D01*
G01*
G37*
G36*
G01*
X151986000Y-88260500D02*
X151036000Y-88260500D01*
G75*
G02*
X150786000Y-88010500I0J250000D01*
G01*
X150786000Y-87335500D01*
G75*
G02*
X151036000Y-87085500I250000J0D01*
G01*
X151986000Y-87085500D01*
G75*
G02*
X152236000Y-87335500I0J-250000D01*
G01*
X152236000Y-88010500D01*
G75*
G02*
X151986000Y-88260500I-250000J0D01*
G01*
G37*
%TD*%
%TO.C,C24*%
G36*
G01*
X175583000Y-50767000D02*
X175583000Y-49817000D01*
G75*
G02*
X175833000Y-49567000I250000J0D01*
G01*
X176508000Y-49567000D01*
G75*
G02*
X176758000Y-49817000I0J-250000D01*
G01*
X176758000Y-50767000D01*
G75*
G02*
X176508000Y-51017000I-250000J0D01*
G01*
X175833000Y-51017000D01*
G75*
G02*
X175583000Y-50767000I0J250000D01*
G01*
G37*
G36*
G01*
X173508000Y-50767000D02*
X173508000Y-49817000D01*
G75*
G02*
X173758000Y-49567000I250000J0D01*
G01*
X174433000Y-49567000D01*
G75*
G02*
X174683000Y-49817000I0J-250000D01*
G01*
X174683000Y-50767000D01*
G75*
G02*
X174433000Y-51017000I-250000J0D01*
G01*
X173758000Y-51017000D01*
G75*
G02*
X173508000Y-50767000I0J250000D01*
G01*
G37*
%TD*%
%TO.C,C23*%
G36*
G01*
X139352000Y-76501500D02*
X140302000Y-76501500D01*
G75*
G02*
X140552000Y-76751500I0J-250000D01*
G01*
X140552000Y-77426500D01*
G75*
G02*
X140302000Y-77676500I-250000J0D01*
G01*
X139352000Y-77676500D01*
G75*
G02*
X139102000Y-77426500I0J250000D01*
G01*
X139102000Y-76751500D01*
G75*
G02*
X139352000Y-76501500I250000J0D01*
G01*
G37*
G36*
G01*
X139352000Y-74426500D02*
X140302000Y-74426500D01*
G75*
G02*
X140552000Y-74676500I0J-250000D01*
G01*
X140552000Y-75351500D01*
G75*
G02*
X140302000Y-75601500I-250000J0D01*
G01*
X139352000Y-75601500D01*
G75*
G02*
X139102000Y-75351500I0J250000D01*
G01*
X139102000Y-74676500D01*
G75*
G02*
X139352000Y-74426500I250000J0D01*
G01*
G37*
%TD*%
%TO.C,C22*%
G36*
G01*
X124874000Y-81984000D02*
X125824000Y-81984000D01*
G75*
G02*
X126074000Y-82234000I0J-250000D01*
G01*
X126074000Y-82909000D01*
G75*
G02*
X125824000Y-83159000I-250000J0D01*
G01*
X124874000Y-83159000D01*
G75*
G02*
X124624000Y-82909000I0J250000D01*
G01*
X124624000Y-82234000D01*
G75*
G02*
X124874000Y-81984000I250000J0D01*
G01*
G37*
G36*
G01*
X124874000Y-79909000D02*
X125824000Y-79909000D01*
G75*
G02*
X126074000Y-80159000I0J-250000D01*
G01*
X126074000Y-80834000D01*
G75*
G02*
X125824000Y-81084000I-250000J0D01*
G01*
X124874000Y-81084000D01*
G75*
G02*
X124624000Y-80834000I0J250000D01*
G01*
X124624000Y-80159000D01*
G75*
G02*
X124874000Y-79909000I250000J0D01*
G01*
G37*
%TD*%
%TO.C,C21*%
G36*
G01*
X129700000Y-99891000D02*
X130650000Y-99891000D01*
G75*
G02*
X130900000Y-100141000I0J-250000D01*
G01*
X130900000Y-100816000D01*
G75*
G02*
X130650000Y-101066000I-250000J0D01*
G01*
X129700000Y-101066000D01*
G75*
G02*
X129450000Y-100816000I0J250000D01*
G01*
X129450000Y-100141000D01*
G75*
G02*
X129700000Y-99891000I250000J0D01*
G01*
G37*
G36*
G01*
X129700000Y-97816000D02*
X130650000Y-97816000D01*
G75*
G02*
X130900000Y-98066000I0J-250000D01*
G01*
X130900000Y-98741000D01*
G75*
G02*
X130650000Y-98991000I-250000J0D01*
G01*
X129700000Y-98991000D01*
G75*
G02*
X129450000Y-98741000I0J250000D01*
G01*
X129450000Y-98066000D01*
G75*
G02*
X129700000Y-97816000I250000J0D01*
G01*
G37*
%TD*%
%TO.C,C20*%
G36*
G01*
X109761000Y-82343500D02*
X110711000Y-82343500D01*
G75*
G02*
X110961000Y-82593500I0J-250000D01*
G01*
X110961000Y-83268500D01*
G75*
G02*
X110711000Y-83518500I-250000J0D01*
G01*
X109761000Y-83518500D01*
G75*
G02*
X109511000Y-83268500I0J250000D01*
G01*
X109511000Y-82593500D01*
G75*
G02*
X109761000Y-82343500I250000J0D01*
G01*
G37*
G36*
G01*
X109761000Y-80268500D02*
X110711000Y-80268500D01*
G75*
G02*
X110961000Y-80518500I0J-250000D01*
G01*
X110961000Y-81193500D01*
G75*
G02*
X110711000Y-81443500I-250000J0D01*
G01*
X109761000Y-81443500D01*
G75*
G02*
X109511000Y-81193500I0J250000D01*
G01*
X109511000Y-80518500D01*
G75*
G02*
X109761000Y-80268500I250000J0D01*
G01*
G37*
%TD*%
%TO.C,C19*%
G36*
G01*
X122842000Y-97986000D02*
X123792000Y-97986000D01*
G75*
G02*
X124042000Y-98236000I0J-250000D01*
G01*
X124042000Y-98911000D01*
G75*
G02*
X123792000Y-99161000I-250000J0D01*
G01*
X122842000Y-99161000D01*
G75*
G02*
X122592000Y-98911000I0J250000D01*
G01*
X122592000Y-98236000D01*
G75*
G02*
X122842000Y-97986000I250000J0D01*
G01*
G37*
G36*
G01*
X122842000Y-95911000D02*
X123792000Y-95911000D01*
G75*
G02*
X124042000Y-96161000I0J-250000D01*
G01*
X124042000Y-96836000D01*
G75*
G02*
X123792000Y-97086000I-250000J0D01*
G01*
X122842000Y-97086000D01*
G75*
G02*
X122592000Y-96836000I0J250000D01*
G01*
X122592000Y-96161000D01*
G75*
G02*
X122842000Y-95911000I250000J0D01*
G01*
G37*
%TD*%
%TO.C,C18*%
G36*
G01*
X113215000Y-45753000D02*
X113215000Y-46703000D01*
G75*
G02*
X112965000Y-46953000I-250000J0D01*
G01*
X112290000Y-46953000D01*
G75*
G02*
X112040000Y-46703000I0J250000D01*
G01*
X112040000Y-45753000D01*
G75*
G02*
X112290000Y-45503000I250000J0D01*
G01*
X112965000Y-45503000D01*
G75*
G02*
X113215000Y-45753000I0J-250000D01*
G01*
G37*
G36*
G01*
X115290000Y-45753000D02*
X115290000Y-46703000D01*
G75*
G02*
X115040000Y-46953000I-250000J0D01*
G01*
X114365000Y-46953000D01*
G75*
G02*
X114115000Y-46703000I0J250000D01*
G01*
X114115000Y-45753000D01*
G75*
G02*
X114365000Y-45503000I250000J0D01*
G01*
X115040000Y-45503000D01*
G75*
G02*
X115290000Y-45753000I0J-250000D01*
G01*
G37*
%TD*%
%TO.C,C17*%
G36*
G01*
X110051000Y-46703000D02*
X110051000Y-45753000D01*
G75*
G02*
X110301000Y-45503000I250000J0D01*
G01*
X110976000Y-45503000D01*
G75*
G02*
X111226000Y-45753000I0J-250000D01*
G01*
X111226000Y-46703000D01*
G75*
G02*
X110976000Y-46953000I-250000J0D01*
G01*
X110301000Y-46953000D01*
G75*
G02*
X110051000Y-46703000I0J250000D01*
G01*
G37*
G36*
G01*
X107976000Y-46703000D02*
X107976000Y-45753000D01*
G75*
G02*
X108226000Y-45503000I250000J0D01*
G01*
X108901000Y-45503000D01*
G75*
G02*
X109151000Y-45753000I0J-250000D01*
G01*
X109151000Y-46703000D01*
G75*
G02*
X108901000Y-46953000I-250000J0D01*
G01*
X108226000Y-46953000D01*
G75*
G02*
X107976000Y-46703000I0J250000D01*
G01*
G37*
%TD*%
%TO.C,C16*%
G36*
G01*
X147018500Y-100236000D02*
X147018500Y-101186000D01*
G75*
G02*
X146768500Y-101436000I-250000J0D01*
G01*
X146093500Y-101436000D01*
G75*
G02*
X145843500Y-101186000I0J250000D01*
G01*
X145843500Y-100236000D01*
G75*
G02*
X146093500Y-99986000I250000J0D01*
G01*
X146768500Y-99986000D01*
G75*
G02*
X147018500Y-100236000I0J-250000D01*
G01*
G37*
G36*
G01*
X149093500Y-100236000D02*
X149093500Y-101186000D01*
G75*
G02*
X148843500Y-101436000I-250000J0D01*
G01*
X148168500Y-101436000D01*
G75*
G02*
X147918500Y-101186000I0J250000D01*
G01*
X147918500Y-100236000D01*
G75*
G02*
X148168500Y-99986000I250000J0D01*
G01*
X148843500Y-99986000D01*
G75*
G02*
X149093500Y-100236000I0J-250000D01*
G01*
G37*
%TD*%
%TO.C,C14*%
G36*
G01*
X143543000Y-119554500D02*
X144493000Y-119554500D01*
G75*
G02*
X144743000Y-119804500I0J-250000D01*
G01*
X144743000Y-120479500D01*
G75*
G02*
X144493000Y-120729500I-250000J0D01*
G01*
X143543000Y-120729500D01*
G75*
G02*
X143293000Y-120479500I0J250000D01*
G01*
X143293000Y-119804500D01*
G75*
G02*
X143543000Y-119554500I250000J0D01*
G01*
G37*
G36*
G01*
X143543000Y-117479500D02*
X144493000Y-117479500D01*
G75*
G02*
X144743000Y-117729500I0J-250000D01*
G01*
X144743000Y-118404500D01*
G75*
G02*
X144493000Y-118654500I-250000J0D01*
G01*
X143543000Y-118654500D01*
G75*
G02*
X143293000Y-118404500I0J250000D01*
G01*
X143293000Y-117729500D01*
G75*
G02*
X143543000Y-117479500I250000J0D01*
G01*
G37*
%TD*%
%TO.C,C13*%
G36*
G01*
X137127000Y-118676000D02*
X136177000Y-118676000D01*
G75*
G02*
X135927000Y-118426000I0J250000D01*
G01*
X135927000Y-117751000D01*
G75*
G02*
X136177000Y-117501000I250000J0D01*
G01*
X137127000Y-117501000D01*
G75*
G02*
X137377000Y-117751000I0J-250000D01*
G01*
X137377000Y-118426000D01*
G75*
G02*
X137127000Y-118676000I-250000J0D01*
G01*
G37*
G36*
G01*
X137127000Y-120751000D02*
X136177000Y-120751000D01*
G75*
G02*
X135927000Y-120501000I0J250000D01*
G01*
X135927000Y-119826000D01*
G75*
G02*
X136177000Y-119576000I250000J0D01*
G01*
X137127000Y-119576000D01*
G75*
G02*
X137377000Y-119826000I0J-250000D01*
G01*
X137377000Y-120501000D01*
G75*
G02*
X137127000Y-120751000I-250000J0D01*
G01*
G37*
%TD*%
%TO.C,C12*%
G36*
G01*
X114866000Y-73058000D02*
X114866000Y-74008000D01*
G75*
G02*
X114616000Y-74258000I-250000J0D01*
G01*
X113941000Y-74258000D01*
G75*
G02*
X113691000Y-74008000I0J250000D01*
G01*
X113691000Y-73058000D01*
G75*
G02*
X113941000Y-72808000I250000J0D01*
G01*
X114616000Y-72808000D01*
G75*
G02*
X114866000Y-73058000I0J-250000D01*
G01*
G37*
G36*
G01*
X116941000Y-73058000D02*
X116941000Y-74008000D01*
G75*
G02*
X116691000Y-74258000I-250000J0D01*
G01*
X116016000Y-74258000D01*
G75*
G02*
X115766000Y-74008000I0J250000D01*
G01*
X115766000Y-73058000D01*
G75*
G02*
X116016000Y-72808000I250000J0D01*
G01*
X116691000Y-72808000D01*
G75*
G02*
X116941000Y-73058000I0J-250000D01*
G01*
G37*
%TD*%
%TO.C,C11*%
G36*
G01*
X114866000Y-67851000D02*
X114866000Y-68801000D01*
G75*
G02*
X114616000Y-69051000I-250000J0D01*
G01*
X113941000Y-69051000D01*
G75*
G02*
X113691000Y-68801000I0J250000D01*
G01*
X113691000Y-67851000D01*
G75*
G02*
X113941000Y-67601000I250000J0D01*
G01*
X114616000Y-67601000D01*
G75*
G02*
X114866000Y-67851000I0J-250000D01*
G01*
G37*
G36*
G01*
X116941000Y-67851000D02*
X116941000Y-68801000D01*
G75*
G02*
X116691000Y-69051000I-250000J0D01*
G01*
X116016000Y-69051000D01*
G75*
G02*
X115766000Y-68801000I0J250000D01*
G01*
X115766000Y-67851000D01*
G75*
G02*
X116016000Y-67601000I250000J0D01*
G01*
X116691000Y-67601000D01*
G75*
G02*
X116941000Y-67851000I0J-250000D01*
G01*
G37*
%TD*%
%TO.C,C10*%
G36*
G01*
X169324000Y-83000000D02*
X170274000Y-83000000D01*
G75*
G02*
X170524000Y-83250000I0J-250000D01*
G01*
X170524000Y-83925000D01*
G75*
G02*
X170274000Y-84175000I-250000J0D01*
G01*
X169324000Y-84175000D01*
G75*
G02*
X169074000Y-83925000I0J250000D01*
G01*
X169074000Y-83250000D01*
G75*
G02*
X169324000Y-83000000I250000J0D01*
G01*
G37*
G36*
G01*
X169324000Y-80925000D02*
X170274000Y-80925000D01*
G75*
G02*
X170524000Y-81175000I0J-250000D01*
G01*
X170524000Y-81850000D01*
G75*
G02*
X170274000Y-82100000I-250000J0D01*
G01*
X169324000Y-82100000D01*
G75*
G02*
X169074000Y-81850000I0J250000D01*
G01*
X169074000Y-81175000D01*
G75*
G02*
X169324000Y-80925000I250000J0D01*
G01*
G37*
%TD*%
M02*
