EESchema Schematic File Version 4
EELAYER 30 0
EELAYER END
$Descr A3 16535 11693
encoding utf-8
Sheet 1 1
Title ""
Date ""
Rev ""
Comp ""
Comment1 ""
Comment2 ""
Comment3 ""
Comment4 ""
$EndDescr
Wire Wire Line
	13150 6150 11600 6150
Wire Wire Line
	14150 6150 14350 6150
$Comp
L power:GND #PWR0101
U 1 1 615A7C71
P 3650 3850
F 0 "#PWR0101" H 3650 3600 50  0001 C CNN
F 1 "GND" H 3655 3677 50  0000 C CNN
F 2 "" H 3650 3850 50  0001 C CNN
F 3 "" H 3650 3850 50  0001 C CNN
	1    3650 3850
	1    0    0    -1  
$EndComp
$Comp
L Connector:Conn_01x02_Female J3
U 1 1 615B25D0
P 6350 8500
F 0 "J3" H 6378 8476 50  0000 L CNN
F 1 "Peltier Device Control Signals" H 6378 8385 50  0000 L CNN
F 2 "" H 6350 8500 50  0001 C CNN
F 3 "~" H 6350 8500 50  0001 C CNN
	1    6350 8500
	1    0    0    -1  
$EndComp
Text GLabel 13850 6150 0    50   Input ~ 0
discharge_ready
$Comp
L power:+5V #PWR0103
U 1 1 615AAFF7
P 11350 6100
F 0 "#PWR0103" H 11350 5950 50  0001 C CNN
F 1 "+5V" H 11365 6273 50  0000 C CNN
F 2 "" H 11350 6100 50  0001 C CNN
F 3 "" H 11350 6100 50  0001 C CNN
	1    11350 6100
	1    0    0    -1  
$EndComp
Wire Wire Line
	11750 6100 11350 6100
Wire Wire Line
	11350 6150 11350 6100
Connection ~ 11350 6100
Wire Wire Line
	11200 6100 11350 6100
Text GLabel 5600 4250 0    50   Input ~ 0
REGN
Wire Wire Line
	5650 4200 5600 4200
Wire Wire Line
	5600 4200 5600 4250
$Comp
L power:GND #PWR0105
U 1 1 618121B4
P 5700 4650
F 0 "#PWR0105" H 5700 4400 50  0001 C CNN
F 1 "GND" H 5705 4477 50  0000 C CNN
F 2 "" H 5700 4650 50  0001 C CNN
F 3 "" H 5700 4650 50  0001 C CNN
	1    5700 4650
	0    1    1    0   
$EndComp
Wire Wire Line
	5650 4450 5650 4200
Text GLabel 5800 2500 2    50   Input ~ 0
SDRV
Wire Wire Line
	5750 2500 5800 2500
$Comp
L power:GND #PWR0106
U 1 1 6191A488
P 6400 1750
F 0 "#PWR0106" H 6400 1500 50  0001 C CNN
F 1 "GND" V 6405 1577 50  0000 C CNN
F 2 "" H 6400 1750 50  0001 C CNN
F 3 "" H 6400 1750 50  0001 C CNN
	1    6400 1750
	0    1    1    0   
$EndComp
$Comp
L Device:C C7
U 1 1 61919B55
P 5600 2500
F 0 "C7" V 5800 2450 50  0000 L CNN
F 1 "1nF" V 5715 2455 50  0000 L CNN
F 2 "" H 5638 2350 50  0001 C CNN
F 3 "~" H 5600 2500 50  0001 C CNN
	1    5600 2500
	0    1    1    0   
$EndComp
Text GLabel 6450 3700 0    50   Input ~ 0
SDRV
Wire Wire Line
	6500 3700 6450 3700
$Comp
L power:GND #PWR0107
U 1 1 61763BBE
P 5750 3750
F 0 "#PWR0107" H 5750 3500 50  0001 C CNN
F 1 "GND" V 5755 3577 50  0000 C CNN
F 2 "" H 5750 3750 50  0001 C CNN
F 3 "" H 5750 3750 50  0001 C CNN
	1    5750 3750
	0    1    1    0   
$EndComp
$Comp
L Device:R R13
U 1 1 6176338E
P 5900 3750
F 0 "R13" V 5750 3750 50  0000 R CNN
F 1 "3k" V 5830 3795 50  0000 R CNN
F 2 "" V 5830 3750 50  0001 C CNN
F 3 "~" H 5900 3750 50  0001 C CNN
	1    5900 3750
	0    -1   -1   0   
$EndComp
Wire Wire Line
	6050 3800 6050 3750
Wire Wire Line
	6300 4450 5650 4450
Wire Wire Line
	6300 4650 6300 4450
Wire Wire Line
	6450 4550 6000 4550
Connection ~ 6000 4650
$Comp
L Device:R R10
U 1 1 617D8C6E
P 6150 4650
F 0 "R10" H 6080 4604 50  0000 R CNN
F 1 "127k " H 6080 4695 50  0000 R CNN
F 2 "" V 6080 4650 50  0001 C CNN
F 3 "~" H 6150 4650 50  0001 C CNN
	1    6150 4650
	0    -1   -1   0   
$EndComp
$Comp
L Device:R R9
U 1 1 617D86FC
P 5850 4650
F 0 "R9" H 5780 4604 50  0000 R CNN
F 1 "100k" H 5780 4695 50  0000 R CNN
F 2 "" V 5780 4650 50  0001 C CNN
F 3 "~" H 5850 4650 50  0001 C CNN
	1    5850 4650
	0    -1   -1   0   
$EndComp
Wire Wire Line
	6000 4550 6000 4650
Wire Wire Line
	6450 3900 6450 4550
Wire Wire Line
	6500 3900 6450 3900
Wire Wire Line
	8100 4200 8100 4100
Connection ~ 8100 4200
Wire Wire Line
	8300 4200 8100 4200
Wire Wire Line
	7900 4700 8300 4700
Connection ~ 8100 4600
Wire Wire Line
	8050 4600 8100 4600
Wire Wire Line
	8050 4500 8050 4600
Wire Wire Line
	7900 4500 8050 4500
Wire Wire Line
	6500 3800 6050 3800
$Comp
L power:GND #PWR0108
U 1 1 61759D1F
P 5800 3250
F 0 "#PWR0108" H 5800 3000 50  0001 C CNN
F 1 "GND" V 5805 3077 50  0000 C CNN
F 2 "" H 5800 3250 50  0001 C CNN
F 3 "" H 5800 3250 50  0001 C CNN
	1    5800 3250
	0    1    1    0   
$EndComp
Wire Wire Line
	6450 3250 6450 2700
Connection ~ 6450 3250
Wire Wire Line
	6450 3250 5800 3250
Wire Wire Line
	6450 2700 6500 2700
Wire Wire Line
	6450 3400 6450 3250
Wire Wire Line
	6500 3400 6450 3400
$Comp
L Device:LED D?
U 1 1 61747027
P 6100 4200
F 0 "D?" V 6047 4280 50  0000 L CNN
F 1 "LED" V 6138 4280 50  0000 L CNN
F 2 "" H 6100 4200 50  0001 C CNN
F 3 "~" H 6100 4200 50  0001 C CNN
	1    6100 4200
	-1   0    0    1   
$EndComp
Text GLabel 8350 5050 2    50   Input ~ 0
BTST2
Wire Wire Line
	8350 4900 8350 5050
Wire Wire Line
	8100 4600 8100 4550
Wire Wire Line
	8350 4600 8100 4600
$Comp
L Device:C C8
U 1 1 6172CCD2
P 8350 4750
F 0 "C8" V 8098 4750 50  0000 C CNN
F 1 "47nF" V 8189 4750 50  0000 C CNN
F 2 "" H 8388 4600 50  0001 C CNN
F 3 "~" H 8350 4750 50  0001 C CNN
	1    8350 4750
	-1   0    0    1   
$EndComp
Wire Wire Line
	6500 3600 6100 3600
Wire Wire Line
	8100 2800 7900 2800
Wire Wire Line
	8100 3800 8100 2800
Wire Wire Line
	8100 4250 8100 4200
Wire Wire Line
	6500 4200 6250 4200
$Comp
L Device:R R11
U 1 1 616F00C2
P 5800 4200
F 0 "R11" H 5730 4154 50  0000 R CNN
F 1 "2.2k" H 5730 4245 50  0000 R CNN
F 2 "" V 5730 4200 50  0001 C CNN
F 3 "~" H 5800 4200 50  0001 C CNN
	1    5800 4200
	0    -1   -1   0   
$EndComp
Wire Wire Line
	6300 3500 6500 3500
Wire Wire Line
	6500 2800 6300 2800
$Comp
L power:GND #PWR0109
U 1 1 616D657F
P 5800 2900
F 0 "#PWR0109" H 5800 2650 50  0001 C CNN
F 1 "GND" V 5805 2727 50  0000 C CNN
F 2 "" H 5800 2900 50  0001 C CNN
F 3 "" H 5800 2900 50  0001 C CNN
	1    5800 2900
	0    1    1    0   
$EndComp
$Comp
L power:GND #PWR0110
U 1 1 616D6161
P 6700 5250
F 0 "#PWR0110" H 6700 5000 50  0001 C CNN
F 1 "GND" H 6705 5077 50  0000 C CNN
F 2 "" H 6700 5250 50  0001 C CNN
F 3 "" H 6700 5250 50  0001 C CNN
	1    6700 5250
	1    0    0    -1  
$EndComp
Connection ~ 6100 2900
$Comp
L Device:CP C5
U 1 1 616D54BC
P 5950 2900
F 0 "C5" V 6150 2900 50  0000 L CNN
F 1 "20uF" V 6068 2855 50  0000 L CNN
F 2 "" H 5988 2750 50  0001 C CNN
F 3 "~" H 5950 2900 50  0001 C CNN
	1    5950 2900
	0    1    1    0   
$EndComp
Wire Wire Line
	6500 2900 6100 2900
Wire Wire Line
	6100 2900 6100 3300
$Comp
L Device:R R12
U 1 1 616BAD16
P 5250 2900
F 0 "R12" H 5100 3000 50  0000 C CNN
F 1 "100" H 5134 2900 50  0000 C CNN
F 2 "" V 5180 2900 50  0001 C CNN
F 3 "~" H 5250 2900 50  0001 C CNN
	1    5250 2900
	0    1    1    0   
$EndComp
$Comp
L Device:R R14
U 1 1 616A4292
P 6100 3450
F 0 "R14" V 5893 3450 50  0000 C CNN
F 1 "100" V 5984 3450 50  0000 C CNN
F 2 "" V 6030 3450 50  0001 C CNN
F 3 "~" H 6100 3450 50  0001 C CNN
	1    6100 3450
	-1   0    0    1   
$EndComp
Wire Wire Line
	8100 5250 7000 5250
Wire Wire Line
	8100 4800 8100 5250
Wire Wire Line
	7900 4800 8100 4800
$Comp
L Device:CP C4
U 1 1 6169CC6A
P 6850 5250
F 0 "C4" H 6968 5296 50  0000 L CNN
F 1 "30uF" H 6968 5205 50  0000 L CNN
F 2 "" H 6888 5100 50  0001 C CNN
F 3 "~" H 6850 5250 50  0001 C CNN
	1    6850 5250
	0    1    1    0   
$EndComp
$Comp
L Device:L L1
U 1 1 6168E003
P 8100 4400
F 0 "L1" V 7919 4400 50  0000 C CNN
F 1 "1uH" V 8010 4400 50  0000 C CNN
F 2 "" H 8100 4400 50  0001 C CNN
F 3 "~" H 8100 4400 50  0001 C CNN
	1    8100 4400
	-1   0    0    1   
$EndComp
Connection ~ 7700 5450
Wire Wire Line
	7700 5200 7700 5450
Wire Wire Line
	7900 5200 7700 5200
Wire Wire Line
	7900 4900 7900 5200
Wire Wire Line
	7800 5450 7700 5450
$Comp
L power:GND #PWR0111
U 1 1 61681812
P 7400 5450
F 0 "#PWR0111" H 7400 5200 50  0001 C CNN
F 1 "GND" H 7405 5277 50  0000 C CNN
F 2 "" H 7400 5450 50  0001 C CNN
F 3 "" H 7400 5450 50  0001 C CNN
	1    7400 5450
	0    1    1    0   
$EndComp
$Comp
L Device:CP C3
U 1 1 6167FF52
P 7550 5450
F 0 "C3" H 7668 5496 50  0000 L CNN
F 1 "20uF" H 7668 5405 50  0000 L CNN
F 2 "" H 7588 5300 50  0001 C CNN
F 3 "~" H 7550 5450 50  0001 C CNN
	1    7550 5450
	0    1    1    0   
$EndComp
$Comp
L power:+5V #PWR0112
U 1 1 6167F544
P 7800 5450
F 0 "#PWR0112" H 7800 5300 50  0001 C CNN
F 1 "+5V" H 7815 5623 50  0000 C CNN
F 2 "" H 7800 5450 50  0001 C CNN
F 3 "" H 7800 5450 50  0001 C CNN
	1    7800 5450
	0    1    1    0   
$EndComp
Text GLabel 5850 2350 0    50   Input ~ 0
SCL
Text GLabel 5850 2250 0    50   Input ~ 0
SDA
Wire Wire Line
	6500 2400 6350 2400
$Comp
L Senior-Design-V1-rescue:BQ24179YBGR-SamacSys_Parts IC1
U 1 1 615BCFD9
P 7900 4900
F 0 "IC1" V 8554 5028 50  0000 L CNN
F 1 "BQ24179YBGR" V 8645 5028 50  0000 L CNN
F 2 "BGA56C40P7X8_286X328X50" H 9150 5000 50  0001 L CNN
F 3 "https://www.ti.com/lit/ds/symlink/bq24179.pdf?ts=1620434088502&ref_url=https%253A%252F%252Fwww.ti.com%252Fproduct%252FBQ24179" H 9150 4900 50  0001 L CNN
F 4 "Battery Management Integrated, NVDC, 5-A 1-cell to 4-cell switch-mode buck-boost battery charger 56-DSBGA -40 to 85" H 9150 4800 50  0001 L CNN "Description"
F 5 "0.5" H 9150 4700 50  0001 L CNN "Height"
F 6 "595-BQ24179YBGR" H 9150 4600 50  0001 L CNN "Mouser Part Number"
F 7 "https://www.mouser.co.uk/ProductDetail/Texas-Instruments/BQ24179YBGR?qs=iLbezkQI%252Bsjk7FiJgAMAJg%3D%3D" H 9150 4500 50  0001 L CNN "Mouser Price/Stock"
F 8 "Texas Instruments" H 9150 4400 50  0001 L CNN "Manufacturer_Name"
F 9 "BQ24179YBGR" H 9150 4300 50  0001 L CNN "Manufacturer_Part_Number"
	1    7900 4900
	-1   0    0    1   
$EndComp
$Comp
L Connector:Conn_01x02_Female J1
U 1 1 6153825A
P 14550 1000
F 0 "J1" V 14488 1048 50  0000 L CNN
F 1 "Cell Connection" V 14397 1048 50  0000 L CNN
F 2 "" H 14550 1000 50  0001 C CNN
F 3 "~" H 14550 1000 50  0001 C CNN
	1    14550 1000
	0    1    -1   0   
$EndComp
$Comp
L Device:Fuse F1
U 1 1 6153B929
P 14550 1400
F 0 "F1" H 14610 1446 50  0000 L CNN
F 1 "Fuse" H 14610 1355 50  0000 L CNN
F 2 "" V 14480 1400 50  0001 C CNN
F 3 "~" H 14550 1400 50  0001 C CNN
	1    14550 1400
	1    0    0    -1  
$EndComp
$Comp
L power:GND #PWR0113
U 1 1 6159115F
P 14450 1300
F 0 "#PWR0113" H 14450 1050 50  0001 C CNN
F 1 "GND" H 14455 1127 50  0000 C CNN
F 2 "" H 14450 1300 50  0001 C CNN
F 3 "" H 14450 1300 50  0001 C CNN
	1    14450 1300
	1    0    0    -1  
$EndComp
$Comp
L power:+5V #PWR0114
U 1 1 6152CE2C
P 14850 2800
F 0 "#PWR0114" H 14850 2650 50  0001 C CNN
F 1 "+5V" H 14865 2973 50  0000 C CNN
F 2 "" H 14850 2800 50  0001 C CNN
F 3 "" H 14850 2800 50  0001 C CNN
	1    14850 2800
	1    0    0    -1  
$EndComp
Wire Wire Line
	14850 2800 14400 2800
$Comp
L Device:Q_PMOS_DGS Q3
U 1 1 6151CBCE
P 13850 7700
F 0 "Q3" H 14055 7746 50  0000 L CNN
F 1 "Q_PMOS_DGS" H 14055 7655 50  0000 L CNN
F 2 "" H 14050 7800 50  0001 C CNN
F 3 "~" H 13850 7700 50  0001 C CNN
	1    13850 7700
	1    0    0    -1  
$EndComp
Wire Wire Line
	14150 7500 14150 7950
$Comp
L power:GND #PWR0115
U 1 1 61574780
P 11750 7650
F 0 "#PWR0115" H 11750 7400 50  0001 C CNN
F 1 "GND" H 11755 7477 50  0000 C CNN
F 2 "" H 11750 7650 50  0001 C CNN
F 3 "" H 11750 7650 50  0001 C CNN
	1    11750 7650
	1    0    0    -1  
$EndComp
Wire Wire Line
	11750 7600 11750 7650
Wire Wire Line
	11500 7600 11750 7600
$Comp
L power:GND #PWR0117
U 1 1 61572A00
P 14150 7950
F 0 "#PWR0117" H 14150 7700 50  0001 C CNN
F 1 "GND" H 14155 7777 50  0000 C CNN
F 2 "" H 14150 7950 50  0001 C CNN
F 3 "" H 14150 7950 50  0001 C CNN
	1    14150 7950
	1    0    0    -1  
$EndComp
Wire Wire Line
	13950 7900 13650 7900
$Comp
L Device:R R8
U 1 1 61531B7B
P 13500 7900
F 0 "R8" V 13293 7900 50  0000 C CNN
F 1 "20" V 13384 7900 50  0000 C CNN
F 2 "" V 13430 7900 50  0001 C CNN
F 3 "~" H 13500 7900 50  0001 C CNN
	1    13500 7900
	0    1    1    0   
$EndComp
Connection ~ 6100 3600
Wire Wire Line
	6100 3600 5900 3600
$Comp
L Device:R R?
U 1 1 61828929
P 6300 2000
F 0 "R?" V 6150 2000 50  0000 R CNN
F 1 "5.24K" V 6230 2045 50  0000 R CNN
F 2 "" V 6230 2000 50  0001 C CNN
F 3 "~" H 6300 2000 50  0001 C CNN
	1    6300 2000
	0    -1   -1   0   
$EndComp
$Comp
L Device:R R?
U 1 1 618290DF
P 6000 2000
F 0 "R?" V 5850 2000 50  0000 R CNN
F 1 "30.31k" V 5900 2100 50  0000 R CNN
F 2 "" V 5930 2000 50  0001 C CNN
F 3 "~" H 6000 2000 50  0001 C CNN
	1    6000 2000
	0    -1   -1   0   
$EndComp
Connection ~ 6150 2000
$Comp
L power:GND #PWR0118
U 1 1 618294AD
P 5800 2000
F 0 "#PWR0118" H 5800 1750 50  0001 C CNN
F 1 "GND" V 5805 1827 50  0000 C CNN
F 2 "" H 5800 2000 50  0001 C CNN
F 3 "" H 5800 2000 50  0001 C CNN
	1    5800 2000
	0    1    1    0   
$EndComp
Wire Wire Line
	6450 2000 6550 2000
Text GLabel 6550 2000 2    50   Input ~ 0
REGN
Wire Wire Line
	5850 2000 5800 2000
$Comp
L Connector:Conn_01x02_Female J4
U 1 1 6185E8D1
P 6250 1650
F 0 "J4" H 6142 1835 50  0000 C CNN
F 1 "Battery Thermistor 10k" H 6150 1450 50  0000 C CNN
F 2 "" H 6250 1650 50  0001 C CNN
F 3 "~" H 6250 1650 50  0001 C CNN
	1    6250 1650
	1    0    0    1   
$EndComp
Wire Wire Line
	5950 1750 5850 1750
Wire Wire Line
	5850 1750 5850 2000
Connection ~ 5850 2000
Wire Wire Line
	6050 1750 6150 1750
Wire Wire Line
	6150 1750 6150 2000
Connection ~ 5650 4200
Text GLabel 8600 4650 2    50   Input ~ 0
GND_Charge
$Comp
L Device:C C6
U 1 1 61703ABA
P 8100 3950
F 0 "C6" V 7848 3950 50  0000 C CNN
F 1 "47nF" V 7939 3950 50  0000 C CNN
F 2 "" H 8138 3800 50  0001 C CNN
F 3 "~" H 8100 3950 50  0001 C CNN
	1    8100 3950
	-1   0    0    1   
$EndComp
Wire Wire Line
	8300 4700 8300 4200
Wire Wire Line
	7950 4600 7900 4600
Wire Wire Line
	7950 4600 7950 4650
Wire Wire Line
	7950 4650 8600 4650
$Comp
L Device:CP C9
U 1 1 6180E2AC
P 8350 4400
F 0 "C9" H 8468 4446 50  0000 L CNN
F 1 "20uF" H 8468 4355 50  0000 L CNN
F 2 "" H 8388 4250 50  0001 C CNN
F 3 "~" H 8350 4400 50  0001 C CNN
	1    8350 4400
	0    -1   -1   0   
$EndComp
Wire Wire Line
	7900 4400 8200 4400
Wire Wire Line
	8500 4400 8750 4400
$Comp
L power:GND #PWR0119
U 1 1 61824A95
P 8750 4500
F 0 "#PWR0119" H 8750 4250 50  0001 C CNN
F 1 "GND" H 8755 4327 50  0000 C CNN
F 2 "" H 8750 4500 50  0001 C CNN
F 3 "" H 8750 4500 50  0001 C CNN
	1    8750 4500
	1    0    0    -1  
$EndComp
Wire Wire Line
	8750 4400 8750 4500
Connection ~ 11750 7600
Text GLabel 13600 7300 0    50   Input ~ 0
HLcurrent
Wire Wire Line
	13650 7300 13650 7700
Connection ~ 13650 7300
Wire Wire Line
	13650 7300 13600 7300
Wire Wire Line
	13650 6900 13650 7300
Wire Wire Line
	13950 7300 13950 7500
Connection ~ 11200 6900
Wire Wire Line
	11200 6800 11200 6900
$Comp
L power:GND #PWR0120
U 1 1 6161AD7B
P 11200 6900
F 0 "#PWR0120" H 11200 6650 50  0001 C CNN
F 1 "GND" H 11205 6727 50  0000 C CNN
F 2 "" H 11200 6900 50  0001 C CNN
F 3 "" H 11200 6900 50  0001 C CNN
	1    11200 6900
	1    0    0    -1  
$EndComp
Wire Wire Line
	11200 6600 11200 6100
$Comp
L Senior-Design-V1-rescue:TLV5638MDREP-2021-09-27_17-54-40 U1
U 1 1 615E842D
P 8800 6600
F 0 "U1" H 10000 6987 60  0000 C CNN
F 1 "TLV5638MDREP" H 10000 6881 60  0000 C CNN
F 2 "D8" H 10000 6840 60  0001 C CNN
F 3 "" H 8800 6600 60  0000 C CNN
	1    8800 6600
	1    0    0    -1  
$EndComp
Wire Wire Line
	11750 6600 11750 6100
$Comp
L power:GND #PWR0121
U 1 1 615C2BF7
P 11350 6450
F 0 "#PWR0121" H 11350 6200 50  0001 C CNN
F 1 "GND" H 11355 6277 50  0000 C CNN
F 2 "" H 11350 6450 50  0001 C CNN
F 3 "" H 11350 6450 50  0001 C CNN
	1    11350 6450
	1    0    0    -1  
$EndComp
$Comp
L Device:CP C1
U 1 1 615BD0F6
P 11350 6300
F 0 "C1" H 11468 6346 50  0000 L CNN
F 1 "10uF" H 11468 6255 50  0000 L CNN
F 2 "" H 11388 6150 50  0001 C CNN
F 3 "~" H 11350 6300 50  0001 C CNN
	1    11350 6300
	1    0    0    -1  
$EndComp
Wire Wire Line
	13350 6500 13350 7900
Connection ~ 11750 7100
Wire Wire Line
	11500 7100 11500 7600
Wire Wire Line
	11750 7100 11500 7100
Wire Wire Line
	11750 7100 11750 7000
Wire Wire Line
	11600 6150 11600 6800
Connection ~ 13150 6500
Wire Wire Line
	13150 6500 13150 6600
$Comp
L Senior-Design-V1-rescue:AD8592ARMZ-REEL-AD8592ARMZ-REEL U2
U 1 1 6158277F
P 12450 7000
F 0 "U2" H 12450 7770 50  0000 C CNN
F 1 "AD8592ARMZ-REEL" H 12450 7679 50  0000 C CNN
F 2 "SOP50P490X110-10N" H 12450 7000 50  0001 L BNN
F 3 "" H 12450 7000 50  0001 L BNN
F 4 "MSOP-10" H 12450 7000 50  0001 L BNN "PACKAGE"
F 5 "Analog Devices" H 12450 7000 50  0001 L BNN "SUPPLIER"
F 6 "AD8592ARMZ-REEL" H 12450 7000 50  0001 L BNN "MPN"
F 7 "unknown" H 12450 7000 50  0001 L BNN "OC_FARNELL"
F 8 "19M8921" H 12450 7000 50  0001 L BNN "OC_NEWARK"
	1    12450 7000
	1    0    0    -1  
$EndComp
Wire Wire Line
	13850 6350 14350 6350
Wire Wire Line
	13850 6150 13850 6350
$Comp
L power:GND #PWR0122
U 1 1 615232D8
P 14350 6450
F 0 "#PWR0122" H 14350 6200 50  0001 C CNN
F 1 "GND" H 14355 6277 50  0000 C CNN
F 2 "" H 14350 6450 50  0001 C CNN
F 3 "" H 14350 6450 50  0001 C CNN
	1    14350 6450
	1    0    0    -1  
$EndComp
Wire Wire Line
	14150 6250 14150 7100
Wire Wire Line
	14350 6250 14150 6250
$Comp
L Senior-Design-V1-rescue:CMX100D10-CMX100D10 K1
U 1 1 6153F66A
P 14350 6450
F 0 "K1" H 14892 5885 50  0000 C CNN
F 1 "CMX100D10" H 14892 5976 50  0000 C CNN
F 2 "CMX100D10" H 15500 6550 50  0001 L CNN
F 3 "https://componentsearchengine.com/Datasheets/1/CMX100D10.pdf" H 15500 6450 50  0001 L CNN
F 4 "Sensata / Crydom 10 A rms SPNO Solid State Relay, PCB Mount, MOSFET, 100 V dc Maximum Load" H 15500 6350 50  0001 L CNN "Description"
F 5 "26.7" H 15500 6250 50  0001 L CNN "Height"
F 6 "CRYDOM" H 15500 6150 50  0001 L CNN "Manufacturer_Name"
F 7 "CMX100D10" H 15500 6050 50  0001 L CNN "Manufacturer_Part_Number"
F 8 "558-CMX100D10" H 15500 5950 50  0001 L CNN "Mouser Part Number"
F 9 "https://www.mouser.co.uk/ProductDetail/Crydom/CMX100D10?qs=ftmCDQnBrlMvJvu9NkGZVg%3D%3D" H 15500 5850 50  0001 L CNN "Mouser Price/Stock"
F 10 "CMX100D10" H 15500 5750 50  0001 L CNN "Arrow Part Number"
F 11 "https://www.arrow.com/en/products/cmx100d10/crydom" H 15500 5650 50  0001 L CNN "Arrow Price/Stock"
	1    14350 6450
	1    0    0    1   
$EndComp
Connection ~ 13350 6500
Wire Wire Line
	13950 6500 13950 6700
Wire Wire Line
	13650 6500 13950 6500
Wire Wire Line
	13150 6500 13350 6500
$Comp
L Device:R R7
U 1 1 61530B78
P 13500 6500
F 0 "R7" V 13293 6500 50  0000 C CNN
F 1 "1k" V 13384 6500 50  0000 C CNN
F 2 "" V 13430 6500 50  0001 C CNN
F 3 "~" H 13500 6500 50  0001 C CNN
	1    13500 6500
	0    1    1    0   
$EndComp
Wire Wire Line
	11600 6800 11750 6800
Wire Wire Line
	13150 6500 13150 6150
Connection ~ 13950 7300
Wire Wire Line
	13950 7100 13950 7300
Wire Wire Line
	11200 6700 11750 6700
$Comp
L Device:Q_NMOS_DGS Q2
U 1 1 615185B4
P 13850 6900
F 0 "Q2" H 14054 6946 50  0000 L CNN
F 1 "Q_NMOS_DGS" H 14054 6855 50  0000 L CNN
F 2 "" H 14050 7000 50  0001 C CNN
F 3 "~" H 13850 6900 50  0001 C CNN
	1    13850 6900
	1    0    0    -1  
$EndComp
$Comp
L Senior-Design-V1-rescue:MJ21194G-eec Q1
U 1 1 61514E28
P 13950 7300
F 0 "Q1" H 14194 7346 50  0000 L CNN
F 1 "MJ21194G" H 14194 7255 50  0000 L CNN
F 2 "On_Semiconductor-MJ21194G-*" H 13950 7800 50  0001 L CNN
F 3 "http://www.onsemi.cn/pub_link/Collateral/MJ21193-D.PDF" H 13950 7900 50  0001 L CNN
F 4 "Manufacturer URL" H 13950 8000 50  0001 L CNN "Component Link 1 Description"
F 5 "http://www.onsemi.com/" H 13950 8100 50  0001 L CNN "Component Link 1 URL"
F 6 "Package Specification" H 13950 8200 50  0001 L CNN "Component Link 3 Description"
F 7 "http://www.onsemi.com/pub_link/Collateral/1-07.PDF" H 13950 8300 50  0001 L CNN "Component Link 3 URL"
F 8 "Rev. 6" H 13950 8400 50  0001 L CNN "Datasheet Version"
F 9 "16" H 13950 8500 50  0001 L CNN "IC Continuous A"
F 10 "Through Hole" H 13950 8600 50  0001 L CNN "Mounting Technology"
F 11 "2-Pin Transistor Outline, Body 39.37 x 26.67 mm, Pitch 10.92 mm" H 13950 8700 50  0001 L CNN "Package Description"
F 12 "Rev. Z, 05/1988" H 13950 8800 50  0001 L CNN "Package Version"
F 13 "Tray" H 13950 8900 50  0001 L CNN "Packing"
F 14 "NPN" H 13950 9000 50  0001 L CNN "Polarity"
F 15 "Trans" H 13950 9100 50  0001 L CNN "category"
F 16 "9d749437038dec4a" H 13950 9200 50  0001 L CNN "library id"
F 17 "On Semiconductor" H 13950 9300 50  0001 L CNN "manufacturer"
F 18 "TO-204-3-1-07" H 13950 9400 50  0001 L CNN "package"
F 19 "Yes" H 13950 9500 50  0001 L CNN "rohs"
F 20 "25197A6D-B529-46A2-ABCE-3FF548204E5F" H 13950 9600 50  0001 L CNN "vault revision"
F 21 "4" H 13950 9700 50  0001 L CNN "fT Min MHz"
F 22 "75" H 13950 9800 50  0001 L CNN "hFE Max"
F 23 "yes" H 13950 9900 50  0001 L CNN "imported"
	1    13950 7300
	1    0    0    -1  
$EndComp
Wire Wire Line
	6500 2200 6150 2200
Wire Wire Line
	6150 2200 6150 2000
Wire Wire Line
	5950 1750 5950 1550
Wire Wire Line
	5950 1550 6050 1550
Wire Wire Line
	6050 1750 6050 1650
Text GLabel 5500 3550 0    50   Input ~ 0
BTST2
Wire Wire Line
	3050 3750 3650 3750
Wire Wire Line
	7900 4300 8750 4300
$Comp
L Device:CP C?
U 1 1 61C231ED
P 8750 4050
F 0 "C?" H 8868 4096 50  0000 L CNN
F 1 "20uF" H 8868 4005 50  0000 L CNN
F 2 "" H 8788 3900 50  0001 C CNN
F 3 "~" H 8750 4050 50  0001 C CNN
	1    8750 4050
	-1   0    0    1   
$EndComp
Wire Wire Line
	8750 4200 8750 4300
Connection ~ 8750 4300
Wire Wire Line
	8750 4300 8900 4300
$Comp
L power:GND #PWR0123
U 1 1 61C2FB8C
P 9000 3900
F 0 "#PWR0123" H 9000 3650 50  0001 C CNN
F 1 "GND" H 9005 3727 50  0000 C CNN
F 2 "" H 9000 3900 50  0001 C CNN
F 3 "" H 9000 3900 50  0001 C CNN
	1    9000 3900
	1    0    0    -1  
$EndComp
Wire Wire Line
	8750 3900 8750 3850
Wire Wire Line
	8750 3850 9000 3850
Wire Wire Line
	9000 3850 9000 3900
$Comp
L Device:C C?
U 1 1 61533C57
P 6500 5050
F 0 "C?" V 6248 5050 50  0000 C CNN
F 1 "47nF" V 6339 5050 50  0000 C CNN
F 2 "" H 6538 4900 50  0001 C CNN
F 3 "~" H 6500 5050 50  0001 C CNN
	1    6500 5050
	-1   0    0    1   
$EndComp
Wire Wire Line
	6700 5200 6700 5250
Wire Wire Line
	6500 5200 6700 5200
Connection ~ 6700 5250
$Comp
L Device:R R?
U 1 1 6156BF29
P 6000 2250
F 0 "R?" H 5930 2204 50  0000 R CNN
F 1 "10k" H 5930 2295 50  0000 R CNN
F 2 "" V 5930 2250 50  0001 C CNN
F 3 "~" H 6000 2250 50  0001 C CNN
	1    6000 2250
	0    -1   -1   0   
$EndComp
$Comp
L Device:R R?
U 1 1 6156E0A3
P 6000 2350
F 0 "R?" H 5930 2304 50  0000 R CNN
F 1 "10k" H 5930 2395 50  0000 R CNN
F 2 "" V 5930 2350 50  0001 C CNN
F 3 "~" H 6000 2350 50  0001 C CNN
	1    6000 2350
	0    -1   -1   0   
$EndComp
Wire Wire Line
	6150 2250 6350 2250
Wire Wire Line
	6350 2250 6350 2400
Wire Wire Line
	6150 2350 6250 2350
Wire Wire Line
	6250 2350 6250 2500
Wire Wire Line
	6250 2500 6500 2500
Wire Wire Line
	6200 4200 6250 4200
Connection ~ 6250 4200
Wire Wire Line
	6250 4150 6000 4150
Wire Wire Line
	6000 4000 5850 4000
$Comp
L Device:R R?
U 1 1 615AD92F
P 5700 4000
F 0 "R?" H 5630 3954 50  0000 R CNN
F 1 "10k" H 5630 4045 50  0000 R CNN
F 2 "" V 5630 4000 50  0001 C CNN
F 3 "~" H 5700 4000 50  0001 C CNN
	1    5700 4000
	0    -1   -1   0   
$EndComp
Wire Wire Line
	6000 4000 6000 4150
$Comp
L Device:R R?
U 1 1 615D5916
P 6200 2600
F 0 "R?" H 6130 2554 50  0000 R CNN
F 1 "10k" H 6130 2645 50  0000 R CNN
F 2 "" V 6130 2600 50  0001 C CNN
F 3 "~" H 6200 2600 50  0001 C CNN
	1    6200 2600
	0    -1   -1   0   
$EndComp
Wire Wire Line
	6350 2600 6500 2600
Wire Wire Line
	5900 2650 5950 2650
Wire Wire Line
	6050 2650 6050 2600
$Comp
L power:GND #PWR0124
U 1 1 615EFD19
P 5450 2500
F 0 "#PWR0124" H 5450 2250 50  0001 C CNN
F 1 "GND" V 5455 2327 50  0000 C CNN
F 2 "" H 5450 2500 50  0001 C CNN
F 3 "" H 5450 2500 50  0001 C CNN
	1    5450 2500
	1    0    0    -1  
$EndComp
Wire Wire Line
	6500 1850 6650 1850
$Comp
L power:GND #PWR0125
U 1 1 615FE7DA
P 7300 1850
F 0 "#PWR0125" H 7300 1600 50  0001 C CNN
F 1 "GND" V 7305 1677 50  0000 C CNN
F 2 "" H 7300 1850 50  0001 C CNN
F 3 "" H 7300 1850 50  0001 C CNN
	1    7300 1850
	1    0    0    -1  
$EndComp
$Comp
L Device:R R?
U 1 1 615FECD4
P 6950 1850
F 0 "R?" H 6880 1804 50  0000 R CNN
F 1 "10k" H 6880 1895 50  0000 R CNN
F 2 "" V 6880 1850 50  0001 C CNN
F 3 "~" H 6950 1850 50  0001 C CNN
	1    6950 1850
	0    -1   -1   0   
$EndComp
Wire Wire Line
	7100 1850 7300 1850
Wire Wire Line
	6500 1850 6500 2200
Wire Wire Line
	6650 1850 6650 1650
Connection ~ 6650 1850
Wire Wire Line
	6650 1850 6800 1850
Text GLabel 7150 1650 2    50   Input ~ 0
I_CHRG
Wire Wire Line
	6650 1650 7150 1650
Wire Wire Line
	6500 3200 5650 3200
$Comp
L Device:R R?
U 1 1 61647435
P 5450 3200
F 0 "R?" H 5380 3154 50  0000 R CNN
F 1 "10k" H 5380 3245 50  0000 R CNN
F 2 "" V 5380 3200 50  0001 C CNN
F 3 "~" H 5450 3200 50  0001 C CNN
	1    5450 3200
	0    -1   -1   0   
$EndComp
Text GLabel 5600 3450 0    50   Input ~ 0
ChargeReady
Wire Wire Line
	5600 3450 5650 3450
Wire Wire Line
	5650 3450 5650 3200
Connection ~ 5650 3200
Wire Wire Line
	5650 3200 5600 3200
Connection ~ 6500 2200
$Comp
L Device:R R?
U 1 1 6172ADC6
P 8650 6800
F 0 "R?" H 8580 6754 50  0000 R CNN
F 1 "10k" H 8580 6845 50  0000 R CNN
F 2 "" V 8580 6800 50  0001 C CNN
F 3 "~" H 8650 6800 50  0001 C CNN
	1    8650 6800
	0    -1   -1   0   
$EndComp
$Comp
L power:GND #PWR0126
U 1 1 6172B6CF
P 8400 6950
F 0 "#PWR0126" H 8400 6700 50  0001 C CNN
F 1 "GND" H 8405 6777 50  0000 C CNN
F 2 "" H 8400 6950 50  0001 C CNN
F 3 "" H 8400 6950 50  0001 C CNN
	1    8400 6950
	1    0    0    -1  
$EndComp
Wire Wire Line
	8500 6800 8400 6800
Wire Wire Line
	8400 6800 8400 6950
Text GLabel 8550 6500 0    50   Input ~ 0
SDA
Text GLabel 8550 6600 0    50   Input ~ 0
SCL
Wire Wire Line
	8550 6500 8700 6500
Wire Wire Line
	8700 6500 8700 6600
Wire Wire Line
	8700 6600 8800 6600
Wire Wire Line
	8550 6600 8650 6600
Wire Wire Line
	8650 6600 8650 6700
Wire Wire Line
	8650 6700 8800 6700
Text GLabel 5500 3650 0    50   Input ~ 0
POS_TERM
Wire Wire Line
	5900 3650 5900 3600
Wire Wire Line
	5500 3550 5900 3550
Wire Wire Line
	5900 3550 5900 3600
Connection ~ 5900 3600
Text GLabel 8900 4300 2    50   Input ~ 0
BAT1
Wire Wire Line
	14450 1200 14450 1250
Wire Wire Line
	14150 1250 14450 1250
Connection ~ 14450 1250
Text GLabel 14150 1250 0    50   Input ~ 0
NEG_TERM
Wire Wire Line
	5400 3000 5400 2900
Text GLabel 5000 2900 0    50   Input ~ 0
NEG_TERM
Wire Wire Line
	5100 2900 5000 2900
Wire Wire Line
	5400 3000 6500 3000
Text GLabel 14150 1550 0    50   Input ~ 0
POS_TERM
Wire Wire Line
	14550 1550 14150 1550
Wire Wire Line
	14450 1250 14450 1300
Wire Wire Line
	14800 3000 15300 3000
Wire Wire Line
	13800 3000 14000 3000
Wire Wire Line
	11000 3450 11700 3450
Text GLabel 10750 3450 0    50   Input ~ 0
POS_TERM
Connection ~ 11000 3450
Wire Wire Line
	10750 3450 11000 3450
Wire Wire Line
	10850 3900 10850 4350
Text GLabel 10850 3900 0    50   Input ~ 0
BAT1
Wire Wire Line
	11000 3950 11000 4100
Text GLabel 11150 4250 2    50   Input ~ 0
ChargeReady
Wire Wire Line
	10750 4250 11150 4250
Wire Wire Line
	15350 3200 15350 3550
Connection ~ 15300 4050
Text GLabel 15050 4500 0    50   Input ~ 0
SDA
Text GLabel 15300 4500 0    50   Input ~ 0
SCL
Wire Wire Line
	15050 4150 15050 4500
Wire Wire Line
	15300 4050 15300 4500
Connection ~ 15350 3550
Wire Wire Line
	15350 4250 14800 4250
Wire Wire Line
	15350 3550 15350 4250
Wire Wire Line
	15350 3200 14800 3200
Wire Wire Line
	15850 3550 15650 3550
$Comp
L Device:R R6
U 1 1 6154D458
P 15500 3550
F 0 "R6" V 15293 3550 50  0000 C CNN
F 1 "2k" V 15384 3550 50  0000 C CNN
F 2 "" V 15430 3550 50  0001 C CNN
F 3 "~" H 15500 3550 50  0001 C CNN
	1    15500 3550
	0    1    1    0   
$EndComp
$Comp
L power:+5V #PWR0127
U 1 1 6154C9C3
P 15850 3550
F 0 "#PWR0127" H 15850 3400 50  0001 C CNN
F 1 "+5V" H 15865 3723 50  0000 C CNN
F 2 "" H 15850 3550 50  0001 C CNN
F 3 "" H 15850 3550 50  0001 C CNN
	1    15850 3550
	1    0    0    -1  
$EndComp
Wire Wire Line
	14850 3850 14400 3850
$Comp
L power:+5V #PWR0128
U 1 1 61547518
P 14850 3850
F 0 "#PWR0128" H 14850 3700 50  0001 C CNN
F 1 "+5V" H 14865 4023 50  0000 C CNN
F 2 "" H 14850 3850 50  0001 C CNN
F 3 "" H 14850 3850 50  0001 C CNN
	1    14850 3850
	1    0    0    -1  
$EndComp
Connection ~ 14000 3200
Wire Wire Line
	14000 3100 14000 3200
$Comp
L power:GND #PWR0129
U 1 1 61529C52
P 14000 3200
F 0 "#PWR0129" H 14000 2950 50  0001 C CNN
F 1 "GND" H 14005 3027 50  0000 C CNN
F 2 "" H 14000 3200 50  0001 C CNN
F 3 "" H 14000 3200 50  0001 C CNN
	1    14000 3200
	1    0    0    -1  
$EndComp
$Comp
L power:GND #PWR0130
U 1 1 6152958C
P 14000 4250
F 0 "#PWR0130" H 14000 4000 50  0001 C CNN
F 1 "GND" H 14005 4077 50  0000 C CNN
F 2 "" H 14000 4250 50  0001 C CNN
F 3 "" H 14000 4250 50  0001 C CNN
	1    14000 4250
	1    0    0    -1  
$EndComp
Wire Wire Line
	11000 4450 10750 4450
Wire Wire Line
	14800 4150 15050 4150
Wire Wire Line
	15200 3100 15200 4150
Wire Wire Line
	14800 3100 15200 3100
Wire Wire Line
	15300 3000 15300 4050
Connection ~ 12300 3550
Wire Wire Line
	12300 3400 12300 3550
$Comp
L power:GND #PWR0131
U 1 1 6157F136
P 14400 4450
F 0 "#PWR0131" H 14400 4200 50  0001 C CNN
F 1 "GND" H 14405 4277 50  0000 C CNN
F 2 "" H 14400 4450 50  0001 C CNN
F 3 "" H 14400 4450 50  0001 C CNN
	1    14400 4450
	1    0    0    -1  
$EndComp
$Comp
L power:GND #PWR0132
U 1 1 6157EA80
P 14400 3400
F 0 "#PWR0132" H 14400 3150 50  0001 C CNN
F 1 "GND" H 14405 3227 50  0000 C CNN
F 2 "" H 14400 3400 50  0001 C CNN
F 3 "" H 14400 3400 50  0001 C CNN
	1    14400 3400
	1    0    0    -1  
$EndComp
Wire Wire Line
	13500 4050 13500 3900
Connection ~ 13500 4050
Wire Wire Line
	14000 4050 13500 4050
Wire Wire Line
	13800 3400 13800 3000
Wire Wire Line
	12300 3400 13800 3400
$Comp
L Analog_ADC:ADC121C021CIMM U3
U 1 1 61578D93
P 14400 3100
F 0 "U3" H 14400 3581 50  0000 C CNN
F 1 "ADC121C021CIMM" H 14400 3490 50  0000 C CNN
F 2 "Package_SO:MSOP-8_3x3mm_P0.65mm" H 15200 2750 50  0001 C CNN
F 3 "http://www.ti.com/lit/ds/symlink/adc121c021.pdf" H 14400 3200 50  0001 C CNN
	1    14400 3100
	1    0    0    -1  
$EndComp
$Comp
L Analog_ADC:ADC121C021CIMM U4
U 1 1 615763E0
P 14400 4150
F 0 "U4" H 14400 4631 50  0000 C CNN
F 1 "ADC121C021CIMM" H 14400 4540 50  0000 C CNN
F 2 "Package_SO:MSOP-8_3x3mm_P0.65mm" H 15200 3800 50  0001 C CNN
F 3 "http://www.ti.com/lit/ds/symlink/adc121c021.pdf" H 14400 4250 50  0001 C CNN
	1    14400 4150
	1    0    0    -1  
$EndComp
Wire Wire Line
	12900 3050 12700 3050
$Comp
L power:GND #PWR0133
U 1 1 6156FEB5
P 12700 3050
F 0 "#PWR0133" H 12700 2800 50  0001 C CNN
F 1 "GND" H 12705 2877 50  0000 C CNN
F 2 "" H 12700 3050 50  0001 C CNN
F 3 "" H 12700 3050 50  0001 C CNN
	1    12700 3050
	1    0    0    -1  
$EndComp
Wire Wire Line
	12900 4200 13050 4200
Connection ~ 12900 4200
Wire Wire Line
	12900 4000 12900 4200
Wire Wire Line
	13500 4200 13500 4050
Wire Wire Line
	13350 4200 13500 4200
Wire Wire Line
	12750 4200 12900 4200
Connection ~ 12300 4200
Wire Wire Line
	12300 4200 12450 4200
Connection ~ 12900 3800
Wire Wire Line
	12900 3350 12900 3800
Wire Wire Line
	12750 3800 12900 3800
Connection ~ 12300 3800
Wire Wire Line
	12300 3800 12450 3800
$Comp
L Device:R R5
U 1 1 61569EA6
P 13200 4200
F 0 "R5" V 12993 4200 50  0000 C CNN
F 1 "200" V 13084 4200 50  0000 C CNN
F 2 "" V 13130 4200 50  0001 C CNN
F 3 "~" H 13200 4200 50  0001 C CNN
	1    13200 4200
	0    1    1    0   
$EndComp
$Comp
L Device:R R3
U 1 1 615698F4
P 12600 4200
F 0 "R3" V 12393 4200 50  0000 C CNN
F 1 "50" V 12484 4200 50  0000 C CNN
F 2 "" V 12530 4200 50  0001 C CNN
F 3 "~" H 12600 4200 50  0001 C CNN
	1    12600 4200
	0    1    1    0   
$EndComp
$Comp
L Device:R R2
U 1 1 61568FF6
P 12600 3800
F 0 "R2" V 12393 3800 50  0000 C CNN
F 1 "50" V 12484 3800 50  0000 C CNN
F 2 "" V 12530 3800 50  0001 C CNN
F 3 "~" H 12600 3800 50  0001 C CNN
	1    12600 3800
	0    1    1    0   
$EndComp
$Comp
L Device:R R4
U 1 1 61567B38
P 12900 3200
F 0 "R4" H 12970 3246 50  0000 L CNN
F 1 "200" H 12970 3155 50  0000 L CNN
F 2 "" V 12830 3200 50  0001 C CNN
F 3 "~" H 12900 3200 50  0001 C CNN
	1    12900 3200
	1    0    0    -1  
$EndComp
Wire Wire Line
	11000 4100 11000 4450
Connection ~ 11000 4100
Wire Wire Line
	11700 4100 11000 4100
Wire Wire Line
	12300 4450 12300 4200
Wire Wire Line
	11700 4450 12300 4450
Wire Wire Line
	11700 4300 11700 4450
Wire Wire Line
	12300 3800 12300 3550
Wire Wire Line
	11700 3800 12300 3800
Wire Wire Line
	11700 3650 11700 3800
Wire Wire Line
	11000 3650 11000 3450
$Comp
L Amplifier_Operational:MCP6V67EMS U?
U 1 1 6155A645
P 13200 3900
F 0 "U?" H 13200 4267 50  0000 C CNN
F 1 "MCP6V67EMS" H 13200 4176 50  0000 C CNN
F 2 "" H 13200 3900 50  0001 C CNN
F 3 "http://ww1.microchip.com/downloads/en/DeviceDoc/MCP6V66-Family-Data-Sheet-DS20006266A.pdf" H 13200 3900 50  0001 C CNN
	1    13200 3900
	1    0    0    -1  
$EndComp
$Comp
L Amplifier_Operational:MCP6V67EMS U?
U 1 1 615585ED
P 12000 4200
F 0 "U?" H 12000 4567 50  0000 C CNN
F 1 "MCP6V67EMS" H 12000 4476 50  0000 C CNN
F 2 "" H 12000 4200 50  0001 C CNN
F 3 "http://ww1.microchip.com/downloads/en/DeviceDoc/MCP6V66-Family-Data-Sheet-DS20006266A.pdf" H 12000 4200 50  0001 C CNN
	1    12000 4200
	1    0    0    -1  
$EndComp
$Comp
L Amplifier_Operational:MCP6V67EMS U?
U 1 1 6154B9C0
P 12000 3550
F 0 "U?" H 12000 3917 50  0000 C CNN
F 1 "MCP6V67EMS" H 12000 3826 50  0000 C CNN
F 2 "" H 12000 3550 50  0001 C CNN
F 3 "http://ww1.microchip.com/downloads/en/DeviceDoc/MCP6V66-Family-Data-Sheet-DS20006266A.pdf" H 12000 3550 50  0001 C CNN
	1    12000 3550
	1    0    0    -1  
$EndComp
$Comp
L Device:R R1
U 1 1 61533CA5
P 11000 3800
F 0 "R1" H 11070 3846 50  0000 L CNN
F 1 "0.25" H 11070 3755 50  0000 L CNN
F 2 "" V 10930 3800 50  0001 C CNN
F 3 "~" H 11000 3800 50  0001 C CNN
	1    11000 3800
	1    0    0    -1  
$EndComp
$Comp
L Senior-Design-V1-rescue:CMX100D10-CMX100D10 K2
U 1 1 615C7427
P 10750 4150
F 0 "K2" H 11292 4415 50  0000 C CNN
F 1 "CMX100D10" H 11292 4324 50  0000 C CNN
F 2 "CMX100D10" H 11900 4250 50  0001 L CNN
F 3 "https://componentsearchengine.com/Datasheets/1/CMX100D10.pdf" H 11900 4150 50  0001 L CNN
F 4 "Sensata / Crydom 10 A rms SPNO Solid State Relay, PCB Mount, MOSFET, 100 V dc Maximum Load" H 11900 4050 50  0001 L CNN "Description"
F 5 "26.7" H 11900 3950 50  0001 L CNN "Height"
F 6 "CRYDOM" H 11900 3850 50  0001 L CNN "Manufacturer_Name"
F 7 "CMX100D10" H 11900 3750 50  0001 L CNN "Manufacturer_Part_Number"
F 8 "558-CMX100D10" H 11900 3650 50  0001 L CNN "Mouser Part Number"
F 9 "https://www.mouser.co.uk/ProductDetail/Crydom/CMX100D10?qs=ftmCDQnBrlMvJvu9NkGZVg%3D%3D" H 11900 3550 50  0001 L CNN "Mouser Price/Stock"
F 10 "CMX100D10" H 11900 3450 50  0001 L CNN "Arrow Part Number"
F 11 "https://www.arrow.com/en/products/cmx100d10/crydom" H 11900 3350 50  0001 L CNN "Arrow Price/Stock"
	1    10750 4150
	-1   0    0    -1  
$EndComp
Wire Wire Line
	10750 4350 10850 4350
$Comp
L power:GND #PWR0134
U 1 1 61524802
P 10900 4600
F 0 "#PWR0134" H 10900 4350 50  0001 C CNN
F 1 "GND" H 10905 4427 50  0000 C CNN
F 2 "" H 10900 4600 50  0001 C CNN
F 3 "" H 10900 4600 50  0001 C CNN
	1    10900 4600
	1    0    0    -1  
$EndComp
Wire Wire Line
	10750 4150 10900 4150
Wire Wire Line
	10900 4150 10900 4600
Text GLabel 14150 5850 0    50   Input ~ 0
POS_TERM
Wire Wire Line
	14150 6150 14150 5850
$Comp
L power:+5V #PWR0135
U 1 1 61AFED3B
P 5300 3150
F 0 "#PWR0135" H 5300 3000 50  0001 C CNN
F 1 "+5V" H 5315 3323 50  0000 C CNN
F 2 "" H 5300 3150 50  0001 C CNN
F 3 "" H 5300 3150 50  0001 C CNN
	1    5300 3150
	1    0    0    -1  
$EndComp
Wire Wire Line
	5300 3150 5300 3200
$Comp
L power:+5V #PWR0136
U 1 1 61B9F8F4
P 5900 2650
F 0 "#PWR0136" H 5900 2500 50  0001 C CNN
F 1 "+5V" H 5915 2823 50  0000 C CNN
F 2 "" H 5900 2650 50  0001 C CNN
F 3 "" H 5900 2650 50  0001 C CNN
	1    5900 2650
	1    0    0    -1  
$EndComp
Wire Wire Line
	6300 2800 5950 2800
Wire Wire Line
	5950 2800 5950 2650
Connection ~ 6300 2800
Connection ~ 5950 2650
Wire Wire Line
	5950 2650 6050 2650
Wire Wire Line
	6300 2800 6300 3500
$Comp
L power:+5V #PWR0137
U 1 1 61BFEF21
P 5550 4000
F 0 "#PWR0137" H 5550 3850 50  0001 C CNN
F 1 "+5V" H 5565 4173 50  0000 C CNN
F 2 "" H 5550 4000 50  0001 C CNN
F 3 "" H 5550 4000 50  0001 C CNN
	1    5550 4000
	1    0    0    -1  
$EndComp
$Comp
L power:GND #PWR0138
U 1 1 61C366EE
P 2600 2650
F 0 "#PWR0138" H 2600 2400 50  0001 C CNN
F 1 "GND" V 2605 2477 50  0000 C CNN
F 2 "" H 2600 2650 50  0001 C CNN
F 3 "" H 2600 2650 50  0001 C CNN
	1    2600 2650
	1    0    0    -1  
$EndComp
Wire Wire Line
	2450 2850 2450 2650
Wire Wire Line
	2450 2650 2600 2650
$Comp
L power:+5V #PWR0139
U 1 1 61C45587
P 2650 6600
F 0 "#PWR0139" H 2650 6450 50  0001 C CNN
F 1 "+5V" H 2665 6773 50  0000 C CNN
F 2 "" H 2650 6600 50  0001 C CNN
F 3 "" H 2650 6600 50  0001 C CNN
	1    2650 6600
	1    0    0    -1  
$EndComp
Wire Wire Line
	2450 6450 2450 6500
Wire Wire Line
	2450 6600 2650 6600
$Comp
L MCU_Microchip_ATmega:ATmega32U4-MU U3
U 1 1 6159359D
P 2450 4650
F 0 "U3" V 1850 3050 50  0000 R CNN
F 1 "ATmega32U4-MU" V 2405 2806 50  0000 R CNN
F 2 "Package_DFN_QFN:QFN-44-1EP_7x7mm_P0.5mm_EP5.2x5.2mm" H 2450 4650 50  0001 C CIN
F 3 "http://ww1.microchip.com/downloads/en/DeviceDoc/Atmel-7766-8-bit-AVR-ATmega16U4-32U4_Datasheet.pdf" H 2450 4650 50  0001 C CNN
	1    2450 4650
	1    0    0    1   
$EndComp
Wire Wire Line
	1450 4850 1600 4850
Wire Wire Line
	1600 4850 1600 5350
Wire Wire Line
	1600 5350 1850 5350
$Comp
L power:+5V #PWR?
U 1 1 61C8D8F1
P 1600 4550
F 0 "#PWR?" H 1600 4400 50  0001 C CNN
F 1 "+5V" H 1615 4723 50  0000 C CNN
F 2 "" H 1600 4550 50  0001 C CNN
F 3 "" H 1600 4550 50  0001 C CNN
	1    1600 4550
	1    0    0    -1  
$EndComp
$Comp
L Device:C C13
U 1 1 61C8EBC9
P 1600 4700
F 0 "C13" H 1600 4550 50  0000 L CNN
F 1 "10uF" H 1400 4550 50  0000 L CNN
F 2 "" H 1638 4550 50  0001 C CNN
F 3 "~" H 1600 4700 50  0001 C CNN
	1    1600 4700
	-1   0    0    1   
$EndComp
Connection ~ 1600 4850
$Comp
L Connector:USB_B_Micro J3
U 1 1 61C789B1
P 1150 5050
F 0 "J3" H 1207 5517 50  0000 C CNN
F 1 "USB_B_Micro" H 1207 5426 50  0000 C CNN
F 2 "" H 1300 5000 50  0001 C CNN
F 3 "~" H 1300 5000 50  0001 C CNN
	1    1150 5050
	1    0    0    -1  
$EndComp
$Comp
L Device:R R14
U 1 1 61C92D5C
P 1650 5050
F 0 "R14" H 1580 5004 50  0000 R CNN
F 1 "22" H 1580 5095 50  0000 R CNN
F 2 "" V 1580 5050 50  0001 C CNN
F 3 "~" H 1650 5050 50  0001 C CNN
	1    1650 5050
	0    -1   -1   0   
$EndComp
$Comp
L Device:R R?
U 1 1 61C96427
P 1650 5150
F 0 "R?" H 1580 5104 50  0000 R CNN
F 1 "22" H 1580 5195 50  0000 R CNN
F 2 "" V 1580 5150 50  0001 C CNN
F 3 "~" H 1650 5150 50  0001 C CNN
	1    1650 5150
	0    -1   -1   0   
$EndComp
Wire Wire Line
	1450 5050 1500 5050
Wire Wire Line
	1800 5050 1850 5050
Wire Wire Line
	1800 5150 1850 5150
Wire Wire Line
	1500 5150 1450 5150
$Comp
L Device:C C15
U 1 1 61CD5791
P 1400 5550
F 0 "C15" H 1400 5400 50  0000 L CNN
F 1 "1u" H 1300 5400 50  0000 L CNN
F 2 "" H 1438 5400 50  0001 C CNN
F 3 "~" H 1400 5550 50  0001 C CNN
	1    1400 5550
	0    -1   -1   0   
$EndComp
$Comp
L power:GND #PWR?
U 1 1 61CD5E82
P 1150 5600
F 0 "#PWR?" H 1150 5350 50  0001 C CNN
F 1 "GND" V 1155 5427 50  0000 C CNN
F 2 "" H 1150 5600 50  0001 C CNN
F 3 "" H 1150 5600 50  0001 C CNN
	1    1150 5600
	1    0    0    -1  
$EndComp
Wire Wire Line
	1150 5450 1150 5550
Wire Wire Line
	1050 5550 1050 5450
Wire Wire Line
	1050 5550 1150 5550
Connection ~ 1150 5550
Wire Wire Line
	1150 5550 1150 5600
Wire Wire Line
	1150 5550 1250 5550
Wire Wire Line
	1550 5550 1700 5550
Wire Wire Line
	1700 5550 1700 4850
Wire Wire Line
	1700 4850 1850 4850
$Comp
L power:GND #PWR?
U 1 1 61D1AE0E
P 1750 5550
F 0 "#PWR?" H 1750 5300 50  0001 C CNN
F 1 "GND" V 1755 5377 50  0000 C CNN
F 2 "" H 1750 5550 50  0001 C CNN
F 3 "" H 1750 5550 50  0001 C CNN
	1    1750 5550
	1    0    0    -1  
$EndComp
Wire Wire Line
	2350 2850 2350 2650
Wire Wire Line
	2350 2650 2450 2650
Connection ~ 2450 2650
Wire Wire Line
	2550 6450 2550 6500
Wire Wire Line
	2550 6500 2450 6500
Connection ~ 2450 6500
Wire Wire Line
	2450 6500 2450 6600
Wire Wire Line
	2350 6450 2350 6500
Wire Wire Line
	2350 6500 2450 6500
$Comp
L power:+5V #PWR?
U 1 1 61D5148D
P 1550 6100
F 0 "#PWR?" H 1550 5950 50  0001 C CNN
F 1 "+5V" H 1565 6273 50  0000 C CNN
F 2 "" H 1550 6100 50  0001 C CNN
F 3 "" H 1550 6100 50  0001 C CNN
	1    1550 6100
	1    0    0    -1  
$EndComp
$Comp
L Device:R R16
U 1 1 61D51ECD
P 1700 6150
F 0 "R16" H 1630 6104 50  0000 R CNN
F 1 "10k" H 1630 6195 50  0000 R CNN
F 2 "" V 1630 6150 50  0001 C CNN
F 3 "~" H 1700 6150 50  0001 C CNN
	1    1700 6150
	0    -1   -1   0   
$EndComp
Wire Wire Line
	1550 6150 1550 6100
Wire Wire Line
	1850 5550 1750 5550
Wire Wire Line
	3050 6150 3350 6150
Wire Wire Line
	3050 6050 3350 6050
Wire Wire Line
	3050 4750 3350 4750
Wire Wire Line
	3050 4650 3350 4650
Text GLabel 3350 4650 2    50   Input ~ 0
TXD
Text GLabel 3350 4750 2    50   Input ~ 0
RXD
Text GLabel 3350 4850 2    50   Input ~ 0
SDA
Text GLabel 3350 4950 2    50   Input ~ 0
SCL
Wire Wire Line
	3050 4850 3350 4850
Wire Wire Line
	3050 4950 3350 4950
Text GLabel 3350 6050 2    50   Input ~ 0
charge_ready
Text GLabel 3350 6150 2    50   Input ~ 0
discharge_ready
Text GLabel 8650 7300 0    50   Input ~ 0
HLcurrent
Wire Wire Line
	8800 6900 8800 7300
Wire Wire Line
	8800 7300 8650 7300
$Comp
L Device:R R_special
U 1 1 61E6E91F
P 5700 3650
F 0 "R_special" V 5550 3650 50  0000 R CNN
F 1 "0" V 5630 3695 50  0000 R CNN
F 2 "" V 5630 3650 50  0001 C CNN
F 3 "~" H 5700 3650 50  0001 C CNN
	1    5700 3650
	0    -1   -1   0   
$EndComp
Wire Wire Line
	5900 3650 5850 3650
Wire Wire Line
	5550 3650 5500 3650
$Comp
L Regulator_Linear:AZ1084-5.0 U?
U 1 1 61F0B8A1
P 11200 1350
F 0 "U?" H 11200 1592 50  0000 C CNN
F 1 "AZ1084-5.0" H 11200 1501 50  0000 C CNN
F 2 "" H 11200 1600 50  0001 C CIN
F 3 "https://www.diodes.com/assets/Datasheets/AZ1084.pdf" H 11200 1350 50  0001 C CNN
	1    11200 1350
	1    0    0    -1  
$EndComp
$Comp
L Device:R R?
U 1 1 61F0C5E8
P 11600 1550
F 0 "R?" H 11670 1596 50  0000 L CNN
F 1 "200" H 11670 1505 50  0000 L CNN
F 2 "" V 11530 1550 50  0001 C CNN
F 3 "~" H 11600 1550 50  0001 C CNN
	1    11600 1550
	1    0    0    -1  
$EndComp
$Comp
L Device:R R?
U 1 1 61F0CA6D
P 11600 1950
F 0 "R?" H 11670 1996 50  0000 L CNN
F 1 "200" H 11670 1905 50  0000 L CNN
F 2 "" V 11530 1950 50  0001 C CNN
F 3 "~" H 11600 1950 50  0001 C CNN
	1    11600 1950
	1    0    0    -1  
$EndComp
$Comp
L Device:C C?
U 1 1 61F0D0B5
P 10650 1550
F 0 "C?" V 10398 1550 50  0000 C CNN
F 1 "47nF" V 10489 1550 50  0000 C CNN
F 2 "" H 10688 1400 50  0001 C CNN
F 3 "~" H 10650 1550 50  0001 C CNN
	1    10650 1550
	-1   0    0    1   
$EndComp
$Comp
L Device:C C?
U 1 1 61F0D761
P 12050 1550
F 0 "C?" V 11798 1550 50  0000 C CNN
F 1 "47nF" V 11889 1550 50  0000 C CNN
F 2 "" H 12088 1400 50  0001 C CNN
F 3 "~" H 12050 1550 50  0001 C CNN
	1    12050 1550
	-1   0    0    1   
$EndComp
Text GLabel 10300 1350 0    50   Input ~ 0
Vin
Wire Wire Line
	10900 1350 10650 1350
Wire Wire Line
	10650 1400 10650 1350
Connection ~ 10650 1350
Wire Wire Line
	10650 1350 10300 1350
Wire Wire Line
	11500 1350 11600 1350
Wire Wire Line
	12300 1350 12300 1250
$Comp
L power:+5V #PWR?
U 1 1 61F62EB0
P 12300 1250
F 0 "#PWR?" H 12300 1100 50  0001 C CNN
F 1 "+5V" H 12315 1423 50  0000 C CNN
F 2 "" H 12300 1250 50  0001 C CNN
F 3 "" H 12300 1250 50  0001 C CNN
	1    12300 1250
	1    0    0    -1  
$EndComp
Wire Wire Line
	12050 1400 12050 1350
Connection ~ 12050 1350
Wire Wire Line
	12050 1350 12300 1350
Wire Wire Line
	11600 1400 11600 1350
Connection ~ 11600 1350
Wire Wire Line
	11600 1350 12050 1350
Wire Wire Line
	11200 1650 11200 1750
Wire Wire Line
	11200 1750 11600 1750
Wire Wire Line
	11600 1750 11600 1700
Wire Wire Line
	11600 1800 11600 1750
Connection ~ 11600 1750
$Comp
L power:GND #PWR?
U 1 1 61FBAEAD
P 11600 2150
F 0 "#PWR?" H 11600 1900 50  0001 C CNN
F 1 "GND" H 11605 1977 50  0000 C CNN
F 2 "" H 11600 2150 50  0001 C CNN
F 3 "" H 11600 2150 50  0001 C CNN
	1    11600 2150
	1    0    0    -1  
$EndComp
$Comp
L power:GND #PWR?
U 1 1 61FBB4F9
P 10650 1750
F 0 "#PWR?" H 10650 1500 50  0001 C CNN
F 1 "GND" H 10655 1577 50  0000 C CNN
F 2 "" H 10650 1750 50  0001 C CNN
F 3 "" H 10650 1750 50  0001 C CNN
	1    10650 1750
	1    0    0    -1  
$EndComp
$Comp
L power:GND #PWR?
U 1 1 61FBBB02
P 12050 1750
F 0 "#PWR?" H 12050 1500 50  0001 C CNN
F 1 "GND" H 12055 1577 50  0000 C CNN
F 2 "" H 12050 1750 50  0001 C CNN
F 3 "" H 12050 1750 50  0001 C CNN
	1    12050 1750
	1    0    0    -1  
$EndComp
Wire Wire Line
	12050 1750 12050 1700
Wire Wire Line
	11600 2150 11600 2100
Wire Wire Line
	10650 1750 10650 1700
Wire Notes Line
	13100 2500 13100 850 
Wire Notes Line
	13100 2050 15650 2050
Connection ~ 14800 3200
Connection ~ 14800 4250
Wire Wire Line
	14800 4050 15300 4050
Connection ~ 15050 4150
Wire Wire Line
	15050 4150 15200 4150
Wire Wire Line
	14650 3200 14800 3200
Wire Wire Line
	14650 4250 14800 4250
Wire Wire Line
	14600 3200 14800 3200
Wire Wire Line
	14600 4250 14800 4250
Wire Notes Line
	9400 5150 15050 5150
Wire Notes Line
	4300 1000 4300 5650
Wire Notes Line
	2150 7200 7050 7200
Wire Notes Line
	9100 2500 9100 800 
Wire Notes Line
	9100 2500 13100 2500
Text Notes 10800 950  0    50   ~ 0
Power supply
Text Notes 14150 850  0    50   ~ 0
Battery terminals
Text Notes 9000 3100 0    55   ~ 0
Charging circuit
Text Notes 11050 5650 0    50   ~ 0
Discharging circuit
Text Notes 4300 7500 0    50   ~ 0
Thermal control signals
Text Notes 2150 1950 0    50   ~ 0
Main controller
$Comp
L Connector:Conn_01x02_Female J2
U 1 1 615A281B
P 3850 3750
F 0 "J2" H 3878 3726 50  0000 L CNN
F 1 "Thermistor Voltage Divider" H 3878 3635 50  0000 L CNN
F 2 "" H 3850 3750 50  0001 C CNN
F 3 "~" H 3850 3750 50  0001 C CNN
	1    3850 3750
	1    0    0    -1  
$EndComp
$Comp
L Senior-Design-V1-rescue:TLV5638MDREP-2021-09-27_17-54-40 U?
U 1 1 629E51AE
P 3300 8400
F 0 "U?" H 4500 8787 60  0000 C CNN
F 1 "TLV5638MDREP" H 4500 8681 60  0000 C CNN
F 2 "D8" H 4500 8640 60  0001 C CNN
F 3 "" H 3300 8400 60  0000 C CNN
	1    3300 8400
	1    0    0    -1  
$EndComp
Text GLabel 3100 8400 0    50   Input ~ 0
SDA
Text GLabel 3100 8500 0    50   Input ~ 0
SCL
$Comp
L Device:R R?
U 1 1 629E7F2D
P 3150 8600
F 0 "R?" H 3080 8554 50  0000 R CNN
F 1 "10k" H 3080 8645 50  0000 R CNN
F 2 "" V 3080 8600 50  0001 C CNN
F 3 "~" H 3150 8600 50  0001 C CNN
	1    3150 8600
	0    -1   -1   0   
$EndComp
$Comp
L power:GND #PWR?
U 1 1 629E8630
P 2950 8650
F 0 "#PWR?" H 2950 8400 50  0001 C CNN
F 1 "GND" H 2955 8477 50  0000 C CNN
F 2 "" H 2950 8650 50  0001 C CNN
F 3 "" H 2950 8650 50  0001 C CNN
	1    2950 8650
	1    0    0    -1  
$EndComp
Wire Wire Line
	3000 8600 2950 8600
Wire Wire Line
	2950 8600 2950 8650
Wire Wire Line
	5700 8400 6100 8400
Wire Wire Line
	6100 8400 6100 8150
$Comp
L power:+5V #PWR?
U 1 1 62A260E0
P 6100 8150
F 0 "#PWR?" H 6100 8000 50  0001 C CNN
F 1 "+5V" H 6115 8323 50  0000 C CNN
F 2 "" H 6100 8150 50  0001 C CNN
F 3 "" H 6100 8150 50  0001 C CNN
	1    6100 8150
	1    0    0    -1  
$EndComp
Wire Wire Line
	5700 8600 5900 8600
Wire Wire Line
	5900 8600 5900 8700
$Comp
L power:GND #PWR?
U 1 1 62A3C6F6
P 5900 8950
F 0 "#PWR?" H 5900 8700 50  0001 C CNN
F 1 "GND" H 5905 8777 50  0000 C CNN
F 2 "" H 5900 8950 50  0001 C CNN
F 3 "" H 5900 8950 50  0001 C CNN
	1    5900 8950
	1    0    0    -1  
$EndComp
Wire Wire Line
	5700 8500 6150 8500
Wire Wire Line
	6150 9300 3300 9300
Wire Wire Line
	3300 9300 3300 8700
Wire Wire Line
	6150 8600 6150 9300
Wire Wire Line
	5700 8700 5900 8700
Connection ~ 5900 8700
Wire Wire Line
	5900 8700 5900 8950
Wire Wire Line
	3100 8400 3300 8400
Wire Wire Line
	3300 8500 3100 8500
$EndSCHEMATC
