!PADS-POWERPCB-V9.5-METRIC! DESIGN DATABASE ASCII FILE 1.0
*PARTDECAL*  ITEMS

AZ1117CD50TRG1 M 0 0 6 3 2 0 2
CLOSED 5 0.2 0 27
-3.288 3.425
3.288 3.425
3.288 -2.675
-3.288 -2.675
-3.288 3.425
CLOSED 5 0.1 0 20
-4.500 7.925
4.500 7.925
4.500 -6.850
-4.500 -6.850
-4.500 7.925
OPEN 2 0.1 0 26
-3.288 -0.400
-3.288 -2.000
OPEN 2 0.1 0 26
3.288 -0.400
3.288 -2.000
OPEN 2 0.1 0 26
-1.000 -2.675
1.000 -2.675
CLOSED 5 0.2 0 26
-2.200 -5.800
-2.200 -5.800 0 1800 -2.300 -5.850 -2.200 -5.750
-2.300 -5.800
-2.300 -5.800 1800 1800 -2.300 -5.850 -2.200 -5.750
-2.200 -5.800
VALUE 0.000 0.538 0 1 1.27 0.127 N LEFT DOWN
Regular <Romansim Stroke Font>
Ref.Des.
VALUE 0.000 0.538 0 1 1.27 0.127 N LEFT UP
Regular <Romansim Stroke Font>
Part Type
T-2.300 -3.425 -2.300 -3.425 1
T0.000 3.425 0.000 3.425 2
T2.300 -3.425 2.300 -3.425 3
PAD 0 3
-2 1.500 RF 90.000 2.500 0.000 0 0 N
-1 0 R
0 0 R
PAD 2 3
-2 7.000 RF 90.000 7.000 0.000 0 0 N
-1 0 R
0 0 R

*END*     OF ASCII OUTPUT FILE
