%TF.GenerationSoftware,KiCad,Pcbnew,(5.1.10)-1*%
%TF.CreationDate,2021-10-27T15:20:46-05:00*%
%TF.ProjectId,CompleteSchematicV1,436f6d70-6c65-4746-9553-6368656d6174,rev?*%
%TF.SameCoordinates,Original*%
%TF.FileFunction,Profile,NP*%
%FSLAX46Y46*%
G04 Gerber Fmt 4.6, Leading zero omitted, Abs format (unit mm)*
G04 Created by KiCad (PCBNEW (5.1.10)-1) date 2021-10-27 15:20:46*
%MOMM*%
%LPD*%
G01*
G04 APERTURE LIST*
%TA.AperFunction,Profile*%
%ADD10C,0.100000*%
%TD*%
G04 APERTURE END LIST*
D10*
X97028000Y-128905000D02*
X96901000Y-40132000D01*
X189611000Y-129159000D02*
X97028000Y-128905000D01*
X189738000Y-40005000D02*
X189611000Y-129159000D01*
X96901000Y-40132000D02*
X189738000Y-40005000D01*
M02*
