PCBNEW-LibModule-V1  2021-09-27 06:23:48
# encoding utf-8
Units mm
$INDEX
CMX100D10
$EndINDEX
$MODULE CMX100D10
Po 0 0 0 15 61515564 00000000 ~~
Li CMX100D10
Cd CMX100D10-2
Kw Relay or Contactor
Sc 0
At STD
AR 
Op 0 0 0
T0 -13.950 -1 1.27 1.27 0 0.254 N V 21 N "K**"
T1 -13.950 -1 1.27 1.27 0 0.254 N I 21 N "CMX100D10"
DS -35.5 -5.1 7.6 -5.1 0.2 24
DS 7.6 -5.1 7.6 2.5 0.2 24
DS 7.6 2.5 -35.5 2.5 0.2 24
DS -35.5 2.5 -35.5 -5.1 0.2 24
DS -35.5 -5.08 7.6 -5.08 0.1 21
DS 7.6 -5.08 7.6 2.5 0.1 21
DS 7.6 2.5 -35.5 2.5 0.1 21
DS -35.5 2.5 -35.5 -5.08 0.1 21
DS -36.5 -6.1 8.6 -6.1 0.1 24
DS 8.6 -6.1 8.6 4.1 0.1 24
DS 8.6 4.1 -36.5 4.1 0.1 24
DS -36.5 4.1 -36.5 -6.1 0.1 24
DS 0.2 3 0.2 3 0.1 21
DS 0.2 3.1 0.2 3.1 0.1 21
DA 0.2 3.05 0.200 3 -1800 0.1 21
DA 0.2 3.05 0.200 3.1 -1800 0.1 21
$PAD
Po 0.000 -0
Sh "1" C 1.800 1.800 0 0 900
Dr 1.2 0 0
At STD N 00E0FFFF
Ne 0 ""
$EndPAD
$PAD
Po -10.100 -0
Sh "2" C 1.800 1.800 0 0 900
Dr 1.2 0 0
At STD N 00E0FFFF
Ne 0 ""
$EndPAD
$PAD
Po -22.800 -0
Sh "3" C 1.800 1.800 0 0 900
Dr 1.2 0 0
At STD N 00E0FFFF
Ne 0 ""
$EndPAD
$PAD
Po -27.900 -0
Sh "4" C 1.800 1.800 0 0 900
Dr 1.2 0 0
At STD N 00E0FFFF
Ne 0 ""
$EndPAD
$EndMODULE CMX100D10
$EndLIBRARY
