ISO-10303-21;
HEADER;
FILE_DESCRIPTION(('FreeCAD Model'),'2;1');
FILE_NAME('/var/www/3D/0T/13920389.1.1.stp','2021-05-08T05:17:19',(
    'Author'),(''),'Open CASCADE STEP processor 6.9','FreeCAD','Unknown'
  );
FILE_SCHEMA(('AUTOMOTIVE_DESIGN { 1 0 10303 214 1 1 1 1 }'));
ENDSEC;
DATA;
#1 = APPLICATION_PROTOCOL_DEFINITION('international standard',
  'automotive_design',2000,#2);
#2 = APPLICATION_CONTEXT(
  'core data for automotive mechanical design processes');
#3 = SHAPE_DEFINITION_REPRESENTATION(#4,#10);
#4 = PRODUCT_DEFINITION_SHAPE('','',#5);
#5 = PRODUCT_DEFINITION('design','',#6,#9);
#6 = PRODUCT_DEFINITION_FORMATION('','',#7);
#7 = PRODUCT('ASSEMBLY','ASSEMBLY','',(#8));
#8 = PRODUCT_CONTEXT('',#2,'mechanical');
#9 = PRODUCT_DEFINITION_CONTEXT('part definition',#2,'design');
#10 = SHAPE_REPRESENTATION('',(#11,#15,#19),#23);
#11 = AXIS2_PLACEMENT_3D('',#12,#13,#14);
#12 = CARTESIAN_POINT('',(0.,0.,0.));
#13 = DIRECTION('',(0.,0.,1.));
#14 = DIRECTION('',(1.,0.,-0.));
#15 = AXIS2_PLACEMENT_3D('',#16,#17,#18);
#16 = CARTESIAN_POINT('',(0.,0.,0.));
#17 = DIRECTION('',(0.,0.,1.));
#18 = DIRECTION('',(1.,0.,0.));
#19 = AXIS2_PLACEMENT_3D('',#20,#21,#22);
#20 = CARTESIAN_POINT('',(0.,0.,0.));
#21 = DIRECTION('',(0.,0.,1.));
#22 = DIRECTION('',(1.,0.,0.));
#23 = ( GEOMETRIC_REPRESENTATION_CONTEXT(3) 
GLOBAL_UNCERTAINTY_ASSIGNED_CONTEXT((#27)) GLOBAL_UNIT_ASSIGNED_CONTEXT(
(#24,#25,#26)) REPRESENTATION_CONTEXT('Context #1',
  '3D Context with UNIT and UNCERTAINTY') );
#24 = ( LENGTH_UNIT() NAMED_UNIT(*) SI_UNIT(.MILLI.,.METRE.) );
#25 = ( NAMED_UNIT(*) PLANE_ANGLE_UNIT() SI_UNIT($,.RADIAN.) );
#26 = ( NAMED_UNIT(*) SI_UNIT($,.STERADIAN.) SOLID_ANGLE_UNIT() );
#27 = UNCERTAINTY_MEASURE_WITH_UNIT(LENGTH_MEASURE(1.E-07),#24,
  'distance_accuracy_value','confusion accuracy');
#28 = PRODUCT_RELATED_PRODUCT_CATEGORY('part',$,(#7));
#29 = SHAPE_REPRESENTATION('',(#11,#30,#42,#54,#66,#78,#90,#102,#114,
    #126,#138,#150,#162,#174,#186,#198,#210,#222,#234,#246,#258,#270,
    #282,#294,#306,#318,#330,#342,#354,#366,#378,#390,#402,#414,#426,
    #438,#450,#462,#474,#486,#498,#510,#522,#534,#546,#558,#570,#582,
    #594,#606,#618,#630,#642,#654,#666,#678,#690),#702);
#30 = MANIFOLD_SOLID_BREP('',#31);
#31 = CLOSED_SHELL('',(#32));
#32 = ADVANCED_FACE('',(#33),#37,.T.);
#33 = FACE_BOUND('',#34,.T.);
#34 = VERTEX_LOOP('',#35);
#35 = VERTEX_POINT('',#36);
#36 = CARTESIAN_POINT('',(-1.2,1.4,0.));
#37 = SPHERICAL_SURFACE('',#38,0.125);
#38 = AXIS2_PLACEMENT_3D('',#39,#40,#41);
#39 = CARTESIAN_POINT('',(-1.2,1.4,0.125));
#40 = DIRECTION('',(0.,0.,1.));
#41 = DIRECTION('',(1.,0.,0.));
#42 = MANIFOLD_SOLID_BREP('',#43);
#43 = CLOSED_SHELL('',(#44));
#44 = ADVANCED_FACE('',(#45),#49,.T.);
#45 = FACE_BOUND('',#46,.T.);
#46 = VERTEX_LOOP('',#47);
#47 = VERTEX_POINT('',#48);
#48 = CARTESIAN_POINT('',(-1.2,1.,0.));
#49 = SPHERICAL_SURFACE('',#50,0.125);
#50 = AXIS2_PLACEMENT_3D('',#51,#52,#53);
#51 = CARTESIAN_POINT('',(-1.2,1.,0.125));
#52 = DIRECTION('',(0.,0.,1.));
#53 = DIRECTION('',(1.,0.,0.));
#54 = MANIFOLD_SOLID_BREP('',#55);
#55 = CLOSED_SHELL('',(#56));
#56 = ADVANCED_FACE('',(#57),#61,.T.);
#57 = FACE_BOUND('',#58,.T.);
#58 = VERTEX_LOOP('',#59);
#59 = VERTEX_POINT('',#60);
#60 = CARTESIAN_POINT('',(-1.2,0.6,0.));
#61 = SPHERICAL_SURFACE('',#62,0.125);
#62 = AXIS2_PLACEMENT_3D('',#63,#64,#65);
#63 = CARTESIAN_POINT('',(-1.2,0.6,0.125));
#64 = DIRECTION('',(0.,0.,1.));
#65 = DIRECTION('',(1.,0.,0.));
#66 = MANIFOLD_SOLID_BREP('',#67);
#67 = CLOSED_SHELL('',(#68));
#68 = ADVANCED_FACE('',(#69),#73,.T.);
#69 = FACE_BOUND('',#70,.T.);
#70 = VERTEX_LOOP('',#71);
#71 = VERTEX_POINT('',#72);
#72 = CARTESIAN_POINT('',(-1.2,0.2,0.));
#73 = SPHERICAL_SURFACE('',#74,0.125);
#74 = AXIS2_PLACEMENT_3D('',#75,#76,#77);
#75 = CARTESIAN_POINT('',(-1.2,0.2,0.125));
#76 = DIRECTION('',(0.,0.,1.));
#77 = DIRECTION('',(1.,0.,0.));
#78 = MANIFOLD_SOLID_BREP('',#79);
#79 = CLOSED_SHELL('',(#80));
#80 = ADVANCED_FACE('',(#81),#85,.T.);
#81 = FACE_BOUND('',#82,.T.);
#82 = VERTEX_LOOP('',#83);
#83 = VERTEX_POINT('',#84);
#84 = CARTESIAN_POINT('',(-1.2,-0.2,0.));
#85 = SPHERICAL_SURFACE('',#86,0.125);
#86 = AXIS2_PLACEMENT_3D('',#87,#88,#89);
#87 = CARTESIAN_POINT('',(-1.2,-0.2,0.125));
#88 = DIRECTION('',(0.,0.,1.));
#89 = DIRECTION('',(1.,0.,0.));
#90 = MANIFOLD_SOLID_BREP('',#91);
#91 = CLOSED_SHELL('',(#92));
#92 = ADVANCED_FACE('',(#93),#97,.T.);
#93 = FACE_BOUND('',#94,.T.);
#94 = VERTEX_LOOP('',#95);
#95 = VERTEX_POINT('',#96);
#96 = CARTESIAN_POINT('',(-1.2,-0.6,0.));
#97 = SPHERICAL_SURFACE('',#98,0.125);
#98 = AXIS2_PLACEMENT_3D('',#99,#100,#101);
#99 = CARTESIAN_POINT('',(-1.2,-0.6,0.125));
#100 = DIRECTION('',(0.,0.,1.));
#101 = DIRECTION('',(1.,0.,0.));
#102 = MANIFOLD_SOLID_BREP('',#103);
#103 = CLOSED_SHELL('',(#104));
#104 = ADVANCED_FACE('',(#105),#109,.T.);
#105 = FACE_BOUND('',#106,.T.);
#106 = VERTEX_LOOP('',#107);
#107 = VERTEX_POINT('',#108);
#108 = CARTESIAN_POINT('',(-1.2,-1.,0.));
#109 = SPHERICAL_SURFACE('',#110,0.125);
#110 = AXIS2_PLACEMENT_3D('',#111,#112,#113);
#111 = CARTESIAN_POINT('',(-1.2,-1.,0.125));
#112 = DIRECTION('',(0.,0.,1.));
#113 = DIRECTION('',(1.,0.,0.));
#114 = MANIFOLD_SOLID_BREP('',#115);
#115 = CLOSED_SHELL('',(#116));
#116 = ADVANCED_FACE('',(#117),#121,.T.);
#117 = FACE_BOUND('',#118,.T.);
#118 = VERTEX_LOOP('',#119);
#119 = VERTEX_POINT('',#120);
#120 = CARTESIAN_POINT('',(-1.2,-1.4,0.));
#121 = SPHERICAL_SURFACE('',#122,0.125);
#122 = AXIS2_PLACEMENT_3D('',#123,#124,#125);
#123 = CARTESIAN_POINT('',(-1.2,-1.4,0.125));
#124 = DIRECTION('',(0.,0.,1.));
#125 = DIRECTION('',(1.,0.,0.));
#126 = MANIFOLD_SOLID_BREP('',#127);
#127 = CLOSED_SHELL('',(#128));
#128 = ADVANCED_FACE('',(#129),#133,.T.);
#129 = FACE_BOUND('',#130,.T.);
#130 = VERTEX_LOOP('',#131);
#131 = VERTEX_POINT('',#132);
#132 = CARTESIAN_POINT('',(-0.8,1.4,0.));
#133 = SPHERICAL_SURFACE('',#134,0.125);
#134 = AXIS2_PLACEMENT_3D('',#135,#136,#137);
#135 = CARTESIAN_POINT('',(-0.8,1.4,0.125));
#136 = DIRECTION('',(0.,0.,1.));
#137 = DIRECTION('',(1.,0.,0.));
#138 = MANIFOLD_SOLID_BREP('',#139);
#139 = CLOSED_SHELL('',(#140));
#140 = ADVANCED_FACE('',(#141),#145,.T.);
#141 = FACE_BOUND('',#142,.T.);
#142 = VERTEX_LOOP('',#143);
#143 = VERTEX_POINT('',#144);
#144 = CARTESIAN_POINT('',(-0.8,1.,0.));
#145 = SPHERICAL_SURFACE('',#146,0.125);
#146 = AXIS2_PLACEMENT_3D('',#147,#148,#149);
#147 = CARTESIAN_POINT('',(-0.8,1.,0.125));
#148 = DIRECTION('',(0.,0.,1.));
#149 = DIRECTION('',(1.,0.,0.));
#150 = MANIFOLD_SOLID_BREP('',#151);
#151 = CLOSED_SHELL('',(#152));
#152 = ADVANCED_FACE('',(#153),#157,.T.);
#153 = FACE_BOUND('',#154,.T.);
#154 = VERTEX_LOOP('',#155);
#155 = VERTEX_POINT('',#156);
#156 = CARTESIAN_POINT('',(-0.8,0.6,0.));
#157 = SPHERICAL_SURFACE('',#158,0.125);
#158 = AXIS2_PLACEMENT_3D('',#159,#160,#161);
#159 = CARTESIAN_POINT('',(-0.8,0.6,0.125));
#160 = DIRECTION('',(0.,0.,1.));
#161 = DIRECTION('',(1.,0.,0.));
#162 = MANIFOLD_SOLID_BREP('',#163);
#163 = CLOSED_SHELL('',(#164));
#164 = ADVANCED_FACE('',(#165),#169,.T.);
#165 = FACE_BOUND('',#166,.T.);
#166 = VERTEX_LOOP('',#167);
#167 = VERTEX_POINT('',#168);
#168 = CARTESIAN_POINT('',(-0.8,0.2,0.));
#169 = SPHERICAL_SURFACE('',#170,0.125);
#170 = AXIS2_PLACEMENT_3D('',#171,#172,#173);
#171 = CARTESIAN_POINT('',(-0.8,0.2,0.125));
#172 = DIRECTION('',(0.,0.,1.));
#173 = DIRECTION('',(1.,0.,0.));
#174 = MANIFOLD_SOLID_BREP('',#175);
#175 = CLOSED_SHELL('',(#176));
#176 = ADVANCED_FACE('',(#177),#181,.T.);
#177 = FACE_BOUND('',#178,.T.);
#178 = VERTEX_LOOP('',#179);
#179 = VERTEX_POINT('',#180);
#180 = CARTESIAN_POINT('',(-0.8,-0.2,0.));
#181 = SPHERICAL_SURFACE('',#182,0.125);
#182 = AXIS2_PLACEMENT_3D('',#183,#184,#185);
#183 = CARTESIAN_POINT('',(-0.8,-0.2,0.125));
#184 = DIRECTION('',(0.,0.,1.));
#185 = DIRECTION('',(1.,0.,0.));
#186 = MANIFOLD_SOLID_BREP('',#187);
#187 = CLOSED_SHELL('',(#188));
#188 = ADVANCED_FACE('',(#189),#193,.T.);
#189 = FACE_BOUND('',#190,.T.);
#190 = VERTEX_LOOP('',#191);
#191 = VERTEX_POINT('',#192);
#192 = CARTESIAN_POINT('',(-0.8,-0.6,0.));
#193 = SPHERICAL_SURFACE('',#194,0.125);
#194 = AXIS2_PLACEMENT_3D('',#195,#196,#197);
#195 = CARTESIAN_POINT('',(-0.8,-0.6,0.125));
#196 = DIRECTION('',(0.,0.,1.));
#197 = DIRECTION('',(1.,0.,0.));
#198 = MANIFOLD_SOLID_BREP('',#199);
#199 = CLOSED_SHELL('',(#200));
#200 = ADVANCED_FACE('',(#201),#205,.T.);
#201 = FACE_BOUND('',#202,.T.);
#202 = VERTEX_LOOP('',#203);
#203 = VERTEX_POINT('',#204);
#204 = CARTESIAN_POINT('',(-0.8,-1.,0.));
#205 = SPHERICAL_SURFACE('',#206,0.125);
#206 = AXIS2_PLACEMENT_3D('',#207,#208,#209);
#207 = CARTESIAN_POINT('',(-0.8,-1.,0.125));
#208 = DIRECTION('',(0.,0.,1.));
#209 = DIRECTION('',(1.,0.,0.));
#210 = MANIFOLD_SOLID_BREP('',#211);
#211 = CLOSED_SHELL('',(#212));
#212 = ADVANCED_FACE('',(#213),#217,.T.);
#213 = FACE_BOUND('',#214,.T.);
#214 = VERTEX_LOOP('',#215);
#215 = VERTEX_POINT('',#216);
#216 = CARTESIAN_POINT('',(-0.8,-1.4,0.));
#217 = SPHERICAL_SURFACE('',#218,0.125);
#218 = AXIS2_PLACEMENT_3D('',#219,#220,#221);
#219 = CARTESIAN_POINT('',(-0.8,-1.4,0.125));
#220 = DIRECTION('',(0.,0.,1.));
#221 = DIRECTION('',(1.,0.,0.));
#222 = MANIFOLD_SOLID_BREP('',#223);
#223 = CLOSED_SHELL('',(#224));
#224 = ADVANCED_FACE('',(#225),#229,.T.);
#225 = FACE_BOUND('',#226,.T.);
#226 = VERTEX_LOOP('',#227);
#227 = VERTEX_POINT('',#228);
#228 = CARTESIAN_POINT('',(-0.4,1.4,0.));
#229 = SPHERICAL_SURFACE('',#230,0.125);
#230 = AXIS2_PLACEMENT_3D('',#231,#232,#233);
#231 = CARTESIAN_POINT('',(-0.4,1.4,0.125));
#232 = DIRECTION('',(0.,0.,1.));
#233 = DIRECTION('',(1.,0.,0.));
#234 = MANIFOLD_SOLID_BREP('',#235);
#235 = CLOSED_SHELL('',(#236));
#236 = ADVANCED_FACE('',(#237),#241,.T.);
#237 = FACE_BOUND('',#238,.T.);
#238 = VERTEX_LOOP('',#239);
#239 = VERTEX_POINT('',#240);
#240 = CARTESIAN_POINT('',(-0.4,1.,0.));
#241 = SPHERICAL_SURFACE('',#242,0.125);
#242 = AXIS2_PLACEMENT_3D('',#243,#244,#245);
#243 = CARTESIAN_POINT('',(-0.4,1.,0.125));
#244 = DIRECTION('',(0.,0.,1.));
#245 = DIRECTION('',(1.,0.,0.));
#246 = MANIFOLD_SOLID_BREP('',#247);
#247 = CLOSED_SHELL('',(#248));
#248 = ADVANCED_FACE('',(#249),#253,.T.);
#249 = FACE_BOUND('',#250,.T.);
#250 = VERTEX_LOOP('',#251);
#251 = VERTEX_POINT('',#252);
#252 = CARTESIAN_POINT('',(-0.4,0.6,0.));
#253 = SPHERICAL_SURFACE('',#254,0.125);
#254 = AXIS2_PLACEMENT_3D('',#255,#256,#257);
#255 = CARTESIAN_POINT('',(-0.4,0.6,0.125));
#256 = DIRECTION('',(0.,0.,1.));
#257 = DIRECTION('',(1.,0.,0.));
#258 = MANIFOLD_SOLID_BREP('',#259);
#259 = CLOSED_SHELL('',(#260));
#260 = ADVANCED_FACE('',(#261),#265,.T.);
#261 = FACE_BOUND('',#262,.T.);
#262 = VERTEX_LOOP('',#263);
#263 = VERTEX_POINT('',#264);
#264 = CARTESIAN_POINT('',(-0.4,0.2,0.));
#265 = SPHERICAL_SURFACE('',#266,0.125);
#266 = AXIS2_PLACEMENT_3D('',#267,#268,#269);
#267 = CARTESIAN_POINT('',(-0.4,0.2,0.125));
#268 = DIRECTION('',(0.,0.,1.));
#269 = DIRECTION('',(1.,0.,0.));
#270 = MANIFOLD_SOLID_BREP('',#271);
#271 = CLOSED_SHELL('',(#272));
#272 = ADVANCED_FACE('',(#273),#277,.T.);
#273 = FACE_BOUND('',#274,.T.);
#274 = VERTEX_LOOP('',#275);
#275 = VERTEX_POINT('',#276);
#276 = CARTESIAN_POINT('',(-0.4,-0.2,0.));
#277 = SPHERICAL_SURFACE('',#278,0.125);
#278 = AXIS2_PLACEMENT_3D('',#279,#280,#281);
#279 = CARTESIAN_POINT('',(-0.4,-0.2,0.125));
#280 = DIRECTION('',(0.,0.,1.));
#281 = DIRECTION('',(1.,0.,0.));
#282 = MANIFOLD_SOLID_BREP('',#283);
#283 = CLOSED_SHELL('',(#284));
#284 = ADVANCED_FACE('',(#285),#289,.T.);
#285 = FACE_BOUND('',#286,.T.);
#286 = VERTEX_LOOP('',#287);
#287 = VERTEX_POINT('',#288);
#288 = CARTESIAN_POINT('',(-0.4,-0.6,0.));
#289 = SPHERICAL_SURFACE('',#290,0.125);
#290 = AXIS2_PLACEMENT_3D('',#291,#292,#293);
#291 = CARTESIAN_POINT('',(-0.4,-0.6,0.125));
#292 = DIRECTION('',(0.,0.,1.));
#293 = DIRECTION('',(1.,0.,0.));
#294 = MANIFOLD_SOLID_BREP('',#295);
#295 = CLOSED_SHELL('',(#296));
#296 = ADVANCED_FACE('',(#297),#301,.T.);
#297 = FACE_BOUND('',#298,.T.);
#298 = VERTEX_LOOP('',#299);
#299 = VERTEX_POINT('',#300);
#300 = CARTESIAN_POINT('',(-0.4,-1.,0.));
#301 = SPHERICAL_SURFACE('',#302,0.125);
#302 = AXIS2_PLACEMENT_3D('',#303,#304,#305);
#303 = CARTESIAN_POINT('',(-0.4,-1.,0.125));
#304 = DIRECTION('',(0.,0.,1.));
#305 = DIRECTION('',(1.,0.,0.));
#306 = MANIFOLD_SOLID_BREP('',#307);
#307 = CLOSED_SHELL('',(#308));
#308 = ADVANCED_FACE('',(#309),#313,.T.);
#309 = FACE_BOUND('',#310,.T.);
#310 = VERTEX_LOOP('',#311);
#311 = VERTEX_POINT('',#312);
#312 = CARTESIAN_POINT('',(-0.4,-1.4,0.));
#313 = SPHERICAL_SURFACE('',#314,0.125);
#314 = AXIS2_PLACEMENT_3D('',#315,#316,#317);
#315 = CARTESIAN_POINT('',(-0.4,-1.4,0.125));
#316 = DIRECTION('',(0.,0.,1.));
#317 = DIRECTION('',(1.,0.,0.));
#318 = MANIFOLD_SOLID_BREP('',#319);
#319 = CLOSED_SHELL('',(#320));
#320 = ADVANCED_FACE('',(#321),#325,.T.);
#321 = FACE_BOUND('',#322,.T.);
#322 = VERTEX_LOOP('',#323);
#323 = VERTEX_POINT('',#324);
#324 = CARTESIAN_POINT('',(0.,1.4,0.));
#325 = SPHERICAL_SURFACE('',#326,0.125);
#326 = AXIS2_PLACEMENT_3D('',#327,#328,#329);
#327 = CARTESIAN_POINT('',(0.,1.4,0.125));
#328 = DIRECTION('',(0.,0.,1.));
#329 = DIRECTION('',(1.,0.,0.));
#330 = MANIFOLD_SOLID_BREP('',#331);
#331 = CLOSED_SHELL('',(#332));
#332 = ADVANCED_FACE('',(#333),#337,.T.);
#333 = FACE_BOUND('',#334,.T.);
#334 = VERTEX_LOOP('',#335);
#335 = VERTEX_POINT('',#336);
#336 = CARTESIAN_POINT('',(0.,1.,0.));
#337 = SPHERICAL_SURFACE('',#338,0.125);
#338 = AXIS2_PLACEMENT_3D('',#339,#340,#341);
#339 = CARTESIAN_POINT('',(0.,1.,0.125));
#340 = DIRECTION('',(0.,0.,1.));
#341 = DIRECTION('',(1.,0.,0.));
#342 = MANIFOLD_SOLID_BREP('',#343);
#343 = CLOSED_SHELL('',(#344));
#344 = ADVANCED_FACE('',(#345),#349,.T.);
#345 = FACE_BOUND('',#346,.T.);
#346 = VERTEX_LOOP('',#347);
#347 = VERTEX_POINT('',#348);
#348 = CARTESIAN_POINT('',(0.,0.6,0.));
#349 = SPHERICAL_SURFACE('',#350,0.125);
#350 = AXIS2_PLACEMENT_3D('',#351,#352,#353);
#351 = CARTESIAN_POINT('',(0.,0.6,0.125));
#352 = DIRECTION('',(0.,0.,1.));
#353 = DIRECTION('',(1.,0.,0.));
#354 = MANIFOLD_SOLID_BREP('',#355);
#355 = CLOSED_SHELL('',(#356));
#356 = ADVANCED_FACE('',(#357),#361,.T.);
#357 = FACE_BOUND('',#358,.T.);
#358 = VERTEX_LOOP('',#359);
#359 = VERTEX_POINT('',#360);
#360 = CARTESIAN_POINT('',(0.,0.2,0.));
#361 = SPHERICAL_SURFACE('',#362,0.125);
#362 = AXIS2_PLACEMENT_3D('',#363,#364,#365);
#363 = CARTESIAN_POINT('',(0.,0.2,0.125));
#364 = DIRECTION('',(0.,0.,1.));
#365 = DIRECTION('',(1.,0.,0.));
#366 = MANIFOLD_SOLID_BREP('',#367);
#367 = CLOSED_SHELL('',(#368));
#368 = ADVANCED_FACE('',(#369),#373,.T.);
#369 = FACE_BOUND('',#370,.T.);
#370 = VERTEX_LOOP('',#371);
#371 = VERTEX_POINT('',#372);
#372 = CARTESIAN_POINT('',(0.,-0.2,0.));
#373 = SPHERICAL_SURFACE('',#374,0.125);
#374 = AXIS2_PLACEMENT_3D('',#375,#376,#377);
#375 = CARTESIAN_POINT('',(0.,-0.2,0.125));
#376 = DIRECTION('',(0.,0.,1.));
#377 = DIRECTION('',(1.,0.,0.));
#378 = MANIFOLD_SOLID_BREP('',#379);
#379 = CLOSED_SHELL('',(#380));
#380 = ADVANCED_FACE('',(#381),#385,.T.);
#381 = FACE_BOUND('',#382,.T.);
#382 = VERTEX_LOOP('',#383);
#383 = VERTEX_POINT('',#384);
#384 = CARTESIAN_POINT('',(0.,-0.6,0.));
#385 = SPHERICAL_SURFACE('',#386,0.125);
#386 = AXIS2_PLACEMENT_3D('',#387,#388,#389);
#387 = CARTESIAN_POINT('',(0.,-0.6,0.125));
#388 = DIRECTION('',(0.,0.,1.));
#389 = DIRECTION('',(1.,0.,0.));
#390 = MANIFOLD_SOLID_BREP('',#391);
#391 = CLOSED_SHELL('',(#392));
#392 = ADVANCED_FACE('',(#393),#397,.T.);
#393 = FACE_BOUND('',#394,.T.);
#394 = VERTEX_LOOP('',#395);
#395 = VERTEX_POINT('',#396);
#396 = CARTESIAN_POINT('',(0.,-1.,0.));
#397 = SPHERICAL_SURFACE('',#398,0.125);
#398 = AXIS2_PLACEMENT_3D('',#399,#400,#401);
#399 = CARTESIAN_POINT('',(0.,-1.,0.125));
#400 = DIRECTION('',(0.,0.,1.));
#401 = DIRECTION('',(1.,0.,0.));
#402 = MANIFOLD_SOLID_BREP('',#403);
#403 = CLOSED_SHELL('',(#404));
#404 = ADVANCED_FACE('',(#405),#409,.T.);
#405 = FACE_BOUND('',#406,.T.);
#406 = VERTEX_LOOP('',#407);
#407 = VERTEX_POINT('',#408);
#408 = CARTESIAN_POINT('',(0.,-1.4,0.));
#409 = SPHERICAL_SURFACE('',#410,0.125);
#410 = AXIS2_PLACEMENT_3D('',#411,#412,#413);
#411 = CARTESIAN_POINT('',(0.,-1.4,0.125));
#412 = DIRECTION('',(0.,0.,1.));
#413 = DIRECTION('',(1.,0.,0.));
#414 = MANIFOLD_SOLID_BREP('',#415);
#415 = CLOSED_SHELL('',(#416));
#416 = ADVANCED_FACE('',(#417),#421,.T.);
#417 = FACE_BOUND('',#418,.T.);
#418 = VERTEX_LOOP('',#419);
#419 = VERTEX_POINT('',#420);
#420 = CARTESIAN_POINT('',(0.4,1.4,0.));
#421 = SPHERICAL_SURFACE('',#422,0.125);
#422 = AXIS2_PLACEMENT_3D('',#423,#424,#425);
#423 = CARTESIAN_POINT('',(0.4,1.4,0.125));
#424 = DIRECTION('',(0.,0.,1.));
#425 = DIRECTION('',(1.,0.,0.));
#426 = MANIFOLD_SOLID_BREP('',#427);
#427 = CLOSED_SHELL('',(#428));
#428 = ADVANCED_FACE('',(#429),#433,.T.);
#429 = FACE_BOUND('',#430,.T.);
#430 = VERTEX_LOOP('',#431);
#431 = VERTEX_POINT('',#432);
#432 = CARTESIAN_POINT('',(0.4,1.,0.));
#433 = SPHERICAL_SURFACE('',#434,0.125);
#434 = AXIS2_PLACEMENT_3D('',#435,#436,#437);
#435 = CARTESIAN_POINT('',(0.4,1.,0.125));
#436 = DIRECTION('',(0.,0.,1.));
#437 = DIRECTION('',(1.,0.,0.));
#438 = MANIFOLD_SOLID_BREP('',#439);
#439 = CLOSED_SHELL('',(#440));
#440 = ADVANCED_FACE('',(#441),#445,.T.);
#441 = FACE_BOUND('',#442,.T.);
#442 = VERTEX_LOOP('',#443);
#443 = VERTEX_POINT('',#444);
#444 = CARTESIAN_POINT('',(0.4,0.6,0.));
#445 = SPHERICAL_SURFACE('',#446,0.125);
#446 = AXIS2_PLACEMENT_3D('',#447,#448,#449);
#447 = CARTESIAN_POINT('',(0.4,0.6,0.125));
#448 = DIRECTION('',(0.,0.,1.));
#449 = DIRECTION('',(1.,0.,0.));
#450 = MANIFOLD_SOLID_BREP('',#451);
#451 = CLOSED_SHELL('',(#452));
#452 = ADVANCED_FACE('',(#453),#457,.T.);
#453 = FACE_BOUND('',#454,.T.);
#454 = VERTEX_LOOP('',#455);
#455 = VERTEX_POINT('',#456);
#456 = CARTESIAN_POINT('',(0.4,0.2,0.));
#457 = SPHERICAL_SURFACE('',#458,0.125);
#458 = AXIS2_PLACEMENT_3D('',#459,#460,#461);
#459 = CARTESIAN_POINT('',(0.4,0.2,0.125));
#460 = DIRECTION('',(0.,0.,1.));
#461 = DIRECTION('',(1.,0.,0.));
#462 = MANIFOLD_SOLID_BREP('',#463);
#463 = CLOSED_SHELL('',(#464));
#464 = ADVANCED_FACE('',(#465),#469,.T.);
#465 = FACE_BOUND('',#466,.T.);
#466 = VERTEX_LOOP('',#467);
#467 = VERTEX_POINT('',#468);
#468 = CARTESIAN_POINT('',(0.4,-0.2,0.));
#469 = SPHERICAL_SURFACE('',#470,0.125);
#470 = AXIS2_PLACEMENT_3D('',#471,#472,#473);
#471 = CARTESIAN_POINT('',(0.4,-0.2,0.125));
#472 = DIRECTION('',(0.,0.,1.));
#473 = DIRECTION('',(1.,0.,0.));
#474 = MANIFOLD_SOLID_BREP('',#475);
#475 = CLOSED_SHELL('',(#476));
#476 = ADVANCED_FACE('',(#477),#481,.T.);
#477 = FACE_BOUND('',#478,.T.);
#478 = VERTEX_LOOP('',#479);
#479 = VERTEX_POINT('',#480);
#480 = CARTESIAN_POINT('',(0.4,-0.6,0.));
#481 = SPHERICAL_SURFACE('',#482,0.125);
#482 = AXIS2_PLACEMENT_3D('',#483,#484,#485);
#483 = CARTESIAN_POINT('',(0.4,-0.6,0.125));
#484 = DIRECTION('',(0.,0.,1.));
#485 = DIRECTION('',(1.,0.,0.));
#486 = MANIFOLD_SOLID_BREP('',#487);
#487 = CLOSED_SHELL('',(#488));
#488 = ADVANCED_FACE('',(#489),#493,.T.);
#489 = FACE_BOUND('',#490,.T.);
#490 = VERTEX_LOOP('',#491);
#491 = VERTEX_POINT('',#492);
#492 = CARTESIAN_POINT('',(0.4,-1.,0.));
#493 = SPHERICAL_SURFACE('',#494,0.125);
#494 = AXIS2_PLACEMENT_3D('',#495,#496,#497);
#495 = CARTESIAN_POINT('',(0.4,-1.,0.125));
#496 = DIRECTION('',(0.,0.,1.));
#497 = DIRECTION('',(1.,0.,0.));
#498 = MANIFOLD_SOLID_BREP('',#499);
#499 = CLOSED_SHELL('',(#500));
#500 = ADVANCED_FACE('',(#501),#505,.T.);
#501 = FACE_BOUND('',#502,.T.);
#502 = VERTEX_LOOP('',#503);
#503 = VERTEX_POINT('',#504);
#504 = CARTESIAN_POINT('',(0.4,-1.4,0.));
#505 = SPHERICAL_SURFACE('',#506,0.125);
#506 = AXIS2_PLACEMENT_3D('',#507,#508,#509);
#507 = CARTESIAN_POINT('',(0.4,-1.4,0.125));
#508 = DIRECTION('',(0.,0.,1.));
#509 = DIRECTION('',(1.,0.,0.));
#510 = MANIFOLD_SOLID_BREP('',#511);
#511 = CLOSED_SHELL('',(#512));
#512 = ADVANCED_FACE('',(#513),#517,.T.);
#513 = FACE_BOUND('',#514,.T.);
#514 = VERTEX_LOOP('',#515);
#515 = VERTEX_POINT('',#516);
#516 = CARTESIAN_POINT('',(0.8,1.4,0.));
#517 = SPHERICAL_SURFACE('',#518,0.125);
#518 = AXIS2_PLACEMENT_3D('',#519,#520,#521);
#519 = CARTESIAN_POINT('',(0.8,1.4,0.125));
#520 = DIRECTION('',(0.,0.,1.));
#521 = DIRECTION('',(1.,0.,0.));
#522 = MANIFOLD_SOLID_BREP('',#523);
#523 = CLOSED_SHELL('',(#524));
#524 = ADVANCED_FACE('',(#525),#529,.T.);
#525 = FACE_BOUND('',#526,.T.);
#526 = VERTEX_LOOP('',#527);
#527 = VERTEX_POINT('',#528);
#528 = CARTESIAN_POINT('',(0.8,1.,0.));
#529 = SPHERICAL_SURFACE('',#530,0.125);
#530 = AXIS2_PLACEMENT_3D('',#531,#532,#533);
#531 = CARTESIAN_POINT('',(0.8,1.,0.125));
#532 = DIRECTION('',(0.,0.,1.));
#533 = DIRECTION('',(1.,0.,0.));
#534 = MANIFOLD_SOLID_BREP('',#535);
#535 = CLOSED_SHELL('',(#536));
#536 = ADVANCED_FACE('',(#537),#541,.T.);
#537 = FACE_BOUND('',#538,.T.);
#538 = VERTEX_LOOP('',#539);
#539 = VERTEX_POINT('',#540);
#540 = CARTESIAN_POINT('',(0.8,0.6,0.));
#541 = SPHERICAL_SURFACE('',#542,0.125);
#542 = AXIS2_PLACEMENT_3D('',#543,#544,#545);
#543 = CARTESIAN_POINT('',(0.8,0.6,0.125));
#544 = DIRECTION('',(0.,0.,1.));
#545 = DIRECTION('',(1.,0.,0.));
#546 = MANIFOLD_SOLID_BREP('',#547);
#547 = CLOSED_SHELL('',(#548));
#548 = ADVANCED_FACE('',(#549),#553,.T.);
#549 = FACE_BOUND('',#550,.T.);
#550 = VERTEX_LOOP('',#551);
#551 = VERTEX_POINT('',#552);
#552 = CARTESIAN_POINT('',(0.8,0.2,0.));
#553 = SPHERICAL_SURFACE('',#554,0.125);
#554 = AXIS2_PLACEMENT_3D('',#555,#556,#557);
#555 = CARTESIAN_POINT('',(0.8,0.2,0.125));
#556 = DIRECTION('',(0.,0.,1.));
#557 = DIRECTION('',(1.,0.,0.));
#558 = MANIFOLD_SOLID_BREP('',#559);
#559 = CLOSED_SHELL('',(#560));
#560 = ADVANCED_FACE('',(#561),#565,.T.);
#561 = FACE_BOUND('',#562,.T.);
#562 = VERTEX_LOOP('',#563);
#563 = VERTEX_POINT('',#564);
#564 = CARTESIAN_POINT('',(0.8,-0.2,0.));
#565 = SPHERICAL_SURFACE('',#566,0.125);
#566 = AXIS2_PLACEMENT_3D('',#567,#568,#569);
#567 = CARTESIAN_POINT('',(0.8,-0.2,0.125));
#568 = DIRECTION('',(0.,0.,1.));
#569 = DIRECTION('',(1.,0.,0.));
#570 = MANIFOLD_SOLID_BREP('',#571);
#571 = CLOSED_SHELL('',(#572));
#572 = ADVANCED_FACE('',(#573),#577,.T.);
#573 = FACE_BOUND('',#574,.T.);
#574 = VERTEX_LOOP('',#575);
#575 = VERTEX_POINT('',#576);
#576 = CARTESIAN_POINT('',(0.8,-0.6,0.));
#577 = SPHERICAL_SURFACE('',#578,0.125);
#578 = AXIS2_PLACEMENT_3D('',#579,#580,#581);
#579 = CARTESIAN_POINT('',(0.8,-0.6,0.125));
#580 = DIRECTION('',(0.,0.,1.));
#581 = DIRECTION('',(1.,0.,0.));
#582 = MANIFOLD_SOLID_BREP('',#583);
#583 = CLOSED_SHELL('',(#584));
#584 = ADVANCED_FACE('',(#585),#589,.T.);
#585 = FACE_BOUND('',#586,.T.);
#586 = VERTEX_LOOP('',#587);
#587 = VERTEX_POINT('',#588);
#588 = CARTESIAN_POINT('',(0.8,-1.,0.));
#589 = SPHERICAL_SURFACE('',#590,0.125);
#590 = AXIS2_PLACEMENT_3D('',#591,#592,#593);
#591 = CARTESIAN_POINT('',(0.8,-1.,0.125));
#592 = DIRECTION('',(0.,0.,1.));
#593 = DIRECTION('',(1.,0.,0.));
#594 = MANIFOLD_SOLID_BREP('',#595);
#595 = CLOSED_SHELL('',(#596));
#596 = ADVANCED_FACE('',(#597),#601,.T.);
#597 = FACE_BOUND('',#598,.T.);
#598 = VERTEX_LOOP('',#599);
#599 = VERTEX_POINT('',#600);
#600 = CARTESIAN_POINT('',(0.8,-1.4,0.));
#601 = SPHERICAL_SURFACE('',#602,0.125);
#602 = AXIS2_PLACEMENT_3D('',#603,#604,#605);
#603 = CARTESIAN_POINT('',(0.8,-1.4,0.125));
#604 = DIRECTION('',(0.,0.,1.));
#605 = DIRECTION('',(1.,0.,0.));
#606 = MANIFOLD_SOLID_BREP('',#607);
#607 = CLOSED_SHELL('',(#608));
#608 = ADVANCED_FACE('',(#609),#613,.T.);
#609 = FACE_BOUND('',#610,.T.);
#610 = VERTEX_LOOP('',#611);
#611 = VERTEX_POINT('',#612);
#612 = CARTESIAN_POINT('',(1.2,1.4,0.));
#613 = SPHERICAL_SURFACE('',#614,0.125);
#614 = AXIS2_PLACEMENT_3D('',#615,#616,#617);
#615 = CARTESIAN_POINT('',(1.2,1.4,0.125));
#616 = DIRECTION('',(0.,0.,1.));
#617 = DIRECTION('',(1.,0.,0.));
#618 = MANIFOLD_SOLID_BREP('',#619);
#619 = CLOSED_SHELL('',(#620));
#620 = ADVANCED_FACE('',(#621),#625,.T.);
#621 = FACE_BOUND('',#622,.T.);
#622 = VERTEX_LOOP('',#623);
#623 = VERTEX_POINT('',#624);
#624 = CARTESIAN_POINT('',(1.2,1.,0.));
#625 = SPHERICAL_SURFACE('',#626,0.125);
#626 = AXIS2_PLACEMENT_3D('',#627,#628,#629);
#627 = CARTESIAN_POINT('',(1.2,1.,0.125));
#628 = DIRECTION('',(0.,0.,1.));
#629 = DIRECTION('',(1.,0.,0.));
#630 = MANIFOLD_SOLID_BREP('',#631);
#631 = CLOSED_SHELL('',(#632));
#632 = ADVANCED_FACE('',(#633),#637,.T.);
#633 = FACE_BOUND('',#634,.T.);
#634 = VERTEX_LOOP('',#635);
#635 = VERTEX_POINT('',#636);
#636 = CARTESIAN_POINT('',(1.2,0.6,0.));
#637 = SPHERICAL_SURFACE('',#638,0.125);
#638 = AXIS2_PLACEMENT_3D('',#639,#640,#641);
#639 = CARTESIAN_POINT('',(1.2,0.6,0.125));
#640 = DIRECTION('',(0.,0.,1.));
#641 = DIRECTION('',(1.,0.,0.));
#642 = MANIFOLD_SOLID_BREP('',#643);
#643 = CLOSED_SHELL('',(#644));
#644 = ADVANCED_FACE('',(#645),#649,.T.);
#645 = FACE_BOUND('',#646,.T.);
#646 = VERTEX_LOOP('',#647);
#647 = VERTEX_POINT('',#648);
#648 = CARTESIAN_POINT('',(1.2,0.2,0.));
#649 = SPHERICAL_SURFACE('',#650,0.125);
#650 = AXIS2_PLACEMENT_3D('',#651,#652,#653);
#651 = CARTESIAN_POINT('',(1.2,0.2,0.125));
#652 = DIRECTION('',(0.,0.,1.));
#653 = DIRECTION('',(1.,0.,0.));
#654 = MANIFOLD_SOLID_BREP('',#655);
#655 = CLOSED_SHELL('',(#656));
#656 = ADVANCED_FACE('',(#657),#661,.T.);
#657 = FACE_BOUND('',#658,.T.);
#658 = VERTEX_LOOP('',#659);
#659 = VERTEX_POINT('',#660);
#660 = CARTESIAN_POINT('',(1.2,-0.2,0.));
#661 = SPHERICAL_SURFACE('',#662,0.125);
#662 = AXIS2_PLACEMENT_3D('',#663,#664,#665);
#663 = CARTESIAN_POINT('',(1.2,-0.2,0.125));
#664 = DIRECTION('',(0.,0.,1.));
#665 = DIRECTION('',(1.,0.,0.));
#666 = MANIFOLD_SOLID_BREP('',#667);
#667 = CLOSED_SHELL('',(#668));
#668 = ADVANCED_FACE('',(#669),#673,.T.);
#669 = FACE_BOUND('',#670,.T.);
#670 = VERTEX_LOOP('',#671);
#671 = VERTEX_POINT('',#672);
#672 = CARTESIAN_POINT('',(1.2,-0.6,0.));
#673 = SPHERICAL_SURFACE('',#674,0.125);
#674 = AXIS2_PLACEMENT_3D('',#675,#676,#677);
#675 = CARTESIAN_POINT('',(1.2,-0.6,0.125));
#676 = DIRECTION('',(0.,0.,1.));
#677 = DIRECTION('',(1.,0.,0.));
#678 = MANIFOLD_SOLID_BREP('',#679);
#679 = CLOSED_SHELL('',(#680));
#680 = ADVANCED_FACE('',(#681),#685,.T.);
#681 = FACE_BOUND('',#682,.T.);
#682 = VERTEX_LOOP('',#683);
#683 = VERTEX_POINT('',#684);
#684 = CARTESIAN_POINT('',(1.2,-1.,0.));
#685 = SPHERICAL_SURFACE('',#686,0.125);
#686 = AXIS2_PLACEMENT_3D('',#687,#688,#689);
#687 = CARTESIAN_POINT('',(1.2,-1.,0.125));
#688 = DIRECTION('',(0.,0.,1.));
#689 = DIRECTION('',(1.,0.,0.));
#690 = MANIFOLD_SOLID_BREP('',#691);
#691 = CLOSED_SHELL('',(#692));
#692 = ADVANCED_FACE('',(#693),#697,.T.);
#693 = FACE_BOUND('',#694,.T.);
#694 = VERTEX_LOOP('',#695);
#695 = VERTEX_POINT('',#696);
#696 = CARTESIAN_POINT('',(1.2,-1.4,0.));
#697 = SPHERICAL_SURFACE('',#698,0.125);
#698 = AXIS2_PLACEMENT_3D('',#699,#700,#701);
#699 = CARTESIAN_POINT('',(1.2,-1.4,0.125));
#700 = DIRECTION('',(0.,0.,1.));
#701 = DIRECTION('',(1.,0.,0.));
#702 = ( GEOMETRIC_REPRESENTATION_CONTEXT(3) 
GLOBAL_UNCERTAINTY_ASSIGNED_CONTEXT((#706)) GLOBAL_UNIT_ASSIGNED_CONTEXT
((#703,#704,#705)) REPRESENTATION_CONTEXT('Context #1',
  '3D Context with UNIT and UNCERTAINTY') );
#703 = ( LENGTH_UNIT() NAMED_UNIT(*) SI_UNIT(.MILLI.,.METRE.) );
#704 = ( NAMED_UNIT(*) PLANE_ANGLE_UNIT() SI_UNIT($,.RADIAN.) );
#705 = ( NAMED_UNIT(*) SI_UNIT($,.STERADIAN.) SOLID_ANGLE_UNIT() );
#706 = UNCERTAINTY_MEASURE_WITH_UNIT(LENGTH_MEASURE(1.E-07),#703,
  'distance_accuracy_value','confusion accuracy');
#707 = SHAPE_DEFINITION_REPRESENTATION(#708,#29);
#708 = PRODUCT_DEFINITION_SHAPE('','',#709);
#709 = PRODUCT_DEFINITION('design','',#710,#713);
#710 = PRODUCT_DEFINITION_FORMATION('','',#711);
#711 = PRODUCT('Array','Array','',(#712));
#712 = PRODUCT_CONTEXT('',#2,'mechanical');
#713 = PRODUCT_DEFINITION_CONTEXT('part definition',#2,'design');
#714 = CONTEXT_DEPENDENT_SHAPE_REPRESENTATION(#715,#717);
#715 = ( REPRESENTATION_RELATIONSHIP('','',#29,#10) 
REPRESENTATION_RELATIONSHIP_WITH_TRANSFORMATION(#716) 
SHAPE_REPRESENTATION_RELATIONSHIP() );
#716 = ITEM_DEFINED_TRANSFORMATION('','',#11,#15);
#717 = PRODUCT_DEFINITION_SHAPE('Placement','Placement of an item',#718
  );
#718 = NEXT_ASSEMBLY_USAGE_OCCURRENCE('1','=>[0:1:1:2]','',#5,#709,$);
#719 = PRODUCT_RELATED_PRODUCT_CATEGORY('part',$,(#711));
#720 = ADVANCED_BREP_SHAPE_REPRESENTATION('',(#11,#721),#1141);
#721 = MANIFOLD_SOLID_BREP('',#722);
#722 = CLOSED_SHELL('',(#723,#843,#919,#999,#1048,#1075,#1082,#1137));
#723 = ADVANCED_FACE('',(#724),#738,.F.);
#724 = FACE_BOUND('',#725,.F.);
#725 = EDGE_LOOP('',(#726,#761,#789,#817));
#726 = ORIENTED_EDGE('',*,*,#727,.F.);
#727 = EDGE_CURVE('',#728,#730,#732,.T.);
#728 = VERTEX_POINT('',#729);
#729 = CARTESIAN_POINT('',(-1.42875,-1.6385,0.25));
#730 = VERTEX_POINT('',#731);
#731 = CARTESIAN_POINT('',(-1.42875,-1.6385,0.5));
#732 = SURFACE_CURVE('',#733,(#737,#749),.PCURVE_S1.);
#733 = LINE('',#734,#735);
#734 = CARTESIAN_POINT('',(-1.42875,-1.6385,0.25));
#735 = VECTOR('',#736,1.);
#736 = DIRECTION('',(0.,0.,1.));
#737 = PCURVE('',#738,#743);
#738 = PLANE('',#739);
#739 = AXIS2_PLACEMENT_3D('',#740,#741,#742);
#740 = CARTESIAN_POINT('',(-1.42875,-1.6385,0.25));
#741 = DIRECTION('',(1.,0.,0.));
#742 = DIRECTION('',(0.,0.,1.));
#743 = DEFINITIONAL_REPRESENTATION('',(#744),#748);
#744 = LINE('',#745,#746);
#745 = CARTESIAN_POINT('',(0.,0.));
#746 = VECTOR('',#747,1.);
#747 = DIRECTION('',(1.,0.));
#748 = ( GEOMETRIC_REPRESENTATION_CONTEXT(2) 
PARAMETRIC_REPRESENTATION_CONTEXT() REPRESENTATION_CONTEXT('2D SPACE',''
  ) );
#749 = PCURVE('',#750,#755);
#750 = PLANE('',#751);
#751 = AXIS2_PLACEMENT_3D('',#752,#753,#754);
#752 = CARTESIAN_POINT('',(-1.42875,-1.6385,0.25));
#753 = DIRECTION('',(0.,1.,0.));
#754 = DIRECTION('',(0.,0.,1.));
#755 = DEFINITIONAL_REPRESENTATION('',(#756),#760);
#756 = LINE('',#757,#758);
#757 = CARTESIAN_POINT('',(0.,0.));
#758 = VECTOR('',#759,1.);
#759 = DIRECTION('',(1.,0.));
#760 = ( GEOMETRIC_REPRESENTATION_CONTEXT(2) 
PARAMETRIC_REPRESENTATION_CONTEXT() REPRESENTATION_CONTEXT('2D SPACE',''
  ) );
#761 = ORIENTED_EDGE('',*,*,#762,.T.);
#762 = EDGE_CURVE('',#728,#763,#765,.T.);
#763 = VERTEX_POINT('',#764);
#764 = CARTESIAN_POINT('',(-1.42875,1.6385,0.25));
#765 = SURFACE_CURVE('',#766,(#770,#777),.PCURVE_S1.);
#766 = LINE('',#767,#768);
#767 = CARTESIAN_POINT('',(-1.42875,-1.6385,0.25));
#768 = VECTOR('',#769,1.);
#769 = DIRECTION('',(0.,1.,0.));
#770 = PCURVE('',#738,#771);
#771 = DEFINITIONAL_REPRESENTATION('',(#772),#776);
#772 = LINE('',#773,#774);
#773 = CARTESIAN_POINT('',(0.,0.));
#774 = VECTOR('',#775,1.);
#775 = DIRECTION('',(0.,-1.));
#776 = ( GEOMETRIC_REPRESENTATION_CONTEXT(2) 
PARAMETRIC_REPRESENTATION_CONTEXT() REPRESENTATION_CONTEXT('2D SPACE',''
  ) );
#777 = PCURVE('',#778,#783);
#778 = PLANE('',#779);
#779 = AXIS2_PLACEMENT_3D('',#780,#781,#782);
#780 = CARTESIAN_POINT('',(-1.42875,-1.6385,0.25));
#781 = DIRECTION('',(0.,0.,1.));
#782 = DIRECTION('',(1.,0.,0.));
#783 = DEFINITIONAL_REPRESENTATION('',(#784),#788);
#784 = LINE('',#785,#786);
#785 = CARTESIAN_POINT('',(0.,0.));
#786 = VECTOR('',#787,1.);
#787 = DIRECTION('',(0.,1.));
#788 = ( GEOMETRIC_REPRESENTATION_CONTEXT(2) 
PARAMETRIC_REPRESENTATION_CONTEXT() REPRESENTATION_CONTEXT('2D SPACE',''
  ) );
#789 = ORIENTED_EDGE('',*,*,#790,.T.);
#790 = EDGE_CURVE('',#763,#791,#793,.T.);
#791 = VERTEX_POINT('',#792);
#792 = CARTESIAN_POINT('',(-1.42875,1.6385,0.5));
#793 = SURFACE_CURVE('',#794,(#798,#805),.PCURVE_S1.);
#794 = LINE('',#795,#796);
#795 = CARTESIAN_POINT('',(-1.42875,1.6385,0.25));
#796 = VECTOR('',#797,1.);
#797 = DIRECTION('',(0.,0.,1.));
#798 = PCURVE('',#738,#799);
#799 = DEFINITIONAL_REPRESENTATION('',(#800),#804);
#800 = LINE('',#801,#802);
#801 = CARTESIAN_POINT('',(0.,-3.277));
#802 = VECTOR('',#803,1.);
#803 = DIRECTION('',(1.,0.));
#804 = ( GEOMETRIC_REPRESENTATION_CONTEXT(2) 
PARAMETRIC_REPRESENTATION_CONTEXT() REPRESENTATION_CONTEXT('2D SPACE',''
  ) );
#805 = PCURVE('',#806,#811);
#806 = PLANE('',#807);
#807 = AXIS2_PLACEMENT_3D('',#808,#809,#810);
#808 = CARTESIAN_POINT('',(-1.42875,1.6385,0.25));
#809 = DIRECTION('',(0.,1.,0.));
#810 = DIRECTION('',(0.,0.,1.));
#811 = DEFINITIONAL_REPRESENTATION('',(#812),#816);
#812 = LINE('',#813,#814);
#813 = CARTESIAN_POINT('',(0.,0.));
#814 = VECTOR('',#815,1.);
#815 = DIRECTION('',(1.,0.));
#816 = ( GEOMETRIC_REPRESENTATION_CONTEXT(2) 
PARAMETRIC_REPRESENTATION_CONTEXT() REPRESENTATION_CONTEXT('2D SPACE',''
  ) );
#817 = ORIENTED_EDGE('',*,*,#818,.F.);
#818 = EDGE_CURVE('',#730,#791,#819,.T.);
#819 = SURFACE_CURVE('',#820,(#824,#831),.PCURVE_S1.);
#820 = LINE('',#821,#822);
#821 = CARTESIAN_POINT('',(-1.42875,-1.6385,0.5));
#822 = VECTOR('',#823,1.);
#823 = DIRECTION('',(0.,1.,0.));
#824 = PCURVE('',#738,#825);
#825 = DEFINITIONAL_REPRESENTATION('',(#826),#830);
#826 = LINE('',#827,#828);
#827 = CARTESIAN_POINT('',(0.25,0.));
#828 = VECTOR('',#829,1.);
#829 = DIRECTION('',(0.,-1.));
#830 = ( GEOMETRIC_REPRESENTATION_CONTEXT(2) 
PARAMETRIC_REPRESENTATION_CONTEXT() REPRESENTATION_CONTEXT('2D SPACE',''
  ) );
#831 = PCURVE('',#832,#837);
#832 = PLANE('',#833);
#833 = AXIS2_PLACEMENT_3D('',#834,#835,#836);
#834 = CARTESIAN_POINT('',(-1.42875,-1.6385,0.5));
#835 = DIRECTION('',(0.,0.,1.));
#836 = DIRECTION('',(1.,0.,0.));
#837 = DEFINITIONAL_REPRESENTATION('',(#838),#842);
#838 = LINE('',#839,#840);
#839 = CARTESIAN_POINT('',(0.,0.));
#840 = VECTOR('',#841,1.);
#841 = DIRECTION('',(0.,1.));
#842 = ( GEOMETRIC_REPRESENTATION_CONTEXT(2) 
PARAMETRIC_REPRESENTATION_CONTEXT() REPRESENTATION_CONTEXT('2D SPACE',''
  ) );
#843 = ADVANCED_FACE('',(#844),#750,.F.);
#844 = FACE_BOUND('',#845,.F.);
#845 = EDGE_LOOP('',(#846,#869,#870,#893));
#846 = ORIENTED_EDGE('',*,*,#847,.F.);
#847 = EDGE_CURVE('',#728,#848,#850,.T.);
#848 = VERTEX_POINT('',#849);
#849 = CARTESIAN_POINT('',(1.42875,-1.6385,0.25));
#850 = SURFACE_CURVE('',#851,(#855,#862),.PCURVE_S1.);
#851 = LINE('',#852,#853);
#852 = CARTESIAN_POINT('',(-1.42875,-1.6385,0.25));
#853 = VECTOR('',#854,1.);
#854 = DIRECTION('',(1.,0.,0.));
#855 = PCURVE('',#750,#856);
#856 = DEFINITIONAL_REPRESENTATION('',(#857),#861);
#857 = LINE('',#858,#859);
#858 = CARTESIAN_POINT('',(0.,0.));
#859 = VECTOR('',#860,1.);
#860 = DIRECTION('',(0.,1.));
#861 = ( GEOMETRIC_REPRESENTATION_CONTEXT(2) 
PARAMETRIC_REPRESENTATION_CONTEXT() REPRESENTATION_CONTEXT('2D SPACE',''
  ) );
#862 = PCURVE('',#778,#863);
#863 = DEFINITIONAL_REPRESENTATION('',(#864),#868);
#864 = LINE('',#865,#866);
#865 = CARTESIAN_POINT('',(0.,0.));
#866 = VECTOR('',#867,1.);
#867 = DIRECTION('',(1.,0.));
#868 = ( GEOMETRIC_REPRESENTATION_CONTEXT(2) 
PARAMETRIC_REPRESENTATION_CONTEXT() REPRESENTATION_CONTEXT('2D SPACE',''
  ) );
#869 = ORIENTED_EDGE('',*,*,#727,.T.);
#870 = ORIENTED_EDGE('',*,*,#871,.T.);
#871 = EDGE_CURVE('',#730,#872,#874,.T.);
#872 = VERTEX_POINT('',#873);
#873 = CARTESIAN_POINT('',(1.42875,-1.6385,0.5));
#874 = SURFACE_CURVE('',#875,(#879,#886),.PCURVE_S1.);
#875 = LINE('',#876,#877);
#876 = CARTESIAN_POINT('',(-1.42875,-1.6385,0.5));
#877 = VECTOR('',#878,1.);
#878 = DIRECTION('',(1.,0.,0.));
#879 = PCURVE('',#750,#880);
#880 = DEFINITIONAL_REPRESENTATION('',(#881),#885);
#881 = LINE('',#882,#883);
#882 = CARTESIAN_POINT('',(0.25,0.));
#883 = VECTOR('',#884,1.);
#884 = DIRECTION('',(0.,1.));
#885 = ( GEOMETRIC_REPRESENTATION_CONTEXT(2) 
PARAMETRIC_REPRESENTATION_CONTEXT() REPRESENTATION_CONTEXT('2D SPACE',''
  ) );
#886 = PCURVE('',#832,#887);
#887 = DEFINITIONAL_REPRESENTATION('',(#888),#892);
#888 = LINE('',#889,#890);
#889 = CARTESIAN_POINT('',(0.,0.));
#890 = VECTOR('',#891,1.);
#891 = DIRECTION('',(1.,0.));
#892 = ( GEOMETRIC_REPRESENTATION_CONTEXT(2) 
PARAMETRIC_REPRESENTATION_CONTEXT() REPRESENTATION_CONTEXT('2D SPACE',''
  ) );
#893 = ORIENTED_EDGE('',*,*,#894,.F.);
#894 = EDGE_CURVE('',#848,#872,#895,.T.);
#895 = SURFACE_CURVE('',#896,(#900,#907),.PCURVE_S1.);
#896 = LINE('',#897,#898);
#897 = CARTESIAN_POINT('',(1.42875,-1.6385,0.25));
#898 = VECTOR('',#899,1.);
#899 = DIRECTION('',(0.,0.,1.));
#900 = PCURVE('',#750,#901);
#901 = DEFINITIONAL_REPRESENTATION('',(#902),#906);
#902 = LINE('',#903,#904);
#903 = CARTESIAN_POINT('',(0.,2.8575));
#904 = VECTOR('',#905,1.);
#905 = DIRECTION('',(1.,0.));
#906 = ( GEOMETRIC_REPRESENTATION_CONTEXT(2) 
PARAMETRIC_REPRESENTATION_CONTEXT() REPRESENTATION_CONTEXT('2D SPACE',''
  ) );
#907 = PCURVE('',#908,#913);
#908 = PLANE('',#909);
#909 = AXIS2_PLACEMENT_3D('',#910,#911,#912);
#910 = CARTESIAN_POINT('',(1.42875,-1.6385,0.25));
#911 = DIRECTION('',(1.,0.,0.));
#912 = DIRECTION('',(0.,0.,1.));
#913 = DEFINITIONAL_REPRESENTATION('',(#914),#918);
#914 = LINE('',#915,#916);
#915 = CARTESIAN_POINT('',(0.,0.));
#916 = VECTOR('',#917,1.);
#917 = DIRECTION('',(1.,0.));
#918 = ( GEOMETRIC_REPRESENTATION_CONTEXT(2) 
PARAMETRIC_REPRESENTATION_CONTEXT() REPRESENTATION_CONTEXT('2D SPACE',''
  ) );
#919 = ADVANCED_FACE('',(#920,#968),#832,.T.);
#920 = FACE_BOUND('',#921,.T.);
#921 = EDGE_LOOP('',(#922,#923,#924,#947));
#922 = ORIENTED_EDGE('',*,*,#818,.F.);
#923 = ORIENTED_EDGE('',*,*,#871,.T.);
#924 = ORIENTED_EDGE('',*,*,#925,.T.);
#925 = EDGE_CURVE('',#872,#926,#928,.T.);
#926 = VERTEX_POINT('',#927);
#927 = CARTESIAN_POINT('',(1.42875,1.6385,0.5));
#928 = SURFACE_CURVE('',#929,(#933,#940),.PCURVE_S1.);
#929 = LINE('',#930,#931);
#930 = CARTESIAN_POINT('',(1.42875,-1.6385,0.5));
#931 = VECTOR('',#932,1.);
#932 = DIRECTION('',(0.,1.,0.));
#933 = PCURVE('',#832,#934);
#934 = DEFINITIONAL_REPRESENTATION('',(#935),#939);
#935 = LINE('',#936,#937);
#936 = CARTESIAN_POINT('',(2.8575,0.));
#937 = VECTOR('',#938,1.);
#938 = DIRECTION('',(0.,1.));
#939 = ( GEOMETRIC_REPRESENTATION_CONTEXT(2) 
PARAMETRIC_REPRESENTATION_CONTEXT() REPRESENTATION_CONTEXT('2D SPACE',''
  ) );
#940 = PCURVE('',#908,#941);
#941 = DEFINITIONAL_REPRESENTATION('',(#942),#946);
#942 = LINE('',#943,#944);
#943 = CARTESIAN_POINT('',(0.25,0.));
#944 = VECTOR('',#945,1.);
#945 = DIRECTION('',(0.,-1.));
#946 = ( GEOMETRIC_REPRESENTATION_CONTEXT(2) 
PARAMETRIC_REPRESENTATION_CONTEXT() REPRESENTATION_CONTEXT('2D SPACE',''
  ) );
#947 = ORIENTED_EDGE('',*,*,#948,.F.);
#948 = EDGE_CURVE('',#791,#926,#949,.T.);
#949 = SURFACE_CURVE('',#950,(#954,#961),.PCURVE_S1.);
#950 = LINE('',#951,#952);
#951 = CARTESIAN_POINT('',(-1.42875,1.6385,0.5));
#952 = VECTOR('',#953,1.);
#953 = DIRECTION('',(1.,0.,0.));
#954 = PCURVE('',#832,#955);
#955 = DEFINITIONAL_REPRESENTATION('',(#956),#960);
#956 = LINE('',#957,#958);
#957 = CARTESIAN_POINT('',(0.,3.277));
#958 = VECTOR('',#959,1.);
#959 = DIRECTION('',(1.,0.));
#960 = ( GEOMETRIC_REPRESENTATION_CONTEXT(2) 
PARAMETRIC_REPRESENTATION_CONTEXT() REPRESENTATION_CONTEXT('2D SPACE',''
  ) );
#961 = PCURVE('',#806,#962);
#962 = DEFINITIONAL_REPRESENTATION('',(#963),#967);
#963 = LINE('',#964,#965);
#964 = CARTESIAN_POINT('',(0.25,0.));
#965 = VECTOR('',#966,1.);
#966 = DIRECTION('',(0.,1.));
#967 = ( GEOMETRIC_REPRESENTATION_CONTEXT(2) 
PARAMETRIC_REPRESENTATION_CONTEXT() REPRESENTATION_CONTEXT('2D SPACE',''
  ) );
#968 = FACE_BOUND('',#969,.T.);
#969 = EDGE_LOOP('',(#970));
#970 = ORIENTED_EDGE('',*,*,#971,.F.);
#971 = EDGE_CURVE('',#972,#972,#974,.T.);
#972 = VERTEX_POINT('',#973);
#973 = CARTESIAN_POINT('',(-0.89296875,1.2813125,0.5));
#974 = SURFACE_CURVE('',#975,(#980,#987),.PCURVE_S1.);
#975 = CIRCLE('',#976,0.17859375);
#976 = AXIS2_PLACEMENT_3D('',#977,#978,#979);
#977 = CARTESIAN_POINT('',(-1.0715625,1.2813125,0.5));
#978 = DIRECTION('',(0.,0.,1.));
#979 = DIRECTION('',(1.,0.,0.));
#980 = PCURVE('',#832,#981);
#981 = DEFINITIONAL_REPRESENTATION('',(#982),#986);
#982 = CIRCLE('',#983,0.17859375);
#983 = AXIS2_PLACEMENT_2D('',#984,#985);
#984 = CARTESIAN_POINT('',(0.3571875,2.9198125));
#985 = DIRECTION('',(1.,0.));
#986 = ( GEOMETRIC_REPRESENTATION_CONTEXT(2) 
PARAMETRIC_REPRESENTATION_CONTEXT() REPRESENTATION_CONTEXT('2D SPACE',''
  ) );
#987 = PCURVE('',#988,#993);
#988 = CYLINDRICAL_SURFACE('',#989,0.17859375);
#989 = AXIS2_PLACEMENT_3D('',#990,#991,#992);
#990 = CARTESIAN_POINT('',(-1.0715625,1.2813125,0.45));
#991 = DIRECTION('',(0.,0.,1.));
#992 = DIRECTION('',(1.,0.,0.));
#993 = DEFINITIONAL_REPRESENTATION('',(#994),#998);
#994 = LINE('',#995,#996);
#995 = CARTESIAN_POINT('',(0.,5.E-02));
#996 = VECTOR('',#997,1.);
#997 = DIRECTION('',(1.,0.));
#998 = ( GEOMETRIC_REPRESENTATION_CONTEXT(2) 
PARAMETRIC_REPRESENTATION_CONTEXT() REPRESENTATION_CONTEXT('2D SPACE',''
  ) );
#999 = ADVANCED_FACE('',(#1000),#806,.T.);
#1000 = FACE_BOUND('',#1001,.T.);
#1001 = EDGE_LOOP('',(#1002,#1025,#1026,#1027));
#1002 = ORIENTED_EDGE('',*,*,#1003,.F.);
#1003 = EDGE_CURVE('',#763,#1004,#1006,.T.);
#1004 = VERTEX_POINT('',#1005);
#1005 = CARTESIAN_POINT('',(1.42875,1.6385,0.25));
#1006 = SURFACE_CURVE('',#1007,(#1011,#1018),.PCURVE_S1.);
#1007 = LINE('',#1008,#1009);
#1008 = CARTESIAN_POINT('',(-1.42875,1.6385,0.25));
#1009 = VECTOR('',#1010,1.);
#1010 = DIRECTION('',(1.,0.,0.));
#1011 = PCURVE('',#806,#1012);
#1012 = DEFINITIONAL_REPRESENTATION('',(#1013),#1017);
#1013 = LINE('',#1014,#1015);
#1014 = CARTESIAN_POINT('',(0.,0.));
#1015 = VECTOR('',#1016,1.);
#1016 = DIRECTION('',(0.,1.));
#1017 = ( GEOMETRIC_REPRESENTATION_CONTEXT(2) 
PARAMETRIC_REPRESENTATION_CONTEXT() REPRESENTATION_CONTEXT('2D SPACE',''
  ) );
#1018 = PCURVE('',#778,#1019);
#1019 = DEFINITIONAL_REPRESENTATION('',(#1020),#1024);
#1020 = LINE('',#1021,#1022);
#1021 = CARTESIAN_POINT('',(0.,3.277));
#1022 = VECTOR('',#1023,1.);
#1023 = DIRECTION('',(1.,0.));
#1024 = ( GEOMETRIC_REPRESENTATION_CONTEXT(2) 
PARAMETRIC_REPRESENTATION_CONTEXT() REPRESENTATION_CONTEXT('2D SPACE',''
  ) );
#1025 = ORIENTED_EDGE('',*,*,#790,.T.);
#1026 = ORIENTED_EDGE('',*,*,#948,.T.);
#1027 = ORIENTED_EDGE('',*,*,#1028,.F.);
#1028 = EDGE_CURVE('',#1004,#926,#1029,.T.);
#1029 = SURFACE_CURVE('',#1030,(#1034,#1041),.PCURVE_S1.);
#1030 = LINE('',#1031,#1032);
#1031 = CARTESIAN_POINT('',(1.42875,1.6385,0.25));
#1032 = VECTOR('',#1033,1.);
#1033 = DIRECTION('',(0.,0.,1.));
#1034 = PCURVE('',#806,#1035);
#1035 = DEFINITIONAL_REPRESENTATION('',(#1036),#1040);
#1036 = LINE('',#1037,#1038);
#1037 = CARTESIAN_POINT('',(0.,2.8575));
#1038 = VECTOR('',#1039,1.);
#1039 = DIRECTION('',(1.,0.));
#1040 = ( GEOMETRIC_REPRESENTATION_CONTEXT(2) 
PARAMETRIC_REPRESENTATION_CONTEXT() REPRESENTATION_CONTEXT('2D SPACE',''
  ) );
#1041 = PCURVE('',#908,#1042);
#1042 = DEFINITIONAL_REPRESENTATION('',(#1043),#1047);
#1043 = LINE('',#1044,#1045);
#1044 = CARTESIAN_POINT('',(0.,-3.277));
#1045 = VECTOR('',#1046,1.);
#1046 = DIRECTION('',(1.,0.));
#1047 = ( GEOMETRIC_REPRESENTATION_CONTEXT(2) 
PARAMETRIC_REPRESENTATION_CONTEXT() REPRESENTATION_CONTEXT('2D SPACE',''
  ) );
#1048 = ADVANCED_FACE('',(#1049),#778,.F.);
#1049 = FACE_BOUND('',#1050,.F.);
#1050 = EDGE_LOOP('',(#1051,#1052,#1053,#1074));
#1051 = ORIENTED_EDGE('',*,*,#762,.F.);
#1052 = ORIENTED_EDGE('',*,*,#847,.T.);
#1053 = ORIENTED_EDGE('',*,*,#1054,.T.);
#1054 = EDGE_CURVE('',#848,#1004,#1055,.T.);
#1055 = SURFACE_CURVE('',#1056,(#1060,#1067),.PCURVE_S1.);
#1056 = LINE('',#1057,#1058);
#1057 = CARTESIAN_POINT('',(1.42875,-1.6385,0.25));
#1058 = VECTOR('',#1059,1.);
#1059 = DIRECTION('',(0.,1.,0.));
#1060 = PCURVE('',#778,#1061);
#1061 = DEFINITIONAL_REPRESENTATION('',(#1062),#1066);
#1062 = LINE('',#1063,#1064);
#1063 = CARTESIAN_POINT('',(2.8575,0.));
#1064 = VECTOR('',#1065,1.);
#1065 = DIRECTION('',(0.,1.));
#1066 = ( GEOMETRIC_REPRESENTATION_CONTEXT(2) 
PARAMETRIC_REPRESENTATION_CONTEXT() REPRESENTATION_CONTEXT('2D SPACE',''
  ) );
#1067 = PCURVE('',#908,#1068);
#1068 = DEFINITIONAL_REPRESENTATION('',(#1069),#1073);
#1069 = LINE('',#1070,#1071);
#1070 = CARTESIAN_POINT('',(0.,0.));
#1071 = VECTOR('',#1072,1.);
#1072 = DIRECTION('',(0.,-1.));
#1073 = ( GEOMETRIC_REPRESENTATION_CONTEXT(2) 
PARAMETRIC_REPRESENTATION_CONTEXT() REPRESENTATION_CONTEXT('2D SPACE',''
  ) );
#1074 = ORIENTED_EDGE('',*,*,#1003,.F.);
#1075 = ADVANCED_FACE('',(#1076),#908,.T.);
#1076 = FACE_BOUND('',#1077,.T.);
#1077 = EDGE_LOOP('',(#1078,#1079,#1080,#1081));
#1078 = ORIENTED_EDGE('',*,*,#894,.F.);
#1079 = ORIENTED_EDGE('',*,*,#1054,.T.);
#1080 = ORIENTED_EDGE('',*,*,#1028,.T.);
#1081 = ORIENTED_EDGE('',*,*,#925,.F.);
#1082 = ADVANCED_FACE('',(#1083),#988,.F.);
#1083 = FACE_BOUND('',#1084,.F.);
#1084 = EDGE_LOOP('',(#1085,#1108,#1109,#1110));
#1085 = ORIENTED_EDGE('',*,*,#1086,.T.);
#1086 = EDGE_CURVE('',#1087,#972,#1089,.T.);
#1087 = VERTEX_POINT('',#1088);
#1088 = CARTESIAN_POINT('',(-0.89296875,1.2813125,0.45));
#1089 = SEAM_CURVE('',#1090,(#1094,#1101),.PCURVE_S1.);
#1090 = LINE('',#1091,#1092);
#1091 = CARTESIAN_POINT('',(-0.89296875,1.2813125,0.45));
#1092 = VECTOR('',#1093,1.);
#1093 = DIRECTION('',(0.,0.,1.));
#1094 = PCURVE('',#988,#1095);
#1095 = DEFINITIONAL_REPRESENTATION('',(#1096),#1100);
#1096 = LINE('',#1097,#1098);
#1097 = CARTESIAN_POINT('',(6.28318530718,-0.));
#1098 = VECTOR('',#1099,1.);
#1099 = DIRECTION('',(0.,1.));
#1100 = ( GEOMETRIC_REPRESENTATION_CONTEXT(2) 
PARAMETRIC_REPRESENTATION_CONTEXT() REPRESENTATION_CONTEXT('2D SPACE',''
  ) );
#1101 = PCURVE('',#988,#1102);
#1102 = DEFINITIONAL_REPRESENTATION('',(#1103),#1107);
#1103 = LINE('',#1104,#1105);
#1104 = CARTESIAN_POINT('',(0.,-0.));
#1105 = VECTOR('',#1106,1.);
#1106 = DIRECTION('',(0.,1.));
#1107 = ( GEOMETRIC_REPRESENTATION_CONTEXT(2) 
PARAMETRIC_REPRESENTATION_CONTEXT() REPRESENTATION_CONTEXT('2D SPACE',''
  ) );
#1108 = ORIENTED_EDGE('',*,*,#971,.F.);
#1109 = ORIENTED_EDGE('',*,*,#1086,.F.);
#1110 = ORIENTED_EDGE('',*,*,#1111,.T.);
#1111 = EDGE_CURVE('',#1087,#1087,#1112,.T.);
#1112 = SURFACE_CURVE('',#1113,(#1118,#1125),.PCURVE_S1.);
#1113 = CIRCLE('',#1114,0.17859375);
#1114 = AXIS2_PLACEMENT_3D('',#1115,#1116,#1117);
#1115 = CARTESIAN_POINT('',(-1.0715625,1.2813125,0.45));
#1116 = DIRECTION('',(0.,0.,1.));
#1117 = DIRECTION('',(1.,0.,0.));
#1118 = PCURVE('',#988,#1119);
#1119 = DEFINITIONAL_REPRESENTATION('',(#1120),#1124);
#1120 = LINE('',#1121,#1122);
#1121 = CARTESIAN_POINT('',(0.,0.));
#1122 = VECTOR('',#1123,1.);
#1123 = DIRECTION('',(1.,0.));
#1124 = ( GEOMETRIC_REPRESENTATION_CONTEXT(2) 
PARAMETRIC_REPRESENTATION_CONTEXT() REPRESENTATION_CONTEXT('2D SPACE',''
  ) );
#1125 = PCURVE('',#1126,#1131);
#1126 = PLANE('',#1127);
#1127 = AXIS2_PLACEMENT_3D('',#1128,#1129,#1130);
#1128 = CARTESIAN_POINT('',(-1.0715625,1.2813125,0.45));
#1129 = DIRECTION('',(0.,0.,1.));
#1130 = DIRECTION('',(1.,0.,0.));
#1131 = DEFINITIONAL_REPRESENTATION('',(#1132),#1136);
#1132 = CIRCLE('',#1133,0.17859375);
#1133 = AXIS2_PLACEMENT_2D('',#1134,#1135);
#1134 = CARTESIAN_POINT('',(0.,0.));
#1135 = DIRECTION('',(1.,0.));
#1136 = ( GEOMETRIC_REPRESENTATION_CONTEXT(2) 
PARAMETRIC_REPRESENTATION_CONTEXT() REPRESENTATION_CONTEXT('2D SPACE',''
  ) );
#1137 = ADVANCED_FACE('',(#1138),#1126,.T.);
#1138 = FACE_BOUND('',#1139,.F.);
#1139 = EDGE_LOOP('',(#1140));
#1140 = ORIENTED_EDGE('',*,*,#1111,.F.);
#1141 = ( GEOMETRIC_REPRESENTATION_CONTEXT(3) 
GLOBAL_UNCERTAINTY_ASSIGNED_CONTEXT((#1145)) 
GLOBAL_UNIT_ASSIGNED_CONTEXT((#1142,#1143,#1144)) REPRESENTATION_CONTEXT
('Context #1','3D Context with UNIT and UNCERTAINTY') );
#1142 = ( LENGTH_UNIT() NAMED_UNIT(*) SI_UNIT(.MILLI.,.METRE.) );
#1143 = ( NAMED_UNIT(*) PLANE_ANGLE_UNIT() SI_UNIT($,.RADIAN.) );
#1144 = ( NAMED_UNIT(*) SI_UNIT($,.STERADIAN.) SOLID_ANGLE_UNIT() );
#1145 = UNCERTAINTY_MEASURE_WITH_UNIT(LENGTH_MEASURE(1.E-07),#1142,
  'distance_accuracy_value','confusion accuracy');
#1146 = SHAPE_DEFINITION_REPRESENTATION(#1147,#720);
#1147 = PRODUCT_DEFINITION_SHAPE('','',#1148);
#1148 = PRODUCT_DEFINITION('design','',#1149,#1152);
#1149 = PRODUCT_DEFINITION_FORMATION('','',#1150);
#1150 = PRODUCT('Body','Body','',(#1151));
#1151 = PRODUCT_CONTEXT('',#2,'mechanical');
#1152 = PRODUCT_DEFINITION_CONTEXT('part definition',#2,'design');
#1153 = CONTEXT_DEPENDENT_SHAPE_REPRESENTATION(#1154,#1156);
#1154 = ( REPRESENTATION_RELATIONSHIP('','',#720,#10) 
REPRESENTATION_RELATIONSHIP_WITH_TRANSFORMATION(#1155) 
SHAPE_REPRESENTATION_RELATIONSHIP() );
#1155 = ITEM_DEFINED_TRANSFORMATION('','',#11,#19);
#1156 = PRODUCT_DEFINITION_SHAPE('Placement','Placement of an item',
  #1157);
#1157 = NEXT_ASSEMBLY_USAGE_OCCURRENCE('2','=>[0:1:1:3]','',#5,#1148,$);
#1158 = PRODUCT_RELATED_PRODUCT_CATEGORY('part',$,(#1150));
#1159 = MECHANICAL_DESIGN_GEOMETRIC_PRESENTATION_REPRESENTATION('',(
    #1160),#1141);
#1160 = STYLED_ITEM('color',(#1161),#721);
#1161 = PRESENTATION_STYLE_ASSIGNMENT((#1162,#1168));
#1162 = SURFACE_STYLE_USAGE(.BOTH.,#1163);
#1163 = SURFACE_SIDE_STYLE('',(#1164));
#1164 = SURFACE_STYLE_FILL_AREA(#1165);
#1165 = FILL_AREA_STYLE('',(#1166));
#1166 = FILL_AREA_STYLE_COLOUR('',#1167);
#1167 = COLOUR_RGB('',0.300000011921,0.300000011921,0.300000011921);
#1168 = CURVE_STYLE('',#1169,POSITIVE_LENGTH_MEASURE(0.1),#1167);
#1169 = DRAUGHTING_PRE_DEFINED_CURVE_FONT('continuous');
#1170 = MECHANICAL_DESIGN_GEOMETRIC_PRESENTATION_REPRESENTATION('',(
    #1171,#1181,#1190,#1199,#1208,#1217,#1226,#1235,#1244,#1253,#1262,
    #1271,#1280,#1289,#1298,#1307,#1316,#1325,#1334,#1343,#1352,#1361,
    #1370,#1379,#1388,#1397,#1406,#1415,#1424,#1433,#1442,#1451,#1460,
    #1469,#1478,#1487,#1496,#1505,#1514,#1523,#1532,#1541,#1550,#1559,
    #1568,#1577,#1586,#1595,#1604,#1613,#1622,#1631,#1640,#1649,#1658,
    #1667),#702);
#1171 = STYLED_ITEM('color',(#1172),#30);
#1172 = PRESENTATION_STYLE_ASSIGNMENT((#1173,#1179));
#1173 = SURFACE_STYLE_USAGE(.BOTH.,#1174);
#1174 = SURFACE_SIDE_STYLE('',(#1175));
#1175 = SURFACE_STYLE_FILL_AREA(#1176);
#1176 = FILL_AREA_STYLE('',(#1177));
#1177 = FILL_AREA_STYLE_COLOUR('',#1178);
#1178 = COLOUR_RGB('',0.73400002718,0.773000001907,0.79699999094);
#1179 = CURVE_STYLE('',#1180,POSITIVE_LENGTH_MEASURE(0.1),#1178);
#1180 = DRAUGHTING_PRE_DEFINED_CURVE_FONT('continuous');
#1181 = STYLED_ITEM('color',(#1182),#42);
#1182 = PRESENTATION_STYLE_ASSIGNMENT((#1183,#1188));
#1183 = SURFACE_STYLE_USAGE(.BOTH.,#1184);
#1184 = SURFACE_SIDE_STYLE('',(#1185));
#1185 = SURFACE_STYLE_FILL_AREA(#1186);
#1186 = FILL_AREA_STYLE('',(#1187));
#1187 = FILL_AREA_STYLE_COLOUR('',#1178);
#1188 = CURVE_STYLE('',#1189,POSITIVE_LENGTH_MEASURE(0.1),#1178);
#1189 = DRAUGHTING_PRE_DEFINED_CURVE_FONT('continuous');
#1190 = STYLED_ITEM('color',(#1191),#54);
#1191 = PRESENTATION_STYLE_ASSIGNMENT((#1192,#1197));
#1192 = SURFACE_STYLE_USAGE(.BOTH.,#1193);
#1193 = SURFACE_SIDE_STYLE('',(#1194));
#1194 = SURFACE_STYLE_FILL_AREA(#1195);
#1195 = FILL_AREA_STYLE('',(#1196));
#1196 = FILL_AREA_STYLE_COLOUR('',#1178);
#1197 = CURVE_STYLE('',#1198,POSITIVE_LENGTH_MEASURE(0.1),#1178);
#1198 = DRAUGHTING_PRE_DEFINED_CURVE_FONT('continuous');
#1199 = STYLED_ITEM('color',(#1200),#66);
#1200 = PRESENTATION_STYLE_ASSIGNMENT((#1201,#1206));
#1201 = SURFACE_STYLE_USAGE(.BOTH.,#1202);
#1202 = SURFACE_SIDE_STYLE('',(#1203));
#1203 = SURFACE_STYLE_FILL_AREA(#1204);
#1204 = FILL_AREA_STYLE('',(#1205));
#1205 = FILL_AREA_STYLE_COLOUR('',#1178);
#1206 = CURVE_STYLE('',#1207,POSITIVE_LENGTH_MEASURE(0.1),#1178);
#1207 = DRAUGHTING_PRE_DEFINED_CURVE_FONT('continuous');
#1208 = STYLED_ITEM('color',(#1209),#78);
#1209 = PRESENTATION_STYLE_ASSIGNMENT((#1210,#1215));
#1210 = SURFACE_STYLE_USAGE(.BOTH.,#1211);
#1211 = SURFACE_SIDE_STYLE('',(#1212));
#1212 = SURFACE_STYLE_FILL_AREA(#1213);
#1213 = FILL_AREA_STYLE('',(#1214));
#1214 = FILL_AREA_STYLE_COLOUR('',#1178);
#1215 = CURVE_STYLE('',#1216,POSITIVE_LENGTH_MEASURE(0.1),#1178);
#1216 = DRAUGHTING_PRE_DEFINED_CURVE_FONT('continuous');
#1217 = STYLED_ITEM('color',(#1218),#90);
#1218 = PRESENTATION_STYLE_ASSIGNMENT((#1219,#1224));
#1219 = SURFACE_STYLE_USAGE(.BOTH.,#1220);
#1220 = SURFACE_SIDE_STYLE('',(#1221));
#1221 = SURFACE_STYLE_FILL_AREA(#1222);
#1222 = FILL_AREA_STYLE('',(#1223));
#1223 = FILL_AREA_STYLE_COLOUR('',#1178);
#1224 = CURVE_STYLE('',#1225,POSITIVE_LENGTH_MEASURE(0.1),#1178);
#1225 = DRAUGHTING_PRE_DEFINED_CURVE_FONT('continuous');
#1226 = STYLED_ITEM('color',(#1227),#102);
#1227 = PRESENTATION_STYLE_ASSIGNMENT((#1228,#1233));
#1228 = SURFACE_STYLE_USAGE(.BOTH.,#1229);
#1229 = SURFACE_SIDE_STYLE('',(#1230));
#1230 = SURFACE_STYLE_FILL_AREA(#1231);
#1231 = FILL_AREA_STYLE('',(#1232));
#1232 = FILL_AREA_STYLE_COLOUR('',#1178);
#1233 = CURVE_STYLE('',#1234,POSITIVE_LENGTH_MEASURE(0.1),#1178);
#1234 = DRAUGHTING_PRE_DEFINED_CURVE_FONT('continuous');
#1235 = STYLED_ITEM('color',(#1236),#114);
#1236 = PRESENTATION_STYLE_ASSIGNMENT((#1237,#1242));
#1237 = SURFACE_STYLE_USAGE(.BOTH.,#1238);
#1238 = SURFACE_SIDE_STYLE('',(#1239));
#1239 = SURFACE_STYLE_FILL_AREA(#1240);
#1240 = FILL_AREA_STYLE('',(#1241));
#1241 = FILL_AREA_STYLE_COLOUR('',#1178);
#1242 = CURVE_STYLE('',#1243,POSITIVE_LENGTH_MEASURE(0.1),#1178);
#1243 = DRAUGHTING_PRE_DEFINED_CURVE_FONT('continuous');
#1244 = STYLED_ITEM('color',(#1245),#126);
#1245 = PRESENTATION_STYLE_ASSIGNMENT((#1246,#1251));
#1246 = SURFACE_STYLE_USAGE(.BOTH.,#1247);
#1247 = SURFACE_SIDE_STYLE('',(#1248));
#1248 = SURFACE_STYLE_FILL_AREA(#1249);
#1249 = FILL_AREA_STYLE('',(#1250));
#1250 = FILL_AREA_STYLE_COLOUR('',#1178);
#1251 = CURVE_STYLE('',#1252,POSITIVE_LENGTH_MEASURE(0.1),#1178);
#1252 = DRAUGHTING_PRE_DEFINED_CURVE_FONT('continuous');
#1253 = STYLED_ITEM('color',(#1254),#138);
#1254 = PRESENTATION_STYLE_ASSIGNMENT((#1255,#1260));
#1255 = SURFACE_STYLE_USAGE(.BOTH.,#1256);
#1256 = SURFACE_SIDE_STYLE('',(#1257));
#1257 = SURFACE_STYLE_FILL_AREA(#1258);
#1258 = FILL_AREA_STYLE('',(#1259));
#1259 = FILL_AREA_STYLE_COLOUR('',#1178);
#1260 = CURVE_STYLE('',#1261,POSITIVE_LENGTH_MEASURE(0.1),#1178);
#1261 = DRAUGHTING_PRE_DEFINED_CURVE_FONT('continuous');
#1262 = STYLED_ITEM('color',(#1263),#150);
#1263 = PRESENTATION_STYLE_ASSIGNMENT((#1264,#1269));
#1264 = SURFACE_STYLE_USAGE(.BOTH.,#1265);
#1265 = SURFACE_SIDE_STYLE('',(#1266));
#1266 = SURFACE_STYLE_FILL_AREA(#1267);
#1267 = FILL_AREA_STYLE('',(#1268));
#1268 = FILL_AREA_STYLE_COLOUR('',#1178);
#1269 = CURVE_STYLE('',#1270,POSITIVE_LENGTH_MEASURE(0.1),#1178);
#1270 = DRAUGHTING_PRE_DEFINED_CURVE_FONT('continuous');
#1271 = STYLED_ITEM('color',(#1272),#162);
#1272 = PRESENTATION_STYLE_ASSIGNMENT((#1273,#1278));
#1273 = SURFACE_STYLE_USAGE(.BOTH.,#1274);
#1274 = SURFACE_SIDE_STYLE('',(#1275));
#1275 = SURFACE_STYLE_FILL_AREA(#1276);
#1276 = FILL_AREA_STYLE('',(#1277));
#1277 = FILL_AREA_STYLE_COLOUR('',#1178);
#1278 = CURVE_STYLE('',#1279,POSITIVE_LENGTH_MEASURE(0.1),#1178);
#1279 = DRAUGHTING_PRE_DEFINED_CURVE_FONT('continuous');
#1280 = STYLED_ITEM('color',(#1281),#174);
#1281 = PRESENTATION_STYLE_ASSIGNMENT((#1282,#1287));
#1282 = SURFACE_STYLE_USAGE(.BOTH.,#1283);
#1283 = SURFACE_SIDE_STYLE('',(#1284));
#1284 = SURFACE_STYLE_FILL_AREA(#1285);
#1285 = FILL_AREA_STYLE('',(#1286));
#1286 = FILL_AREA_STYLE_COLOUR('',#1178);
#1287 = CURVE_STYLE('',#1288,POSITIVE_LENGTH_MEASURE(0.1),#1178);
#1288 = DRAUGHTING_PRE_DEFINED_CURVE_FONT('continuous');
#1289 = STYLED_ITEM('color',(#1290),#186);
#1290 = PRESENTATION_STYLE_ASSIGNMENT((#1291,#1296));
#1291 = SURFACE_STYLE_USAGE(.BOTH.,#1292);
#1292 = SURFACE_SIDE_STYLE('',(#1293));
#1293 = SURFACE_STYLE_FILL_AREA(#1294);
#1294 = FILL_AREA_STYLE('',(#1295));
#1295 = FILL_AREA_STYLE_COLOUR('',#1178);
#1296 = CURVE_STYLE('',#1297,POSITIVE_LENGTH_MEASURE(0.1),#1178);
#1297 = DRAUGHTING_PRE_DEFINED_CURVE_FONT('continuous');
#1298 = STYLED_ITEM('color',(#1299),#198);
#1299 = PRESENTATION_STYLE_ASSIGNMENT((#1300,#1305));
#1300 = SURFACE_STYLE_USAGE(.BOTH.,#1301);
#1301 = SURFACE_SIDE_STYLE('',(#1302));
#1302 = SURFACE_STYLE_FILL_AREA(#1303);
#1303 = FILL_AREA_STYLE('',(#1304));
#1304 = FILL_AREA_STYLE_COLOUR('',#1178);
#1305 = CURVE_STYLE('',#1306,POSITIVE_LENGTH_MEASURE(0.1),#1178);
#1306 = DRAUGHTING_PRE_DEFINED_CURVE_FONT('continuous');
#1307 = STYLED_ITEM('color',(#1308),#210);
#1308 = PRESENTATION_STYLE_ASSIGNMENT((#1309,#1314));
#1309 = SURFACE_STYLE_USAGE(.BOTH.,#1310);
#1310 = SURFACE_SIDE_STYLE('',(#1311));
#1311 = SURFACE_STYLE_FILL_AREA(#1312);
#1312 = FILL_AREA_STYLE('',(#1313));
#1313 = FILL_AREA_STYLE_COLOUR('',#1178);
#1314 = CURVE_STYLE('',#1315,POSITIVE_LENGTH_MEASURE(0.1),#1178);
#1315 = DRAUGHTING_PRE_DEFINED_CURVE_FONT('continuous');
#1316 = STYLED_ITEM('color',(#1317),#222);
#1317 = PRESENTATION_STYLE_ASSIGNMENT((#1318,#1323));
#1318 = SURFACE_STYLE_USAGE(.BOTH.,#1319);
#1319 = SURFACE_SIDE_STYLE('',(#1320));
#1320 = SURFACE_STYLE_FILL_AREA(#1321);
#1321 = FILL_AREA_STYLE('',(#1322));
#1322 = FILL_AREA_STYLE_COLOUR('',#1178);
#1323 = CURVE_STYLE('',#1324,POSITIVE_LENGTH_MEASURE(0.1),#1178);
#1324 = DRAUGHTING_PRE_DEFINED_CURVE_FONT('continuous');
#1325 = STYLED_ITEM('color',(#1326),#234);
#1326 = PRESENTATION_STYLE_ASSIGNMENT((#1327,#1332));
#1327 = SURFACE_STYLE_USAGE(.BOTH.,#1328);
#1328 = SURFACE_SIDE_STYLE('',(#1329));
#1329 = SURFACE_STYLE_FILL_AREA(#1330);
#1330 = FILL_AREA_STYLE('',(#1331));
#1331 = FILL_AREA_STYLE_COLOUR('',#1178);
#1332 = CURVE_STYLE('',#1333,POSITIVE_LENGTH_MEASURE(0.1),#1178);
#1333 = DRAUGHTING_PRE_DEFINED_CURVE_FONT('continuous');
#1334 = STYLED_ITEM('color',(#1335),#246);
#1335 = PRESENTATION_STYLE_ASSIGNMENT((#1336,#1341));
#1336 = SURFACE_STYLE_USAGE(.BOTH.,#1337);
#1337 = SURFACE_SIDE_STYLE('',(#1338));
#1338 = SURFACE_STYLE_FILL_AREA(#1339);
#1339 = FILL_AREA_STYLE('',(#1340));
#1340 = FILL_AREA_STYLE_COLOUR('',#1178);
#1341 = CURVE_STYLE('',#1342,POSITIVE_LENGTH_MEASURE(0.1),#1178);
#1342 = DRAUGHTING_PRE_DEFINED_CURVE_FONT('continuous');
#1343 = STYLED_ITEM('color',(#1344),#258);
#1344 = PRESENTATION_STYLE_ASSIGNMENT((#1345,#1350));
#1345 = SURFACE_STYLE_USAGE(.BOTH.,#1346);
#1346 = SURFACE_SIDE_STYLE('',(#1347));
#1347 = SURFACE_STYLE_FILL_AREA(#1348);
#1348 = FILL_AREA_STYLE('',(#1349));
#1349 = FILL_AREA_STYLE_COLOUR('',#1178);
#1350 = CURVE_STYLE('',#1351,POSITIVE_LENGTH_MEASURE(0.1),#1178);
#1351 = DRAUGHTING_PRE_DEFINED_CURVE_FONT('continuous');
#1352 = STYLED_ITEM('color',(#1353),#270);
#1353 = PRESENTATION_STYLE_ASSIGNMENT((#1354,#1359));
#1354 = SURFACE_STYLE_USAGE(.BOTH.,#1355);
#1355 = SURFACE_SIDE_STYLE('',(#1356));
#1356 = SURFACE_STYLE_FILL_AREA(#1357);
#1357 = FILL_AREA_STYLE('',(#1358));
#1358 = FILL_AREA_STYLE_COLOUR('',#1178);
#1359 = CURVE_STYLE('',#1360,POSITIVE_LENGTH_MEASURE(0.1),#1178);
#1360 = DRAUGHTING_PRE_DEFINED_CURVE_FONT('continuous');
#1361 = STYLED_ITEM('color',(#1362),#282);
#1362 = PRESENTATION_STYLE_ASSIGNMENT((#1363,#1368));
#1363 = SURFACE_STYLE_USAGE(.BOTH.,#1364);
#1364 = SURFACE_SIDE_STYLE('',(#1365));
#1365 = SURFACE_STYLE_FILL_AREA(#1366);
#1366 = FILL_AREA_STYLE('',(#1367));
#1367 = FILL_AREA_STYLE_COLOUR('',#1178);
#1368 = CURVE_STYLE('',#1369,POSITIVE_LENGTH_MEASURE(0.1),#1178);
#1369 = DRAUGHTING_PRE_DEFINED_CURVE_FONT('continuous');
#1370 = STYLED_ITEM('color',(#1371),#294);
#1371 = PRESENTATION_STYLE_ASSIGNMENT((#1372,#1377));
#1372 = SURFACE_STYLE_USAGE(.BOTH.,#1373);
#1373 = SURFACE_SIDE_STYLE('',(#1374));
#1374 = SURFACE_STYLE_FILL_AREA(#1375);
#1375 = FILL_AREA_STYLE('',(#1376));
#1376 = FILL_AREA_STYLE_COLOUR('',#1178);
#1377 = CURVE_STYLE('',#1378,POSITIVE_LENGTH_MEASURE(0.1),#1178);
#1378 = DRAUGHTING_PRE_DEFINED_CURVE_FONT('continuous');
#1379 = STYLED_ITEM('color',(#1380),#306);
#1380 = PRESENTATION_STYLE_ASSIGNMENT((#1381,#1386));
#1381 = SURFACE_STYLE_USAGE(.BOTH.,#1382);
#1382 = SURFACE_SIDE_STYLE('',(#1383));
#1383 = SURFACE_STYLE_FILL_AREA(#1384);
#1384 = FILL_AREA_STYLE('',(#1385));
#1385 = FILL_AREA_STYLE_COLOUR('',#1178);
#1386 = CURVE_STYLE('',#1387,POSITIVE_LENGTH_MEASURE(0.1),#1178);
#1387 = DRAUGHTING_PRE_DEFINED_CURVE_FONT('continuous');
#1388 = STYLED_ITEM('color',(#1389),#318);
#1389 = PRESENTATION_STYLE_ASSIGNMENT((#1390,#1395));
#1390 = SURFACE_STYLE_USAGE(.BOTH.,#1391);
#1391 = SURFACE_SIDE_STYLE('',(#1392));
#1392 = SURFACE_STYLE_FILL_AREA(#1393);
#1393 = FILL_AREA_STYLE('',(#1394));
#1394 = FILL_AREA_STYLE_COLOUR('',#1178);
#1395 = CURVE_STYLE('',#1396,POSITIVE_LENGTH_MEASURE(0.1),#1178);
#1396 = DRAUGHTING_PRE_DEFINED_CURVE_FONT('continuous');
#1397 = STYLED_ITEM('color',(#1398),#330);
#1398 = PRESENTATION_STYLE_ASSIGNMENT((#1399,#1404));
#1399 = SURFACE_STYLE_USAGE(.BOTH.,#1400);
#1400 = SURFACE_SIDE_STYLE('',(#1401));
#1401 = SURFACE_STYLE_FILL_AREA(#1402);
#1402 = FILL_AREA_STYLE('',(#1403));
#1403 = FILL_AREA_STYLE_COLOUR('',#1178);
#1404 = CURVE_STYLE('',#1405,POSITIVE_LENGTH_MEASURE(0.1),#1178);
#1405 = DRAUGHTING_PRE_DEFINED_CURVE_FONT('continuous');
#1406 = STYLED_ITEM('color',(#1407),#342);
#1407 = PRESENTATION_STYLE_ASSIGNMENT((#1408,#1413));
#1408 = SURFACE_STYLE_USAGE(.BOTH.,#1409);
#1409 = SURFACE_SIDE_STYLE('',(#1410));
#1410 = SURFACE_STYLE_FILL_AREA(#1411);
#1411 = FILL_AREA_STYLE('',(#1412));
#1412 = FILL_AREA_STYLE_COLOUR('',#1178);
#1413 = CURVE_STYLE('',#1414,POSITIVE_LENGTH_MEASURE(0.1),#1178);
#1414 = DRAUGHTING_PRE_DEFINED_CURVE_FONT('continuous');
#1415 = STYLED_ITEM('color',(#1416),#354);
#1416 = PRESENTATION_STYLE_ASSIGNMENT((#1417,#1422));
#1417 = SURFACE_STYLE_USAGE(.BOTH.,#1418);
#1418 = SURFACE_SIDE_STYLE('',(#1419));
#1419 = SURFACE_STYLE_FILL_AREA(#1420);
#1420 = FILL_AREA_STYLE('',(#1421));
#1421 = FILL_AREA_STYLE_COLOUR('',#1178);
#1422 = CURVE_STYLE('',#1423,POSITIVE_LENGTH_MEASURE(0.1),#1178);
#1423 = DRAUGHTING_PRE_DEFINED_CURVE_FONT('continuous');
#1424 = STYLED_ITEM('color',(#1425),#366);
#1425 = PRESENTATION_STYLE_ASSIGNMENT((#1426,#1431));
#1426 = SURFACE_STYLE_USAGE(.BOTH.,#1427);
#1427 = SURFACE_SIDE_STYLE('',(#1428));
#1428 = SURFACE_STYLE_FILL_AREA(#1429);
#1429 = FILL_AREA_STYLE('',(#1430));
#1430 = FILL_AREA_STYLE_COLOUR('',#1178);
#1431 = CURVE_STYLE('',#1432,POSITIVE_LENGTH_MEASURE(0.1),#1178);
#1432 = DRAUGHTING_PRE_DEFINED_CURVE_FONT('continuous');
#1433 = STYLED_ITEM('color',(#1434),#378);
#1434 = PRESENTATION_STYLE_ASSIGNMENT((#1435,#1440));
#1435 = SURFACE_STYLE_USAGE(.BOTH.,#1436);
#1436 = SURFACE_SIDE_STYLE('',(#1437));
#1437 = SURFACE_STYLE_FILL_AREA(#1438);
#1438 = FILL_AREA_STYLE('',(#1439));
#1439 = FILL_AREA_STYLE_COLOUR('',#1178);
#1440 = CURVE_STYLE('',#1441,POSITIVE_LENGTH_MEASURE(0.1),#1178);
#1441 = DRAUGHTING_PRE_DEFINED_CURVE_FONT('continuous');
#1442 = STYLED_ITEM('color',(#1443),#390);
#1443 = PRESENTATION_STYLE_ASSIGNMENT((#1444,#1449));
#1444 = SURFACE_STYLE_USAGE(.BOTH.,#1445);
#1445 = SURFACE_SIDE_STYLE('',(#1446));
#1446 = SURFACE_STYLE_FILL_AREA(#1447);
#1447 = FILL_AREA_STYLE('',(#1448));
#1448 = FILL_AREA_STYLE_COLOUR('',#1178);
#1449 = CURVE_STYLE('',#1450,POSITIVE_LENGTH_MEASURE(0.1),#1178);
#1450 = DRAUGHTING_PRE_DEFINED_CURVE_FONT('continuous');
#1451 = STYLED_ITEM('color',(#1452),#402);
#1452 = PRESENTATION_STYLE_ASSIGNMENT((#1453,#1458));
#1453 = SURFACE_STYLE_USAGE(.BOTH.,#1454);
#1454 = SURFACE_SIDE_STYLE('',(#1455));
#1455 = SURFACE_STYLE_FILL_AREA(#1456);
#1456 = FILL_AREA_STYLE('',(#1457));
#1457 = FILL_AREA_STYLE_COLOUR('',#1178);
#1458 = CURVE_STYLE('',#1459,POSITIVE_LENGTH_MEASURE(0.1),#1178);
#1459 = DRAUGHTING_PRE_DEFINED_CURVE_FONT('continuous');
#1460 = STYLED_ITEM('color',(#1461),#414);
#1461 = PRESENTATION_STYLE_ASSIGNMENT((#1462,#1467));
#1462 = SURFACE_STYLE_USAGE(.BOTH.,#1463);
#1463 = SURFACE_SIDE_STYLE('',(#1464));
#1464 = SURFACE_STYLE_FILL_AREA(#1465);
#1465 = FILL_AREA_STYLE('',(#1466));
#1466 = FILL_AREA_STYLE_COLOUR('',#1178);
#1467 = CURVE_STYLE('',#1468,POSITIVE_LENGTH_MEASURE(0.1),#1178);
#1468 = DRAUGHTING_PRE_DEFINED_CURVE_FONT('continuous');
#1469 = STYLED_ITEM('color',(#1470),#426);
#1470 = PRESENTATION_STYLE_ASSIGNMENT((#1471,#1476));
#1471 = SURFACE_STYLE_USAGE(.BOTH.,#1472);
#1472 = SURFACE_SIDE_STYLE('',(#1473));
#1473 = SURFACE_STYLE_FILL_AREA(#1474);
#1474 = FILL_AREA_STYLE('',(#1475));
#1475 = FILL_AREA_STYLE_COLOUR('',#1178);
#1476 = CURVE_STYLE('',#1477,POSITIVE_LENGTH_MEASURE(0.1),#1178);
#1477 = DRAUGHTING_PRE_DEFINED_CURVE_FONT('continuous');
#1478 = STYLED_ITEM('color',(#1479),#438);
#1479 = PRESENTATION_STYLE_ASSIGNMENT((#1480,#1485));
#1480 = SURFACE_STYLE_USAGE(.BOTH.,#1481);
#1481 = SURFACE_SIDE_STYLE('',(#1482));
#1482 = SURFACE_STYLE_FILL_AREA(#1483);
#1483 = FILL_AREA_STYLE('',(#1484));
#1484 = FILL_AREA_STYLE_COLOUR('',#1178);
#1485 = CURVE_STYLE('',#1486,POSITIVE_LENGTH_MEASURE(0.1),#1178);
#1486 = DRAUGHTING_PRE_DEFINED_CURVE_FONT('continuous');
#1487 = STYLED_ITEM('color',(#1488),#450);
#1488 = PRESENTATION_STYLE_ASSIGNMENT((#1489,#1494));
#1489 = SURFACE_STYLE_USAGE(.BOTH.,#1490);
#1490 = SURFACE_SIDE_STYLE('',(#1491));
#1491 = SURFACE_STYLE_FILL_AREA(#1492);
#1492 = FILL_AREA_STYLE('',(#1493));
#1493 = FILL_AREA_STYLE_COLOUR('',#1178);
#1494 = CURVE_STYLE('',#1495,POSITIVE_LENGTH_MEASURE(0.1),#1178);
#1495 = DRAUGHTING_PRE_DEFINED_CURVE_FONT('continuous');
#1496 = STYLED_ITEM('color',(#1497),#462);
#1497 = PRESENTATION_STYLE_ASSIGNMENT((#1498,#1503));
#1498 = SURFACE_STYLE_USAGE(.BOTH.,#1499);
#1499 = SURFACE_SIDE_STYLE('',(#1500));
#1500 = SURFACE_STYLE_FILL_AREA(#1501);
#1501 = FILL_AREA_STYLE('',(#1502));
#1502 = FILL_AREA_STYLE_COLOUR('',#1178);
#1503 = CURVE_STYLE('',#1504,POSITIVE_LENGTH_MEASURE(0.1),#1178);
#1504 = DRAUGHTING_PRE_DEFINED_CURVE_FONT('continuous');
#1505 = STYLED_ITEM('color',(#1506),#474);
#1506 = PRESENTATION_STYLE_ASSIGNMENT((#1507,#1512));
#1507 = SURFACE_STYLE_USAGE(.BOTH.,#1508);
#1508 = SURFACE_SIDE_STYLE('',(#1509));
#1509 = SURFACE_STYLE_FILL_AREA(#1510);
#1510 = FILL_AREA_STYLE('',(#1511));
#1511 = FILL_AREA_STYLE_COLOUR('',#1178);
#1512 = CURVE_STYLE('',#1513,POSITIVE_LENGTH_MEASURE(0.1),#1178);
#1513 = DRAUGHTING_PRE_DEFINED_CURVE_FONT('continuous');
#1514 = STYLED_ITEM('color',(#1515),#486);
#1515 = PRESENTATION_STYLE_ASSIGNMENT((#1516,#1521));
#1516 = SURFACE_STYLE_USAGE(.BOTH.,#1517);
#1517 = SURFACE_SIDE_STYLE('',(#1518));
#1518 = SURFACE_STYLE_FILL_AREA(#1519);
#1519 = FILL_AREA_STYLE('',(#1520));
#1520 = FILL_AREA_STYLE_COLOUR('',#1178);
#1521 = CURVE_STYLE('',#1522,POSITIVE_LENGTH_MEASURE(0.1),#1178);
#1522 = DRAUGHTING_PRE_DEFINED_CURVE_FONT('continuous');
#1523 = STYLED_ITEM('color',(#1524),#498);
#1524 = PRESENTATION_STYLE_ASSIGNMENT((#1525,#1530));
#1525 = SURFACE_STYLE_USAGE(.BOTH.,#1526);
#1526 = SURFACE_SIDE_STYLE('',(#1527));
#1527 = SURFACE_STYLE_FILL_AREA(#1528);
#1528 = FILL_AREA_STYLE('',(#1529));
#1529 = FILL_AREA_STYLE_COLOUR('',#1178);
#1530 = CURVE_STYLE('',#1531,POSITIVE_LENGTH_MEASURE(0.1),#1178);
#1531 = DRAUGHTING_PRE_DEFINED_CURVE_FONT('continuous');
#1532 = STYLED_ITEM('color',(#1533),#510);
#1533 = PRESENTATION_STYLE_ASSIGNMENT((#1534,#1539));
#1534 = SURFACE_STYLE_USAGE(.BOTH.,#1535);
#1535 = SURFACE_SIDE_STYLE('',(#1536));
#1536 = SURFACE_STYLE_FILL_AREA(#1537);
#1537 = FILL_AREA_STYLE('',(#1538));
#1538 = FILL_AREA_STYLE_COLOUR('',#1178);
#1539 = CURVE_STYLE('',#1540,POSITIVE_LENGTH_MEASURE(0.1),#1178);
#1540 = DRAUGHTING_PRE_DEFINED_CURVE_FONT('continuous');
#1541 = STYLED_ITEM('color',(#1542),#522);
#1542 = PRESENTATION_STYLE_ASSIGNMENT((#1543,#1548));
#1543 = SURFACE_STYLE_USAGE(.BOTH.,#1544);
#1544 = SURFACE_SIDE_STYLE('',(#1545));
#1545 = SURFACE_STYLE_FILL_AREA(#1546);
#1546 = FILL_AREA_STYLE('',(#1547));
#1547 = FILL_AREA_STYLE_COLOUR('',#1178);
#1548 = CURVE_STYLE('',#1549,POSITIVE_LENGTH_MEASURE(0.1),#1178);
#1549 = DRAUGHTING_PRE_DEFINED_CURVE_FONT('continuous');
#1550 = STYLED_ITEM('color',(#1551),#534);
#1551 = PRESENTATION_STYLE_ASSIGNMENT((#1552,#1557));
#1552 = SURFACE_STYLE_USAGE(.BOTH.,#1553);
#1553 = SURFACE_SIDE_STYLE('',(#1554));
#1554 = SURFACE_STYLE_FILL_AREA(#1555);
#1555 = FILL_AREA_STYLE('',(#1556));
#1556 = FILL_AREA_STYLE_COLOUR('',#1178);
#1557 = CURVE_STYLE('',#1558,POSITIVE_LENGTH_MEASURE(0.1),#1178);
#1558 = DRAUGHTING_PRE_DEFINED_CURVE_FONT('continuous');
#1559 = STYLED_ITEM('color',(#1560),#546);
#1560 = PRESENTATION_STYLE_ASSIGNMENT((#1561,#1566));
#1561 = SURFACE_STYLE_USAGE(.BOTH.,#1562);
#1562 = SURFACE_SIDE_STYLE('',(#1563));
#1563 = SURFACE_STYLE_FILL_AREA(#1564);
#1564 = FILL_AREA_STYLE('',(#1565));
#1565 = FILL_AREA_STYLE_COLOUR('',#1178);
#1566 = CURVE_STYLE('',#1567,POSITIVE_LENGTH_MEASURE(0.1),#1178);
#1567 = DRAUGHTING_PRE_DEFINED_CURVE_FONT('continuous');
#1568 = STYLED_ITEM('color',(#1569),#558);
#1569 = PRESENTATION_STYLE_ASSIGNMENT((#1570,#1575));
#1570 = SURFACE_STYLE_USAGE(.BOTH.,#1571);
#1571 = SURFACE_SIDE_STYLE('',(#1572));
#1572 = SURFACE_STYLE_FILL_AREA(#1573);
#1573 = FILL_AREA_STYLE('',(#1574));
#1574 = FILL_AREA_STYLE_COLOUR('',#1178);
#1575 = CURVE_STYLE('',#1576,POSITIVE_LENGTH_MEASURE(0.1),#1178);
#1576 = DRAUGHTING_PRE_DEFINED_CURVE_FONT('continuous');
#1577 = STYLED_ITEM('color',(#1578),#570);
#1578 = PRESENTATION_STYLE_ASSIGNMENT((#1579,#1584));
#1579 = SURFACE_STYLE_USAGE(.BOTH.,#1580);
#1580 = SURFACE_SIDE_STYLE('',(#1581));
#1581 = SURFACE_STYLE_FILL_AREA(#1582);
#1582 = FILL_AREA_STYLE('',(#1583));
#1583 = FILL_AREA_STYLE_COLOUR('',#1178);
#1584 = CURVE_STYLE('',#1585,POSITIVE_LENGTH_MEASURE(0.1),#1178);
#1585 = DRAUGHTING_PRE_DEFINED_CURVE_FONT('continuous');
#1586 = STYLED_ITEM('color',(#1587),#582);
#1587 = PRESENTATION_STYLE_ASSIGNMENT((#1588,#1593));
#1588 = SURFACE_STYLE_USAGE(.BOTH.,#1589);
#1589 = SURFACE_SIDE_STYLE('',(#1590));
#1590 = SURFACE_STYLE_FILL_AREA(#1591);
#1591 = FILL_AREA_STYLE('',(#1592));
#1592 = FILL_AREA_STYLE_COLOUR('',#1178);
#1593 = CURVE_STYLE('',#1594,POSITIVE_LENGTH_MEASURE(0.1),#1178);
#1594 = DRAUGHTING_PRE_DEFINED_CURVE_FONT('continuous');
#1595 = STYLED_ITEM('color',(#1596),#594);
#1596 = PRESENTATION_STYLE_ASSIGNMENT((#1597,#1602));
#1597 = SURFACE_STYLE_USAGE(.BOTH.,#1598);
#1598 = SURFACE_SIDE_STYLE('',(#1599));
#1599 = SURFACE_STYLE_FILL_AREA(#1600);
#1600 = FILL_AREA_STYLE('',(#1601));
#1601 = FILL_AREA_STYLE_COLOUR('',#1178);
#1602 = CURVE_STYLE('',#1603,POSITIVE_LENGTH_MEASURE(0.1),#1178);
#1603 = DRAUGHTING_PRE_DEFINED_CURVE_FONT('continuous');
#1604 = STYLED_ITEM('color',(#1605),#606);
#1605 = PRESENTATION_STYLE_ASSIGNMENT((#1606,#1611));
#1606 = SURFACE_STYLE_USAGE(.BOTH.,#1607);
#1607 = SURFACE_SIDE_STYLE('',(#1608));
#1608 = SURFACE_STYLE_FILL_AREA(#1609);
#1609 = FILL_AREA_STYLE('',(#1610));
#1610 = FILL_AREA_STYLE_COLOUR('',#1178);
#1611 = CURVE_STYLE('',#1612,POSITIVE_LENGTH_MEASURE(0.1),#1178);
#1612 = DRAUGHTING_PRE_DEFINED_CURVE_FONT('continuous');
#1613 = STYLED_ITEM('color',(#1614),#618);
#1614 = PRESENTATION_STYLE_ASSIGNMENT((#1615,#1620));
#1615 = SURFACE_STYLE_USAGE(.BOTH.,#1616);
#1616 = SURFACE_SIDE_STYLE('',(#1617));
#1617 = SURFACE_STYLE_FILL_AREA(#1618);
#1618 = FILL_AREA_STYLE('',(#1619));
#1619 = FILL_AREA_STYLE_COLOUR('',#1178);
#1620 = CURVE_STYLE('',#1621,POSITIVE_LENGTH_MEASURE(0.1),#1178);
#1621 = DRAUGHTING_PRE_DEFINED_CURVE_FONT('continuous');
#1622 = STYLED_ITEM('color',(#1623),#630);
#1623 = PRESENTATION_STYLE_ASSIGNMENT((#1624,#1629));
#1624 = SURFACE_STYLE_USAGE(.BOTH.,#1625);
#1625 = SURFACE_SIDE_STYLE('',(#1626));
#1626 = SURFACE_STYLE_FILL_AREA(#1627);
#1627 = FILL_AREA_STYLE('',(#1628));
#1628 = FILL_AREA_STYLE_COLOUR('',#1178);
#1629 = CURVE_STYLE('',#1630,POSITIVE_LENGTH_MEASURE(0.1),#1178);
#1630 = DRAUGHTING_PRE_DEFINED_CURVE_FONT('continuous');
#1631 = STYLED_ITEM('color',(#1632),#642);
#1632 = PRESENTATION_STYLE_ASSIGNMENT((#1633,#1638));
#1633 = SURFACE_STYLE_USAGE(.BOTH.,#1634);
#1634 = SURFACE_SIDE_STYLE('',(#1635));
#1635 = SURFACE_STYLE_FILL_AREA(#1636);
#1636 = FILL_AREA_STYLE('',(#1637));
#1637 = FILL_AREA_STYLE_COLOUR('',#1178);
#1638 = CURVE_STYLE('',#1639,POSITIVE_LENGTH_MEASURE(0.1),#1178);
#1639 = DRAUGHTING_PRE_DEFINED_CURVE_FONT('continuous');
#1640 = STYLED_ITEM('color',(#1641),#654);
#1641 = PRESENTATION_STYLE_ASSIGNMENT((#1642,#1647));
#1642 = SURFACE_STYLE_USAGE(.BOTH.,#1643);
#1643 = SURFACE_SIDE_STYLE('',(#1644));
#1644 = SURFACE_STYLE_FILL_AREA(#1645);
#1645 = FILL_AREA_STYLE('',(#1646));
#1646 = FILL_AREA_STYLE_COLOUR('',#1178);
#1647 = CURVE_STYLE('',#1648,POSITIVE_LENGTH_MEASURE(0.1),#1178);
#1648 = DRAUGHTING_PRE_DEFINED_CURVE_FONT('continuous');
#1649 = STYLED_ITEM('color',(#1650),#666);
#1650 = PRESENTATION_STYLE_ASSIGNMENT((#1651,#1656));
#1651 = SURFACE_STYLE_USAGE(.BOTH.,#1652);
#1652 = SURFACE_SIDE_STYLE('',(#1653));
#1653 = SURFACE_STYLE_FILL_AREA(#1654);
#1654 = FILL_AREA_STYLE('',(#1655));
#1655 = FILL_AREA_STYLE_COLOUR('',#1178);
#1656 = CURVE_STYLE('',#1657,POSITIVE_LENGTH_MEASURE(0.1),#1178);
#1657 = DRAUGHTING_PRE_DEFINED_CURVE_FONT('continuous');
#1658 = STYLED_ITEM('color',(#1659),#678);
#1659 = PRESENTATION_STYLE_ASSIGNMENT((#1660,#1665));
#1660 = SURFACE_STYLE_USAGE(.BOTH.,#1661);
#1661 = SURFACE_SIDE_STYLE('',(#1662));
#1662 = SURFACE_STYLE_FILL_AREA(#1663);
#1663 = FILL_AREA_STYLE('',(#1664));
#1664 = FILL_AREA_STYLE_COLOUR('',#1178);
#1665 = CURVE_STYLE('',#1666,POSITIVE_LENGTH_MEASURE(0.1),#1178);
#1666 = DRAUGHTING_PRE_DEFINED_CURVE_FONT('continuous');
#1667 = STYLED_ITEM('color',(#1668),#690);
#1668 = PRESENTATION_STYLE_ASSIGNMENT((#1669,#1674));
#1669 = SURFACE_STYLE_USAGE(.BOTH.,#1670);
#1670 = SURFACE_SIDE_STYLE('',(#1671));
#1671 = SURFACE_STYLE_FILL_AREA(#1672);
#1672 = FILL_AREA_STYLE('',(#1673));
#1673 = FILL_AREA_STYLE_COLOUR('',#1178);
#1674 = CURVE_STYLE('',#1675,POSITIVE_LENGTH_MEASURE(0.1),#1178);
#1675 = DRAUGHTING_PRE_DEFINED_CURVE_FONT('continuous');
ENDSEC;
END-ISO-10303-21;
