%TF.GenerationSoftware,KiCad,Pcbnew,(5.1.10-1-10_14)*%
%TF.CreationDate,2021-10-07T20:40:44-05:00*%
%TF.ProjectId,CompleteSchematicV1,436f6d70-6c65-4746-9553-6368656d6174,rev?*%
%TF.SameCoordinates,Original*%
%TF.FileFunction,Soldermask,Top*%
%TF.FilePolarity,Negative*%
%FSLAX46Y46*%
G04 Gerber Fmt 4.6, Leading zero omitted, Abs format (unit mm)*
G04 Created by KiCad (PCBNEW (5.1.10-1-10_14)) date 2021-10-07 20:40:44*
%MOMM*%
%LPD*%
G01*
G04 APERTURE LIST*
%ADD10C,3.200000*%
%ADD11C,3.200001*%
%ADD12C,4.800001*%
%ADD13C,1.849999*%
%ADD14R,1.849999X1.849999*%
%ADD15O,2.190000X1.740000*%
%ADD16C,1.700000*%
%ADD17R,1.450000X0.300000*%
%ADD18O,4.500000X1.905000*%
%ADD19R,4.500000X1.905000*%
%ADD20R,1.500000X2.500000*%
%ADD21R,7.000000X7.000000*%
%ADD22R,1.528000X0.650000*%
%ADD23O,1.740000X2.190000*%
%ADD24O,2.500000X2.500000*%
%ADD25R,2.500000X2.500000*%
%ADD26O,1.600000X1.600000*%
%ADD27C,1.600000*%
%ADD28C,1.381000*%
%ADD29R,5.200000X5.200000*%
%ADD30R,1.200000X1.900000*%
%ADD31O,1.200000X1.900000*%
%ADD32R,1.500000X1.900000*%
%ADD33C,1.450000*%
%ADD34R,0.400000X1.350000*%
%ADD35C,0.200000*%
G04 APERTURE END LIST*
%TO.C,R28*%
G36*
G01*
X111944999Y-90570000D02*
X112845001Y-90570000D01*
G75*
G02*
X113095000Y-90819999I0J-249999D01*
G01*
X113095000Y-91520001D01*
G75*
G02*
X112845001Y-91770000I-249999J0D01*
G01*
X111944999Y-91770000D01*
G75*
G02*
X111695000Y-91520001I0J249999D01*
G01*
X111695000Y-90819999D01*
G75*
G02*
X111944999Y-90570000I249999J0D01*
G01*
G37*
G36*
G01*
X111944999Y-88570000D02*
X112845001Y-88570000D01*
G75*
G02*
X113095000Y-88819999I0J-249999D01*
G01*
X113095000Y-89520001D01*
G75*
G02*
X112845001Y-89770000I-249999J0D01*
G01*
X111944999Y-89770000D01*
G75*
G02*
X111695000Y-89520001I0J249999D01*
G01*
X111695000Y-88819999D01*
G75*
G02*
X111944999Y-88570000I249999J0D01*
G01*
G37*
%TD*%
%TO.C,R43*%
G36*
G01*
X140646999Y-95142000D02*
X141547001Y-95142000D01*
G75*
G02*
X141797000Y-95391999I0J-249999D01*
G01*
X141797000Y-96092001D01*
G75*
G02*
X141547001Y-96342000I-249999J0D01*
G01*
X140646999Y-96342000D01*
G75*
G02*
X140397000Y-96092001I0J249999D01*
G01*
X140397000Y-95391999D01*
G75*
G02*
X140646999Y-95142000I249999J0D01*
G01*
G37*
G36*
G01*
X140646999Y-93142000D02*
X141547001Y-93142000D01*
G75*
G02*
X141797000Y-93391999I0J-249999D01*
G01*
X141797000Y-94092001D01*
G75*
G02*
X141547001Y-94342000I-249999J0D01*
G01*
X140646999Y-94342000D01*
G75*
G02*
X140397000Y-94092001I0J249999D01*
G01*
X140397000Y-93391999D01*
G75*
G02*
X140646999Y-93142000I249999J0D01*
G01*
G37*
%TD*%
%TO.C,R42*%
G36*
G01*
X156267999Y-91713000D02*
X157168001Y-91713000D01*
G75*
G02*
X157418000Y-91962999I0J-249999D01*
G01*
X157418000Y-92663001D01*
G75*
G02*
X157168001Y-92913000I-249999J0D01*
G01*
X156267999Y-92913000D01*
G75*
G02*
X156018000Y-92663001I0J249999D01*
G01*
X156018000Y-91962999D01*
G75*
G02*
X156267999Y-91713000I249999J0D01*
G01*
G37*
G36*
G01*
X156267999Y-89713000D02*
X157168001Y-89713000D01*
G75*
G02*
X157418000Y-89962999I0J-249999D01*
G01*
X157418000Y-90663001D01*
G75*
G02*
X157168001Y-90913000I-249999J0D01*
G01*
X156267999Y-90913000D01*
G75*
G02*
X156018000Y-90663001I0J249999D01*
G01*
X156018000Y-89962999D01*
G75*
G02*
X156267999Y-89713000I249999J0D01*
G01*
G37*
%TD*%
%TO.C,R41*%
G36*
G01*
X162176000Y-80321999D02*
X162176000Y-81222001D01*
G75*
G02*
X161926001Y-81472000I-249999J0D01*
G01*
X161225999Y-81472000D01*
G75*
G02*
X160976000Y-81222001I0J249999D01*
G01*
X160976000Y-80321999D01*
G75*
G02*
X161225999Y-80072000I249999J0D01*
G01*
X161926001Y-80072000D01*
G75*
G02*
X162176000Y-80321999I0J-249999D01*
G01*
G37*
G36*
G01*
X164176000Y-80321999D02*
X164176000Y-81222001D01*
G75*
G02*
X163926001Y-81472000I-249999J0D01*
G01*
X163225999Y-81472000D01*
G75*
G02*
X162976000Y-81222001I0J249999D01*
G01*
X162976000Y-80321999D01*
G75*
G02*
X163225999Y-80072000I249999J0D01*
G01*
X163926001Y-80072000D01*
G75*
G02*
X164176000Y-80321999I0J-249999D01*
G01*
G37*
%TD*%
%TO.C,R40*%
G36*
G01*
X130178000Y-83127001D02*
X130178000Y-82226999D01*
G75*
G02*
X130427999Y-81977000I249999J0D01*
G01*
X131128001Y-81977000D01*
G75*
G02*
X131378000Y-82226999I0J-249999D01*
G01*
X131378000Y-83127001D01*
G75*
G02*
X131128001Y-83377000I-249999J0D01*
G01*
X130427999Y-83377000D01*
G75*
G02*
X130178000Y-83127001I0J249999D01*
G01*
G37*
G36*
G01*
X128178000Y-83127001D02*
X128178000Y-82226999D01*
G75*
G02*
X128427999Y-81977000I249999J0D01*
G01*
X129128001Y-81977000D01*
G75*
G02*
X129378000Y-82226999I0J-249999D01*
G01*
X129378000Y-83127001D01*
G75*
G02*
X129128001Y-83377000I-249999J0D01*
G01*
X128427999Y-83377000D01*
G75*
G02*
X128178000Y-83127001I0J249999D01*
G01*
G37*
%TD*%
%TO.C,R39*%
G36*
G01*
X104197999Y-89189000D02*
X105098001Y-89189000D01*
G75*
G02*
X105348000Y-89438999I0J-249999D01*
G01*
X105348000Y-90139001D01*
G75*
G02*
X105098001Y-90389000I-249999J0D01*
G01*
X104197999Y-90389000D01*
G75*
G02*
X103948000Y-90139001I0J249999D01*
G01*
X103948000Y-89438999D01*
G75*
G02*
X104197999Y-89189000I249999J0D01*
G01*
G37*
G36*
G01*
X104197999Y-87189000D02*
X105098001Y-87189000D01*
G75*
G02*
X105348000Y-87438999I0J-249999D01*
G01*
X105348000Y-88139001D01*
G75*
G02*
X105098001Y-88389000I-249999J0D01*
G01*
X104197999Y-88389000D01*
G75*
G02*
X103948000Y-88139001I0J249999D01*
G01*
X103948000Y-87438999D01*
G75*
G02*
X104197999Y-87189000I249999J0D01*
G01*
G37*
%TD*%
%TO.C,R38*%
G36*
G01*
X138233999Y-88173000D02*
X139134001Y-88173000D01*
G75*
G02*
X139384000Y-88422999I0J-249999D01*
G01*
X139384000Y-89123001D01*
G75*
G02*
X139134001Y-89373000I-249999J0D01*
G01*
X138233999Y-89373000D01*
G75*
G02*
X137984000Y-89123001I0J249999D01*
G01*
X137984000Y-88422999D01*
G75*
G02*
X138233999Y-88173000I249999J0D01*
G01*
G37*
G36*
G01*
X138233999Y-86173000D02*
X139134001Y-86173000D01*
G75*
G02*
X139384000Y-86422999I0J-249999D01*
G01*
X139384000Y-87123001D01*
G75*
G02*
X139134001Y-87373000I-249999J0D01*
G01*
X138233999Y-87373000D01*
G75*
G02*
X137984000Y-87123001I0J249999D01*
G01*
X137984000Y-86422999D01*
G75*
G02*
X138233999Y-86173000I249999J0D01*
G01*
G37*
%TD*%
%TO.C,R37*%
G36*
G01*
X129470999Y-110620000D02*
X130371001Y-110620000D01*
G75*
G02*
X130621000Y-110869999I0J-249999D01*
G01*
X130621000Y-111570001D01*
G75*
G02*
X130371001Y-111820000I-249999J0D01*
G01*
X129470999Y-111820000D01*
G75*
G02*
X129221000Y-111570001I0J249999D01*
G01*
X129221000Y-110869999D01*
G75*
G02*
X129470999Y-110620000I249999J0D01*
G01*
G37*
G36*
G01*
X129470999Y-108620000D02*
X130371001Y-108620000D01*
G75*
G02*
X130621000Y-108869999I0J-249999D01*
G01*
X130621000Y-109570001D01*
G75*
G02*
X130371001Y-109820000I-249999J0D01*
G01*
X129470999Y-109820000D01*
G75*
G02*
X129221000Y-109570001I0J249999D01*
G01*
X129221000Y-108869999D01*
G75*
G02*
X129470999Y-108620000I249999J0D01*
G01*
G37*
%TD*%
%TO.C,R36*%
G36*
G01*
X119691999Y-108112000D02*
X120592001Y-108112000D01*
G75*
G02*
X120842000Y-108361999I0J-249999D01*
G01*
X120842000Y-109062001D01*
G75*
G02*
X120592001Y-109312000I-249999J0D01*
G01*
X119691999Y-109312000D01*
G75*
G02*
X119442000Y-109062001I0J249999D01*
G01*
X119442000Y-108361999D01*
G75*
G02*
X119691999Y-108112000I249999J0D01*
G01*
G37*
G36*
G01*
X119691999Y-106112000D02*
X120592001Y-106112000D01*
G75*
G02*
X120842000Y-106361999I0J-249999D01*
G01*
X120842000Y-107062001D01*
G75*
G02*
X120592001Y-107312000I-249999J0D01*
G01*
X119691999Y-107312000D01*
G75*
G02*
X119442000Y-107062001I0J249999D01*
G01*
X119442000Y-106361999D01*
G75*
G02*
X119691999Y-106112000I249999J0D01*
G01*
G37*
%TD*%
%TO.C,R32*%
G36*
G01*
X168840999Y-90316000D02*
X169741001Y-90316000D01*
G75*
G02*
X169991000Y-90565999I0J-249999D01*
G01*
X169991000Y-91266001D01*
G75*
G02*
X169741001Y-91516000I-249999J0D01*
G01*
X168840999Y-91516000D01*
G75*
G02*
X168591000Y-91266001I0J249999D01*
G01*
X168591000Y-90565999D01*
G75*
G02*
X168840999Y-90316000I249999J0D01*
G01*
G37*
G36*
G01*
X168840999Y-88316000D02*
X169741001Y-88316000D01*
G75*
G02*
X169991000Y-88565999I0J-249999D01*
G01*
X169991000Y-89266001D01*
G75*
G02*
X169741001Y-89516000I-249999J0D01*
G01*
X168840999Y-89516000D01*
G75*
G02*
X168591000Y-89266001I0J249999D01*
G01*
X168591000Y-88565999D01*
G75*
G02*
X168840999Y-88316000I249999J0D01*
G01*
G37*
%TD*%
D10*
%TO.C,H4*%
X185674000Y-43942000D03*
%TD*%
D11*
%TO.C,H3*%
X185674000Y-125095000D03*
%TD*%
D10*
%TO.C,H2*%
X100838000Y-43942000D03*
%TD*%
%TO.C,H1*%
X100838000Y-125095000D03*
%TD*%
D12*
%TO.C,Q1*%
X171704000Y-66967001D03*
X171704000Y-97116999D03*
D13*
X166244001Y-83857000D03*
D14*
X177163999Y-83857000D03*
%TD*%
D15*
%TO.C,J4*%
X154813000Y-104394000D03*
G36*
G01*
X153967999Y-100984000D02*
X155658001Y-100984000D01*
G75*
G02*
X155908000Y-101233999I0J-249999D01*
G01*
X155908000Y-102474001D01*
G75*
G02*
X155658001Y-102724000I-249999J0D01*
G01*
X153967999Y-102724000D01*
G75*
G02*
X153718000Y-102474001I0J249999D01*
G01*
X153718000Y-101233999D01*
G75*
G02*
X153967999Y-100984000I249999J0D01*
G01*
G37*
%TD*%
%TO.C,C15*%
G36*
G01*
X144620000Y-116411500D02*
X143670000Y-116411500D01*
G75*
G02*
X143420000Y-116161500I0J250000D01*
G01*
X143420000Y-115486500D01*
G75*
G02*
X143670000Y-115236500I250000J0D01*
G01*
X144620000Y-115236500D01*
G75*
G02*
X144870000Y-115486500I0J-250000D01*
G01*
X144870000Y-116161500D01*
G75*
G02*
X144620000Y-116411500I-250000J0D01*
G01*
G37*
G36*
G01*
X144620000Y-114336500D02*
X143670000Y-114336500D01*
G75*
G02*
X143420000Y-114086500I0J250000D01*
G01*
X143420000Y-113411500D01*
G75*
G02*
X143670000Y-113161500I250000J0D01*
G01*
X144620000Y-113161500D01*
G75*
G02*
X144870000Y-113411500I0J-250000D01*
G01*
X144870000Y-114086500D01*
G75*
G02*
X144620000Y-114336500I-250000J0D01*
G01*
G37*
%TD*%
D16*
%TO.C,J8*%
X155956000Y-119253000D03*
X153416000Y-119253000D03*
X150876000Y-119253000D03*
X155956000Y-121793000D03*
X153416000Y-121793000D03*
G36*
G01*
X151476000Y-122643000D02*
X150276000Y-122643000D01*
G75*
G02*
X150026000Y-122393000I0J250000D01*
G01*
X150026000Y-121193000D01*
G75*
G02*
X150276000Y-120943000I250000J0D01*
G01*
X151476000Y-120943000D01*
G75*
G02*
X151726000Y-121193000I0J-250000D01*
G01*
X151726000Y-122393000D01*
G75*
G02*
X151476000Y-122643000I-250000J0D01*
G01*
G37*
%TD*%
D15*
%TO.C,J1*%
X156972000Y-78740000D03*
G36*
G01*
X157817001Y-82150000D02*
X156126999Y-82150000D01*
G75*
G02*
X155877000Y-81900001I0J249999D01*
G01*
X155877000Y-80659999D01*
G75*
G02*
X156126999Y-80410000I249999J0D01*
G01*
X157817001Y-80410000D01*
G75*
G02*
X158067000Y-80659999I0J-249999D01*
G01*
X158067000Y-81900001D01*
G75*
G02*
X157817001Y-82150000I-249999J0D01*
G01*
G37*
%TD*%
%TO.C,F1*%
G36*
G01*
X164398000Y-78936001D02*
X164398000Y-78035999D01*
G75*
G02*
X164647999Y-77786000I249999J0D01*
G01*
X165298001Y-77786000D01*
G75*
G02*
X165548000Y-78035999I0J-249999D01*
G01*
X165548000Y-78936001D01*
G75*
G02*
X165298001Y-79186000I-249999J0D01*
G01*
X164647999Y-79186000D01*
G75*
G02*
X164398000Y-78936001I0J249999D01*
G01*
G37*
G36*
G01*
X162348000Y-78936001D02*
X162348000Y-78035999D01*
G75*
G02*
X162597999Y-77786000I249999J0D01*
G01*
X163248001Y-77786000D01*
G75*
G02*
X163498000Y-78035999I0J-249999D01*
G01*
X163498000Y-78936001D01*
G75*
G02*
X163248001Y-79186000I-249999J0D01*
G01*
X162597999Y-79186000D01*
G75*
G02*
X162348000Y-78936001I0J249999D01*
G01*
G37*
%TD*%
D17*
%TO.C,U11*%
X137734000Y-77105000D03*
X137734000Y-77605000D03*
X137734000Y-78105000D03*
X137734000Y-78605000D03*
X137734000Y-79105000D03*
X133284000Y-79105000D03*
X133284000Y-78605000D03*
X133284000Y-78105000D03*
X133284000Y-77605000D03*
X133284000Y-77105000D03*
%TD*%
%TO.C,U10*%
X144968000Y-98155000D03*
X144968000Y-97655000D03*
X144968000Y-97155000D03*
X144968000Y-96655000D03*
X144968000Y-96155000D03*
X149418000Y-96155000D03*
X149418000Y-96655000D03*
X149418000Y-97155000D03*
X149418000Y-97655000D03*
X149418000Y-98155000D03*
%TD*%
D18*
%TO.C,U9*%
X110617000Y-75946000D03*
X110617000Y-73406000D03*
X110617000Y-70866000D03*
X110617000Y-68326000D03*
D19*
X110617000Y-65786000D03*
%TD*%
D17*
%TO.C,U8*%
X123129000Y-82566000D03*
X123129000Y-83066000D03*
X123129000Y-83566000D03*
X123129000Y-84066000D03*
X123129000Y-84566000D03*
X118679000Y-84566000D03*
X118679000Y-84066000D03*
X118679000Y-83566000D03*
X118679000Y-83066000D03*
X118679000Y-82566000D03*
%TD*%
%TO.C,U7*%
X108016000Y-82947000D03*
X108016000Y-83447000D03*
X108016000Y-83947000D03*
X108016000Y-84447000D03*
X108016000Y-84947000D03*
X103566000Y-84947000D03*
X103566000Y-84447000D03*
X103566000Y-83947000D03*
X103566000Y-83447000D03*
X103566000Y-82947000D03*
%TD*%
D20*
%TO.C,U6*%
X109841000Y-51054000D03*
D21*
X112141000Y-57904000D03*
D20*
X114441000Y-51054000D03*
%TD*%
D22*
%TO.C,U5*%
X120948000Y-98679000D03*
X120948000Y-99949000D03*
X120948000Y-101219000D03*
X120948000Y-102489000D03*
X115526000Y-102489000D03*
X115526000Y-101219000D03*
X115526000Y-99949000D03*
X115526000Y-98679000D03*
%TD*%
%TO.C,U4*%
G36*
G01*
X137825000Y-83707000D02*
X137825000Y-83507000D01*
G75*
G02*
X137925000Y-83407000I100000J0D01*
G01*
X139350000Y-83407000D01*
G75*
G02*
X139450000Y-83507000I0J-100000D01*
G01*
X139450000Y-83707000D01*
G75*
G02*
X139350000Y-83807000I-100000J0D01*
G01*
X137925000Y-83807000D01*
G75*
G02*
X137825000Y-83707000I0J100000D01*
G01*
G37*
G36*
G01*
X137825000Y-84357000D02*
X137825000Y-84157000D01*
G75*
G02*
X137925000Y-84057000I100000J0D01*
G01*
X139350000Y-84057000D01*
G75*
G02*
X139450000Y-84157000I0J-100000D01*
G01*
X139450000Y-84357000D01*
G75*
G02*
X139350000Y-84457000I-100000J0D01*
G01*
X137925000Y-84457000D01*
G75*
G02*
X137825000Y-84357000I0J100000D01*
G01*
G37*
G36*
G01*
X137825000Y-85007000D02*
X137825000Y-84807000D01*
G75*
G02*
X137925000Y-84707000I100000J0D01*
G01*
X139350000Y-84707000D01*
G75*
G02*
X139450000Y-84807000I0J-100000D01*
G01*
X139450000Y-85007000D01*
G75*
G02*
X139350000Y-85107000I-100000J0D01*
G01*
X137925000Y-85107000D01*
G75*
G02*
X137825000Y-85007000I0J100000D01*
G01*
G37*
G36*
G01*
X137825000Y-85657000D02*
X137825000Y-85457000D01*
G75*
G02*
X137925000Y-85357000I100000J0D01*
G01*
X139350000Y-85357000D01*
G75*
G02*
X139450000Y-85457000I0J-100000D01*
G01*
X139450000Y-85657000D01*
G75*
G02*
X139350000Y-85757000I-100000J0D01*
G01*
X137925000Y-85757000D01*
G75*
G02*
X137825000Y-85657000I0J100000D01*
G01*
G37*
G36*
G01*
X133600000Y-85657000D02*
X133600000Y-85457000D01*
G75*
G02*
X133700000Y-85357000I100000J0D01*
G01*
X135125000Y-85357000D01*
G75*
G02*
X135225000Y-85457000I0J-100000D01*
G01*
X135225000Y-85657000D01*
G75*
G02*
X135125000Y-85757000I-100000J0D01*
G01*
X133700000Y-85757000D01*
G75*
G02*
X133600000Y-85657000I0J100000D01*
G01*
G37*
G36*
G01*
X133600000Y-85007000D02*
X133600000Y-84807000D01*
G75*
G02*
X133700000Y-84707000I100000J0D01*
G01*
X135125000Y-84707000D01*
G75*
G02*
X135225000Y-84807000I0J-100000D01*
G01*
X135225000Y-85007000D01*
G75*
G02*
X135125000Y-85107000I-100000J0D01*
G01*
X133700000Y-85107000D01*
G75*
G02*
X133600000Y-85007000I0J100000D01*
G01*
G37*
G36*
G01*
X133600000Y-84357000D02*
X133600000Y-84157000D01*
G75*
G02*
X133700000Y-84057000I100000J0D01*
G01*
X135125000Y-84057000D01*
G75*
G02*
X135225000Y-84157000I0J-100000D01*
G01*
X135225000Y-84357000D01*
G75*
G02*
X135125000Y-84457000I-100000J0D01*
G01*
X133700000Y-84457000D01*
G75*
G02*
X133600000Y-84357000I0J100000D01*
G01*
G37*
G36*
G01*
X133600000Y-83707000D02*
X133600000Y-83507000D01*
G75*
G02*
X133700000Y-83407000I100000J0D01*
G01*
X135125000Y-83407000D01*
G75*
G02*
X135225000Y-83507000I0J-100000D01*
G01*
X135225000Y-83707000D01*
G75*
G02*
X135125000Y-83807000I-100000J0D01*
G01*
X133700000Y-83807000D01*
G75*
G02*
X133600000Y-83707000I0J100000D01*
G01*
G37*
%TD*%
%TO.C,U3*%
G36*
G01*
X148493000Y-83707000D02*
X148493000Y-83507000D01*
G75*
G02*
X148593000Y-83407000I100000J0D01*
G01*
X150018000Y-83407000D01*
G75*
G02*
X150118000Y-83507000I0J-100000D01*
G01*
X150118000Y-83707000D01*
G75*
G02*
X150018000Y-83807000I-100000J0D01*
G01*
X148593000Y-83807000D01*
G75*
G02*
X148493000Y-83707000I0J100000D01*
G01*
G37*
G36*
G01*
X148493000Y-84357000D02*
X148493000Y-84157000D01*
G75*
G02*
X148593000Y-84057000I100000J0D01*
G01*
X150018000Y-84057000D01*
G75*
G02*
X150118000Y-84157000I0J-100000D01*
G01*
X150118000Y-84357000D01*
G75*
G02*
X150018000Y-84457000I-100000J0D01*
G01*
X148593000Y-84457000D01*
G75*
G02*
X148493000Y-84357000I0J100000D01*
G01*
G37*
G36*
G01*
X148493000Y-85007000D02*
X148493000Y-84807000D01*
G75*
G02*
X148593000Y-84707000I100000J0D01*
G01*
X150018000Y-84707000D01*
G75*
G02*
X150118000Y-84807000I0J-100000D01*
G01*
X150118000Y-85007000D01*
G75*
G02*
X150018000Y-85107000I-100000J0D01*
G01*
X148593000Y-85107000D01*
G75*
G02*
X148493000Y-85007000I0J100000D01*
G01*
G37*
G36*
G01*
X148493000Y-85657000D02*
X148493000Y-85457000D01*
G75*
G02*
X148593000Y-85357000I100000J0D01*
G01*
X150018000Y-85357000D01*
G75*
G02*
X150118000Y-85457000I0J-100000D01*
G01*
X150118000Y-85657000D01*
G75*
G02*
X150018000Y-85757000I-100000J0D01*
G01*
X148593000Y-85757000D01*
G75*
G02*
X148493000Y-85657000I0J100000D01*
G01*
G37*
G36*
G01*
X144268000Y-85657000D02*
X144268000Y-85457000D01*
G75*
G02*
X144368000Y-85357000I100000J0D01*
G01*
X145793000Y-85357000D01*
G75*
G02*
X145893000Y-85457000I0J-100000D01*
G01*
X145893000Y-85657000D01*
G75*
G02*
X145793000Y-85757000I-100000J0D01*
G01*
X144368000Y-85757000D01*
G75*
G02*
X144268000Y-85657000I0J100000D01*
G01*
G37*
G36*
G01*
X144268000Y-85007000D02*
X144268000Y-84807000D01*
G75*
G02*
X144368000Y-84707000I100000J0D01*
G01*
X145793000Y-84707000D01*
G75*
G02*
X145893000Y-84807000I0J-100000D01*
G01*
X145893000Y-85007000D01*
G75*
G02*
X145793000Y-85107000I-100000J0D01*
G01*
X144368000Y-85107000D01*
G75*
G02*
X144268000Y-85007000I0J100000D01*
G01*
G37*
G36*
G01*
X144268000Y-84357000D02*
X144268000Y-84157000D01*
G75*
G02*
X144368000Y-84057000I100000J0D01*
G01*
X145793000Y-84057000D01*
G75*
G02*
X145893000Y-84157000I0J-100000D01*
G01*
X145893000Y-84357000D01*
G75*
G02*
X145793000Y-84457000I-100000J0D01*
G01*
X144368000Y-84457000D01*
G75*
G02*
X144268000Y-84357000I0J100000D01*
G01*
G37*
G36*
G01*
X144268000Y-83707000D02*
X144268000Y-83507000D01*
G75*
G02*
X144368000Y-83407000I100000J0D01*
G01*
X145793000Y-83407000D01*
G75*
G02*
X145893000Y-83507000I0J-100000D01*
G01*
X145893000Y-83707000D01*
G75*
G02*
X145793000Y-83807000I-100000J0D01*
G01*
X144368000Y-83807000D01*
G75*
G02*
X144268000Y-83707000I0J100000D01*
G01*
G37*
%TD*%
D17*
%TO.C,U2*%
X127955000Y-100473000D03*
X127955000Y-100973000D03*
X127955000Y-101473000D03*
X127955000Y-101973000D03*
X127955000Y-102473000D03*
X123505000Y-102473000D03*
X123505000Y-101973000D03*
X123505000Y-101473000D03*
X123505000Y-100973000D03*
X123505000Y-100473000D03*
%TD*%
D22*
%TO.C,U1*%
X167557000Y-83566000D03*
X167557000Y-84836000D03*
X167557000Y-86106000D03*
X167557000Y-87376000D03*
X162135000Y-87376000D03*
X162135000Y-86106000D03*
X162135000Y-84836000D03*
X162135000Y-83566000D03*
%TD*%
D23*
%TO.C,therm1*%
X133604000Y-107315000D03*
G36*
G01*
X137014000Y-106469999D02*
X137014000Y-108160001D01*
G75*
G02*
X136764001Y-108410000I-249999J0D01*
G01*
X135523999Y-108410000D01*
G75*
G02*
X135274000Y-108160001I0J249999D01*
G01*
X135274000Y-106469999D01*
G75*
G02*
X135523999Y-106220000I249999J0D01*
G01*
X136764001Y-106220000D01*
G75*
G02*
X137014000Y-106469999I0J-249999D01*
G01*
G37*
%TD*%
D24*
%TO.C,RL2*%
X168014000Y-125349000D03*
X168014000Y-110349000D03*
X168014000Y-105349000D03*
X168014000Y-100349000D03*
X175514000Y-100349000D03*
X175514000Y-105349000D03*
X175514000Y-110349000D03*
D25*
X175514000Y-125349000D03*
%TD*%
D24*
%TO.C,RL1*%
X155194000Y-54476000D03*
X170194000Y-54476000D03*
X175194000Y-54476000D03*
X180194000Y-54476000D03*
X180194000Y-61976000D03*
X175194000Y-61976000D03*
X170194000Y-61976000D03*
D25*
X155194000Y-61976000D03*
%TD*%
%TO.C,R_special1*%
G36*
G01*
X141840000Y-51111999D02*
X141840000Y-52012001D01*
G75*
G02*
X141590001Y-52262000I-249999J0D01*
G01*
X140889999Y-52262000D01*
G75*
G02*
X140640000Y-52012001I0J249999D01*
G01*
X140640000Y-51111999D01*
G75*
G02*
X140889999Y-50862000I249999J0D01*
G01*
X141590001Y-50862000D01*
G75*
G02*
X141840000Y-51111999I0J-249999D01*
G01*
G37*
G36*
G01*
X143840000Y-51111999D02*
X143840000Y-52012001D01*
G75*
G02*
X143590001Y-52262000I-249999J0D01*
G01*
X142889999Y-52262000D01*
G75*
G02*
X142640000Y-52012001I0J249999D01*
G01*
X142640000Y-51111999D01*
G75*
G02*
X142889999Y-50862000I249999J0D01*
G01*
X143590001Y-50862000D01*
G75*
G02*
X143840000Y-51111999I0J-249999D01*
G01*
G37*
%TD*%
%TO.C,R47*%
G36*
G01*
X129597999Y-79648000D02*
X130498001Y-79648000D01*
G75*
G02*
X130748000Y-79897999I0J-249999D01*
G01*
X130748000Y-80598001D01*
G75*
G02*
X130498001Y-80848000I-249999J0D01*
G01*
X129597999Y-80848000D01*
G75*
G02*
X129348000Y-80598001I0J249999D01*
G01*
X129348000Y-79897999D01*
G75*
G02*
X129597999Y-79648000I249999J0D01*
G01*
G37*
G36*
G01*
X129597999Y-77648000D02*
X130498001Y-77648000D01*
G75*
G02*
X130748000Y-77897999I0J-249999D01*
G01*
X130748000Y-78598001D01*
G75*
G02*
X130498001Y-78848000I-249999J0D01*
G01*
X129597999Y-78848000D01*
G75*
G02*
X129348000Y-78598001I0J249999D01*
G01*
X129348000Y-77897999D01*
G75*
G02*
X129597999Y-77648000I249999J0D01*
G01*
G37*
%TD*%
%TO.C,R46*%
G36*
G01*
X129597999Y-75584000D02*
X130498001Y-75584000D01*
G75*
G02*
X130748000Y-75833999I0J-249999D01*
G01*
X130748000Y-76534001D01*
G75*
G02*
X130498001Y-76784000I-249999J0D01*
G01*
X129597999Y-76784000D01*
G75*
G02*
X129348000Y-76534001I0J249999D01*
G01*
X129348000Y-75833999D01*
G75*
G02*
X129597999Y-75584000I249999J0D01*
G01*
G37*
G36*
G01*
X129597999Y-73584000D02*
X130498001Y-73584000D01*
G75*
G02*
X130748000Y-73833999I0J-249999D01*
G01*
X130748000Y-74534001D01*
G75*
G02*
X130498001Y-74784000I-249999J0D01*
G01*
X129597999Y-74784000D01*
G75*
G02*
X129348000Y-74534001I0J249999D01*
G01*
X129348000Y-73833999D01*
G75*
G02*
X129597999Y-73584000I249999J0D01*
G01*
G37*
%TD*%
%TO.C,R45*%
G36*
G01*
X119764000Y-88334001D02*
X119764000Y-87433999D01*
G75*
G02*
X120013999Y-87184000I249999J0D01*
G01*
X120714001Y-87184000D01*
G75*
G02*
X120964000Y-87433999I0J-249999D01*
G01*
X120964000Y-88334001D01*
G75*
G02*
X120714001Y-88584000I-249999J0D01*
G01*
X120013999Y-88584000D01*
G75*
G02*
X119764000Y-88334001I0J249999D01*
G01*
G37*
G36*
G01*
X117764000Y-88334001D02*
X117764000Y-87433999D01*
G75*
G02*
X118013999Y-87184000I249999J0D01*
G01*
X118714001Y-87184000D01*
G75*
G02*
X118964000Y-87433999I0J-249999D01*
G01*
X118964000Y-88334001D01*
G75*
G02*
X118714001Y-88584000I-249999J0D01*
G01*
X118013999Y-88584000D01*
G75*
G02*
X117764000Y-88334001I0J249999D01*
G01*
G37*
%TD*%
%TO.C,R44*%
G36*
G01*
X179381999Y-124860000D02*
X180282001Y-124860000D01*
G75*
G02*
X180532000Y-125109999I0J-249999D01*
G01*
X180532000Y-125810001D01*
G75*
G02*
X180282001Y-126060000I-249999J0D01*
G01*
X179381999Y-126060000D01*
G75*
G02*
X179132000Y-125810001I0J249999D01*
G01*
X179132000Y-125109999D01*
G75*
G02*
X179381999Y-124860000I249999J0D01*
G01*
G37*
G36*
G01*
X179381999Y-122860000D02*
X180282001Y-122860000D01*
G75*
G02*
X180532000Y-123109999I0J-249999D01*
G01*
X180532000Y-123810001D01*
G75*
G02*
X180282001Y-124060000I-249999J0D01*
G01*
X179381999Y-124060000D01*
G75*
G02*
X179132000Y-123810001I0J249999D01*
G01*
X179132000Y-123109999D01*
G75*
G02*
X179381999Y-122860000I249999J0D01*
G01*
G37*
%TD*%
%TO.C,R35*%
G36*
G01*
X154975000Y-68014001D02*
X154975000Y-67113999D01*
G75*
G02*
X155224999Y-66864000I249999J0D01*
G01*
X155925001Y-66864000D01*
G75*
G02*
X156175000Y-67113999I0J-249999D01*
G01*
X156175000Y-68014001D01*
G75*
G02*
X155925001Y-68264000I-249999J0D01*
G01*
X155224999Y-68264000D01*
G75*
G02*
X154975000Y-68014001I0J249999D01*
G01*
G37*
G36*
G01*
X152975000Y-68014001D02*
X152975000Y-67113999D01*
G75*
G02*
X153224999Y-66864000I249999J0D01*
G01*
X153925001Y-66864000D01*
G75*
G02*
X154175000Y-67113999I0J-249999D01*
G01*
X154175000Y-68014001D01*
G75*
G02*
X153925001Y-68264000I-249999J0D01*
G01*
X153224999Y-68264000D01*
G75*
G02*
X152975000Y-68014001I0J249999D01*
G01*
G37*
%TD*%
%TO.C,R30*%
G36*
G01*
X141547001Y-118710000D02*
X140646999Y-118710000D01*
G75*
G02*
X140397000Y-118460001I0J249999D01*
G01*
X140397000Y-117759999D01*
G75*
G02*
X140646999Y-117510000I249999J0D01*
G01*
X141547001Y-117510000D01*
G75*
G02*
X141797000Y-117759999I0J-249999D01*
G01*
X141797000Y-118460001D01*
G75*
G02*
X141547001Y-118710000I-249999J0D01*
G01*
G37*
G36*
G01*
X141547001Y-120710000D02*
X140646999Y-120710000D01*
G75*
G02*
X140397000Y-120460001I0J249999D01*
G01*
X140397000Y-119759999D01*
G75*
G02*
X140646999Y-119510000I249999J0D01*
G01*
X141547001Y-119510000D01*
G75*
G02*
X141797000Y-119759999I0J-249999D01*
G01*
X141797000Y-120460001D01*
G75*
G02*
X141547001Y-120710000I-249999J0D01*
G01*
G37*
%TD*%
%TO.C,R27*%
G36*
G01*
X160470001Y-86579000D02*
X159569999Y-86579000D01*
G75*
G02*
X159320000Y-86329001I0J249999D01*
G01*
X159320000Y-85628999D01*
G75*
G02*
X159569999Y-85379000I249999J0D01*
G01*
X160470001Y-85379000D01*
G75*
G02*
X160720000Y-85628999I0J-249999D01*
G01*
X160720000Y-86329001D01*
G75*
G02*
X160470001Y-86579000I-249999J0D01*
G01*
G37*
G36*
G01*
X160470001Y-88579000D02*
X159569999Y-88579000D01*
G75*
G02*
X159320000Y-88329001I0J249999D01*
G01*
X159320000Y-87628999D01*
G75*
G02*
X159569999Y-87379000I249999J0D01*
G01*
X160470001Y-87379000D01*
G75*
G02*
X160720000Y-87628999I0J-249999D01*
G01*
X160720000Y-88329001D01*
G75*
G02*
X160470001Y-88579000I-249999J0D01*
G01*
G37*
%TD*%
%TO.C,R26*%
G36*
G01*
X136582999Y-70123000D02*
X137483001Y-70123000D01*
G75*
G02*
X137733000Y-70372999I0J-249999D01*
G01*
X137733000Y-71073001D01*
G75*
G02*
X137483001Y-71323000I-249999J0D01*
G01*
X136582999Y-71323000D01*
G75*
G02*
X136333000Y-71073001I0J249999D01*
G01*
X136333000Y-70372999D01*
G75*
G02*
X136582999Y-70123000I249999J0D01*
G01*
G37*
G36*
G01*
X136582999Y-68123000D02*
X137483001Y-68123000D01*
G75*
G02*
X137733000Y-68372999I0J-249999D01*
G01*
X137733000Y-69073001D01*
G75*
G02*
X137483001Y-69323000I-249999J0D01*
G01*
X136582999Y-69323000D01*
G75*
G02*
X136333000Y-69073001I0J249999D01*
G01*
X136333000Y-68372999D01*
G75*
G02*
X136582999Y-68123000I249999J0D01*
G01*
G37*
%TD*%
%TO.C,R25*%
G36*
G01*
X144634000Y-61271999D02*
X144634000Y-62172001D01*
G75*
G02*
X144384001Y-62422000I-249999J0D01*
G01*
X143683999Y-62422000D01*
G75*
G02*
X143434000Y-62172001I0J249999D01*
G01*
X143434000Y-61271999D01*
G75*
G02*
X143683999Y-61022000I249999J0D01*
G01*
X144384001Y-61022000D01*
G75*
G02*
X144634000Y-61271999I0J-249999D01*
G01*
G37*
G36*
G01*
X146634000Y-61271999D02*
X146634000Y-62172001D01*
G75*
G02*
X146384001Y-62422000I-249999J0D01*
G01*
X145683999Y-62422000D01*
G75*
G02*
X145434000Y-62172001I0J249999D01*
G01*
X145434000Y-61271999D01*
G75*
G02*
X145683999Y-61022000I249999J0D01*
G01*
X146384001Y-61022000D01*
G75*
G02*
X146634000Y-61271999I0J-249999D01*
G01*
G37*
%TD*%
%TO.C,R24*%
G36*
G01*
X136582999Y-65186000D02*
X137483001Y-65186000D01*
G75*
G02*
X137733000Y-65435999I0J-249999D01*
G01*
X137733000Y-66136001D01*
G75*
G02*
X137483001Y-66386000I-249999J0D01*
G01*
X136582999Y-66386000D01*
G75*
G02*
X136333000Y-66136001I0J249999D01*
G01*
X136333000Y-65435999D01*
G75*
G02*
X136582999Y-65186000I249999J0D01*
G01*
G37*
G36*
G01*
X136582999Y-63186000D02*
X137483001Y-63186000D01*
G75*
G02*
X137733000Y-63435999I0J-249999D01*
G01*
X137733000Y-64136001D01*
G75*
G02*
X137483001Y-64386000I-249999J0D01*
G01*
X136582999Y-64386000D01*
G75*
G02*
X136333000Y-64136001I0J249999D01*
G01*
X136333000Y-63435999D01*
G75*
G02*
X136582999Y-63186000I249999J0D01*
G01*
G37*
%TD*%
%TO.C,R23*%
G36*
G01*
X130994999Y-65297000D02*
X131895001Y-65297000D01*
G75*
G02*
X132145000Y-65546999I0J-249999D01*
G01*
X132145000Y-66247001D01*
G75*
G02*
X131895001Y-66497000I-249999J0D01*
G01*
X130994999Y-66497000D01*
G75*
G02*
X130745000Y-66247001I0J249999D01*
G01*
X130745000Y-65546999D01*
G75*
G02*
X130994999Y-65297000I249999J0D01*
G01*
G37*
G36*
G01*
X130994999Y-63297000D02*
X131895001Y-63297000D01*
G75*
G02*
X132145000Y-63546999I0J-249999D01*
G01*
X132145000Y-64247001D01*
G75*
G02*
X131895001Y-64497000I-249999J0D01*
G01*
X130994999Y-64497000D01*
G75*
G02*
X130745000Y-64247001I0J249999D01*
G01*
X130745000Y-63546999D01*
G75*
G02*
X130994999Y-63297000I249999J0D01*
G01*
G37*
%TD*%
%TO.C,R22*%
G36*
G01*
X134816001Y-64497000D02*
X133915999Y-64497000D01*
G75*
G02*
X133666000Y-64247001I0J249999D01*
G01*
X133666000Y-63546999D01*
G75*
G02*
X133915999Y-63297000I249999J0D01*
G01*
X134816001Y-63297000D01*
G75*
G02*
X135066000Y-63546999I0J-249999D01*
G01*
X135066000Y-64247001D01*
G75*
G02*
X134816001Y-64497000I-249999J0D01*
G01*
G37*
G36*
G01*
X134816001Y-66497000D02*
X133915999Y-66497000D01*
G75*
G02*
X133666000Y-66247001I0J249999D01*
G01*
X133666000Y-65546999D01*
G75*
G02*
X133915999Y-65297000I249999J0D01*
G01*
X134816001Y-65297000D01*
G75*
G02*
X135066000Y-65546999I0J-249999D01*
G01*
X135066000Y-66247001D01*
G75*
G02*
X134816001Y-66497000I-249999J0D01*
G01*
G37*
%TD*%
%TO.C,R21*%
G36*
G01*
X131895001Y-69339000D02*
X130994999Y-69339000D01*
G75*
G02*
X130745000Y-69089001I0J249999D01*
G01*
X130745000Y-68388999D01*
G75*
G02*
X130994999Y-68139000I249999J0D01*
G01*
X131895001Y-68139000D01*
G75*
G02*
X132145000Y-68388999I0J-249999D01*
G01*
X132145000Y-69089001D01*
G75*
G02*
X131895001Y-69339000I-249999J0D01*
G01*
G37*
G36*
G01*
X131895001Y-71339000D02*
X130994999Y-71339000D01*
G75*
G02*
X130745000Y-71089001I0J249999D01*
G01*
X130745000Y-70388999D01*
G75*
G02*
X130994999Y-70139000I249999J0D01*
G01*
X131895001Y-70139000D01*
G75*
G02*
X132145000Y-70388999I0J-249999D01*
G01*
X132145000Y-71089001D01*
G75*
G02*
X131895001Y-71339000I-249999J0D01*
G01*
G37*
%TD*%
%TO.C,R20*%
G36*
G01*
X140046000Y-67113999D02*
X140046000Y-68014001D01*
G75*
G02*
X139796001Y-68264000I-249999J0D01*
G01*
X139095999Y-68264000D01*
G75*
G02*
X138846000Y-68014001I0J249999D01*
G01*
X138846000Y-67113999D01*
G75*
G02*
X139095999Y-66864000I249999J0D01*
G01*
X139796001Y-66864000D01*
G75*
G02*
X140046000Y-67113999I0J-249999D01*
G01*
G37*
G36*
G01*
X142046000Y-67113999D02*
X142046000Y-68014001D01*
G75*
G02*
X141796001Y-68264000I-249999J0D01*
G01*
X141095999Y-68264000D01*
G75*
G02*
X140846000Y-68014001I0J249999D01*
G01*
X140846000Y-67113999D01*
G75*
G02*
X141095999Y-66864000I249999J0D01*
G01*
X141796001Y-66864000D01*
G75*
G02*
X142046000Y-67113999I0J-249999D01*
G01*
G37*
%TD*%
%TO.C,R19*%
G36*
G01*
X125749000Y-61156001D02*
X125749000Y-60255999D01*
G75*
G02*
X125998999Y-60006000I249999J0D01*
G01*
X126699001Y-60006000D01*
G75*
G02*
X126949000Y-60255999I0J-249999D01*
G01*
X126949000Y-61156001D01*
G75*
G02*
X126699001Y-61406000I-249999J0D01*
G01*
X125998999Y-61406000D01*
G75*
G02*
X125749000Y-61156001I0J249999D01*
G01*
G37*
G36*
G01*
X123749000Y-61156001D02*
X123749000Y-60255999D01*
G75*
G02*
X123998999Y-60006000I249999J0D01*
G01*
X124699001Y-60006000D01*
G75*
G02*
X124949000Y-60255999I0J-249999D01*
G01*
X124949000Y-61156001D01*
G75*
G02*
X124699001Y-61406000I-249999J0D01*
G01*
X123998999Y-61406000D01*
G75*
G02*
X123749000Y-61156001I0J249999D01*
G01*
G37*
%TD*%
%TO.C,R18*%
G36*
G01*
X125672001Y-64497000D02*
X124771999Y-64497000D01*
G75*
G02*
X124522000Y-64247001I0J249999D01*
G01*
X124522000Y-63546999D01*
G75*
G02*
X124771999Y-63297000I249999J0D01*
G01*
X125672001Y-63297000D01*
G75*
G02*
X125922000Y-63546999I0J-249999D01*
G01*
X125922000Y-64247001D01*
G75*
G02*
X125672001Y-64497000I-249999J0D01*
G01*
G37*
G36*
G01*
X125672001Y-66497000D02*
X124771999Y-66497000D01*
G75*
G02*
X124522000Y-66247001I0J249999D01*
G01*
X124522000Y-65546999D01*
G75*
G02*
X124771999Y-65297000I249999J0D01*
G01*
X125672001Y-65297000D01*
G75*
G02*
X125922000Y-65546999I0J-249999D01*
G01*
X125922000Y-66247001D01*
G75*
G02*
X125672001Y-66497000I-249999J0D01*
G01*
G37*
%TD*%
%TO.C,R17*%
G36*
G01*
X113734001Y-101819000D02*
X112833999Y-101819000D01*
G75*
G02*
X112584000Y-101569001I0J249999D01*
G01*
X112584000Y-100868999D01*
G75*
G02*
X112833999Y-100619000I249999J0D01*
G01*
X113734001Y-100619000D01*
G75*
G02*
X113984000Y-100868999I0J-249999D01*
G01*
X113984000Y-101569001D01*
G75*
G02*
X113734001Y-101819000I-249999J0D01*
G01*
G37*
G36*
G01*
X113734001Y-103819000D02*
X112833999Y-103819000D01*
G75*
G02*
X112584000Y-103569001I0J249999D01*
G01*
X112584000Y-102868999D01*
G75*
G02*
X112833999Y-102619000I249999J0D01*
G01*
X113734001Y-102619000D01*
G75*
G02*
X113984000Y-102868999I0J-249999D01*
G01*
X113984000Y-103569001D01*
G75*
G02*
X113734001Y-103819000I-249999J0D01*
G01*
G37*
%TD*%
%TO.C,R15*%
G36*
G01*
X139388001Y-118710000D02*
X138487999Y-118710000D01*
G75*
G02*
X138238000Y-118460001I0J249999D01*
G01*
X138238000Y-117759999D01*
G75*
G02*
X138487999Y-117510000I249999J0D01*
G01*
X139388001Y-117510000D01*
G75*
G02*
X139638000Y-117759999I0J-249999D01*
G01*
X139638000Y-118460001D01*
G75*
G02*
X139388001Y-118710000I-249999J0D01*
G01*
G37*
G36*
G01*
X139388001Y-120710000D02*
X138487999Y-120710000D01*
G75*
G02*
X138238000Y-120460001I0J249999D01*
G01*
X138238000Y-119759999D01*
G75*
G02*
X138487999Y-119510000I249999J0D01*
G01*
X139388001Y-119510000D01*
G75*
G02*
X139638000Y-119759999I0J-249999D01*
G01*
X139638000Y-120460001D01*
G75*
G02*
X139388001Y-120710000I-249999J0D01*
G01*
G37*
%TD*%
%TO.C,R14*%
G36*
G01*
X140608000Y-62045001D02*
X140608000Y-61144999D01*
G75*
G02*
X140857999Y-60895000I249999J0D01*
G01*
X141558001Y-60895000D01*
G75*
G02*
X141808000Y-61144999I0J-249999D01*
G01*
X141808000Y-62045001D01*
G75*
G02*
X141558001Y-62295000I-249999J0D01*
G01*
X140857999Y-62295000D01*
G75*
G02*
X140608000Y-62045001I0J249999D01*
G01*
G37*
G36*
G01*
X138608000Y-62045001D02*
X138608000Y-61144999D01*
G75*
G02*
X138857999Y-60895000I249999J0D01*
G01*
X139558001Y-60895000D01*
G75*
G02*
X139808000Y-61144999I0J-249999D01*
G01*
X139808000Y-62045001D01*
G75*
G02*
X139558001Y-62295000I-249999J0D01*
G01*
X138857999Y-62295000D01*
G75*
G02*
X138608000Y-62045001I0J249999D01*
G01*
G37*
%TD*%
%TO.C,R13*%
G36*
G01*
X129067000Y-54806001D02*
X129067000Y-53905999D01*
G75*
G02*
X129316999Y-53656000I249999J0D01*
G01*
X130017001Y-53656000D01*
G75*
G02*
X130267000Y-53905999I0J-249999D01*
G01*
X130267000Y-54806001D01*
G75*
G02*
X130017001Y-55056000I-249999J0D01*
G01*
X129316999Y-55056000D01*
G75*
G02*
X129067000Y-54806001I0J249999D01*
G01*
G37*
G36*
G01*
X127067000Y-54806001D02*
X127067000Y-53905999D01*
G75*
G02*
X127316999Y-53656000I249999J0D01*
G01*
X128017001Y-53656000D01*
G75*
G02*
X128267000Y-53905999I0J-249999D01*
G01*
X128267000Y-54806001D01*
G75*
G02*
X128017001Y-55056000I-249999J0D01*
G01*
X127316999Y-55056000D01*
G75*
G02*
X127067000Y-54806001I0J249999D01*
G01*
G37*
%TD*%
%TO.C,R12*%
G36*
G01*
X133153999Y-70869000D02*
X134054001Y-70869000D01*
G75*
G02*
X134304000Y-71118999I0J-249999D01*
G01*
X134304000Y-71819001D01*
G75*
G02*
X134054001Y-72069000I-249999J0D01*
G01*
X133153999Y-72069000D01*
G75*
G02*
X132904000Y-71819001I0J249999D01*
G01*
X132904000Y-71118999D01*
G75*
G02*
X133153999Y-70869000I249999J0D01*
G01*
G37*
G36*
G01*
X133153999Y-68869000D02*
X134054001Y-68869000D01*
G75*
G02*
X134304000Y-69118999I0J-249999D01*
G01*
X134304000Y-69819001D01*
G75*
G02*
X134054001Y-70069000I-249999J0D01*
G01*
X133153999Y-70069000D01*
G75*
G02*
X132904000Y-69819001I0J249999D01*
G01*
X132904000Y-69118999D01*
G75*
G02*
X133153999Y-68869000I249999J0D01*
G01*
G37*
%TD*%
%TO.C,R11*%
G36*
G01*
X129228001Y-64497000D02*
X128327999Y-64497000D01*
G75*
G02*
X128078000Y-64247001I0J249999D01*
G01*
X128078000Y-63546999D01*
G75*
G02*
X128327999Y-63297000I249999J0D01*
G01*
X129228001Y-63297000D01*
G75*
G02*
X129478000Y-63546999I0J-249999D01*
G01*
X129478000Y-64247001D01*
G75*
G02*
X129228001Y-64497000I-249999J0D01*
G01*
G37*
G36*
G01*
X129228001Y-66497000D02*
X128327999Y-66497000D01*
G75*
G02*
X128078000Y-66247001I0J249999D01*
G01*
X128078000Y-65546999D01*
G75*
G02*
X128327999Y-65297000I249999J0D01*
G01*
X129228001Y-65297000D01*
G75*
G02*
X129478000Y-65546999I0J-249999D01*
G01*
X129478000Y-66247001D01*
G75*
G02*
X129228001Y-66497000I-249999J0D01*
G01*
G37*
%TD*%
%TO.C,R10*%
G36*
G01*
X140751000Y-65474001D02*
X140751000Y-64573999D01*
G75*
G02*
X141000999Y-64324000I249999J0D01*
G01*
X141701001Y-64324000D01*
G75*
G02*
X141951000Y-64573999I0J-249999D01*
G01*
X141951000Y-65474001D01*
G75*
G02*
X141701001Y-65724000I-249999J0D01*
G01*
X141000999Y-65724000D01*
G75*
G02*
X140751000Y-65474001I0J249999D01*
G01*
G37*
G36*
G01*
X138751000Y-65474001D02*
X138751000Y-64573999D01*
G75*
G02*
X139000999Y-64324000I249999J0D01*
G01*
X139701001Y-64324000D01*
G75*
G02*
X139951000Y-64573999I0J-249999D01*
G01*
X139951000Y-65474001D01*
G75*
G02*
X139701001Y-65724000I-249999J0D01*
G01*
X139000999Y-65724000D01*
G75*
G02*
X138751000Y-65474001I0J249999D01*
G01*
G37*
%TD*%
%TO.C,R9*%
G36*
G01*
X144761000Y-64700999D02*
X144761000Y-65601001D01*
G75*
G02*
X144511001Y-65851000I-249999J0D01*
G01*
X143810999Y-65851000D01*
G75*
G02*
X143561000Y-65601001I0J249999D01*
G01*
X143561000Y-64700999D01*
G75*
G02*
X143810999Y-64451000I249999J0D01*
G01*
X144511001Y-64451000D01*
G75*
G02*
X144761000Y-64700999I0J-249999D01*
G01*
G37*
G36*
G01*
X146761000Y-64700999D02*
X146761000Y-65601001D01*
G75*
G02*
X146511001Y-65851000I-249999J0D01*
G01*
X145810999Y-65851000D01*
G75*
G02*
X145561000Y-65601001I0J249999D01*
G01*
X145561000Y-64700999D01*
G75*
G02*
X145810999Y-64451000I249999J0D01*
G01*
X146511001Y-64451000D01*
G75*
G02*
X146761000Y-64700999I0J-249999D01*
G01*
G37*
%TD*%
D26*
%TO.C,R8*%
X153162000Y-95631000D03*
D27*
X178562000Y-95631000D03*
%TD*%
%TO.C,R7*%
G36*
G01*
X169399000Y-77527999D02*
X169399000Y-78428001D01*
G75*
G02*
X169149001Y-78678000I-249999J0D01*
G01*
X168448999Y-78678000D01*
G75*
G02*
X168199000Y-78428001I0J249999D01*
G01*
X168199000Y-77527999D01*
G75*
G02*
X168448999Y-77278000I249999J0D01*
G01*
X169149001Y-77278000D01*
G75*
G02*
X169399000Y-77527999I0J-249999D01*
G01*
G37*
G36*
G01*
X171399000Y-77527999D02*
X171399000Y-78428001D01*
G75*
G02*
X171149001Y-78678000I-249999J0D01*
G01*
X170448999Y-78678000D01*
G75*
G02*
X170199000Y-78428001I0J249999D01*
G01*
X170199000Y-77527999D01*
G75*
G02*
X170448999Y-77278000I249999J0D01*
G01*
X171149001Y-77278000D01*
G75*
G02*
X171399000Y-77527999I0J-249999D01*
G01*
G37*
%TD*%
%TO.C,R6*%
G36*
G01*
X141027999Y-82839000D02*
X141928001Y-82839000D01*
G75*
G02*
X142178000Y-83088999I0J-249999D01*
G01*
X142178000Y-83789001D01*
G75*
G02*
X141928001Y-84039000I-249999J0D01*
G01*
X141027999Y-84039000D01*
G75*
G02*
X140778000Y-83789001I0J249999D01*
G01*
X140778000Y-83088999D01*
G75*
G02*
X141027999Y-82839000I249999J0D01*
G01*
G37*
G36*
G01*
X141027999Y-80839000D02*
X141928001Y-80839000D01*
G75*
G02*
X142178000Y-81088999I0J-249999D01*
G01*
X142178000Y-81789001D01*
G75*
G02*
X141928001Y-82039000I-249999J0D01*
G01*
X141027999Y-82039000D01*
G75*
G02*
X140778000Y-81789001I0J249999D01*
G01*
X140778000Y-81088999D01*
G75*
G02*
X141027999Y-80839000I249999J0D01*
G01*
G37*
%TD*%
%TO.C,R4*%
G36*
G01*
X114992999Y-81299000D02*
X115893001Y-81299000D01*
G75*
G02*
X116143000Y-81548999I0J-249999D01*
G01*
X116143000Y-82249001D01*
G75*
G02*
X115893001Y-82499000I-249999J0D01*
G01*
X114992999Y-82499000D01*
G75*
G02*
X114743000Y-82249001I0J249999D01*
G01*
X114743000Y-81548999D01*
G75*
G02*
X114992999Y-81299000I249999J0D01*
G01*
G37*
G36*
G01*
X114992999Y-79299000D02*
X115893001Y-79299000D01*
G75*
G02*
X116143000Y-79548999I0J-249999D01*
G01*
X116143000Y-80249001D01*
G75*
G02*
X115893001Y-80499000I-249999J0D01*
G01*
X114992999Y-80499000D01*
G75*
G02*
X114743000Y-80249001I0J249999D01*
G01*
X114743000Y-79548999D01*
G75*
G02*
X114992999Y-79299000I249999J0D01*
G01*
G37*
%TD*%
%TO.C,R3*%
G36*
G01*
X114265000Y-83750999D02*
X114265000Y-84651001D01*
G75*
G02*
X114015001Y-84901000I-249999J0D01*
G01*
X113314999Y-84901000D01*
G75*
G02*
X113065000Y-84651001I0J249999D01*
G01*
X113065000Y-83750999D01*
G75*
G02*
X113314999Y-83501000I249999J0D01*
G01*
X114015001Y-83501000D01*
G75*
G02*
X114265000Y-83750999I0J-249999D01*
G01*
G37*
G36*
G01*
X116265000Y-83750999D02*
X116265000Y-84651001D01*
G75*
G02*
X116015001Y-84901000I-249999J0D01*
G01*
X115314999Y-84901000D01*
G75*
G02*
X115065000Y-84651001I0J249999D01*
G01*
X115065000Y-83750999D01*
G75*
G02*
X115314999Y-83501000I249999J0D01*
G01*
X116015001Y-83501000D01*
G75*
G02*
X116265000Y-83750999I0J-249999D01*
G01*
G37*
%TD*%
%TO.C,R2*%
G36*
G01*
X120145000Y-79952001D02*
X120145000Y-79051999D01*
G75*
G02*
X120394999Y-78802000I249999J0D01*
G01*
X121095001Y-78802000D01*
G75*
G02*
X121345000Y-79051999I0J-249999D01*
G01*
X121345000Y-79952001D01*
G75*
G02*
X121095001Y-80202000I-249999J0D01*
G01*
X120394999Y-80202000D01*
G75*
G02*
X120145000Y-79952001I0J249999D01*
G01*
G37*
G36*
G01*
X118145000Y-79952001D02*
X118145000Y-79051999D01*
G75*
G02*
X118394999Y-78802000I249999J0D01*
G01*
X119095001Y-78802000D01*
G75*
G02*
X119345000Y-79051999I0J-249999D01*
G01*
X119345000Y-79952001D01*
G75*
G02*
X119095001Y-80202000I-249999J0D01*
G01*
X118394999Y-80202000D01*
G75*
G02*
X118145000Y-79952001I0J249999D01*
G01*
G37*
%TD*%
D26*
%TO.C,R1*%
X179324000Y-71501000D03*
D27*
X153924000Y-71501000D03*
%TD*%
D28*
%TO.C,Q3*%
X174371000Y-85931000D03*
X174371000Y-84431000D03*
X174371000Y-82931000D03*
%TD*%
%TO.C,Q2*%
X174371000Y-78692000D03*
X174371000Y-77192000D03*
X174371000Y-75692000D03*
%TD*%
D29*
%TO.C,MAIN1*%
X144354000Y-106127000D03*
G36*
G01*
X141491500Y-108752000D02*
X140541500Y-108752000D01*
G75*
G02*
X140479000Y-108689500I0J62500D01*
G01*
X140479000Y-108564500D01*
G75*
G02*
X140541500Y-108502000I62500J0D01*
G01*
X141491500Y-108502000D01*
G75*
G02*
X141554000Y-108564500I0J-62500D01*
G01*
X141554000Y-108689500D01*
G75*
G02*
X141491500Y-108752000I-62500J0D01*
G01*
G37*
G36*
G01*
X141491500Y-108252000D02*
X140541500Y-108252000D01*
G75*
G02*
X140479000Y-108189500I0J62500D01*
G01*
X140479000Y-108064500D01*
G75*
G02*
X140541500Y-108002000I62500J0D01*
G01*
X141491500Y-108002000D01*
G75*
G02*
X141554000Y-108064500I0J-62500D01*
G01*
X141554000Y-108189500D01*
G75*
G02*
X141491500Y-108252000I-62500J0D01*
G01*
G37*
G36*
G01*
X141491500Y-107752000D02*
X140541500Y-107752000D01*
G75*
G02*
X140479000Y-107689500I0J62500D01*
G01*
X140479000Y-107564500D01*
G75*
G02*
X140541500Y-107502000I62500J0D01*
G01*
X141491500Y-107502000D01*
G75*
G02*
X141554000Y-107564500I0J-62500D01*
G01*
X141554000Y-107689500D01*
G75*
G02*
X141491500Y-107752000I-62500J0D01*
G01*
G37*
G36*
G01*
X141491500Y-107252000D02*
X140541500Y-107252000D01*
G75*
G02*
X140479000Y-107189500I0J62500D01*
G01*
X140479000Y-107064500D01*
G75*
G02*
X140541500Y-107002000I62500J0D01*
G01*
X141491500Y-107002000D01*
G75*
G02*
X141554000Y-107064500I0J-62500D01*
G01*
X141554000Y-107189500D01*
G75*
G02*
X141491500Y-107252000I-62500J0D01*
G01*
G37*
G36*
G01*
X141491500Y-106752000D02*
X140541500Y-106752000D01*
G75*
G02*
X140479000Y-106689500I0J62500D01*
G01*
X140479000Y-106564500D01*
G75*
G02*
X140541500Y-106502000I62500J0D01*
G01*
X141491500Y-106502000D01*
G75*
G02*
X141554000Y-106564500I0J-62500D01*
G01*
X141554000Y-106689500D01*
G75*
G02*
X141491500Y-106752000I-62500J0D01*
G01*
G37*
G36*
G01*
X141491500Y-106252000D02*
X140541500Y-106252000D01*
G75*
G02*
X140479000Y-106189500I0J62500D01*
G01*
X140479000Y-106064500D01*
G75*
G02*
X140541500Y-106002000I62500J0D01*
G01*
X141491500Y-106002000D01*
G75*
G02*
X141554000Y-106064500I0J-62500D01*
G01*
X141554000Y-106189500D01*
G75*
G02*
X141491500Y-106252000I-62500J0D01*
G01*
G37*
G36*
G01*
X141491500Y-105752000D02*
X140541500Y-105752000D01*
G75*
G02*
X140479000Y-105689500I0J62500D01*
G01*
X140479000Y-105564500D01*
G75*
G02*
X140541500Y-105502000I62500J0D01*
G01*
X141491500Y-105502000D01*
G75*
G02*
X141554000Y-105564500I0J-62500D01*
G01*
X141554000Y-105689500D01*
G75*
G02*
X141491500Y-105752000I-62500J0D01*
G01*
G37*
G36*
G01*
X141491500Y-105252000D02*
X140541500Y-105252000D01*
G75*
G02*
X140479000Y-105189500I0J62500D01*
G01*
X140479000Y-105064500D01*
G75*
G02*
X140541500Y-105002000I62500J0D01*
G01*
X141491500Y-105002000D01*
G75*
G02*
X141554000Y-105064500I0J-62500D01*
G01*
X141554000Y-105189500D01*
G75*
G02*
X141491500Y-105252000I-62500J0D01*
G01*
G37*
G36*
G01*
X141491500Y-104752000D02*
X140541500Y-104752000D01*
G75*
G02*
X140479000Y-104689500I0J62500D01*
G01*
X140479000Y-104564500D01*
G75*
G02*
X140541500Y-104502000I62500J0D01*
G01*
X141491500Y-104502000D01*
G75*
G02*
X141554000Y-104564500I0J-62500D01*
G01*
X141554000Y-104689500D01*
G75*
G02*
X141491500Y-104752000I-62500J0D01*
G01*
G37*
G36*
G01*
X141491500Y-104252000D02*
X140541500Y-104252000D01*
G75*
G02*
X140479000Y-104189500I0J62500D01*
G01*
X140479000Y-104064500D01*
G75*
G02*
X140541500Y-104002000I62500J0D01*
G01*
X141491500Y-104002000D01*
G75*
G02*
X141554000Y-104064500I0J-62500D01*
G01*
X141554000Y-104189500D01*
G75*
G02*
X141491500Y-104252000I-62500J0D01*
G01*
G37*
G36*
G01*
X141491500Y-103752000D02*
X140541500Y-103752000D01*
G75*
G02*
X140479000Y-103689500I0J62500D01*
G01*
X140479000Y-103564500D01*
G75*
G02*
X140541500Y-103502000I62500J0D01*
G01*
X141491500Y-103502000D01*
G75*
G02*
X141554000Y-103564500I0J-62500D01*
G01*
X141554000Y-103689500D01*
G75*
G02*
X141491500Y-103752000I-62500J0D01*
G01*
G37*
G36*
G01*
X141916500Y-103327000D02*
X141791500Y-103327000D01*
G75*
G02*
X141729000Y-103264500I0J62500D01*
G01*
X141729000Y-102314500D01*
G75*
G02*
X141791500Y-102252000I62500J0D01*
G01*
X141916500Y-102252000D01*
G75*
G02*
X141979000Y-102314500I0J-62500D01*
G01*
X141979000Y-103264500D01*
G75*
G02*
X141916500Y-103327000I-62500J0D01*
G01*
G37*
G36*
G01*
X142416500Y-103327000D02*
X142291500Y-103327000D01*
G75*
G02*
X142229000Y-103264500I0J62500D01*
G01*
X142229000Y-102314500D01*
G75*
G02*
X142291500Y-102252000I62500J0D01*
G01*
X142416500Y-102252000D01*
G75*
G02*
X142479000Y-102314500I0J-62500D01*
G01*
X142479000Y-103264500D01*
G75*
G02*
X142416500Y-103327000I-62500J0D01*
G01*
G37*
G36*
G01*
X142916500Y-103327000D02*
X142791500Y-103327000D01*
G75*
G02*
X142729000Y-103264500I0J62500D01*
G01*
X142729000Y-102314500D01*
G75*
G02*
X142791500Y-102252000I62500J0D01*
G01*
X142916500Y-102252000D01*
G75*
G02*
X142979000Y-102314500I0J-62500D01*
G01*
X142979000Y-103264500D01*
G75*
G02*
X142916500Y-103327000I-62500J0D01*
G01*
G37*
G36*
G01*
X143416500Y-103327000D02*
X143291500Y-103327000D01*
G75*
G02*
X143229000Y-103264500I0J62500D01*
G01*
X143229000Y-102314500D01*
G75*
G02*
X143291500Y-102252000I62500J0D01*
G01*
X143416500Y-102252000D01*
G75*
G02*
X143479000Y-102314500I0J-62500D01*
G01*
X143479000Y-103264500D01*
G75*
G02*
X143416500Y-103327000I-62500J0D01*
G01*
G37*
G36*
G01*
X143916500Y-103327000D02*
X143791500Y-103327000D01*
G75*
G02*
X143729000Y-103264500I0J62500D01*
G01*
X143729000Y-102314500D01*
G75*
G02*
X143791500Y-102252000I62500J0D01*
G01*
X143916500Y-102252000D01*
G75*
G02*
X143979000Y-102314500I0J-62500D01*
G01*
X143979000Y-103264500D01*
G75*
G02*
X143916500Y-103327000I-62500J0D01*
G01*
G37*
G36*
G01*
X144416500Y-103327000D02*
X144291500Y-103327000D01*
G75*
G02*
X144229000Y-103264500I0J62500D01*
G01*
X144229000Y-102314500D01*
G75*
G02*
X144291500Y-102252000I62500J0D01*
G01*
X144416500Y-102252000D01*
G75*
G02*
X144479000Y-102314500I0J-62500D01*
G01*
X144479000Y-103264500D01*
G75*
G02*
X144416500Y-103327000I-62500J0D01*
G01*
G37*
G36*
G01*
X144916500Y-103327000D02*
X144791500Y-103327000D01*
G75*
G02*
X144729000Y-103264500I0J62500D01*
G01*
X144729000Y-102314500D01*
G75*
G02*
X144791500Y-102252000I62500J0D01*
G01*
X144916500Y-102252000D01*
G75*
G02*
X144979000Y-102314500I0J-62500D01*
G01*
X144979000Y-103264500D01*
G75*
G02*
X144916500Y-103327000I-62500J0D01*
G01*
G37*
G36*
G01*
X145416500Y-103327000D02*
X145291500Y-103327000D01*
G75*
G02*
X145229000Y-103264500I0J62500D01*
G01*
X145229000Y-102314500D01*
G75*
G02*
X145291500Y-102252000I62500J0D01*
G01*
X145416500Y-102252000D01*
G75*
G02*
X145479000Y-102314500I0J-62500D01*
G01*
X145479000Y-103264500D01*
G75*
G02*
X145416500Y-103327000I-62500J0D01*
G01*
G37*
G36*
G01*
X145916500Y-103327000D02*
X145791500Y-103327000D01*
G75*
G02*
X145729000Y-103264500I0J62500D01*
G01*
X145729000Y-102314500D01*
G75*
G02*
X145791500Y-102252000I62500J0D01*
G01*
X145916500Y-102252000D01*
G75*
G02*
X145979000Y-102314500I0J-62500D01*
G01*
X145979000Y-103264500D01*
G75*
G02*
X145916500Y-103327000I-62500J0D01*
G01*
G37*
G36*
G01*
X146416500Y-103327000D02*
X146291500Y-103327000D01*
G75*
G02*
X146229000Y-103264500I0J62500D01*
G01*
X146229000Y-102314500D01*
G75*
G02*
X146291500Y-102252000I62500J0D01*
G01*
X146416500Y-102252000D01*
G75*
G02*
X146479000Y-102314500I0J-62500D01*
G01*
X146479000Y-103264500D01*
G75*
G02*
X146416500Y-103327000I-62500J0D01*
G01*
G37*
G36*
G01*
X146916500Y-103327000D02*
X146791500Y-103327000D01*
G75*
G02*
X146729000Y-103264500I0J62500D01*
G01*
X146729000Y-102314500D01*
G75*
G02*
X146791500Y-102252000I62500J0D01*
G01*
X146916500Y-102252000D01*
G75*
G02*
X146979000Y-102314500I0J-62500D01*
G01*
X146979000Y-103264500D01*
G75*
G02*
X146916500Y-103327000I-62500J0D01*
G01*
G37*
G36*
G01*
X148166500Y-103752000D02*
X147216500Y-103752000D01*
G75*
G02*
X147154000Y-103689500I0J62500D01*
G01*
X147154000Y-103564500D01*
G75*
G02*
X147216500Y-103502000I62500J0D01*
G01*
X148166500Y-103502000D01*
G75*
G02*
X148229000Y-103564500I0J-62500D01*
G01*
X148229000Y-103689500D01*
G75*
G02*
X148166500Y-103752000I-62500J0D01*
G01*
G37*
G36*
G01*
X148166500Y-104252000D02*
X147216500Y-104252000D01*
G75*
G02*
X147154000Y-104189500I0J62500D01*
G01*
X147154000Y-104064500D01*
G75*
G02*
X147216500Y-104002000I62500J0D01*
G01*
X148166500Y-104002000D01*
G75*
G02*
X148229000Y-104064500I0J-62500D01*
G01*
X148229000Y-104189500D01*
G75*
G02*
X148166500Y-104252000I-62500J0D01*
G01*
G37*
G36*
G01*
X148166500Y-104752000D02*
X147216500Y-104752000D01*
G75*
G02*
X147154000Y-104689500I0J62500D01*
G01*
X147154000Y-104564500D01*
G75*
G02*
X147216500Y-104502000I62500J0D01*
G01*
X148166500Y-104502000D01*
G75*
G02*
X148229000Y-104564500I0J-62500D01*
G01*
X148229000Y-104689500D01*
G75*
G02*
X148166500Y-104752000I-62500J0D01*
G01*
G37*
G36*
G01*
X148166500Y-105252000D02*
X147216500Y-105252000D01*
G75*
G02*
X147154000Y-105189500I0J62500D01*
G01*
X147154000Y-105064500D01*
G75*
G02*
X147216500Y-105002000I62500J0D01*
G01*
X148166500Y-105002000D01*
G75*
G02*
X148229000Y-105064500I0J-62500D01*
G01*
X148229000Y-105189500D01*
G75*
G02*
X148166500Y-105252000I-62500J0D01*
G01*
G37*
G36*
G01*
X148166500Y-105752000D02*
X147216500Y-105752000D01*
G75*
G02*
X147154000Y-105689500I0J62500D01*
G01*
X147154000Y-105564500D01*
G75*
G02*
X147216500Y-105502000I62500J0D01*
G01*
X148166500Y-105502000D01*
G75*
G02*
X148229000Y-105564500I0J-62500D01*
G01*
X148229000Y-105689500D01*
G75*
G02*
X148166500Y-105752000I-62500J0D01*
G01*
G37*
G36*
G01*
X148166500Y-106252000D02*
X147216500Y-106252000D01*
G75*
G02*
X147154000Y-106189500I0J62500D01*
G01*
X147154000Y-106064500D01*
G75*
G02*
X147216500Y-106002000I62500J0D01*
G01*
X148166500Y-106002000D01*
G75*
G02*
X148229000Y-106064500I0J-62500D01*
G01*
X148229000Y-106189500D01*
G75*
G02*
X148166500Y-106252000I-62500J0D01*
G01*
G37*
G36*
G01*
X148166500Y-106752000D02*
X147216500Y-106752000D01*
G75*
G02*
X147154000Y-106689500I0J62500D01*
G01*
X147154000Y-106564500D01*
G75*
G02*
X147216500Y-106502000I62500J0D01*
G01*
X148166500Y-106502000D01*
G75*
G02*
X148229000Y-106564500I0J-62500D01*
G01*
X148229000Y-106689500D01*
G75*
G02*
X148166500Y-106752000I-62500J0D01*
G01*
G37*
G36*
G01*
X148166500Y-107252000D02*
X147216500Y-107252000D01*
G75*
G02*
X147154000Y-107189500I0J62500D01*
G01*
X147154000Y-107064500D01*
G75*
G02*
X147216500Y-107002000I62500J0D01*
G01*
X148166500Y-107002000D01*
G75*
G02*
X148229000Y-107064500I0J-62500D01*
G01*
X148229000Y-107189500D01*
G75*
G02*
X148166500Y-107252000I-62500J0D01*
G01*
G37*
G36*
G01*
X148166500Y-107752000D02*
X147216500Y-107752000D01*
G75*
G02*
X147154000Y-107689500I0J62500D01*
G01*
X147154000Y-107564500D01*
G75*
G02*
X147216500Y-107502000I62500J0D01*
G01*
X148166500Y-107502000D01*
G75*
G02*
X148229000Y-107564500I0J-62500D01*
G01*
X148229000Y-107689500D01*
G75*
G02*
X148166500Y-107752000I-62500J0D01*
G01*
G37*
G36*
G01*
X148166500Y-108252000D02*
X147216500Y-108252000D01*
G75*
G02*
X147154000Y-108189500I0J62500D01*
G01*
X147154000Y-108064500D01*
G75*
G02*
X147216500Y-108002000I62500J0D01*
G01*
X148166500Y-108002000D01*
G75*
G02*
X148229000Y-108064500I0J-62500D01*
G01*
X148229000Y-108189500D01*
G75*
G02*
X148166500Y-108252000I-62500J0D01*
G01*
G37*
G36*
G01*
X148166500Y-108752000D02*
X147216500Y-108752000D01*
G75*
G02*
X147154000Y-108689500I0J62500D01*
G01*
X147154000Y-108564500D01*
G75*
G02*
X147216500Y-108502000I62500J0D01*
G01*
X148166500Y-108502000D01*
G75*
G02*
X148229000Y-108564500I0J-62500D01*
G01*
X148229000Y-108689500D01*
G75*
G02*
X148166500Y-108752000I-62500J0D01*
G01*
G37*
G36*
G01*
X146916500Y-110002000D02*
X146791500Y-110002000D01*
G75*
G02*
X146729000Y-109939500I0J62500D01*
G01*
X146729000Y-108989500D01*
G75*
G02*
X146791500Y-108927000I62500J0D01*
G01*
X146916500Y-108927000D01*
G75*
G02*
X146979000Y-108989500I0J-62500D01*
G01*
X146979000Y-109939500D01*
G75*
G02*
X146916500Y-110002000I-62500J0D01*
G01*
G37*
G36*
G01*
X146416500Y-110002000D02*
X146291500Y-110002000D01*
G75*
G02*
X146229000Y-109939500I0J62500D01*
G01*
X146229000Y-108989500D01*
G75*
G02*
X146291500Y-108927000I62500J0D01*
G01*
X146416500Y-108927000D01*
G75*
G02*
X146479000Y-108989500I0J-62500D01*
G01*
X146479000Y-109939500D01*
G75*
G02*
X146416500Y-110002000I-62500J0D01*
G01*
G37*
G36*
G01*
X145916500Y-110002000D02*
X145791500Y-110002000D01*
G75*
G02*
X145729000Y-109939500I0J62500D01*
G01*
X145729000Y-108989500D01*
G75*
G02*
X145791500Y-108927000I62500J0D01*
G01*
X145916500Y-108927000D01*
G75*
G02*
X145979000Y-108989500I0J-62500D01*
G01*
X145979000Y-109939500D01*
G75*
G02*
X145916500Y-110002000I-62500J0D01*
G01*
G37*
G36*
G01*
X145416500Y-110002000D02*
X145291500Y-110002000D01*
G75*
G02*
X145229000Y-109939500I0J62500D01*
G01*
X145229000Y-108989500D01*
G75*
G02*
X145291500Y-108927000I62500J0D01*
G01*
X145416500Y-108927000D01*
G75*
G02*
X145479000Y-108989500I0J-62500D01*
G01*
X145479000Y-109939500D01*
G75*
G02*
X145416500Y-110002000I-62500J0D01*
G01*
G37*
G36*
G01*
X144916500Y-110002000D02*
X144791500Y-110002000D01*
G75*
G02*
X144729000Y-109939500I0J62500D01*
G01*
X144729000Y-108989500D01*
G75*
G02*
X144791500Y-108927000I62500J0D01*
G01*
X144916500Y-108927000D01*
G75*
G02*
X144979000Y-108989500I0J-62500D01*
G01*
X144979000Y-109939500D01*
G75*
G02*
X144916500Y-110002000I-62500J0D01*
G01*
G37*
G36*
G01*
X144416500Y-110002000D02*
X144291500Y-110002000D01*
G75*
G02*
X144229000Y-109939500I0J62500D01*
G01*
X144229000Y-108989500D01*
G75*
G02*
X144291500Y-108927000I62500J0D01*
G01*
X144416500Y-108927000D01*
G75*
G02*
X144479000Y-108989500I0J-62500D01*
G01*
X144479000Y-109939500D01*
G75*
G02*
X144416500Y-110002000I-62500J0D01*
G01*
G37*
G36*
G01*
X143916500Y-110002000D02*
X143791500Y-110002000D01*
G75*
G02*
X143729000Y-109939500I0J62500D01*
G01*
X143729000Y-108989500D01*
G75*
G02*
X143791500Y-108927000I62500J0D01*
G01*
X143916500Y-108927000D01*
G75*
G02*
X143979000Y-108989500I0J-62500D01*
G01*
X143979000Y-109939500D01*
G75*
G02*
X143916500Y-110002000I-62500J0D01*
G01*
G37*
G36*
G01*
X143416500Y-110002000D02*
X143291500Y-110002000D01*
G75*
G02*
X143229000Y-109939500I0J62500D01*
G01*
X143229000Y-108989500D01*
G75*
G02*
X143291500Y-108927000I62500J0D01*
G01*
X143416500Y-108927000D01*
G75*
G02*
X143479000Y-108989500I0J-62500D01*
G01*
X143479000Y-109939500D01*
G75*
G02*
X143416500Y-110002000I-62500J0D01*
G01*
G37*
G36*
G01*
X142916500Y-110002000D02*
X142791500Y-110002000D01*
G75*
G02*
X142729000Y-109939500I0J62500D01*
G01*
X142729000Y-108989500D01*
G75*
G02*
X142791500Y-108927000I62500J0D01*
G01*
X142916500Y-108927000D01*
G75*
G02*
X142979000Y-108989500I0J-62500D01*
G01*
X142979000Y-109939500D01*
G75*
G02*
X142916500Y-110002000I-62500J0D01*
G01*
G37*
G36*
G01*
X142416500Y-110002000D02*
X142291500Y-110002000D01*
G75*
G02*
X142229000Y-109939500I0J62500D01*
G01*
X142229000Y-108989500D01*
G75*
G02*
X142291500Y-108927000I62500J0D01*
G01*
X142416500Y-108927000D01*
G75*
G02*
X142479000Y-108989500I0J-62500D01*
G01*
X142479000Y-109939500D01*
G75*
G02*
X142416500Y-110002000I-62500J0D01*
G01*
G37*
G36*
G01*
X141916500Y-110002000D02*
X141791500Y-110002000D01*
G75*
G02*
X141729000Y-109939500I0J62500D01*
G01*
X141729000Y-108989500D01*
G75*
G02*
X141791500Y-108927000I62500J0D01*
G01*
X141916500Y-108927000D01*
G75*
G02*
X141979000Y-108989500I0J-62500D01*
G01*
X141979000Y-109939500D01*
G75*
G02*
X141916500Y-110002000I-62500J0D01*
G01*
G37*
%TD*%
%TO.C,L1*%
G36*
G01*
X125238000Y-46666000D02*
X125238000Y-50616000D01*
G75*
G02*
X124988000Y-50866000I-250000J0D01*
G01*
X122288000Y-50866000D01*
G75*
G02*
X122038000Y-50616000I0J250000D01*
G01*
X122038000Y-46666000D01*
G75*
G02*
X122288000Y-46416000I250000J0D01*
G01*
X124988000Y-46416000D01*
G75*
G02*
X125238000Y-46666000I0J-250000D01*
G01*
G37*
G36*
G01*
X130438000Y-46666000D02*
X130438000Y-50616000D01*
G75*
G02*
X130188000Y-50866000I-250000J0D01*
G01*
X127488000Y-50866000D01*
G75*
G02*
X127238000Y-50616000I0J250000D01*
G01*
X127238000Y-46666000D01*
G75*
G02*
X127488000Y-46416000I250000J0D01*
G01*
X130188000Y-46416000D01*
G75*
G02*
X130438000Y-46666000I0J-250000D01*
G01*
G37*
%TD*%
D23*
%TO.C,J7*%
X145415000Y-71628000D03*
G36*
G01*
X148825000Y-70782999D02*
X148825000Y-72473001D01*
G75*
G02*
X148575001Y-72723000I-249999J0D01*
G01*
X147334999Y-72723000D01*
G75*
G02*
X147085000Y-72473001I0J249999D01*
G01*
X147085000Y-70782999D01*
G75*
G02*
X147334999Y-70533000I249999J0D01*
G01*
X148575001Y-70533000D01*
G75*
G02*
X148825000Y-70782999I0J-249999D01*
G01*
G37*
%TD*%
D15*
%TO.C,J6*%
X103251000Y-61214000D03*
G36*
G01*
X104096001Y-64624000D02*
X102405999Y-64624000D01*
G75*
G02*
X102156000Y-64374001I0J249999D01*
G01*
X102156000Y-63133999D01*
G75*
G02*
X102405999Y-62884000I249999J0D01*
G01*
X104096001Y-62884000D01*
G75*
G02*
X104346000Y-63133999I0J-249999D01*
G01*
X104346000Y-64374001D01*
G75*
G02*
X104096001Y-64624000I-249999J0D01*
G01*
G37*
%TD*%
D23*
%TO.C,J5*%
X126873000Y-107061000D03*
G36*
G01*
X123463000Y-107906001D02*
X123463000Y-106215999D01*
G75*
G02*
X123712999Y-105966000I249999J0D01*
G01*
X124953001Y-105966000D01*
G75*
G02*
X125203000Y-106215999I0J-249999D01*
G01*
X125203000Y-107906001D01*
G75*
G02*
X124953001Y-108156000I-249999J0D01*
G01*
X123712999Y-108156000D01*
G75*
G02*
X123463000Y-107906001I0J249999D01*
G01*
G37*
%TD*%
D30*
%TO.C,J3*%
X137054000Y-125062500D03*
X142854000Y-125062500D03*
D31*
X143454000Y-125062500D03*
X136454000Y-125062500D03*
D32*
X138954000Y-125062500D03*
D33*
X142454000Y-122362500D03*
D34*
X139954000Y-122362500D03*
X140604000Y-122362500D03*
X141254000Y-122362500D03*
X138654000Y-122362500D03*
X139304000Y-122362500D03*
D33*
X137454000Y-122362500D03*
D32*
X140954000Y-125062500D03*
%TD*%
D15*
%TO.C,J2*%
X154813000Y-110998000D03*
G36*
G01*
X153967999Y-107588000D02*
X155658001Y-107588000D01*
G75*
G02*
X155908000Y-107837999I0J-249999D01*
G01*
X155908000Y-109078001D01*
G75*
G02*
X155658001Y-109328000I-249999J0D01*
G01*
X153967999Y-109328000D01*
G75*
G02*
X153718000Y-109078001I0J249999D01*
G01*
X153718000Y-107837999D01*
G75*
G02*
X153967999Y-107588000I249999J0D01*
G01*
G37*
%TD*%
D35*
%TO.C,IC1*%
X135750000Y-60439000D03*
X135350000Y-60439000D03*
X134950000Y-60439000D03*
X134550000Y-60439000D03*
X134150000Y-60439000D03*
X133750000Y-60439000D03*
X133350000Y-60439000D03*
X135750000Y-60039000D03*
X135350000Y-60039000D03*
X134950000Y-60039000D03*
X134550000Y-60039000D03*
X134150000Y-60039000D03*
X133750000Y-60039000D03*
X133350000Y-60039000D03*
X135750000Y-59639000D03*
X135350000Y-59639000D03*
X134950000Y-59639000D03*
X134550000Y-59639000D03*
X134150000Y-59639000D03*
X133750000Y-59639000D03*
X133350000Y-59639000D03*
X135750000Y-59239000D03*
X135350000Y-59239000D03*
X134950000Y-59239000D03*
X134550000Y-59239000D03*
X134150000Y-59239000D03*
X133750000Y-59239000D03*
X133350000Y-59239000D03*
X135750000Y-58839000D03*
X135350000Y-58839000D03*
X134950000Y-58839000D03*
X134550000Y-58839000D03*
X134150000Y-58839000D03*
X133750000Y-58839000D03*
X133350000Y-58839000D03*
X135750000Y-58439000D03*
X135350000Y-58439000D03*
X134950000Y-58439000D03*
X134550000Y-58439000D03*
X134150000Y-58439000D03*
X133750000Y-58439000D03*
X133350000Y-58439000D03*
X135750000Y-58039000D03*
X135350000Y-58039000D03*
X134950000Y-58039000D03*
X134550000Y-58039000D03*
X134150000Y-58039000D03*
X133750000Y-58039000D03*
X133350000Y-58039000D03*
X135750000Y-57639000D03*
X135350000Y-57639000D03*
X134950000Y-57639000D03*
X134550000Y-57639000D03*
X134150000Y-57639000D03*
X133750000Y-57639000D03*
X133350000Y-57639000D03*
%TD*%
%TO.C,D1*%
G36*
G01*
X129335000Y-60255999D02*
X129335000Y-61156001D01*
G75*
G02*
X129085001Y-61406000I-249999J0D01*
G01*
X128434999Y-61406000D01*
G75*
G02*
X128185000Y-61156001I0J249999D01*
G01*
X128185000Y-60255999D01*
G75*
G02*
X128434999Y-60006000I249999J0D01*
G01*
X129085001Y-60006000D01*
G75*
G02*
X129335000Y-60255999I0J-249999D01*
G01*
G37*
G36*
G01*
X131385000Y-60255999D02*
X131385000Y-61156001D01*
G75*
G02*
X131135001Y-61406000I-249999J0D01*
G01*
X130484999Y-61406000D01*
G75*
G02*
X130235000Y-61156001I0J249999D01*
G01*
X130235000Y-60255999D01*
G75*
G02*
X130484999Y-60006000I249999J0D01*
G01*
X131135001Y-60006000D01*
G75*
G02*
X131385000Y-60255999I0J-249999D01*
G01*
G37*
%TD*%
%TO.C,C28*%
G36*
G01*
X143223000Y-98737000D02*
X142273000Y-98737000D01*
G75*
G02*
X142023000Y-98487000I0J250000D01*
G01*
X142023000Y-97812000D01*
G75*
G02*
X142273000Y-97562000I250000J0D01*
G01*
X143223000Y-97562000D01*
G75*
G02*
X143473000Y-97812000I0J-250000D01*
G01*
X143473000Y-98487000D01*
G75*
G02*
X143223000Y-98737000I-250000J0D01*
G01*
G37*
G36*
G01*
X143223000Y-100812000D02*
X142273000Y-100812000D01*
G75*
G02*
X142023000Y-100562000I0J250000D01*
G01*
X142023000Y-99887000D01*
G75*
G02*
X142273000Y-99637000I250000J0D01*
G01*
X143223000Y-99637000D01*
G75*
G02*
X143473000Y-99887000I0J-250000D01*
G01*
X143473000Y-100562000D01*
G75*
G02*
X143223000Y-100812000I-250000J0D01*
G01*
G37*
%TD*%
%TO.C,C27*%
G36*
G01*
X179230000Y-109902500D02*
X180180000Y-109902500D01*
G75*
G02*
X180430000Y-110152500I0J-250000D01*
G01*
X180430000Y-110827500D01*
G75*
G02*
X180180000Y-111077500I-250000J0D01*
G01*
X179230000Y-111077500D01*
G75*
G02*
X178980000Y-110827500I0J250000D01*
G01*
X178980000Y-110152500D01*
G75*
G02*
X179230000Y-109902500I250000J0D01*
G01*
G37*
G36*
G01*
X179230000Y-107827500D02*
X180180000Y-107827500D01*
G75*
G02*
X180430000Y-108077500I0J-250000D01*
G01*
X180430000Y-108752500D01*
G75*
G02*
X180180000Y-109002500I-250000J0D01*
G01*
X179230000Y-109002500D01*
G75*
G02*
X178980000Y-108752500I0J250000D01*
G01*
X178980000Y-108077500D01*
G75*
G02*
X179230000Y-107827500I250000J0D01*
G01*
G37*
%TD*%
%TO.C,C26*%
G36*
G01*
X141953000Y-86164000D02*
X141003000Y-86164000D01*
G75*
G02*
X140753000Y-85914000I0J250000D01*
G01*
X140753000Y-85239000D01*
G75*
G02*
X141003000Y-84989000I250000J0D01*
G01*
X141953000Y-84989000D01*
G75*
G02*
X142203000Y-85239000I0J-250000D01*
G01*
X142203000Y-85914000D01*
G75*
G02*
X141953000Y-86164000I-250000J0D01*
G01*
G37*
G36*
G01*
X141953000Y-88239000D02*
X141003000Y-88239000D01*
G75*
G02*
X140753000Y-87989000I0J250000D01*
G01*
X140753000Y-87314000D01*
G75*
G02*
X141003000Y-87064000I250000J0D01*
G01*
X141953000Y-87064000D01*
G75*
G02*
X142203000Y-87314000I0J-250000D01*
G01*
X142203000Y-87989000D01*
G75*
G02*
X141953000Y-88239000I-250000J0D01*
G01*
G37*
%TD*%
%TO.C,C25*%
G36*
G01*
X151986000Y-86185500D02*
X151036000Y-86185500D01*
G75*
G02*
X150786000Y-85935500I0J250000D01*
G01*
X150786000Y-85260500D01*
G75*
G02*
X151036000Y-85010500I250000J0D01*
G01*
X151986000Y-85010500D01*
G75*
G02*
X152236000Y-85260500I0J-250000D01*
G01*
X152236000Y-85935500D01*
G75*
G02*
X151986000Y-86185500I-250000J0D01*
G01*
G37*
G36*
G01*
X151986000Y-88260500D02*
X151036000Y-88260500D01*
G75*
G02*
X150786000Y-88010500I0J250000D01*
G01*
X150786000Y-87335500D01*
G75*
G02*
X151036000Y-87085500I250000J0D01*
G01*
X151986000Y-87085500D01*
G75*
G02*
X152236000Y-87335500I0J-250000D01*
G01*
X152236000Y-88010500D01*
G75*
G02*
X151986000Y-88260500I-250000J0D01*
G01*
G37*
%TD*%
%TO.C,C24*%
G36*
G01*
X169465500Y-67912000D02*
X169465500Y-66962000D01*
G75*
G02*
X169715500Y-66712000I250000J0D01*
G01*
X170390500Y-66712000D01*
G75*
G02*
X170640500Y-66962000I0J-250000D01*
G01*
X170640500Y-67912000D01*
G75*
G02*
X170390500Y-68162000I-250000J0D01*
G01*
X169715500Y-68162000D01*
G75*
G02*
X169465500Y-67912000I0J250000D01*
G01*
G37*
G36*
G01*
X167390500Y-67912000D02*
X167390500Y-66962000D01*
G75*
G02*
X167640500Y-66712000I250000J0D01*
G01*
X168315500Y-66712000D01*
G75*
G02*
X168565500Y-66962000I0J-250000D01*
G01*
X168565500Y-67912000D01*
G75*
G02*
X168315500Y-68162000I-250000J0D01*
G01*
X167640500Y-68162000D01*
G75*
G02*
X167390500Y-67912000I0J250000D01*
G01*
G37*
%TD*%
%TO.C,C23*%
G36*
G01*
X139352000Y-76501500D02*
X140302000Y-76501500D01*
G75*
G02*
X140552000Y-76751500I0J-250000D01*
G01*
X140552000Y-77426500D01*
G75*
G02*
X140302000Y-77676500I-250000J0D01*
G01*
X139352000Y-77676500D01*
G75*
G02*
X139102000Y-77426500I0J250000D01*
G01*
X139102000Y-76751500D01*
G75*
G02*
X139352000Y-76501500I250000J0D01*
G01*
G37*
G36*
G01*
X139352000Y-74426500D02*
X140302000Y-74426500D01*
G75*
G02*
X140552000Y-74676500I0J-250000D01*
G01*
X140552000Y-75351500D01*
G75*
G02*
X140302000Y-75601500I-250000J0D01*
G01*
X139352000Y-75601500D01*
G75*
G02*
X139102000Y-75351500I0J250000D01*
G01*
X139102000Y-74676500D01*
G75*
G02*
X139352000Y-74426500I250000J0D01*
G01*
G37*
%TD*%
%TO.C,C22*%
G36*
G01*
X124874000Y-81984000D02*
X125824000Y-81984000D01*
G75*
G02*
X126074000Y-82234000I0J-250000D01*
G01*
X126074000Y-82909000D01*
G75*
G02*
X125824000Y-83159000I-250000J0D01*
G01*
X124874000Y-83159000D01*
G75*
G02*
X124624000Y-82909000I0J250000D01*
G01*
X124624000Y-82234000D01*
G75*
G02*
X124874000Y-81984000I250000J0D01*
G01*
G37*
G36*
G01*
X124874000Y-79909000D02*
X125824000Y-79909000D01*
G75*
G02*
X126074000Y-80159000I0J-250000D01*
G01*
X126074000Y-80834000D01*
G75*
G02*
X125824000Y-81084000I-250000J0D01*
G01*
X124874000Y-81084000D01*
G75*
G02*
X124624000Y-80834000I0J250000D01*
G01*
X124624000Y-80159000D01*
G75*
G02*
X124874000Y-79909000I250000J0D01*
G01*
G37*
%TD*%
%TO.C,C21*%
G36*
G01*
X129700000Y-99891000D02*
X130650000Y-99891000D01*
G75*
G02*
X130900000Y-100141000I0J-250000D01*
G01*
X130900000Y-100816000D01*
G75*
G02*
X130650000Y-101066000I-250000J0D01*
G01*
X129700000Y-101066000D01*
G75*
G02*
X129450000Y-100816000I0J250000D01*
G01*
X129450000Y-100141000D01*
G75*
G02*
X129700000Y-99891000I250000J0D01*
G01*
G37*
G36*
G01*
X129700000Y-97816000D02*
X130650000Y-97816000D01*
G75*
G02*
X130900000Y-98066000I0J-250000D01*
G01*
X130900000Y-98741000D01*
G75*
G02*
X130650000Y-98991000I-250000J0D01*
G01*
X129700000Y-98991000D01*
G75*
G02*
X129450000Y-98741000I0J250000D01*
G01*
X129450000Y-98066000D01*
G75*
G02*
X129700000Y-97816000I250000J0D01*
G01*
G37*
%TD*%
%TO.C,C20*%
G36*
G01*
X109761000Y-82343500D02*
X110711000Y-82343500D01*
G75*
G02*
X110961000Y-82593500I0J-250000D01*
G01*
X110961000Y-83268500D01*
G75*
G02*
X110711000Y-83518500I-250000J0D01*
G01*
X109761000Y-83518500D01*
G75*
G02*
X109511000Y-83268500I0J250000D01*
G01*
X109511000Y-82593500D01*
G75*
G02*
X109761000Y-82343500I250000J0D01*
G01*
G37*
G36*
G01*
X109761000Y-80268500D02*
X110711000Y-80268500D01*
G75*
G02*
X110961000Y-80518500I0J-250000D01*
G01*
X110961000Y-81193500D01*
G75*
G02*
X110711000Y-81443500I-250000J0D01*
G01*
X109761000Y-81443500D01*
G75*
G02*
X109511000Y-81193500I0J250000D01*
G01*
X109511000Y-80518500D01*
G75*
G02*
X109761000Y-80268500I250000J0D01*
G01*
G37*
%TD*%
%TO.C,C19*%
G36*
G01*
X122842000Y-97986000D02*
X123792000Y-97986000D01*
G75*
G02*
X124042000Y-98236000I0J-250000D01*
G01*
X124042000Y-98911000D01*
G75*
G02*
X123792000Y-99161000I-250000J0D01*
G01*
X122842000Y-99161000D01*
G75*
G02*
X122592000Y-98911000I0J250000D01*
G01*
X122592000Y-98236000D01*
G75*
G02*
X122842000Y-97986000I250000J0D01*
G01*
G37*
G36*
G01*
X122842000Y-95911000D02*
X123792000Y-95911000D01*
G75*
G02*
X124042000Y-96161000I0J-250000D01*
G01*
X124042000Y-96836000D01*
G75*
G02*
X123792000Y-97086000I-250000J0D01*
G01*
X122842000Y-97086000D01*
G75*
G02*
X122592000Y-96836000I0J250000D01*
G01*
X122592000Y-96161000D01*
G75*
G02*
X122842000Y-95911000I250000J0D01*
G01*
G37*
%TD*%
%TO.C,C18*%
G36*
G01*
X113215000Y-45753000D02*
X113215000Y-46703000D01*
G75*
G02*
X112965000Y-46953000I-250000J0D01*
G01*
X112290000Y-46953000D01*
G75*
G02*
X112040000Y-46703000I0J250000D01*
G01*
X112040000Y-45753000D01*
G75*
G02*
X112290000Y-45503000I250000J0D01*
G01*
X112965000Y-45503000D01*
G75*
G02*
X113215000Y-45753000I0J-250000D01*
G01*
G37*
G36*
G01*
X115290000Y-45753000D02*
X115290000Y-46703000D01*
G75*
G02*
X115040000Y-46953000I-250000J0D01*
G01*
X114365000Y-46953000D01*
G75*
G02*
X114115000Y-46703000I0J250000D01*
G01*
X114115000Y-45753000D01*
G75*
G02*
X114365000Y-45503000I250000J0D01*
G01*
X115040000Y-45503000D01*
G75*
G02*
X115290000Y-45753000I0J-250000D01*
G01*
G37*
%TD*%
%TO.C,C17*%
G36*
G01*
X110051000Y-46703000D02*
X110051000Y-45753000D01*
G75*
G02*
X110301000Y-45503000I250000J0D01*
G01*
X110976000Y-45503000D01*
G75*
G02*
X111226000Y-45753000I0J-250000D01*
G01*
X111226000Y-46703000D01*
G75*
G02*
X110976000Y-46953000I-250000J0D01*
G01*
X110301000Y-46953000D01*
G75*
G02*
X110051000Y-46703000I0J250000D01*
G01*
G37*
G36*
G01*
X107976000Y-46703000D02*
X107976000Y-45753000D01*
G75*
G02*
X108226000Y-45503000I250000J0D01*
G01*
X108901000Y-45503000D01*
G75*
G02*
X109151000Y-45753000I0J-250000D01*
G01*
X109151000Y-46703000D01*
G75*
G02*
X108901000Y-46953000I-250000J0D01*
G01*
X108226000Y-46953000D01*
G75*
G02*
X107976000Y-46703000I0J250000D01*
G01*
G37*
%TD*%
%TO.C,C16*%
G36*
G01*
X147018500Y-100236000D02*
X147018500Y-101186000D01*
G75*
G02*
X146768500Y-101436000I-250000J0D01*
G01*
X146093500Y-101436000D01*
G75*
G02*
X145843500Y-101186000I0J250000D01*
G01*
X145843500Y-100236000D01*
G75*
G02*
X146093500Y-99986000I250000J0D01*
G01*
X146768500Y-99986000D01*
G75*
G02*
X147018500Y-100236000I0J-250000D01*
G01*
G37*
G36*
G01*
X149093500Y-100236000D02*
X149093500Y-101186000D01*
G75*
G02*
X148843500Y-101436000I-250000J0D01*
G01*
X148168500Y-101436000D01*
G75*
G02*
X147918500Y-101186000I0J250000D01*
G01*
X147918500Y-100236000D01*
G75*
G02*
X148168500Y-99986000I250000J0D01*
G01*
X148843500Y-99986000D01*
G75*
G02*
X149093500Y-100236000I0J-250000D01*
G01*
G37*
%TD*%
%TO.C,C14*%
G36*
G01*
X143543000Y-119554500D02*
X144493000Y-119554500D01*
G75*
G02*
X144743000Y-119804500I0J-250000D01*
G01*
X144743000Y-120479500D01*
G75*
G02*
X144493000Y-120729500I-250000J0D01*
G01*
X143543000Y-120729500D01*
G75*
G02*
X143293000Y-120479500I0J250000D01*
G01*
X143293000Y-119804500D01*
G75*
G02*
X143543000Y-119554500I250000J0D01*
G01*
G37*
G36*
G01*
X143543000Y-117479500D02*
X144493000Y-117479500D01*
G75*
G02*
X144743000Y-117729500I0J-250000D01*
G01*
X144743000Y-118404500D01*
G75*
G02*
X144493000Y-118654500I-250000J0D01*
G01*
X143543000Y-118654500D01*
G75*
G02*
X143293000Y-118404500I0J250000D01*
G01*
X143293000Y-117729500D01*
G75*
G02*
X143543000Y-117479500I250000J0D01*
G01*
G37*
%TD*%
%TO.C,C13*%
G36*
G01*
X137127000Y-118676000D02*
X136177000Y-118676000D01*
G75*
G02*
X135927000Y-118426000I0J250000D01*
G01*
X135927000Y-117751000D01*
G75*
G02*
X136177000Y-117501000I250000J0D01*
G01*
X137127000Y-117501000D01*
G75*
G02*
X137377000Y-117751000I0J-250000D01*
G01*
X137377000Y-118426000D01*
G75*
G02*
X137127000Y-118676000I-250000J0D01*
G01*
G37*
G36*
G01*
X137127000Y-120751000D02*
X136177000Y-120751000D01*
G75*
G02*
X135927000Y-120501000I0J250000D01*
G01*
X135927000Y-119826000D01*
G75*
G02*
X136177000Y-119576000I250000J0D01*
G01*
X137127000Y-119576000D01*
G75*
G02*
X137377000Y-119826000I0J-250000D01*
G01*
X137377000Y-120501000D01*
G75*
G02*
X137127000Y-120751000I-250000J0D01*
G01*
G37*
%TD*%
%TO.C,C12*%
G36*
G01*
X114866000Y-73058000D02*
X114866000Y-74008000D01*
G75*
G02*
X114616000Y-74258000I-250000J0D01*
G01*
X113941000Y-74258000D01*
G75*
G02*
X113691000Y-74008000I0J250000D01*
G01*
X113691000Y-73058000D01*
G75*
G02*
X113941000Y-72808000I250000J0D01*
G01*
X114616000Y-72808000D01*
G75*
G02*
X114866000Y-73058000I0J-250000D01*
G01*
G37*
G36*
G01*
X116941000Y-73058000D02*
X116941000Y-74008000D01*
G75*
G02*
X116691000Y-74258000I-250000J0D01*
G01*
X116016000Y-74258000D01*
G75*
G02*
X115766000Y-74008000I0J250000D01*
G01*
X115766000Y-73058000D01*
G75*
G02*
X116016000Y-72808000I250000J0D01*
G01*
X116691000Y-72808000D01*
G75*
G02*
X116941000Y-73058000I0J-250000D01*
G01*
G37*
%TD*%
%TO.C,C11*%
G36*
G01*
X114866000Y-67851000D02*
X114866000Y-68801000D01*
G75*
G02*
X114616000Y-69051000I-250000J0D01*
G01*
X113941000Y-69051000D01*
G75*
G02*
X113691000Y-68801000I0J250000D01*
G01*
X113691000Y-67851000D01*
G75*
G02*
X113941000Y-67601000I250000J0D01*
G01*
X114616000Y-67601000D01*
G75*
G02*
X114866000Y-67851000I0J-250000D01*
G01*
G37*
G36*
G01*
X116941000Y-67851000D02*
X116941000Y-68801000D01*
G75*
G02*
X116691000Y-69051000I-250000J0D01*
G01*
X116016000Y-69051000D01*
G75*
G02*
X115766000Y-68801000I0J250000D01*
G01*
X115766000Y-67851000D01*
G75*
G02*
X116016000Y-67601000I250000J0D01*
G01*
X116691000Y-67601000D01*
G75*
G02*
X116941000Y-67851000I0J-250000D01*
G01*
G37*
%TD*%
%TO.C,C10*%
G36*
G01*
X169324000Y-83000000D02*
X170274000Y-83000000D01*
G75*
G02*
X170524000Y-83250000I0J-250000D01*
G01*
X170524000Y-83925000D01*
G75*
G02*
X170274000Y-84175000I-250000J0D01*
G01*
X169324000Y-84175000D01*
G75*
G02*
X169074000Y-83925000I0J250000D01*
G01*
X169074000Y-83250000D01*
G75*
G02*
X169324000Y-83000000I250000J0D01*
G01*
G37*
G36*
G01*
X169324000Y-80925000D02*
X170274000Y-80925000D01*
G75*
G02*
X170524000Y-81175000I0J-250000D01*
G01*
X170524000Y-81850000D01*
G75*
G02*
X170274000Y-82100000I-250000J0D01*
G01*
X169324000Y-82100000D01*
G75*
G02*
X169074000Y-81850000I0J250000D01*
G01*
X169074000Y-81175000D01*
G75*
G02*
X169324000Y-80925000I250000J0D01*
G01*
G37*
%TD*%
%TO.C,C9*%
G36*
G01*
X136558000Y-54425000D02*
X137508000Y-54425000D01*
G75*
G02*
X137758000Y-54675000I0J-250000D01*
G01*
X137758000Y-55350000D01*
G75*
G02*
X137508000Y-55600000I-250000J0D01*
G01*
X136558000Y-55600000D01*
G75*
G02*
X136308000Y-55350000I0J250000D01*
G01*
X136308000Y-54675000D01*
G75*
G02*
X136558000Y-54425000I250000J0D01*
G01*
G37*
G36*
G01*
X136558000Y-52350000D02*
X137508000Y-52350000D01*
G75*
G02*
X137758000Y-52600000I0J-250000D01*
G01*
X137758000Y-53275000D01*
G75*
G02*
X137508000Y-53525000I-250000J0D01*
G01*
X136558000Y-53525000D01*
G75*
G02*
X136308000Y-53275000I0J250000D01*
G01*
X136308000Y-52600000D01*
G75*
G02*
X136558000Y-52350000I250000J0D01*
G01*
G37*
%TD*%
%TO.C,C8*%
G36*
G01*
X139758000Y-56802000D02*
X139758000Y-57752000D01*
G75*
G02*
X139508000Y-58002000I-250000J0D01*
G01*
X138833000Y-58002000D01*
G75*
G02*
X138583000Y-57752000I0J250000D01*
G01*
X138583000Y-56802000D01*
G75*
G02*
X138833000Y-56552000I250000J0D01*
G01*
X139508000Y-56552000D01*
G75*
G02*
X139758000Y-56802000I0J-250000D01*
G01*
G37*
G36*
G01*
X141833000Y-56802000D02*
X141833000Y-57752000D01*
G75*
G02*
X141583000Y-58002000I-250000J0D01*
G01*
X140908000Y-58002000D01*
G75*
G02*
X140658000Y-57752000I0J250000D01*
G01*
X140658000Y-56802000D01*
G75*
G02*
X140908000Y-56552000I250000J0D01*
G01*
X141583000Y-56552000D01*
G75*
G02*
X141833000Y-56802000I0J-250000D01*
G01*
G37*
%TD*%
%TO.C,C7*%
G36*
G01*
X145230000Y-57752000D02*
X145230000Y-56802000D01*
G75*
G02*
X145480000Y-56552000I250000J0D01*
G01*
X146155000Y-56552000D01*
G75*
G02*
X146405000Y-56802000I0J-250000D01*
G01*
X146405000Y-57752000D01*
G75*
G02*
X146155000Y-58002000I-250000J0D01*
G01*
X145480000Y-58002000D01*
G75*
G02*
X145230000Y-57752000I0J250000D01*
G01*
G37*
G36*
G01*
X143155000Y-57752000D02*
X143155000Y-56802000D01*
G75*
G02*
X143405000Y-56552000I250000J0D01*
G01*
X144080000Y-56552000D01*
G75*
G02*
X144330000Y-56802000I0J-250000D01*
G01*
X144330000Y-57752000D01*
G75*
G02*
X144080000Y-58002000I-250000J0D01*
G01*
X143405000Y-58002000D01*
G75*
G02*
X143155000Y-57752000I0J250000D01*
G01*
G37*
%TD*%
%TO.C,C6*%
G36*
G01*
X129471000Y-56929000D02*
X129471000Y-57879000D01*
G75*
G02*
X129221000Y-58129000I-250000J0D01*
G01*
X128546000Y-58129000D01*
G75*
G02*
X128296000Y-57879000I0J250000D01*
G01*
X128296000Y-56929000D01*
G75*
G02*
X128546000Y-56679000I250000J0D01*
G01*
X129221000Y-56679000D01*
G75*
G02*
X129471000Y-56929000I0J-250000D01*
G01*
G37*
G36*
G01*
X131546000Y-56929000D02*
X131546000Y-57879000D01*
G75*
G02*
X131296000Y-58129000I-250000J0D01*
G01*
X130621000Y-58129000D01*
G75*
G02*
X130371000Y-57879000I0J250000D01*
G01*
X130371000Y-56929000D01*
G75*
G02*
X130621000Y-56679000I250000J0D01*
G01*
X131296000Y-56679000D01*
G75*
G02*
X131546000Y-56929000I0J-250000D01*
G01*
G37*
%TD*%
%TO.C,C5*%
G36*
G01*
X136558000Y-50339500D02*
X137508000Y-50339500D01*
G75*
G02*
X137758000Y-50589500I0J-250000D01*
G01*
X137758000Y-51264500D01*
G75*
G02*
X137508000Y-51514500I-250000J0D01*
G01*
X136558000Y-51514500D01*
G75*
G02*
X136308000Y-51264500I0J250000D01*
G01*
X136308000Y-50589500D01*
G75*
G02*
X136558000Y-50339500I250000J0D01*
G01*
G37*
G36*
G01*
X136558000Y-48264500D02*
X137508000Y-48264500D01*
G75*
G02*
X137758000Y-48514500I0J-250000D01*
G01*
X137758000Y-49189500D01*
G75*
G02*
X137508000Y-49439500I-250000J0D01*
G01*
X136558000Y-49439500D01*
G75*
G02*
X136308000Y-49189500I0J250000D01*
G01*
X136308000Y-48514500D01*
G75*
G02*
X136558000Y-48264500I250000J0D01*
G01*
G37*
%TD*%
%TO.C,C4*%
G36*
G01*
X133571000Y-53906000D02*
X132621000Y-53906000D01*
G75*
G02*
X132371000Y-53656000I0J250000D01*
G01*
X132371000Y-52981000D01*
G75*
G02*
X132621000Y-52731000I250000J0D01*
G01*
X133571000Y-52731000D01*
G75*
G02*
X133821000Y-52981000I0J-250000D01*
G01*
X133821000Y-53656000D01*
G75*
G02*
X133571000Y-53906000I-250000J0D01*
G01*
G37*
G36*
G01*
X133571000Y-55981000D02*
X132621000Y-55981000D01*
G75*
G02*
X132371000Y-55731000I0J250000D01*
G01*
X132371000Y-55056000D01*
G75*
G02*
X132621000Y-54806000I250000J0D01*
G01*
X133571000Y-54806000D01*
G75*
G02*
X133821000Y-55056000I0J-250000D01*
G01*
X133821000Y-55731000D01*
G75*
G02*
X133571000Y-55981000I-250000J0D01*
G01*
G37*
%TD*%
%TO.C,C3*%
G36*
G01*
X132621000Y-50361000D02*
X133571000Y-50361000D01*
G75*
G02*
X133821000Y-50611000I0J-250000D01*
G01*
X133821000Y-51286000D01*
G75*
G02*
X133571000Y-51536000I-250000J0D01*
G01*
X132621000Y-51536000D01*
G75*
G02*
X132371000Y-51286000I0J250000D01*
G01*
X132371000Y-50611000D01*
G75*
G02*
X132621000Y-50361000I250000J0D01*
G01*
G37*
G36*
G01*
X132621000Y-48286000D02*
X133571000Y-48286000D01*
G75*
G02*
X133821000Y-48536000I0J-250000D01*
G01*
X133821000Y-49211000D01*
G75*
G02*
X133571000Y-49461000I-250000J0D01*
G01*
X132621000Y-49461000D01*
G75*
G02*
X132371000Y-49211000I0J250000D01*
G01*
X132371000Y-48536000D01*
G75*
G02*
X132621000Y-48286000I250000J0D01*
G01*
G37*
%TD*%
%TO.C,C2*%
G36*
G01*
X125926000Y-57879000D02*
X125926000Y-56929000D01*
G75*
G02*
X126176000Y-56679000I250000J0D01*
G01*
X126851000Y-56679000D01*
G75*
G02*
X127101000Y-56929000I0J-250000D01*
G01*
X127101000Y-57879000D01*
G75*
G02*
X126851000Y-58129000I-250000J0D01*
G01*
X126176000Y-58129000D01*
G75*
G02*
X125926000Y-57879000I0J250000D01*
G01*
G37*
G36*
G01*
X123851000Y-57879000D02*
X123851000Y-56929000D01*
G75*
G02*
X124101000Y-56679000I250000J0D01*
G01*
X124776000Y-56679000D01*
G75*
G02*
X125026000Y-56929000I0J-250000D01*
G01*
X125026000Y-57879000D01*
G75*
G02*
X124776000Y-58129000I-250000J0D01*
G01*
X124101000Y-58129000D01*
G75*
G02*
X123851000Y-57879000I0J250000D01*
G01*
G37*
%TD*%
%TO.C,C1*%
G36*
G01*
X149780500Y-62197000D02*
X149780500Y-61247000D01*
G75*
G02*
X150030500Y-60997000I250000J0D01*
G01*
X150705500Y-60997000D01*
G75*
G02*
X150955500Y-61247000I0J-250000D01*
G01*
X150955500Y-62197000D01*
G75*
G02*
X150705500Y-62447000I-250000J0D01*
G01*
X150030500Y-62447000D01*
G75*
G02*
X149780500Y-62197000I0J250000D01*
G01*
G37*
G36*
G01*
X147705500Y-62197000D02*
X147705500Y-61247000D01*
G75*
G02*
X147955500Y-60997000I250000J0D01*
G01*
X148630500Y-60997000D01*
G75*
G02*
X148880500Y-61247000I0J-250000D01*
G01*
X148880500Y-62197000D01*
G75*
G02*
X148630500Y-62447000I-250000J0D01*
G01*
X147955500Y-62447000D01*
G75*
G02*
X147705500Y-62197000I0J250000D01*
G01*
G37*
%TD*%
M02*
