EESchema Schematic File Version 4
EELAYER 30 0
EELAYER END
$Descr A3 16535 11693
encoding utf-8
Sheet 1 1
Title ""
Date ""
Rev ""
Comp ""
Comment1 ""
Comment2 ""
Comment3 ""
Comment4 ""
$EndDescr
$Comp
L power:GND #PWR0101
U 1 1 615A7C71
P 3300 4400
F 0 "#PWR0101" H 3300 4150 50  0001 C CNN
F 1 "GND" H 3305 4227 50  0000 C CNN
F 2 "" H 3300 4400 50  0001 C CNN
F 3 "" H 3300 4400 50  0001 C CNN
	1    3300 4400
	1    0    0    -1  
$EndComp
$Comp
L power:+5V #PWR0103
U 1 1 615AAFF7
P 5250 3200
F 0 "#PWR0103" H 5250 3050 50  0001 C CNN
F 1 "+5V" H 5265 3373 50  0000 C CNN
F 2 "" H 5250 3200 50  0001 C CNN
F 3 "" H 5250 3200 50  0001 C CNN
	1    5250 3200
	1    0    0    -1  
$EndComp
Wire Wire Line
	15150 6350 15150 6300
Wire Wire Line
	15000 6300 15150 6300
Text GLabel 5950 8500 0    50   Input ~ 0
REGN
Wire Wire Line
	6000 8450 5950 8450
Wire Wire Line
	5950 8450 5950 8500
$Comp
L power:GND #PWR0105
U 1 1 618121B4
P 6050 8900
F 0 "#PWR0105" H 6050 8650 50  0001 C CNN
F 1 "GND" H 6055 8727 50  0000 C CNN
F 2 "" H 6050 8900 50  0001 C CNN
F 3 "" H 6050 8900 50  0001 C CNN
	1    6050 8900
	0    1    1    0   
$EndComp
Wire Wire Line
	6000 8700 6000 8450
Text GLabel 6150 6750 2    50   Input ~ 0
SDRV
Wire Wire Line
	6100 6750 6150 6750
$Comp
L Device:C C7
U 1 1 61919B55
P 5950 6750
F 0 "C7" V 6150 6700 50  0000 L CNN
F 1 "1nF" V 6065 6705 50  0000 L CNN
F 2 "Capacitor_SMD:C_0805_2012Metric_Pad1.18x1.45mm_HandSolder" H 5988 6600 50  0001 C CNN
F 3 "~" H 5950 6750 50  0001 C CNN
	1    5950 6750
	0    1    1    0   
$EndComp
Text GLabel 6800 7950 0    50   Input ~ 0
SDRV
Wire Wire Line
	6850 7950 6800 7950
$Comp
L power:GND #PWR0107
U 1 1 61763BBE
P 6100 8000
F 0 "#PWR0107" H 6100 7750 50  0001 C CNN
F 1 "GND" V 6105 7827 50  0000 C CNN
F 2 "" H 6100 8000 50  0001 C CNN
F 3 "" H 6100 8000 50  0001 C CNN
	1    6100 8000
	0    1    1    0   
$EndComp
$Comp
L Device:R R13
U 1 1 6176338E
P 6250 8000
F 0 "R13" V 6100 8000 50  0000 R CNN
F 1 "3k" V 6180 8045 50  0000 R CNN
F 2 "Resistor_SMD:R_0805_2012Metric_Pad1.20x1.40mm_HandSolder" V 6180 8000 50  0001 C CNN
F 3 "~" H 6250 8000 50  0001 C CNN
	1    6250 8000
	0    -1   -1   0   
$EndComp
Wire Wire Line
	6400 8050 6400 8000
Wire Wire Line
	6650 8700 6000 8700
Wire Wire Line
	6650 8900 6650 8700
Wire Wire Line
	6800 8800 6350 8800
Connection ~ 6350 8900
$Comp
L Device:R R10
U 1 1 617D8C6E
P 6500 8900
F 0 "R10" H 6430 8854 50  0000 R CNN
F 1 "127k " H 6430 8945 50  0000 R CNN
F 2 "Resistor_SMD:R_0805_2012Metric_Pad1.20x1.40mm_HandSolder" V 6430 8900 50  0001 C CNN
F 3 "~" H 6500 8900 50  0001 C CNN
	1    6500 8900
	0    -1   -1   0   
$EndComp
$Comp
L Device:R R9
U 1 1 617D86FC
P 6200 8900
F 0 "R9" H 6130 8854 50  0000 R CNN
F 1 "100k" H 6130 8945 50  0000 R CNN
F 2 "Resistor_SMD:R_0805_2012Metric_Pad1.20x1.40mm_HandSolder" V 6130 8900 50  0001 C CNN
F 3 "~" H 6200 8900 50  0001 C CNN
	1    6200 8900
	0    -1   -1   0   
$EndComp
Wire Wire Line
	6350 8800 6350 8900
Wire Wire Line
	6800 8150 6800 8800
Wire Wire Line
	6850 8150 6800 8150
Wire Wire Line
	8250 8950 8650 8950
Connection ~ 8450 8850
Wire Wire Line
	8400 8850 8450 8850
Wire Wire Line
	8400 8750 8400 8850
Wire Wire Line
	8250 8750 8400 8750
Wire Wire Line
	6850 8050 6400 8050
$Comp
L power:GND #PWR0108
U 1 1 61759D1F
P 6150 7500
F 0 "#PWR0108" H 6150 7250 50  0001 C CNN
F 1 "GND" V 6155 7327 50  0000 C CNN
F 2 "" H 6150 7500 50  0001 C CNN
F 3 "" H 6150 7500 50  0001 C CNN
	1    6150 7500
	0    1    1    0   
$EndComp
Wire Wire Line
	6800 7500 6800 6950
Connection ~ 6800 7500
Wire Wire Line
	6800 7500 6150 7500
Wire Wire Line
	6800 6950 6850 6950
Wire Wire Line
	6800 7650 6800 7500
Wire Wire Line
	6850 7650 6800 7650
$Comp
L Device:LED D1
U 1 1 61747027
P 6450 8450
F 0 "D1" V 6397 8530 50  0000 L CNN
F 1 "LED" V 6488 8530 50  0000 L CNN
F 2 "LED_SMD:LED_0805_2012Metric_Pad1.15x1.40mm_HandSolder" H 6450 8450 50  0001 C CNN
F 3 "~" H 6450 8450 50  0001 C CNN
	1    6450 8450
	-1   0    0    1   
$EndComp
Text GLabel 8700 9300 2    50   Input ~ 0
BTST2
Wire Wire Line
	8700 9150 8700 9300
Wire Wire Line
	8450 8850 8450 8800
Wire Wire Line
	8700 8850 8450 8850
$Comp
L Device:C C8
U 1 1 6172CCD2
P 8700 9000
F 0 "C8" V 8448 9000 50  0000 C CNN
F 1 "47nF" V 8539 9000 50  0000 C CNN
F 2 "Capacitor_SMD:C_0805_2012Metric_Pad1.18x1.45mm_HandSolder" H 8738 8850 50  0001 C CNN
F 3 "~" H 8700 9000 50  0001 C CNN
	1    8700 9000
	-1   0    0    1   
$EndComp
Wire Wire Line
	6850 7850 6450 7850
Wire Wire Line
	6850 8450 6600 8450
$Comp
L Device:R R11
U 1 1 616F00C2
P 6150 8450
F 0 "R11" H 6080 8404 50  0000 R CNN
F 1 "2.2k" H 6080 8495 50  0000 R CNN
F 2 "Resistor_SMD:R_0805_2012Metric_Pad1.20x1.40mm_HandSolder" V 6080 8450 50  0001 C CNN
F 3 "~" H 6150 8450 50  0001 C CNN
	1    6150 8450
	0    -1   -1   0   
$EndComp
Wire Wire Line
	6650 7750 6850 7750
Wire Wire Line
	6850 7050 6650 7050
$Comp
L power:GND #PWR0109
U 1 1 616D657F
P 6150 7150
F 0 "#PWR0109" H 6150 6900 50  0001 C CNN
F 1 "GND" V 6155 6977 50  0000 C CNN
F 2 "" H 6150 7150 50  0001 C CNN
F 3 "" H 6150 7150 50  0001 C CNN
	1    6150 7150
	0    1    1    0   
$EndComp
$Comp
L power:GND #PWR0110
U 1 1 616D6161
P 7050 9500
F 0 "#PWR0110" H 7050 9250 50  0001 C CNN
F 1 "GND" H 7055 9327 50  0000 C CNN
F 2 "" H 7050 9500 50  0001 C CNN
F 3 "" H 7050 9500 50  0001 C CNN
	1    7050 9500
	1    0    0    -1  
$EndComp
Wire Wire Line
	6850 7150 6450 7150
Wire Wire Line
	6450 7150 6450 7550
$Comp
L Device:R R12
U 1 1 616BAD16
P 5600 7150
F 0 "R12" H 5450 7250 50  0000 C CNN
F 1 "100" H 5484 7150 50  0000 C CNN
F 2 "Resistor_SMD:R_0805_2012Metric_Pad1.20x1.40mm_HandSolder" V 5530 7150 50  0001 C CNN
F 3 "~" H 5600 7150 50  0001 C CNN
	1    5600 7150
	0    1    1    0   
$EndComp
$Comp
L Device:R R14
U 1 1 616A4292
P 6450 7700
F 0 "R14" V 6243 7700 50  0000 C CNN
F 1 "100" V 6334 7700 50  0000 C CNN
F 2 "Resistor_SMD:R_0805_2012Metric_Pad1.20x1.40mm_HandSolder" V 6380 7700 50  0001 C CNN
F 3 "~" H 6450 7700 50  0001 C CNN
	1    6450 7700
	-1   0    0    1   
$EndComp
Wire Wire Line
	8450 9500 7350 9500
Wire Wire Line
	8450 9050 8450 9500
Wire Wire Line
	8250 9050 8450 9050
Wire Wire Line
	8050 9450 8050 9700
Wire Wire Line
	8250 9450 8050 9450
Wire Wire Line
	8250 9150 8250 9450
Wire Wire Line
	8150 9700 8050 9700
$Comp
L power:GND #PWR0111
U 1 1 61681812
P 7750 9700
F 0 "#PWR0111" H 7750 9450 50  0001 C CNN
F 1 "GND" H 7755 9527 50  0000 C CNN
F 2 "" H 7750 9700 50  0001 C CNN
F 3 "" H 7750 9700 50  0001 C CNN
	1    7750 9700
	0    1    1    0   
$EndComp
Text GLabel 6200 6600 0    50   Input ~ 0
SCL
Text GLabel 6200 6500 0    50   Input ~ 0
SDA
Wire Wire Line
	6850 6650 6700 6650
$Comp
L Senior-Design-V1-rescue:BQ24179YBGR-SamacSys_Parts IC1
U 1 1 615BCFD9
P 8250 9150
F 0 "IC1" V 8904 9278 50  0000 L CNN
F 1 "BQ24179YBGR" V 8995 9278 50  0000 L CNN
F 2 "BQ24179YBGR:BGA56C40P7X8_286X328X50" H 9500 9250 50  0001 L CNN
F 3 "https://www.ti.com/lit/ds/symlink/bq24179.pdf?ts=1620434088502&ref_url=https%253A%252F%252Fwww.ti.com%252Fproduct%252FBQ24179" H 9500 9150 50  0001 L CNN
F 4 "Battery Management Integrated, NVDC, 5-A 1-cell to 4-cell switch-mode buck-boost battery charger 56-DSBGA -40 to 85" H 9500 9050 50  0001 L CNN "Description"
F 5 "0.5" H 9500 8950 50  0001 L CNN "Height"
F 6 "595-BQ24179YBGR" H 9500 8850 50  0001 L CNN "Mouser Part Number"
F 7 "https://www.mouser.co.uk/ProductDetail/Texas-Instruments/BQ24179YBGR?qs=iLbezkQI%252Bsjk7FiJgAMAJg%3D%3D" H 9500 8750 50  0001 L CNN "Mouser Price/Stock"
F 8 "Texas Instruments" H 9500 8650 50  0001 L CNN "Manufacturer_Name"
F 9 "BQ24179YBGR" H 9500 8550 50  0001 L CNN "Manufacturer_Part_Number"
	1    8250 9150
	-1   0    0    1   
$EndComp
$Comp
L Device:Fuse F1
U 1 1 6153B929
P 14900 1700
F 0 "F1" H 14960 1746 50  0000 L CNN
F 1 "Fuse" H 14960 1655 50  0000 L CNN
F 2 "Fuse:Fuse_0805_2012Metric_Pad1.15x1.40mm_HandSolder" V 14830 1700 50  0001 C CNN
F 3 "~" H 14900 1700 50  0001 C CNN
	1    14900 1700
	1    0    0    -1  
$EndComp
$Comp
L power:GND #PWR0113
U 1 1 6159115F
P 14800 1600
F 0 "#PWR0113" H 14800 1350 50  0001 C CNN
F 1 "GND" H 14805 1427 50  0000 C CNN
F 2 "" H 14800 1600 50  0001 C CNN
F 3 "" H 14800 1600 50  0001 C CNN
	1    14800 1600
	1    0    0    -1  
$EndComp
$Comp
L Device:Q_PMOS_DGS Q3
U 1 1 6151CBCE
P 13350 9200
F 0 "Q3" H 13555 9246 50  0000 L CNN
F 1 "Q_PMOS_DGS" H 13555 9155 50  0000 L CNN
F 2 "2N3906:2N3906" H 13550 9300 50  0001 C CNN
F 3 "~" H 13350 9200 50  0001 C CNN
	1    13350 9200
	1    0    0    -1  
$EndComp
$Comp
L power:GND #PWR0115
U 1 1 61574780
P 5250 4850
F 0 "#PWR0115" H 5250 4600 50  0001 C CNN
F 1 "GND" H 5255 4677 50  0000 C CNN
F 2 "" H 5250 4850 50  0001 C CNN
F 3 "" H 5250 4850 50  0001 C CNN
	1    5250 4850
	1    0    0    -1  
$EndComp
Wire Wire Line
	5250 4800 5250 4850
$Comp
L power:GND #PWR0117
U 1 1 61572A00
P 13650 9450
F 0 "#PWR0117" H 13650 9200 50  0001 C CNN
F 1 "GND" H 13655 9277 50  0000 C CNN
F 2 "" H 13650 9450 50  0001 C CNN
F 3 "" H 13650 9450 50  0001 C CNN
	1    13650 9450
	1    0    0    -1  
$EndComp
Wire Wire Line
	13450 9400 13150 9400
$Comp
L Device:R R8
U 1 1 61531B7B
P 13000 9400
F 0 "R8" V 12793 9400 50  0000 C CNN
F 1 "20" V 12884 9400 50  0000 C CNN
F 2 "Resistor_THT:R_Axial_DIN0309_L9.0mm_D3.2mm_P25.40mm_Horizontal" V 12930 9400 50  0001 C CNN
F 3 "~" H 13000 9400 50  0001 C CNN
	1    13000 9400
	0    1    1    0   
$EndComp
Connection ~ 6450 7850
Wire Wire Line
	6450 7850 6250 7850
$Comp
L Device:R R24
U 1 1 61828929
P 6650 6250
F 0 "R24" V 6500 6250 50  0000 R CNN
F 1 "5.24K" V 6580 6295 50  0000 R CNN
F 2 "Resistor_SMD:R_0805_2012Metric_Pad1.20x1.40mm_HandSolder" V 6580 6250 50  0001 C CNN
F 3 "~" H 6650 6250 50  0001 C CNN
	1    6650 6250
	0    -1   -1   0   
$EndComp
$Comp
L Device:R R20
U 1 1 618290DF
P 6350 6250
F 0 "R20" V 6200 6250 50  0000 R CNN
F 1 "30.31k" V 6250 6350 50  0000 R CNN
F 2 "Resistor_SMD:R_0805_2012Metric_Pad1.20x1.40mm_HandSolder" V 6280 6250 50  0001 C CNN
F 3 "~" H 6350 6250 50  0001 C CNN
	1    6350 6250
	0    -1   -1   0   
$EndComp
Connection ~ 6500 6250
$Comp
L power:GND #PWR0118
U 1 1 618294AD
P 6150 6250
F 0 "#PWR0118" H 6150 6000 50  0001 C CNN
F 1 "GND" V 6155 6077 50  0000 C CNN
F 2 "" H 6150 6250 50  0001 C CNN
F 3 "" H 6150 6250 50  0001 C CNN
	1    6150 6250
	0    1    1    0   
$EndComp
Wire Wire Line
	6800 6250 6900 6250
Text GLabel 6900 6250 2    50   Input ~ 0
REGN
Wire Wire Line
	6200 6250 6150 6250
Wire Wire Line
	6300 6000 6200 6000
Wire Wire Line
	6200 6000 6200 6250
Connection ~ 6200 6250
Wire Wire Line
	6400 6000 6500 6000
Wire Wire Line
	6500 6000 6500 6250
Connection ~ 6000 8450
Text GLabel 8950 8900 2    50   Input ~ 0
GND_Charge
Wire Wire Line
	8650 8950 8650 8450
Wire Wire Line
	8300 8850 8250 8850
Wire Wire Line
	8300 8850 8300 8900
Wire Wire Line
	8300 8900 8950 8900
Wire Wire Line
	8850 8650 9100 8650
$Comp
L power:GND #PWR0119
U 1 1 61824A95
P 9100 8750
F 0 "#PWR0119" H 9100 8500 50  0001 C CNN
F 1 "GND" H 9105 8577 50  0000 C CNN
F 2 "" H 9100 8750 50  0001 C CNN
F 3 "" H 9100 8750 50  0001 C CNN
	1    9100 8750
	1    0    0    -1  
$EndComp
Wire Wire Line
	9100 8650 9100 8750
Wire Wire Line
	13150 8800 13150 9200
Connection ~ 13150 8800
Wire Wire Line
	13150 8800 13100 8800
Wire Wire Line
	13150 8400 13150 8800
Wire Wire Line
	13450 8800 13450 9000
Connection ~ 15000 7100
Wire Wire Line
	15000 7000 15000 7100
$Comp
L power:GND #PWR0120
U 1 1 6161AD7B
P 15000 7100
F 0 "#PWR0120" H 15000 6850 50  0001 C CNN
F 1 "GND" H 15005 6927 50  0000 C CNN
F 2 "" H 15000 7100 50  0001 C CNN
F 3 "" H 15000 7100 50  0001 C CNN
	1    15000 7100
	1    0    0    -1  
$EndComp
Wire Wire Line
	15000 6800 15000 6300
$Comp
L Senior-Design-V1-rescue:TLV5638MDREP-2021-09-27_17-54-40 U1
U 1 1 615E842D
P 12600 6800
F 0 "U1" H 13800 7187 60  0000 C CNN
F 1 "TLV5638MDREP" H 13800 7081 60  0000 C CNN
F 2 "TLV5638MDREP:SOIC127P600X175-8N" H 13800 7040 60  0001 C CNN
F 3 "" H 12600 6800 60  0000 C CNN
	1    12600 6800
	1    0    0    -1  
$EndComp
$Comp
L power:GND #PWR0121
U 1 1 615C2BF7
P 15150 6650
F 0 "#PWR0121" H 15150 6400 50  0001 C CNN
F 1 "GND" H 15155 6477 50  0000 C CNN
F 2 "" H 15150 6650 50  0001 C CNN
F 3 "" H 15150 6650 50  0001 C CNN
	1    15150 6650
	1    0    0    -1  
$EndComp
Wire Wire Line
	12850 8000 12850 9400
$Comp
L Senior-Design-V1-rescue:AD8592ARMZ-REEL-AD8592ARMZ-REEL U2
U 1 1 6158277F
P 5950 4200
F 0 "U2" H 5950 4970 50  0000 C CNN
F 1 "AD8592ARMZ-REEL" H 5950 4879 50  0000 C CNN
F 2 "AD8592ARMZ-REEL:SOP50P490X110-10N" H 5950 4200 50  0001 L BNN
F 3 "" H 5950 4200 50  0001 L BNN
F 4 "MSOP-10" H 5950 4200 50  0001 L BNN "PACKAGE"
F 5 "Analog Devices" H 5950 4200 50  0001 L BNN "SUPPLIER"
F 6 "AD8592ARMZ-REEL" H 5950 4200 50  0001 L BNN "MPN"
F 7 "unknown" H 5950 4200 50  0001 L BNN "OC_FARNELL"
F 8 "19M8921" H 5950 4200 50  0001 L BNN "OC_NEWARK"
	1    5950 4200
	1    0    0    -1  
$EndComp
Wire Wire Line
	13450 8000 13450 8200
Wire Wire Line
	13150 8000 13450 8000
$Comp
L Device:R R7
U 1 1 61530B78
P 13000 8000
F 0 "R7" V 12793 8000 50  0000 C CNN
F 1 "1k" V 12884 8000 50  0000 C CNN
F 2 "Resistor_SMD:R_0805_2012Metric_Pad1.20x1.40mm_HandSolder" V 12930 8000 50  0001 C CNN
F 3 "~" H 13000 8000 50  0001 C CNN
	1    13000 8000
	0    1    1    0   
$EndComp
Connection ~ 13450 8800
$Comp
L Device:Q_NMOS_DGS Q2
U 1 1 615185B4
P 13350 8400
F 0 "Q2" H 13554 8446 50  0000 L CNN
F 1 "Q_NMOS_DGS" H 13554 8355 50  0000 L CNN
F 2 "2N3906:2N3906" H 13550 8500 50  0001 C CNN
F 3 "~" H 13350 8400 50  0001 C CNN
	1    13350 8400
	1    0    0    -1  
$EndComp
$Comp
L Senior-Design-V1-rescue:MJ21194G-eec Q1
U 1 1 61514E28
P 13450 8800
F 0 "Q1" H 13694 8846 50  0000 L CNN
F 1 "MJ21194G" H 13694 8755 50  0000 L CNN
F 2 "eec:On_Semiconductor-MJ21194G-0" H 13450 9300 50  0001 L CNN
F 3 "http://www.onsemi.cn/pub_link/Collateral/MJ21193-D.PDF" H 13450 9400 50  0001 L CNN
F 4 "Manufacturer URL" H 13450 9500 50  0001 L CNN "Component Link 1 Description"
F 5 "http://www.onsemi.com/" H 13450 9600 50  0001 L CNN "Component Link 1 URL"
F 6 "Package Specification" H 13450 9700 50  0001 L CNN "Component Link 3 Description"
F 7 "http://www.onsemi.com/pub_link/Collateral/1-07.PDF" H 13450 9800 50  0001 L CNN "Component Link 3 URL"
F 8 "Rev. 6" H 13450 9900 50  0001 L CNN "Datasheet Version"
F 9 "16" H 13450 10000 50  0001 L CNN "IC Continuous A"
F 10 "Through Hole" H 13450 10100 50  0001 L CNN "Mounting Technology"
F 11 "2-Pin Transistor Outline, Body 39.37 x 26.67 mm, Pitch 10.92 mm" H 13450 10200 50  0001 L CNN "Package Description"
F 12 "Rev. Z, 05/1988" H 13450 10300 50  0001 L CNN "Package Version"
F 13 "Tray" H 13450 10400 50  0001 L CNN "Packing"
F 14 "NPN" H 13450 10500 50  0001 L CNN "Polarity"
F 15 "Trans" H 13450 10600 50  0001 L CNN "category"
F 16 "9d749437038dec4a" H 13450 10700 50  0001 L CNN "library id"
F 17 "On Semiconductor" H 13450 10800 50  0001 L CNN "manufacturer"
F 18 "TO-204-3-1-07" H 13450 10900 50  0001 L CNN "package"
F 19 "Yes" H 13450 11000 50  0001 L CNN "rohs"
F 20 "25197A6D-B529-46A2-ABCE-3FF548204E5F" H 13450 11100 50  0001 L CNN "vault revision"
F 21 "4" H 13450 11200 50  0001 L CNN "fT Min MHz"
F 22 "75" H 13450 11300 50  0001 L CNN "hFE Max"
F 23 "yes" H 13450 11400 50  0001 L CNN "imported"
	1    13450 8800
	1    0    0    -1  
$EndComp
Wire Wire Line
	6850 6450 6500 6450
Wire Wire Line
	6500 6450 6500 6250
Wire Wire Line
	6300 6000 6300 5800
Wire Wire Line
	6300 5800 6400 5800
Wire Wire Line
	6400 6000 6400 5900
Text GLabel 5850 7800 0    50   Input ~ 0
BTST2
Wire Wire Line
	2700 4300 3300 4300
Wire Wire Line
	9100 8450 9100 8550
Wire Wire Line
	9100 8550 9250 8550
$Comp
L power:GND #PWR0123
U 1 1 61C2FB8C
P 9350 8150
F 0 "#PWR0123" H 9350 7900 50  0001 C CNN
F 1 "GND" H 9355 7977 50  0000 C CNN
F 2 "" H 9350 8150 50  0001 C CNN
F 3 "" H 9350 8150 50  0001 C CNN
	1    9350 8150
	1    0    0    -1  
$EndComp
Wire Wire Line
	9100 8150 9100 8100
Wire Wire Line
	9100 8100 9350 8100
Wire Wire Line
	9350 8100 9350 8150
$Comp
L Device:C C2
U 1 1 61533C57
P 6850 9300
F 0 "C2" V 6598 9300 50  0000 C CNN
F 1 "47nF" V 6689 9300 50  0000 C CNN
F 2 "Capacitor_SMD:C_0805_2012Metric_Pad1.18x1.45mm_HandSolder" H 6888 9150 50  0001 C CNN
F 3 "~" H 6850 9300 50  0001 C CNN
	1    6850 9300
	-1   0    0    1   
$EndComp
Wire Wire Line
	7050 9450 7050 9500
Wire Wire Line
	6850 9450 7050 9450
$Comp
L Device:R R21
U 1 1 6156BF29
P 6350 6500
F 0 "R21" H 6280 6454 50  0000 R CNN
F 1 "10k" H 6280 6545 50  0000 R CNN
F 2 "Resistor_SMD:R_0805_2012Metric_Pad1.20x1.40mm_HandSolder" V 6280 6500 50  0001 C CNN
F 3 "~" H 6350 6500 50  0001 C CNN
	1    6350 6500
	0    -1   -1   0   
$EndComp
$Comp
L Device:R R22
U 1 1 6156E0A3
P 6350 6600
F 0 "R22" H 6280 6554 50  0000 R CNN
F 1 "10k" H 6280 6645 50  0000 R CNN
F 2 "Resistor_SMD:R_0805_2012Metric_Pad1.20x1.40mm_HandSolder" V 6280 6600 50  0001 C CNN
F 3 "~" H 6350 6600 50  0001 C CNN
	1    6350 6600
	0    -1   -1   0   
$EndComp
Wire Wire Line
	6500 6500 6700 6500
Wire Wire Line
	6700 6500 6700 6650
Wire Wire Line
	6500 6600 6600 6600
Wire Wire Line
	6600 6600 6600 6750
Wire Wire Line
	6600 6750 6850 6750
Wire Wire Line
	6550 8450 6600 8450
Connection ~ 6600 8450
Wire Wire Line
	6600 8400 6350 8400
Wire Wire Line
	6350 8250 6200 8250
$Comp
L Device:R R19
U 1 1 615AD92F
P 6050 8250
F 0 "R19" H 5980 8204 50  0000 R CNN
F 1 "10k" H 5980 8295 50  0000 R CNN
F 2 "Resistor_SMD:R_0805_2012Metric_Pad1.20x1.40mm_HandSolder" V 5980 8250 50  0001 C CNN
F 3 "~" H 6050 8250 50  0001 C CNN
	1    6050 8250
	0    -1   -1   0   
$EndComp
Wire Wire Line
	6350 8250 6350 8400
$Comp
L Device:R R23
U 1 1 615D5916
P 6550 6850
F 0 "R23" H 6480 6804 50  0000 R CNN
F 1 "10k" H 6480 6895 50  0000 R CNN
F 2 "Resistor_SMD:R_0805_2012Metric_Pad1.20x1.40mm_HandSolder" V 6480 6850 50  0001 C CNN
F 3 "~" H 6550 6850 50  0001 C CNN
	1    6550 6850
	0    -1   -1   0   
$EndComp
Wire Wire Line
	6700 6850 6850 6850
Wire Wire Line
	6250 6900 6300 6900
Wire Wire Line
	6400 6900 6400 6850
$Comp
L power:GND #PWR0124
U 1 1 615EFD19
P 5800 6750
F 0 "#PWR0124" H 5800 6500 50  0001 C CNN
F 1 "GND" V 5805 6577 50  0000 C CNN
F 2 "" H 5800 6750 50  0001 C CNN
F 3 "" H 5800 6750 50  0001 C CNN
	1    5800 6750
	1    0    0    -1  
$EndComp
Wire Wire Line
	6850 6100 7000 6100
$Comp
L power:GND #PWR0125
U 1 1 615FE7DA
P 7650 6100
F 0 "#PWR0125" H 7650 5850 50  0001 C CNN
F 1 "GND" V 7655 5927 50  0000 C CNN
F 2 "" H 7650 6100 50  0001 C CNN
F 3 "" H 7650 6100 50  0001 C CNN
	1    7650 6100
	1    0    0    -1  
$EndComp
$Comp
L Device:R R26
U 1 1 615FECD4
P 7300 6100
F 0 "R26" H 7230 6054 50  0000 R CNN
F 1 "10k" H 7230 6145 50  0000 R CNN
F 2 "Resistor_SMD:R_0805_2012Metric_Pad1.20x1.40mm_HandSolder" V 7230 6100 50  0001 C CNN
F 3 "~" H 7300 6100 50  0001 C CNN
	1    7300 6100
	0    -1   -1   0   
$EndComp
Wire Wire Line
	7450 6100 7650 6100
Wire Wire Line
	6850 6100 6850 6450
Wire Wire Line
	7000 6100 7000 5900
Connection ~ 7000 6100
Wire Wire Line
	7000 6100 7150 6100
Text GLabel 7500 5900 2    50   Input ~ 0
I_CHRG
Wire Wire Line
	7000 5900 7500 5900
Wire Wire Line
	6850 7450 6000 7450
$Comp
L Device:R R18
U 1 1 61647435
P 5800 7450
F 0 "R18" H 5730 7404 50  0000 R CNN
F 1 "10k" H 5730 7495 50  0000 R CNN
F 2 "Resistor_SMD:R_0805_2012Metric_Pad1.20x1.40mm_HandSolder" V 5730 7450 50  0001 C CNN
F 3 "~" H 5800 7450 50  0001 C CNN
	1    5800 7450
	0    -1   -1   0   
$EndComp
Text GLabel 5950 7700 0    50   Input ~ 0
charge_ready
Wire Wire Line
	5950 7700 6000 7700
Wire Wire Line
	6000 7700 6000 7450
Connection ~ 6000 7450
Wire Wire Line
	6000 7450 5950 7450
Connection ~ 6850 6450
$Comp
L Device:R R27
U 1 1 6172ADC6
P 12450 7000
F 0 "R27" H 12380 6954 50  0000 R CNN
F 1 "10k" H 12380 7045 50  0000 R CNN
F 2 "Resistor_SMD:R_0805_2012Metric_Pad1.20x1.40mm_HandSolder" V 12380 7000 50  0001 C CNN
F 3 "~" H 12450 7000 50  0001 C CNN
	1    12450 7000
	0    -1   -1   0   
$EndComp
$Comp
L power:GND #PWR0126
U 1 1 6172B6CF
P 12200 7150
F 0 "#PWR0126" H 12200 6900 50  0001 C CNN
F 1 "GND" H 12205 6977 50  0000 C CNN
F 2 "" H 12200 7150 50  0001 C CNN
F 3 "" H 12200 7150 50  0001 C CNN
	1    12200 7150
	1    0    0    -1  
$EndComp
Wire Wire Line
	12300 7000 12200 7000
Wire Wire Line
	12200 7000 12200 7150
Text GLabel 12350 6700 0    50   Input ~ 0
SDA
Text GLabel 12350 6800 0    50   Input ~ 0
SCL
Wire Wire Line
	12350 6700 12500 6700
Wire Wire Line
	12500 6700 12500 6800
Wire Wire Line
	12500 6800 12600 6800
Wire Wire Line
	12350 6800 12450 6800
Wire Wire Line
	12450 6800 12450 6900
Wire Wire Line
	12450 6900 12600 6900
Wire Wire Line
	6250 7900 6250 7850
Wire Wire Line
	5850 7800 6250 7800
Wire Wire Line
	6250 7800 6250 7850
Connection ~ 6250 7850
Text GLabel 9250 8550 2    50   Input ~ 0
BAT1
Wire Wire Line
	14800 1500 14800 1550
Wire Wire Line
	14500 1550 14800 1550
Connection ~ 14800 1550
Text GLabel 14500 1550 0    50   Input ~ 0
NEG_TERM
Wire Wire Line
	5750 7250 5750 7150
Text GLabel 5350 7150 0    50   Input ~ 0
NEG_TERM
Wire Wire Line
	5450 7150 5350 7150
Wire Wire Line
	5750 7250 6850 7250
Text GLabel 14500 1850 0    50   Input ~ 0
POS_TERM
Wire Wire Line
	14900 1850 14500 1850
Wire Wire Line
	14800 1550 14800 1600
Wire Wire Line
	14900 3900 15400 3900
Text GLabel 10100 6600 0    50   Input ~ 0
POS_TERM
Wire Wire Line
	10100 6600 10200 6600
Text GLabel 8950 7100 0    50   Input ~ 0
BAT1
Text GLabel 8950 6700 0    50   Input ~ 0
cr_buff
Wire Wire Line
	15450 4100 15450 4450
Connection ~ 15400 4950
Text GLabel 15150 5400 0    50   Input ~ 0
SDA
Text GLabel 15400 5400 0    50   Input ~ 0
SCL
Wire Wire Line
	15150 5050 15150 5400
Wire Wire Line
	15400 4950 15400 5400
Connection ~ 15450 4450
Wire Wire Line
	15450 5150 14900 5150
Wire Wire Line
	15450 4450 15450 5150
Wire Wire Line
	15450 4100 14900 4100
$Comp
L Device:R R6
U 1 1 6154D458
P 15600 4450
F 0 "R6" V 15393 4450 50  0000 C CNN
F 1 "2k" V 15484 4450 50  0000 C CNN
F 2 "Resistor_SMD:R_0805_2012Metric_Pad1.20x1.40mm_HandSolder" V 15530 4450 50  0001 C CNN
F 3 "~" H 15600 4450 50  0001 C CNN
	1    15600 4450
	0    1    1    0   
$EndComp
Connection ~ 14100 4100
Wire Wire Line
	14100 4000 14100 4100
$Comp
L power:GND #PWR0129
U 1 1 61529C52
P 14100 4100
F 0 "#PWR0129" H 14100 3850 50  0001 C CNN
F 1 "GND" H 14105 3927 50  0000 C CNN
F 2 "" H 14100 4100 50  0001 C CNN
F 3 "" H 14100 4100 50  0001 C CNN
	1    14100 4100
	1    0    0    -1  
$EndComp
$Comp
L power:GND #PWR0130
U 1 1 6152958C
P 14100 5150
F 0 "#PWR0130" H 14100 4900 50  0001 C CNN
F 1 "GND" H 14105 4977 50  0000 C CNN
F 2 "" H 14100 5150 50  0001 C CNN
F 3 "" H 14100 5150 50  0001 C CNN
	1    14100 5150
	1    0    0    -1  
$EndComp
Wire Wire Line
	14900 5050 15150 5050
Wire Wire Line
	15300 4000 15300 5050
Wire Wire Line
	14900 4000 15300 4000
Wire Wire Line
	15400 3900 15400 4950
$Comp
L power:GND #PWR0131
U 1 1 6157F136
P 14500 5350
F 0 "#PWR0131" H 14500 5100 50  0001 C CNN
F 1 "GND" H 14505 5177 50  0000 C CNN
F 2 "" H 14500 5350 50  0001 C CNN
F 3 "" H 14500 5350 50  0001 C CNN
	1    14500 5350
	1    0    0    -1  
$EndComp
$Comp
L power:GND #PWR0132
U 1 1 6157EA80
P 14500 4300
F 0 "#PWR0132" H 14500 4050 50  0001 C CNN
F 1 "GND" H 14505 4127 50  0000 C CNN
F 2 "" H 14500 4300 50  0001 C CNN
F 3 "" H 14500 4300 50  0001 C CNN
	1    14500 4300
	1    0    0    -1  
$EndComp
$Comp
L Analog_ADC:ADC121C021CIMM U3
U 1 1 61578D93
P 14500 4000
F 0 "U3" H 14500 4481 50  0000 C CNN
F 1 "ADC121C021CIMM" H 14500 4390 50  0000 C CNN
F 2 "Package_SO:MSOP-8_3x3mm_P0.65mm" H 15300 3650 50  0001 C CNN
F 3 "http://www.ti.com/lit/ds/symlink/adc121c021.pdf" H 14500 4100 50  0001 C CNN
	1    14500 4000
	1    0    0    -1  
$EndComp
$Comp
L Analog_ADC:ADC121C021CIMM U4
U 1 1 615763E0
P 14500 5050
F 0 "U4" H 14500 5531 50  0000 C CNN
F 1 "ADC121C021CIMM" H 14500 5440 50  0000 C CNN
F 2 "Package_SO:MSOP-8_3x3mm_P0.65mm" H 15300 4700 50  0001 C CNN
F 3 "http://www.ti.com/lit/ds/symlink/adc121c021.pdf" H 14500 5150 50  0001 C CNN
	1    14500 5050
	1    0    0    -1  
$EndComp
Wire Wire Line
	10200 6800 10200 6600
$Comp
L Device:R R1
U 1 1 61533CA5
P 10200 6950
F 0 "R1" H 10270 6996 50  0000 L CNN
F 1 "0.125" H 10270 6905 50  0000 L CNN
F 2 "Resistor_THT:R_Axial_DIN0309_L9.0mm_D3.2mm_P25.40mm_Horizontal" V 10130 6950 50  0001 C CNN
F 3 "~" H 10200 6950 50  0001 C CNN
	1    10200 6950
	1    0    0    -1  
$EndComp
$Comp
L power:GND #PWR0134
U 1 1 61524802
P 9900 7000
F 0 "#PWR0134" H 9900 6750 50  0001 C CNN
F 1 "GND" H 9905 6827 50  0000 C CNN
F 2 "" H 9900 7000 50  0001 C CNN
F 3 "" H 9900 7000 50  0001 C CNN
	1    9900 7000
	1    0    0    -1  
$EndComp
$Comp
L power:+5V #PWR0135
U 1 1 61AFED3B
P 5650 7400
F 0 "#PWR0135" H 5650 7250 50  0001 C CNN
F 1 "+5V" H 5665 7573 50  0000 C CNN
F 2 "" H 5650 7400 50  0001 C CNN
F 3 "" H 5650 7400 50  0001 C CNN
	1    5650 7400
	1    0    0    -1  
$EndComp
Wire Wire Line
	5650 7400 5650 7450
$Comp
L power:+5V #PWR0136
U 1 1 61B9F8F4
P 6250 6900
F 0 "#PWR0136" H 6250 6750 50  0001 C CNN
F 1 "+5V" H 6265 7073 50  0000 C CNN
F 2 "" H 6250 6900 50  0001 C CNN
F 3 "" H 6250 6900 50  0001 C CNN
	1    6250 6900
	1    0    0    -1  
$EndComp
Wire Wire Line
	6650 7050 6300 7050
Wire Wire Line
	6300 7050 6300 6900
Connection ~ 6650 7050
Connection ~ 6300 6900
Wire Wire Line
	6300 6900 6400 6900
Wire Wire Line
	6650 7050 6650 7750
$Comp
L power:GND #PWR0138
U 1 1 61C366EE
P 2250 3200
F 0 "#PWR0138" H 2250 2950 50  0001 C CNN
F 1 "GND" V 2255 3027 50  0000 C CNN
F 2 "" H 2250 3200 50  0001 C CNN
F 3 "" H 2250 3200 50  0001 C CNN
	1    2250 3200
	1    0    0    -1  
$EndComp
Wire Wire Line
	2100 3400 2100 3200
Wire Wire Line
	2100 3200 2250 3200
Wire Wire Line
	2100 7000 2100 7050
Wire Wire Line
	2100 7150 2300 7150
$Comp
L MCU_Microchip_ATmega:ATmega32U4-MU MAIN1
U 1 1 6159359D
P 2100 5200
F 0 "MAIN1" V 1500 3600 50  0000 R CNN
F 1 "ATmega32U4-MU" V 2055 3356 50  0000 R CNN
F 2 "Package_DFN_QFN:QFN-44-1EP_7x7mm_P0.5mm_EP5.2x5.2mm" H 2100 5200 50  0001 C CIN
F 3 "http://ww1.microchip.com/downloads/en/DeviceDoc/Atmel-7766-8-bit-AVR-ATmega16U4-32U4_Datasheet.pdf" H 2100 5200 50  0001 C CNN
	1    2100 5200
	1    0    0    1   
$EndComp
Wire Wire Line
	1100 5400 1250 5400
Wire Wire Line
	1250 5400 1250 5900
Wire Wire Line
	1250 5900 1500 5900
$Comp
L Device:C C13
U 1 1 61C8EBC9
P 1250 5250
F 0 "C13" H 1250 5100 50  0000 L CNN
F 1 "10uF" H 1050 5100 50  0000 L CNN
F 2 "Capacitor_SMD:C_0805_2012Metric_Pad1.18x1.45mm_HandSolder" H 1288 5100 50  0001 C CNN
F 3 "~" H 1250 5250 50  0001 C CNN
	1    1250 5250
	-1   0    0    1   
$EndComp
Connection ~ 1250 5400
$Comp
L Connector:USB_B_Micro J3
U 1 1 61C789B1
P 800 5600
F 0 "J3" H 857 6067 50  0000 C CNN
F 1 "USB_B_Micro" H 857 5976 50  0000 C CNN
F 2 "Connector_USB:USB_Micro-B_Molex-105017-0001" H 950 5550 50  0001 C CNN
F 3 "~" H 950 5550 50  0001 C CNN
	1    800  5600
	1    0    0    -1  
$EndComp
$Comp
L Device:R R30
U 1 1 61C92D5C
P 1300 5600
F 0 "R30" H 1230 5554 50  0000 R CNN
F 1 "22" H 1230 5645 50  0000 R CNN
F 2 "Resistor_SMD:R_0805_2012Metric_Pad1.20x1.40mm_HandSolder" V 1230 5600 50  0001 C CNN
F 3 "~" H 1300 5600 50  0001 C CNN
	1    1300 5600
	0    -1   -1   0   
$EndComp
$Comp
L Device:R R15
U 1 1 61C96427
P 1300 5700
F 0 "R15" H 1230 5654 50  0000 R CNN
F 1 "22" H 1230 5745 50  0000 R CNN
F 2 "Resistor_SMD:R_0805_2012Metric_Pad1.20x1.40mm_HandSolder" V 1230 5700 50  0001 C CNN
F 3 "~" H 1300 5700 50  0001 C CNN
	1    1300 5700
	0    -1   -1   0   
$EndComp
Wire Wire Line
	1100 5600 1150 5600
Wire Wire Line
	1450 5600 1500 5600
Wire Wire Line
	1450 5700 1500 5700
Wire Wire Line
	1150 5700 1100 5700
$Comp
L Device:C C15
U 1 1 61CD5791
P 1050 6100
F 0 "C15" H 1050 5950 50  0000 L CNN
F 1 "1u" H 950 5950 50  0000 L CNN
F 2 "Capacitor_SMD:C_0805_2012Metric_Pad1.18x1.45mm_HandSolder" H 1088 5950 50  0001 C CNN
F 3 "~" H 1050 6100 50  0001 C CNN
	1    1050 6100
	0    -1   -1   0   
$EndComp
$Comp
L power:GND #PWR0104
U 1 1 61CD5E82
P 800 6150
F 0 "#PWR0104" H 800 5900 50  0001 C CNN
F 1 "GND" V 805 5977 50  0000 C CNN
F 2 "" H 800 6150 50  0001 C CNN
F 3 "" H 800 6150 50  0001 C CNN
	1    800  6150
	1    0    0    -1  
$EndComp
Wire Wire Line
	800  6000 800  6100
Wire Wire Line
	700  6100 700  6000
Wire Wire Line
	700  6100 800  6100
Connection ~ 800  6100
Wire Wire Line
	800  6100 800  6150
Wire Wire Line
	800  6100 900  6100
Wire Wire Line
	1200 6100 1350 6100
Wire Wire Line
	1350 6100 1350 5400
Wire Wire Line
	1350 5400 1500 5400
$Comp
L power:GND #PWR0106
U 1 1 61D1AE0E
P 1400 6100
F 0 "#PWR0106" H 1400 5850 50  0001 C CNN
F 1 "GND" V 1405 5927 50  0000 C CNN
F 2 "" H 1400 6100 50  0001 C CNN
F 3 "" H 1400 6100 50  0001 C CNN
	1    1400 6100
	1    0    0    -1  
$EndComp
Wire Wire Line
	2000 3400 2000 3200
Wire Wire Line
	2000 3200 2100 3200
Connection ~ 2100 3200
Wire Wire Line
	2200 7000 2200 7050
Wire Wire Line
	2200 7050 2100 7050
Connection ~ 2100 7050
Wire Wire Line
	2100 7050 2100 7150
Wire Wire Line
	2000 7000 2000 7050
Wire Wire Line
	2000 7050 2100 7050
Wire Wire Line
	1500 6100 1400 6100
Wire Wire Line
	2700 6100 3000 6100
Wire Wire Line
	2700 6000 3000 6000
Text GLabel 2800 5100 2    50   Input ~ 0
TXD
Text GLabel 3000 5100 2    50   Input ~ 0
RXD
Text GLabel 3000 5400 2    50   Input ~ 0
SDA
Text GLabel 3000 5500 2    50   Input ~ 0
SCL
Wire Wire Line
	2700 5400 3000 5400
Wire Wire Line
	2700 5500 3000 5500
Text GLabel 3000 6000 2    50   Input ~ 0
charge_ready
Text GLabel 3000 6100 2    50   Input ~ 0
discharge_ready
Text GLabel 12450 7500 0    50   Input ~ 0
current_mode
Wire Wire Line
	12600 7100 12600 7500
Wire Wire Line
	12600 7500 12450 7500
$Comp
L Device:R R_special1
U 1 1 61E6E91F
P 6050 7900
F 0 "R_special1" V 5900 7900 50  0000 R CNN
F 1 "0" V 5980 7945 50  0000 R CNN
F 2 "Resistor_SMD:R_0805_2012Metric_Pad1.20x1.40mm_HandSolder" V 5980 7900 50  0001 C CNN
F 3 "~" H 6050 7900 50  0001 C CNN
	1    6050 7900
	0    -1   -1   0   
$EndComp
Wire Wire Line
	6250 7900 6200 7900
Wire Wire Line
	5900 7900 5850 7900
$Comp
L Device:C C11
U 1 1 61F0D0B5
P 12050 1600
F 0 "C11" V 11798 1600 50  0000 C CNN
F 1 "10uF" V 11889 1600 50  0000 C CNN
F 2 "Capacitor_SMD:C_0805_2012Metric_Pad1.18x1.45mm_HandSolder" H 12088 1450 50  0001 C CNN
F 3 "~" H 12050 1600 50  0001 C CNN
	1    12050 1600
	-1   0    0    1   
$EndComp
$Comp
L Device:C C12
U 1 1 61F0D761
P 13450 1600
F 0 "C12" V 13198 1600 50  0000 C CNN
F 1 "22uF" V 13289 1600 50  0000 C CNN
F 2 "Capacitor_SMD:C_0805_2012Metric_Pad1.18x1.45mm_HandSolder" H 13488 1450 50  0001 C CNN
F 3 "~" H 13450 1600 50  0001 C CNN
	1    13450 1600
	-1   0    0    1   
$EndComp
Text GLabel 11800 1150 0    50   Input ~ 0
Vin
Wire Wire Line
	12300 1400 12050 1400
Wire Wire Line
	12050 1450 12050 1400
Connection ~ 12050 1400
Wire Wire Line
	13700 1400 13700 1300
Wire Wire Line
	13450 1450 13450 1400
Wire Wire Line
	13450 1400 13700 1400
$Comp
L power:GND #PWR0142
U 1 1 61FBB4F9
P 12050 1800
F 0 "#PWR0142" H 12050 1550 50  0001 C CNN
F 1 "GND" H 12055 1627 50  0000 C CNN
F 2 "" H 12050 1800 50  0001 C CNN
F 3 "" H 12050 1800 50  0001 C CNN
	1    12050 1800
	1    0    0    -1  
$EndComp
$Comp
L power:GND #PWR0143
U 1 1 61FBBB02
P 13450 1800
F 0 "#PWR0143" H 13450 1550 50  0001 C CNN
F 1 "GND" H 13455 1627 50  0000 C CNN
F 2 "" H 13450 1800 50  0001 C CNN
F 3 "" H 13450 1800 50  0001 C CNN
	1    13450 1800
	1    0    0    -1  
$EndComp
Wire Wire Line
	13450 1800 13450 1750
Wire Wire Line
	12050 1800 12050 1750
Connection ~ 14900 4100
Connection ~ 14900 5150
Connection ~ 15150 5050
Wire Wire Line
	15150 5050 15300 5050
Text Notes 12000 1000 0    50   ~ 0
High power regulator (7.5A)
Text Notes 14500 1150 0    50   ~ 0
Battery terminals
Text Notes 8700 6050 0    55   ~ 0
Charging circuit
Text Notes 13400 6150 0    50   ~ 0
Discharging circuit
Text Notes 2600 8950 0    50   ~ 0
Thermal control signals
Text Notes 1950 1850 0    50   ~ 0
Main controller
$Comp
L Senior-Design-V1-rescue:TLV5638MDREP-2021-09-27_17-54-40 U5
U 1 1 629E51AE
P 1600 9850
F 0 "U5" H 2800 10237 60  0000 C CNN
F 1 "TLV5638MDREP" H 2800 10131 60  0000 C CNN
F 2 "TLV5638MDREP:SOIC127P600X175-8N" H 2800 10090 60  0001 C CNN
F 3 "" H 1600 9850 60  0000 C CNN
	1    1600 9850
	1    0    0    -1  
$EndComp
Text GLabel 1400 9850 0    50   Input ~ 0
SDA
Text GLabel 1400 9950 0    50   Input ~ 0
SCL
$Comp
L Device:R R17
U 1 1 629E7F2D
P 1450 10050
F 0 "R17" H 1380 10004 50  0000 R CNN
F 1 "10k" H 1380 10095 50  0000 R CNN
F 2 "Resistor_SMD:R_0805_2012Metric_Pad1.20x1.40mm_HandSolder" V 1380 10050 50  0001 C CNN
F 3 "~" H 1450 10050 50  0001 C CNN
	1    1450 10050
	0    -1   -1   0   
$EndComp
$Comp
L power:GND #PWR0144
U 1 1 629E8630
P 1250 10100
F 0 "#PWR0144" H 1250 9850 50  0001 C CNN
F 1 "GND" H 1255 9927 50  0000 C CNN
F 2 "" H 1250 10100 50  0001 C CNN
F 3 "" H 1250 10100 50  0001 C CNN
	1    1250 10100
	1    0    0    -1  
$EndComp
Wire Wire Line
	1300 10050 1250 10050
Wire Wire Line
	1250 10050 1250 10100
Wire Wire Line
	4000 9850 4400 9850
$Comp
L power:GND #PWR0146
U 1 1 62A3C6F6
P 4000 10400
F 0 "#PWR0146" H 4000 10150 50  0001 C CNN
F 1 "GND" H 4005 10227 50  0000 C CNN
F 2 "" H 4000 10400 50  0001 C CNN
F 3 "" H 4000 10400 50  0001 C CNN
	1    4000 10400
	1    0    0    -1  
$EndComp
Wire Wire Line
	1400 9850 1600 9850
Wire Wire Line
	1600 9950 1400 9950
$Comp
L Device:R R25
U 1 1 62B15919
P 6700 6550
F 0 "R25" H 6630 6504 50  0000 R CNN
F 1 "10k" H 6630 6595 50  0000 R CNN
F 2 "Resistor_SMD:R_0805_2012Metric_Pad1.20x1.40mm_HandSolder" V 6630 6550 50  0001 C CNN
F 3 "~" H 6700 6550 50  0001 C CNN
	1    6700 6550
	0    -1   -1   0   
$EndComp
Wire Wire Line
	6550 6550 6550 6400
Wire Wire Line
	6550 6400 6200 6400
Wire Wire Line
	6200 6400 6200 6250
$Comp
L Connector_Generic:Conn_01x02 J6
U 1 1 62B5C09C
P 11300 1500
F 0 "J6" H 11218 1175 50  0000 C CNN
F 1 "Conn_01x02" H 11218 1266 50  0000 C CNN
F 2 "Connector_Molex:Molex_KK-254_AE-6410-02A_1x02_P2.54mm_Vertical" H 11300 1500 50  0001 C CNN
F 3 "~" H 11300 1500 50  0001 C CNN
	1    11300 1500
	-1   0    0    1   
$EndComp
Wire Wire Line
	11500 1400 11800 1400
Wire Wire Line
	11800 1150 11800 1400
Connection ~ 11800 1400
Wire Wire Line
	11800 1400 12050 1400
Wire Wire Line
	11500 1500 11500 1700
$Comp
L power:GND #PWR0147
U 1 1 62BA2587
P 11500 1800
F 0 "#PWR0147" H 11500 1550 50  0001 C CNN
F 1 "GND" H 11505 1627 50  0000 C CNN
F 2 "" H 11500 1800 50  0001 C CNN
F 3 "" H 11500 1800 50  0001 C CNN
	1    11500 1800
	1    0    0    -1  
$EndComp
$Comp
L Connector_Generic:Conn_01x02 J5
U 1 1 62BA2DCE
P 1800 10500
F 0 "J5" H 1880 10492 50  0000 L CNN
F 1 "Peltier control" H 1880 10401 50  0000 L CNN
F 2 "Connector_Molex:Molex_KK-254_AE-6410-02A_1x02_P2.54mm_Vertical" H 1800 10500 50  0001 C CNN
F 3 "~" H 1800 10500 50  0001 C CNN
	1    1800 10500
	1    0    0    -1  
$EndComp
$Comp
L Connector_Generic:Conn_01x02 J4
U 1 1 62C02E53
P 3600 5200
F 0 "J4" H 3680 5192 50  0000 L CNN
F 1 "Bluetooth Con" H 3680 5101 50  0000 L CNN
F 2 "Connector_Molex:Molex_KK-254_AE-6410-02A_1x02_P2.54mm_Vertical" H 3600 5200 50  0001 C CNN
F 3 "~" H 3600 5200 50  0001 C CNN
	1    3600 5200
	1    0    0    -1  
$EndComp
$Comp
L Connector_Generic:Conn_01x02 J2
U 1 1 62C03FF6
P 3600 4850
F 0 "J2" H 3680 4842 50  0000 L CNN
F 1 "PWR/GND" H 3680 4751 50  0000 L CNN
F 2 "Connector_Molex:Molex_KK-254_AE-6410-02A_1x02_P2.54mm_Vertical" H 3600 4850 50  0001 C CNN
F 3 "~" H 3600 4850 50  0001 C CNN
	1    3600 4850
	1    0    0    -1  
$EndComp
Wire Wire Line
	2700 5200 2800 5200
Wire Wire Line
	2700 5300 3000 5300
Wire Wire Line
	3000 5100 3000 5300
Wire Wire Line
	2800 5100 2800 5200
Connection ~ 2800 5200
Wire Wire Line
	2800 5200 3400 5200
Connection ~ 3000 5300
Wire Wire Line
	3000 5300 3400 5300
$Comp
L power:GND #PWR0148
U 1 1 62CABAAD
P 3400 4950
F 0 "#PWR0148" H 3400 4700 50  0001 C CNN
F 1 "GND" H 3405 4777 50  0000 C CNN
F 2 "" H 3400 4950 50  0001 C CNN
F 3 "" H 3400 4950 50  0001 C CNN
	1    3400 4950
	1    0    0    -1  
$EndComp
$Comp
L Device:C C10
U 1 1 62CBA654
P 15150 6500
F 0 "C10" V 14898 6500 50  0000 C CNN
F 1 "10uF" V 14989 6500 50  0000 C CNN
F 2 "Capacitor_SMD:C_0805_2012Metric_Pad1.18x1.45mm_HandSolder" H 15188 6350 50  0001 C CNN
F 3 "~" H 15150 6500 50  0001 C CNN
	1    15150 6500
	-1   0    0    1   
$EndComp
$Comp
L Device:C C3
U 1 1 62CD50CB
P 7200 9500
F 0 "C3" V 6948 9500 50  0000 C CNN
F 1 "30uF" V 7039 9500 50  0000 C CNN
F 2 "Capacitor_SMD:C_0805_2012Metric_Pad1.18x1.45mm_HandSolder" H 7238 9350 50  0001 C CNN
F 3 "~" H 7200 9500 50  0001 C CNN
	1    7200 9500
	0    -1   -1   0   
$EndComp
Connection ~ 7050 9500
$Comp
L Device:C C9
U 1 1 62D05838
P 9100 8300
F 0 "C9" V 8848 8300 50  0000 C CNN
F 1 "20uF" V 8939 8300 50  0000 C CNN
F 2 "Capacitor_SMD:C_0805_2012Metric_Pad1.18x1.45mm_HandSolder" H 9138 8150 50  0001 C CNN
F 3 "~" H 9100 8300 50  0001 C CNN
	1    9100 8300
	1    0    0    -1  
$EndComp
$Comp
L Device:C C5
U 1 1 62D4DEB0
P 8700 8650
F 0 "C5" V 8448 8650 50  0000 C CNN
F 1 "20uF" V 8539 8650 50  0000 C CNN
F 2 "Capacitor_SMD:C_0805_2012Metric_Pad1.18x1.45mm_HandSolder" H 8738 8500 50  0001 C CNN
F 3 "~" H 8700 8650 50  0001 C CNN
	1    8700 8650
	0    1    1    0   
$EndComp
$Comp
L Device:C C4
U 1 1 62D4E555
P 7900 9700
F 0 "C4" V 7648 9700 50  0000 C CNN
F 1 "20uF" V 7739 9700 50  0000 C CNN
F 2 "Capacitor_SMD:C_0805_2012Metric_Pad1.18x1.45mm_HandSolder" H 7938 9550 50  0001 C CNN
F 3 "~" H 7900 9700 50  0001 C CNN
	1    7900 9700
	0    1    1    0   
$EndComp
Connection ~ 8050 9700
$Comp
L Device:C C1
U 1 1 62D66CD9
P 6300 7150
F 0 "C1" V 6048 7150 50  0000 C CNN
F 1 "20uF" V 6139 7150 50  0000 C CNN
F 2 "Capacitor_SMD:C_0805_2012Metric_Pad1.18x1.45mm_HandSolder" H 6338 7000 50  0001 C CNN
F 3 "~" H 6300 7150 50  0001 C CNN
	1    6300 7150
	0    1    1    0   
$EndComp
Connection ~ 6450 7150
Wire Wire Line
	14900 1550 14900 1500
$Comp
L Connector_Generic:Conn_01x02 J1
U 1 1 62DB6839
P 14800 1300
F 0 "J1" V 14764 1112 50  0000 R CNN
F 1 "Cell Connection" V 14673 1112 50  0000 R CNN
F 2 "Connector_Molex:Molex_KK-254_AE-6410-02A_1x02_P2.54mm_Vertical" H 14800 1300 50  0001 C CNN
F 3 "~" H 14800 1300 50  0001 C CNN
	1    14800 1300
	0    -1   -1   0   
$EndComp
$Comp
L Connector_Generic:Conn_01x02 J7
U 1 1 62DE0405
P 6600 5800
F 0 "J7" H 6680 5792 50  0000 L CNN
F 1 "Thermistor Con" H 6680 5701 50  0000 L CNN
F 2 "Connector_Molex:Molex_KK-254_AE-6410-02A_1x02_P2.54mm_Vertical" H 6600 5800 50  0001 C CNN
F 3 "~" H 6600 5800 50  0001 C CNN
	1    6600 5800
	1    0    0    -1  
$EndComp
$Comp
L Connector_Generic:Conn_01x02 therm1
U 1 1 62DFE97A
P 3500 4300
F 0 "therm1" H 3580 4292 50  0000 L CNN
F 1 "therm main" H 3580 4201 50  0000 L CNN
F 2 "Connector_Molex:Molex_KK-254_AE-6410-02A_1x02_P2.54mm_Vertical" H 3500 4300 50  0001 C CNN
F 3 "~" H 3500 4300 50  0001 C CNN
	1    3500 4300
	1    0    0    -1  
$EndComp
$Comp
L Senior-Design-V1-rescue:AD8592ARMZ-REEL-AD8592ARMZ-REEL U7
U 1 1 615D5452
P 5950 2150
F 0 "U7" H 5950 2920 50  0000 C CNN
F 1 "AD8592ARMZ-REEL" H 5950 2829 50  0000 C CNN
F 2 "AD8592ARMZ-REEL:SOP50P490X110-10N" H 5950 2150 50  0001 L BNN
F 3 "" H 5950 2150 50  0001 L BNN
F 4 "MSOP-10" H 5950 2150 50  0001 L BNN "PACKAGE"
F 5 "Analog Devices" H 5950 2150 50  0001 L BNN "SUPPLIER"
F 6 "AD8592ARMZ-REEL" H 5950 2150 50  0001 L BNN "MPN"
F 7 "unknown" H 5950 2150 50  0001 L BNN "OC_FARNELL"
F 8 "19M8921" H 5950 2150 50  0001 L BNN "OC_NEWARK"
	1    5950 2150
	1    0    0    -1  
$EndComp
$Comp
L power:+5V #PWR0133
U 1 1 61625B95
P 5250 1400
F 0 "#PWR0133" H 5250 1250 50  0001 C CNN
F 1 "+5V" H 5265 1573 50  0000 C CNN
F 2 "" H 5250 1400 50  0001 C CNN
F 3 "" H 5250 1400 50  0001 C CNN
	1    5250 1400
	1    0    0    -1  
$EndComp
$Comp
L power:GND #PWR0150
U 1 1 6168C8EC
P 5250 2750
F 0 "#PWR0150" H 5250 2500 50  0001 C CNN
F 1 "GND" H 5255 2577 50  0000 C CNN
F 2 "" H 5250 2750 50  0001 C CNN
F 3 "" H 5250 2750 50  0001 C CNN
	1    5250 2750
	1    0    0    -1  
$EndComp
$Comp
L Senior-Design-V1-rescue:AD8592ARMZ-REEL-AD8592ARMZ-REEL U8
U 1 1 619C0DEA
P 9050 2150
F 0 "U8" H 9050 2920 50  0000 C CNN
F 1 "AD8592ARMZ-REEL" H 9050 2829 50  0000 C CNN
F 2 "AD8592ARMZ-REEL:SOP50P490X110-10N" H 9050 2150 50  0001 L BNN
F 3 "" H 9050 2150 50  0001 L BNN
F 4 "MSOP-10" H 9050 2150 50  0001 L BNN "PACKAGE"
F 5 "Analog Devices" H 9050 2150 50  0001 L BNN "SUPPLIER"
F 6 "AD8592ARMZ-REEL" H 9050 2150 50  0001 L BNN "MPN"
F 7 "unknown" H 9050 2150 50  0001 L BNN "OC_FARNELL"
F 8 "19M8921" H 9050 2150 50  0001 L BNN "OC_NEWARK"
	1    9050 2150
	1    0    0    -1  
$EndComp
$Comp
L Device:R R3
U 1 1 619C1C86
P 8050 1950
F 0 "R3" V 7843 1950 50  0000 C CNN
F 1 "50" V 7934 1950 50  0000 C CNN
F 2 "Resistor_SMD:R_0805_2012Metric_Pad1.20x1.40mm_HandSolder" V 7980 1950 50  0001 C CNN
F 3 "~" H 8050 1950 50  0001 C CNN
	1    8050 1950
	0    1    1    0   
$EndComp
$Comp
L Device:R R2
U 1 1 619C279C
P 8050 1850
F 0 "R2" V 7843 1850 50  0000 C CNN
F 1 "50" V 7934 1850 50  0000 C CNN
F 2 "Resistor_SMD:R_0805_2012Metric_Pad1.20x1.40mm_HandSolder" V 7980 1850 50  0001 C CNN
F 3 "~" H 8050 1850 50  0001 C CNN
	1    8050 1850
	0    1    1    0   
$EndComp
Wire Wire Line
	9750 1750 9800 1750
$Comp
L power:GND #PWR0153
U 1 1 61B3F171
P 8350 2750
F 0 "#PWR0153" H 8350 2500 50  0001 C CNN
F 1 "GND" H 8355 2577 50  0000 C CNN
F 2 "" H 8350 2750 50  0001 C CNN
F 3 "" H 8350 2750 50  0001 C CNN
	1    8350 2750
	1    0    0    -1  
$EndComp
Text GLabel 11400 1700 0    50   Input ~ 0
GND
Wire Wire Line
	11400 1700 11500 1700
Connection ~ 11500 1700
Wire Wire Line
	11500 1700 11500 1800
Connection ~ 9100 8550
Wire Wire Line
	8250 8550 9100 8550
Wire Wire Line
	8250 8650 8550 8650
$Comp
L Device:C C6
U 1 1 61703ABA
P 8450 8200
F 0 "C6" V 8198 8200 50  0000 C CNN
F 1 "47nF" V 8289 8200 50  0000 C CNN
F 2 "Capacitor_SMD:C_0805_2012Metric_Pad1.18x1.45mm_HandSolder" H 8488 8050 50  0001 C CNN
F 3 "~" H 8450 8200 50  0001 C CNN
	1    8450 8200
	-1   0    0    1   
$EndComp
$Comp
L Device:L L1
U 1 1 6168E003
P 8450 8650
F 0 "L1" V 8269 8650 50  0000 C CNN
F 1 "1uH" V 8360 8650 50  0000 C CNN
F 2 "Inductor_SMD:L_2816_7142Metric_Pad3.20x4.45mm_HandSolder" H 8450 8650 50  0001 C CNN
F 3 "~" H 8450 8650 50  0001 C CNN
	1    8450 8650
	-1   0    0    1   
$EndComp
Wire Wire Line
	8450 8500 8450 8450
Wire Wire Line
	8450 8050 8450 7050
Wire Wire Line
	8450 7050 8250 7050
Wire Wire Line
	8650 8450 8450 8450
Connection ~ 8450 8450
Wire Wire Line
	8450 8450 8450 8350
$Comp
L Connector:AVR-ISP-6 J8
U 1 1 615F7042
P 1200 2500
F 0 "J8" H 871 2596 50  0000 R CNN
F 1 "AVR-ISP-6" H 871 2505 50  0000 R CNN
F 2 "Connector_IDC:IDC-Header_2x03_P2.54mm_Vertical" V 950 2550 50  0001 C CNN
F 3 " ~" H -75 1950 50  0001 C CNN
	1    1200 2500
	1    0    0    -1  
$EndComp
Wire Wire Line
	2700 6400 3000 6400
Wire Wire Line
	2700 6500 3000 6500
Text GLabel 3000 6400 2    50   Input ~ 0
MISO
Text GLabel 3000 6500 2    50   Input ~ 0
MOSI
Wire Wire Line
	2700 6600 3000 6600
Text GLabel 3000 6600 2    50   Input ~ 0
SCL
Text GLabel 1850 2300 2    50   Input ~ 0
MISO
Text GLabel 1850 2400 2    50   Input ~ 0
MOSI
Text GLabel 1850 2500 2    50   Input ~ 0
SCK
Wire Wire Line
	1500 6700 1350 6700
Text GLabel 1350 6700 0    50   Input ~ 0
RST
Text GLabel 1850 2600 2    50   Input ~ 0
RST
$Comp
L power:GND #PWR0102
U 1 1 617656A7
P 1100 3100
F 0 "#PWR0102" H 1100 2850 50  0001 C CNN
F 1 "GND" V 1105 2927 50  0000 C CNN
F 2 "" H 1100 3100 50  0001 C CNN
F 3 "" H 1100 3100 50  0001 C CNN
	1    1100 3100
	1    0    0    -1  
$EndComp
Wire Wire Line
	1100 2900 1100 3100
$Comp
L Device:C C14
U 1 1 61780C31
P 750 1900
F 0 "C14" H 750 1750 50  0000 L CNN
F 1 "10uF" H 550 1750 50  0000 L CNN
F 2 "Capacitor_SMD:C_0805_2012Metric_Pad1.18x1.45mm_HandSolder" H 788 1750 50  0001 C CNN
F 3 "~" H 750 1900 50  0001 C CNN
	1    750  1900
	-1   0    0    1   
$EndComp
Wire Wire Line
	1100 1650 1100 1750
Wire Wire Line
	1100 1750 750  1750
Connection ~ 1100 1750
Wire Wire Line
	1100 1750 1100 2000
$Comp
L power:GND #PWR0116
U 1 1 617BB32A
P 750 2050
F 0 "#PWR0116" H 750 1800 50  0001 C CNN
F 1 "GND" V 755 1877 50  0000 C CNN
F 2 "" H 750 2050 50  0001 C CNN
F 3 "" H 750 2050 50  0001 C CNN
	1    750  2050
	1    0    0    -1  
$EndComp
Wire Wire Line
	1600 2300 1850 2300
Wire Wire Line
	1600 2400 1850 2400
Wire Wire Line
	1600 2500 1850 2500
Wire Wire Line
	1850 2600 1600 2600
$Comp
L Regulator_Linear:MIC29752WT U9
U 1 1 618B8DDD
P 12700 1500
F 0 "U9" H 12700 1867 50  0000 C CNN
F 1 "MIC29752WT" H 12700 1776 50  0000 C CNN
F 2 "Package_TO_SOT_THT:TO-247-5_Vertical" H 12800 1200 50  0001 L CNN
F 3 "http://ww1.microchip.com/downloads/en/devicedoc/20005685a.pdf" H 12700 1500 50  0001 C CNN
	1    12700 1500
	1    0    0    -1  
$EndComp
Text GLabel 13200 2100 2    50   Input ~ 0
FLG_REG_HI
Wire Wire Line
	13100 1600 13100 2100
Wire Wire Line
	13100 2100 13200 2100
$Comp
L power:GND #PWR0139
U 1 1 619CAFCC
P 12700 1800
F 0 "#PWR0139" H 12700 1550 50  0001 C CNN
F 1 "GND" H 12705 1627 50  0000 C CNN
F 2 "" H 12700 1800 50  0001 C CNN
F 3 "" H 12700 1800 50  0001 C CNN
	1    12700 1800
	1    0    0    -1  
$EndComp
Wire Wire Line
	13100 1400 13450 1400
Connection ~ 13450 1400
$Comp
L power:+5V #PWR0137
U 1 1 61BFEF21
P 5900 8250
F 0 "#PWR0137" H 5900 8100 50  0001 C CNN
F 1 "+5V" H 5915 8423 50  0000 C CNN
F 2 "" H 5900 8250 50  0001 C CNN
F 3 "" H 5900 8250 50  0001 C CNN
	1    5900 8250
	1    0    0    -1  
$EndComp
$Comp
L power:+5V #PWR0112
U 1 1 6167F544
P 8150 9700
F 0 "#PWR0112" H 8150 9550 50  0001 C CNN
F 1 "+5V" H 8165 9873 50  0000 C CNN
F 2 "" H 8150 9700 50  0001 C CNN
F 3 "" H 8150 9700 50  0001 C CNN
	1    8150 9700
	0    1    1    0   
$EndComp
$Comp
L power:+5V #HIGH_PWR0101
U 1 1 61F62EB0
P 13700 1300
F 0 "#HIGH_PWR0101" H 13700 1150 50  0001 C CNN
F 1 "+5V" H 13715 1473 50  0000 C CNN
F 2 "" H 13700 1300 50  0001 C CNN
F 3 "" H 13700 1300 50  0001 C CNN
	1    13700 1300
	1    0    0    -1  
$EndComp
$Comp
L Regulator_Linear:AZ1117-5.0 U6
U 1 1 61E17A69
P 12350 2600
F 0 "U6" H 12350 2842 50  0000 C CNN
F 1 "AZ1117-5.0" H 12350 2751 50  0000 C CNN
F 2 "AZ1117CD-5.0TRG1:AZ1117CD50TRG1" H 12350 2850 50  0001 C CIN
F 3 "https://www.diodes.com/assets/Datasheets/AZ1117.pdf" H 12350 2600 50  0001 C CNN
	1    12350 2600
	1    0    0    -1  
$EndComp
$Comp
L Device:C C17
U 1 1 61E1BC35
P 11850 2750
F 0 "C17" V 11598 2750 50  0000 C CNN
F 1 "10uF" V 11689 2750 50  0000 C CNN
F 2 "Capacitor_SMD:C_0805_2012Metric_Pad1.18x1.45mm_HandSolder" H 11888 2600 50  0001 C CNN
F 3 "~" H 11850 2750 50  0001 C CNN
	1    11850 2750
	-1   0    0    1   
$EndComp
$Comp
L Device:C C18
U 1 1 61E1C5E7
P 12850 2750
F 0 "C18" V 12598 2750 50  0000 C CNN
F 1 "22uF" V 12689 2750 50  0000 C CNN
F 2 "Capacitor_SMD:C_0805_2012Metric_Pad1.18x1.45mm_HandSolder" H 12888 2600 50  0001 C CNN
F 3 "~" H 12850 2750 50  0001 C CNN
	1    12850 2750
	-1   0    0    1   
$EndComp
Text GLabel 11600 2600 0    50   Input ~ 0
Vin
Wire Wire Line
	11600 2600 11850 2600
Connection ~ 11850 2600
Wire Wire Line
	11850 2600 12050 2600
Wire Wire Line
	12650 2600 12850 2600
Wire Wire Line
	12950 2600 12850 2600
Connection ~ 12850 2600
Wire Wire Line
	12950 2600 12950 2500
$Comp
L power:VCC #PWR0140
U 1 1 61E91EEC
P 12950 2500
F 0 "#PWR0140" H 12950 2350 50  0001 C CNN
F 1 "VCC" H 12965 2673 50  0000 C CNN
F 2 "" H 12950 2500 50  0001 C CNN
F 3 "" H 12950 2500 50  0001 C CNN
	1    12950 2500
	1    0    0    -1  
$EndComp
$Comp
L power:VCC #PWR0141
U 1 1 61EAF54E
P 1100 1650
F 0 "#PWR0141" H 1100 1500 50  0001 C CNN
F 1 "VCC" H 1115 1823 50  0000 C CNN
F 2 "" H 1100 1650 50  0001 C CNN
F 3 "" H 1100 1650 50  0001 C CNN
	1    1100 1650
	1    0    0    -1  
$EndComp
$Comp
L power:GND #PWR0154
U 1 1 61EE9EB5
P 11850 2900
F 0 "#PWR0154" H 11850 2650 50  0001 C CNN
F 1 "GND" H 11855 2727 50  0000 C CNN
F 2 "" H 11850 2900 50  0001 C CNN
F 3 "" H 11850 2900 50  0001 C CNN
	1    11850 2900
	1    0    0    -1  
$EndComp
$Comp
L power:GND #PWR0155
U 1 1 61EEA6A4
P 12350 2900
F 0 "#PWR0155" H 12350 2650 50  0001 C CNN
F 1 "GND" H 12355 2727 50  0000 C CNN
F 2 "" H 12350 2900 50  0001 C CNN
F 3 "" H 12350 2900 50  0001 C CNN
	1    12350 2900
	1    0    0    -1  
$EndComp
$Comp
L power:GND #PWR0156
U 1 1 61EEABCA
P 12850 2900
F 0 "#PWR0156" H 12850 2650 50  0001 C CNN
F 1 "GND" H 12855 2727 50  0000 C CNN
F 2 "" H 12850 2900 50  0001 C CNN
F 3 "" H 12850 2900 50  0001 C CNN
	1    12850 2900
	1    0    0    -1  
$EndComp
$Comp
L power:GND #PWR0157
U 1 1 61EEB12A
P 2300 7450
F 0 "#PWR0157" H 2300 7200 50  0001 C CNN
F 1 "GND" H 2305 7277 50  0000 C CNN
F 2 "" H 2300 7450 50  0001 C CNN
F 3 "" H 2300 7450 50  0001 C CNN
	1    2300 7450
	1    0    0    -1  
$EndComp
$Comp
L Device:C C16
U 1 1 61EEC1F5
P 2300 7300
F 0 "C16" H 2300 7150 50  0000 L CNN
F 1 "10uF" H 2100 7150 50  0000 L CNN
F 2 "Capacitor_SMD:C_0805_2012Metric_Pad1.18x1.45mm_HandSolder" H 2338 7150 50  0001 C CNN
F 3 "~" H 2300 7300 50  0001 C CNN
	1    2300 7300
	-1   0    0    1   
$EndComp
Wire Wire Line
	2300 7150 2550 7150
Connection ~ 2300 7150
$Comp
L power:VCC #PWR0158
U 1 1 61F0B6E0
P 2550 7150
F 0 "#PWR0158" H 2550 7000 50  0001 C CNN
F 1 "VCC" H 2565 7323 50  0000 C CNN
F 2 "" H 2550 7150 50  0001 C CNN
F 3 "" H 2550 7150 50  0001 C CNN
	1    2550 7150
	1    0    0    -1  
$EndComp
$Comp
L power:VCC #PWR0159
U 1 1 61F0CB7D
P 1250 5100
F 0 "#PWR0159" H 1250 4950 50  0001 C CNN
F 1 "VCC" H 1265 5273 50  0000 C CNN
F 2 "" H 1250 5100 50  0001 C CNN
F 3 "" H 1250 5100 50  0001 C CNN
	1    1250 5100
	1    0    0    -1  
$EndComp
Text Notes 11950 2250 0    50   ~ 0
Low power regulator (1A)
$Comp
L Relay:JW2 RL1
U 1 1 61FE49EC
P 9350 7100
F 0 "RL1" V 8583 7100 50  0000 C CNN
F 1 "JW2" V 8674 7100 50  0000 C CNN
F 2 "Relay_THT:Relay_DPDT_Panasonic_JW2" H 10000 7050 50  0001 L CNN
F 3 "http://www3.panasonic.biz/ac/e_download/control/relay/power/catalog/mech_eng_jw.pdf?via=ok" H 9350 7100 50  0001 C CNN
	1    9350 7100
	0    1    1    0   
$EndComp
$Comp
L power:VCC #PWR0114
U 1 1 62061999
P 3400 4850
F 0 "#PWR0114" H 3400 4700 50  0001 C CNN
F 1 "VCC" H 3415 5023 50  0000 C CNN
F 2 "" H 3400 4850 50  0001 C CNN
F 3 "" H 3400 4850 50  0001 C CNN
	1    3400 4850
	1    0    0    -1  
$EndComp
$Comp
L power:VCC #PWR0122
U 1 1 620BB672
P 15150 6300
F 0 "#PWR0122" H 15150 6150 50  0001 C CNN
F 1 "VCC" H 15165 6473 50  0000 C CNN
F 2 "" H 15150 6300 50  0001 C CNN
F 3 "" H 15150 6300 50  0001 C CNN
	1    15150 6300
	1    0    0    -1  
$EndComp
$Comp
L Device:C C21
U 1 1 620BDDB7
P 5100 3450
F 0 "C21" V 4848 3450 50  0000 C CNN
F 1 "10uF" V 4939 3450 50  0000 C CNN
F 2 "Capacitor_SMD:C_0805_2012Metric_Pad1.18x1.45mm_HandSolder" H 5138 3300 50  0001 C CNN
F 3 "~" H 5100 3450 50  0001 C CNN
	1    5100 3450
	-1   0    0    1   
$EndComp
Wire Wire Line
	5100 3300 5250 3300
Wire Wire Line
	5250 3300 5250 3200
Connection ~ 15150 6300
$Comp
L power:VCC #PWR0127
U 1 1 6220E5F5
P 14950 3450
F 0 "#PWR0127" H 14950 3300 50  0001 C CNN
F 1 "VCC" H 14965 3623 50  0000 C CNN
F 2 "" H 14950 3450 50  0001 C CNN
F 3 "" H 14950 3450 50  0001 C CNN
	1    14950 3450
	1    0    0    -1  
$EndComp
$Comp
L power:VCC #PWR0128
U 1 1 6224DEA1
P 15750 4450
F 0 "#PWR0128" H 15750 4300 50  0001 C CNN
F 1 "VCC" H 15765 4623 50  0000 C CNN
F 2 "" H 15750 4450 50  0001 C CNN
F 3 "" H 15750 4450 50  0001 C CNN
	1    15750 4450
	1    0    0    -1  
$EndComp
$Comp
L Senior-Design-V1-rescue:AD8592ARMZ-REEL-AD8592ARMZ-REEL U10
U 1 1 61606FAD
P 9050 4200
F 0 "U10" H 9050 4970 50  0000 C CNN
F 1 "AD8592ARMZ-REEL" H 9050 4879 50  0000 C CNN
F 2 "AD8592ARMZ-REEL:SOP50P490X110-10N" H 9050 4200 50  0001 L BNN
F 3 "" H 9050 4200 50  0001 L BNN
F 4 "MSOP-10" H 9050 4200 50  0001 L BNN "PACKAGE"
F 5 "Analog Devices" H 9050 4200 50  0001 L BNN "SUPPLIER"
F 6 "AD8592ARMZ-REEL" H 9050 4200 50  0001 L BNN "MPN"
F 7 "unknown" H 9050 4200 50  0001 L BNN "OC_FARNELL"
F 8 "19M8921" H 9050 4200 50  0001 L BNN "OC_NEWARK"
	1    9050 4200
	1    0    0    -1  
$EndComp
Text GLabel 8250 4000 0    50   Input ~ 0
charge_ready
Text GLabel 8250 4300 0    50   Input ~ 0
discharge_ready
$Comp
L Device:C C20
U 1 1 61689508
P 4950 1550
F 0 "C20" V 4698 1550 50  0000 C CNN
F 1 "10uF" V 4789 1550 50  0000 C CNN
F 2 "Capacitor_SMD:C_0805_2012Metric_Pad1.18x1.45mm_HandSolder" H 4988 1400 50  0001 C CNN
F 3 "~" H 4950 1550 50  0001 C CNN
	1    4950 1550
	-1   0    0    1   
$EndComp
Wire Wire Line
	14900 4950 15400 4950
$Comp
L power:VCC #PWR0145
U 1 1 6182EA1A
P 14950 4500
F 0 "#PWR0145" H 14950 4350 50  0001 C CNN
F 1 "VCC" H 14965 4673 50  0000 C CNN
F 2 "" H 14950 4500 50  0001 C CNN
F 3 "" H 14950 4500 50  0001 C CNN
	1    14950 4500
	1    0    0    -1  
$EndComp
Wire Wire Line
	14500 4500 14900 4500
Wire Wire Line
	14500 4500 14500 4750
$Comp
L Device:C C26
U 1 1 61852203
P 14900 4650
F 0 "C26" V 14648 4650 50  0000 C CNN
F 1 "10uF" V 14739 4650 50  0000 C CNN
F 2 "Capacitor_SMD:C_0805_2012Metric_Pad1.18x1.45mm_HandSolder" H 14938 4500 50  0001 C CNN
F 3 "~" H 14900 4650 50  0001 C CNN
	1    14900 4650
	-1   0    0    1   
$EndComp
Connection ~ 14900 4500
Wire Wire Line
	14900 4500 14950 4500
$Comp
L power:GND #PWR0149
U 1 1 61852D29
P 14900 4800
F 0 "#PWR0149" H 14900 4550 50  0001 C CNN
F 1 "GND" H 14905 4627 50  0000 C CNN
F 2 "" H 14900 4800 50  0001 C CNN
F 3 "" H 14900 4800 50  0001 C CNN
	1    14900 4800
	1    0    0    -1  
$EndComp
Wire Wire Line
	14500 3700 14500 3450
Wire Wire Line
	14500 3450 14900 3450
$Comp
L Device:C C25
U 1 1 618D4798
P 14900 3600
F 0 "C25" V 14648 3600 50  0000 C CNN
F 1 "10uF" V 14739 3600 50  0000 C CNN
F 2 "Capacitor_SMD:C_0805_2012Metric_Pad1.18x1.45mm_HandSolder" H 14938 3450 50  0001 C CNN
F 3 "~" H 14900 3600 50  0001 C CNN
	1    14900 3600
	-1   0    0    1   
$EndComp
Connection ~ 14900 3450
Wire Wire Line
	14900 3450 14950 3450
$Comp
L power:GND #PWR0151
U 1 1 618D4F39
P 14900 3750
F 0 "#PWR0151" H 14900 3500 50  0001 C CNN
F 1 "GND" H 14905 3577 50  0000 C CNN
F 2 "" H 14900 3750 50  0001 C CNN
F 3 "" H 14900 3750 50  0001 C CNN
	1    14900 3750
	1    0    0    -1  
$EndComp
$Comp
L power:GND #PWR0160
U 1 1 618D68DA
P 4950 1700
F 0 "#PWR0160" H 4950 1450 50  0001 C CNN
F 1 "GND" H 4955 1527 50  0000 C CNN
F 2 "" H 4950 1700 50  0001 C CNN
F 3 "" H 4950 1700 50  0001 C CNN
	1    4950 1700
	1    0    0    -1  
$EndComp
Wire Wire Line
	4950 1400 5250 1400
Wire Wire Line
	5250 1400 5250 1750
Connection ~ 5250 1400
Text GLabel 9850 3900 2    50   Input ~ 0
dr_buff
Text GLabel 9850 3800 2    50   Input ~ 0
cr_buff
$Comp
L Device:C C23
U 1 1 6195DC12
P 10850 3800
F 0 "C23" V 10598 3800 50  0000 C CNN
F 1 "10uF" V 10689 3800 50  0000 C CNN
F 2 "Capacitor_SMD:C_0805_2012Metric_Pad1.18x1.45mm_HandSolder" H 10888 3650 50  0001 C CNN
F 3 "~" H 10850 3800 50  0001 C CNN
	1    10850 3800
	-1   0    0    1   
$EndComp
$Comp
L power:GND #PWR0161
U 1 1 6195E33B
P 10850 3950
F 0 "#PWR0161" H 10850 3700 50  0001 C CNN
F 1 "GND" H 10855 3777 50  0000 C CNN
F 2 "" H 10850 3950 50  0001 C CNN
F 3 "" H 10850 3950 50  0001 C CNN
	1    10850 3950
	1    0    0    -1  
$EndComp
$Comp
L power:+5V #PWR0162
U 1 1 6195F0FE
P 11050 3600
F 0 "#PWR0162" H 11050 3450 50  0001 C CNN
F 1 "+5V" H 11065 3773 50  0000 C CNN
F 2 "" H 11050 3600 50  0001 C CNN
F 3 "" H 11050 3600 50  0001 C CNN
	1    11050 3600
	1    0    0    -1  
$EndComp
$Comp
L Device:C C19
U 1 1 61A0756C
P 4150 9500
F 0 "C19" V 3898 9500 50  0000 C CNN
F 1 "10uF" V 3989 9500 50  0000 C CNN
F 2 "Capacitor_SMD:C_0805_2012Metric_Pad1.18x1.45mm_HandSolder" H 4188 9350 50  0001 C CNN
F 3 "~" H 4150 9500 50  0001 C CNN
	1    4150 9500
	-1   0    0    1   
$EndComp
$Comp
L power:GND #PWR0163
U 1 1 61A089BC
P 4150 9650
F 0 "#PWR0163" H 4150 9400 50  0001 C CNN
F 1 "GND" H 4155 9477 50  0000 C CNN
F 2 "" H 4150 9650 50  0001 C CNN
F 3 "" H 4150 9650 50  0001 C CNN
	1    4150 9650
	1    0    0    -1  
$EndComp
Wire Wire Line
	4400 9350 4150 9350
Wire Wire Line
	4400 9350 4400 9850
$Comp
L power:GND #PWR0164
U 1 1 61AFA09C
P 8350 4800
F 0 "#PWR0164" H 8350 4550 50  0001 C CNN
F 1 "GND" H 8355 4627 50  0000 C CNN
F 2 "" H 8350 4800 50  0001 C CNN
F 3 "" H 8350 4800 50  0001 C CNN
	1    8350 4800
	1    0    0    -1  
$EndComp
Text GLabel 15200 6900 2    50   Input ~ 0
current_ctrl
Wire Wire Line
	15000 6900 15200 6900
$Comp
L power:GND #PWR0165
U 1 1 61C0B0FA
P 5100 3600
F 0 "#PWR0165" H 5100 3350 50  0001 C CNN
F 1 "GND" H 5105 3427 50  0000 C CNN
F 2 "" H 5100 3600 50  0001 C CNN
F 3 "" H 5100 3600 50  0001 C CNN
	1    5100 3600
	1    0    0    -1  
$EndComp
Text GLabel 12650 8000 0    50   Input ~ 0
current_ctrl_buff
Wire Wire Line
	12650 8000 12850 8000
Connection ~ 12850 8000
Text GLabel 9750 1850 2    50   Input ~ 0
current_ctrl_buff
Text GLabel 8300 2250 0    50   Input ~ 0
current_ctrl
Text GLabel 4000 9950 2    50   Input ~ 0
peltier_ctrl2
Text GLabel 1550 10500 0    50   Input ~ 0
peltier_ctrl1_buff
Text GLabel 8300 2150 0    50   Input ~ 0
current_ctrl_buff
Text GLabel 6650 3800 2    50   Input ~ 0
peltier_ctrl1_buff
Text GLabel 1550 10600 0    50   Input ~ 0
peltier_ctrl2_buff
Text GLabel 5250 3900 0    50   Input ~ 0
peltier_ctrl1_buff
Wire Wire Line
	1550 10500 1600 10500
Wire Wire Line
	1550 10600 1600 10600
Text GLabel 8250 3900 0    50   Input ~ 0
cr_buff
Text GLabel 8250 4200 0    50   Input ~ 0
dr_buff
Wire Wire Line
	8250 4200 8350 4200
Wire Wire Line
	8250 4300 8350 4300
Wire Wire Line
	8250 4000 8350 4000
Wire Wire Line
	8250 3900 8350 3900
Wire Wire Line
	9750 3800 9850 3800
Wire Wire Line
	9850 3900 9750 3900
Text GLabel 14100 4950 0    50   Input ~ 0
shunt_voltage
Text GLabel 9800 1750 2    50   Input ~ 0
shunt_voltage
Text GLabel 7950 1750 0    50   Input ~ 0
shunt_voltage
$Comp
L Device:R R4
U 1 1 6279295E
P 8100 1750
F 0 "R4" V 7893 1750 50  0000 C CNN
F 1 "200" V 7984 1750 50  0000 C CNN
F 2 "Resistor_SMD:R_0805_2012Metric_Pad1.20x1.40mm_HandSolder" V 8030 1750 50  0001 C CNN
F 3 "~" H 8100 1750 50  0001 C CNN
	1    8100 1750
	0    -1   -1   0   
$EndComp
Text GLabel 5250 2150 0    50   Input ~ 0
shunt_neg_buff
Text GLabel 10350 7200 2    50   Input ~ 0
shunt_volt_neg
Text GLabel 10300 6600 2    50   Input ~ 0
shunt_volt_pos
Wire Wire Line
	10200 7100 10200 7200
Wire Wire Line
	10350 7200 10200 7200
Connection ~ 10200 7200
Text GLabel 5250 1950 0    50   Input ~ 0
shunt_volt_pos
Text GLabel 5250 2250 0    50   Input ~ 0
shunt_volt_neg
Wire Wire Line
	8250 1750 8250 1850
Wire Wire Line
	8250 1850 8350 1850
Wire Wire Line
	8200 1850 8250 1850
Connection ~ 8250 1850
Wire Wire Line
	8200 1950 8250 1950
Wire Wire Line
	4000 10050 4000 10150
Connection ~ 4000 10150
Wire Wire Line
	4000 10150 4000 10400
$Comp
L power:VCC #PWR0166
U 1 1 631AE036
P 4400 9350
F 0 "#PWR0166" H 4400 9200 50  0001 C CNN
F 1 "VCC" H 4415 9523 50  0000 C CNN
F 2 "" H 4400 9350 50  0001 C CNN
F 3 "" H 4400 9350 50  0001 C CNN
	1    4400 9350
	1    0    0    -1  
$EndComp
Connection ~ 4400 9350
Text GLabel 5250 4000 0    50   Input ~ 0
peltier_ctrl1
Text GLabel 5250 4300 0    50   Input ~ 0
peltier_ctrl2
Text GLabel 5250 4200 0    50   Input ~ 0
peltier_ctrl2
Text GLabel 6650 3900 2    50   Input ~ 0
peltier_ctrl2_buff
Text GLabel 1550 10150 0    50   Input ~ 0
peltier_ctrl1
Wire Wire Line
	1550 10150 1600 10150
$Comp
L Device:R R35
U 1 1 6339F60C
P 9900 6850
F 0 "R35" H 9970 6896 50  0000 L CNN
F 1 "47" H 9970 6805 50  0000 L CNN
F 2 "Resistor_SMD:R_0805_2012Metric_Pad1.20x1.40mm_HandSolder" V 9830 6850 50  0001 C CNN
F 3 "~" H 9900 6850 50  0001 C CNN
	1    9900 6850
	-1   0    0    1   
$EndComp
Wire Wire Line
	8950 7100 9050 7100
Wire Wire Line
	8950 6700 9050 6700
Wire Wire Line
	9650 6700 9900 6700
Wire Wire Line
	10300 6600 10200 6600
Connection ~ 10200 6600
Wire Wire Line
	10200 7200 9650 7200
$Comp
L Device:C C24
U 1 1 637A634D
P 9800 7450
F 0 "C24" V 9548 7450 50  0000 C CNN
F 1 "10uF" V 9639 7450 50  0000 C CNN
F 2 "Capacitor_SMD:C_0805_2012Metric_Pad1.18x1.45mm_HandSolder" H 9838 7300 50  0001 C CNN
F 3 "~" H 9800 7450 50  0001 C CNN
	1    9800 7450
	-1   0    0    1   
$EndComp
Wire Wire Line
	9800 7000 9800 7300
Wire Wire Line
	9650 7000 9800 7000
$Comp
L power:GND #PWR0167
U 1 1 637F310A
P 9800 7600
F 0 "#PWR0167" H 9800 7350 50  0001 C CNN
F 1 "GND" H 9805 7427 50  0000 C CNN
F 2 "" H 9800 7600 50  0001 C CNN
F 3 "" H 9800 7600 50  0001 C CNN
	1    9800 7600
	1    0    0    -1  
$EndComp
Text GLabel 6650 1850 2    50   Input ~ 0
shunt_neg_buff
Text GLabel 6650 1750 2    50   Input ~ 0
shunt_pos_buff
Text GLabel 5250 1850 0    50   Input ~ 0
shunt_pos_buff
Text GLabel 5850 7900 0    50   Input ~ 0
shunt_volt_neg
Text GLabel 7900 1950 0    50   Input ~ 0
shunt_pos_buff
Text GLabel 7900 1850 0    50   Input ~ 0
shunt_neg_buff
Text GLabel 13100 8800 0    50   Input ~ 0
current_mode
Wire Wire Line
	13650 8550 13650 8600
Wire Wire Line
	15100 8450 15100 8750
Wire Wire Line
	14850 8450 15100 8450
Wire Wire Line
	15250 8650 14850 8650
Wire Wire Line
	14150 8150 14250 8150
Text GLabel 15250 8650 2    50   Input ~ 0
shunt_volt_neg
$Comp
L power:GND #PWR0168
U 1 1 63866EFA
P 15100 9050
F 0 "#PWR0168" H 15100 8800 50  0001 C CNN
F 1 "GND" H 15105 8877 50  0000 C CNN
F 2 "" H 15100 9050 50  0001 C CNN
F 3 "" H 15100 9050 50  0001 C CNN
	1    15100 9050
	1    0    0    -1  
$EndComp
$Comp
L Device:C C27
U 1 1 638662D1
P 15100 8900
F 0 "C27" V 14848 8900 50  0000 C CNN
F 1 "10uF" V 14939 8900 50  0000 C CNN
F 2 "Capacitor_SMD:C_0805_2012Metric_Pad1.18x1.45mm_HandSolder" H 15138 8750 50  0001 C CNN
F 3 "~" H 15100 8900 50  0001 C CNN
	1    15100 8900
	-1   0    0    1   
$EndComp
Wire Wire Line
	14850 7650 15100 7650
Wire Wire Line
	14850 8150 14850 7650
$Comp
L power:GND #PWR0169
U 1 1 6384B6DC
P 15100 7950
F 0 "#PWR0169" H 15100 7700 50  0001 C CNN
F 1 "GND" H 15105 7777 50  0000 C CNN
F 2 "" H 15100 7950 50  0001 C CNN
F 3 "" H 15100 7950 50  0001 C CNN
	1    15100 7950
	1    0    0    -1  
$EndComp
$Comp
L Device:R R44
U 1 1 63848F2F
P 15100 7800
F 0 "R44" H 15170 7846 50  0000 L CNN
F 1 "47" H 15170 7755 50  0000 L CNN
F 2 "Resistor_SMD:R_0805_2012Metric_Pad1.20x1.40mm_HandSolder" V 15030 7800 50  0001 C CNN
F 3 "~" H 15100 7800 50  0001 C CNN
	1    15100 7800
	-1   0    0    1   
$EndComp
$Comp
L Relay:JW2 RL2
U 1 1 6218FDDF
P 14550 8550
F 0 "RL2" V 13783 8550 50  0000 C CNN
F 1 "JW2" V 13874 8550 50  0000 C CNN
F 2 "Relay_THT:Relay_DPDT_Panasonic_JW2" H 15200 8500 50  0001 L CNN
F 3 "http://www3.panasonic.biz/ac/e_download/control/relay/power/catalog/mech_eng_jw.pdf?via=ok" H 14550 8550 50  0001 C CNN
	1    14550 8550
	0    1    1    0   
$EndComp
Text GLabel 14150 8150 0    50   Input ~ 0
dr_buff
Text Notes 14300 3050 0    50   ~ 0
Current sensor
Wire Wire Line
	13450 8600 13450 8800
Wire Wire Line
	13650 9000 13650 9050
Wire Wire Line
	13650 8550 13800 8550
Wire Wire Line
	13800 8700 13800 8550
Connection ~ 13800 8550
Wire Wire Line
	13800 8550 14250 8550
Wire Wire Line
	13800 8900 13800 9050
Wire Wire Line
	13800 9050 13650 9050
Connection ~ 13650 9050
Wire Wire Line
	13650 9050 13650 9450
Wire Wire Line
	13800 8800 13450 8800
Wire Wire Line
	11050 3600 11050 3650
Wire Wire Line
	10850 3650 11050 3650
Wire Wire Line
	11050 3650 11050 4150
Wire Wire Line
	5250 3300 5250 3800
Connection ~ 5250 3300
Wire Wire Line
	8200 1350 8350 1350
Wire Wire Line
	8350 1300 8350 1350
$Comp
L power:GND #PWR0170
U 1 1 63177CF0
P 7900 1350
F 0 "#PWR0170" H 7900 1100 50  0001 C CNN
F 1 "GND" H 7905 1177 50  0000 C CNN
F 2 "" H 7900 1350 50  0001 C CNN
F 3 "" H 7900 1350 50  0001 C CNN
	1    7900 1350
	1    0    0    -1  
$EndComp
$Comp
L Device:C C22
U 1 1 630F191F
P 8050 1350
F 0 "C22" V 7798 1350 50  0000 C CNN
F 1 "10uF" V 7889 1350 50  0000 C CNN
F 2 "Capacitor_SMD:C_0805_2012Metric_Pad1.18x1.45mm_HandSolder" H 8088 1200 50  0001 C CNN
F 3 "~" H 8050 1350 50  0001 C CNN
	1    8050 1350
	0    -1   -1   0   
$EndComp
$Comp
L power:+5V #PWR0152
U 1 1 61B3E775
P 8350 1300
F 0 "#PWR0152" H 8350 1150 50  0001 C CNN
F 1 "+5V" H 8365 1473 50  0000 C CNN
F 2 "" H 8350 1300 50  0001 C CNN
F 3 "" H 8350 1300 50  0001 C CNN
	1    8350 1300
	1    0    0    -1  
$EndComp
Wire Wire Line
	8350 1350 8350 1750
Connection ~ 8350 1350
Wire Notes Line
	4350 5650 10800 5650
Wire Notes Line
	15750 2600 13450 2600
Wire Notes Line
	13450 3250 10800 3250
Wire Notes Line
	13950 2600 13950 1050
Wire Notes Line
	4350 1100 4350 8500
Wire Notes Line
	5150 8500 5150 10650
Wire Notes Line
	1350 8500 5150 8500
Wire Notes Line
	11450 5700 11450 9750
Text Notes 6700 900  0    50   ~ 0
Amplifiers and buffers (op-amps)
$Comp
L Device:R R5
U 1 1 615C06C8
P 8450 10700
F 0 "R5" H 8380 10654 50  0000 R CNN
F 1 "0" H 8380 10745 50  0000 R CNN
F 2 "Resistor_SMD:R_0805_2012Metric_Pad1.20x1.40mm_HandSolder" V 8380 10700 50  0001 C CNN
F 3 "~" H 8450 10700 50  0001 C CNN
	1    8450 10700
	1    0    0    -1  
$EndComp
$Comp
L Device:R R16
U 1 1 615C18E9
P 8650 10700
F 0 "R16" H 8580 10654 50  0000 R CNN
F 1 "0" H 8580 10745 50  0000 R CNN
F 2 "Resistor_SMD:R_0805_2012Metric_Pad1.20x1.40mm_HandSolder" V 8580 10700 50  0001 C CNN
F 3 "~" H 8650 10700 50  0001 C CNN
	1    8650 10700
	1    0    0    -1  
$EndComp
$Comp
L Device:R R28
U 1 1 615C1A8D
P 8850 10700
F 0 "R28" H 8780 10654 50  0000 R CNN
F 1 "0" H 8780 10745 50  0000 R CNN
F 2 "Resistor_SMD:R_0805_2012Metric_Pad1.20x1.40mm_HandSolder" V 8780 10700 50  0001 C CNN
F 3 "~" H 8850 10700 50  0001 C CNN
	1    8850 10700
	1    0    0    -1  
$EndComp
$Comp
L Device:R R29
U 1 1 615C1E8C
P 9050 10700
F 0 "R29" H 8980 10654 50  0000 R CNN
F 1 "0" H 8980 10745 50  0000 R CNN
F 2 "Resistor_SMD:R_0805_2012Metric_Pad1.20x1.40mm_HandSolder" V 8980 10700 50  0001 C CNN
F 3 "~" H 9050 10700 50  0001 C CNN
	1    9050 10700
	1    0    0    -1  
$EndComp
$Comp
L Device:R R31
U 1 1 615C21C4
P 9250 10700
F 0 "R31" H 9180 10654 50  0000 R CNN
F 1 "0" H 9180 10745 50  0000 R CNN
F 2 "Resistor_SMD:R_0805_2012Metric_Pad1.20x1.40mm_HandSolder" V 9180 10700 50  0001 C CNN
F 3 "~" H 9250 10700 50  0001 C CNN
	1    9250 10700
	1    0    0    -1  
$EndComp
$Comp
L Device:R R32
U 1 1 615C25CE
P 9450 10700
F 0 "R32" H 9380 10654 50  0000 R CNN
F 1 "0" H 9380 10745 50  0000 R CNN
F 2 "Resistor_SMD:R_0805_2012Metric_Pad1.20x1.40mm_HandSolder" V 9380 10700 50  0001 C CNN
F 3 "~" H 9450 10700 50  0001 C CNN
	1    9450 10700
	1    0    0    -1  
$EndComp
$Comp
L Device:R R33
U 1 1 615C2A05
P 9650 10700
F 0 "R33" H 9580 10654 50  0000 R CNN
F 1 "0" H 9580 10745 50  0000 R CNN
F 2 "Resistor_SMD:R_0805_2012Metric_Pad1.20x1.40mm_HandSolder" V 9580 10700 50  0001 C CNN
F 3 "~" H 9650 10700 50  0001 C CNN
	1    9650 10700
	1    0    0    -1  
$EndComp
$Comp
L Device:R R34
U 1 1 615C2E9B
P 9850 10700
F 0 "R34" H 9780 10654 50  0000 R CNN
F 1 "0" H 9780 10745 50  0000 R CNN
F 2 "Resistor_SMD:R_0805_2012Metric_Pad1.20x1.40mm_HandSolder" V 9780 10700 50  0001 C CNN
F 3 "~" H 9850 10700 50  0001 C CNN
	1    9850 10700
	1    0    0    -1  
$EndComp
$Comp
L Device:R R36
U 1 1 615C32C0
P 10150 10700
F 0 "R36" H 10080 10654 50  0000 R CNN
F 1 "0" H 10080 10745 50  0000 R CNN
F 2 "Resistor_SMD:R_0805_2012Metric_Pad1.20x1.40mm_HandSolder" V 10080 10700 50  0001 C CNN
F 3 "~" H 10150 10700 50  0001 C CNN
	1    10150 10700
	1    0    0    -1  
$EndComp
$Comp
L Device:R R37
U 1 1 615DBEDD
P 10350 10700
F 0 "R37" H 10280 10654 50  0000 R CNN
F 1 "0" H 10280 10745 50  0000 R CNN
F 2 "Resistor_SMD:R_0805_2012Metric_Pad1.20x1.40mm_HandSolder" V 10280 10700 50  0001 C CNN
F 3 "~" H 10350 10700 50  0001 C CNN
	1    10350 10700
	1    0    0    -1  
$EndComp
$Comp
L Device:R R38
U 1 1 615DC4D5
P 10550 10700
F 0 "R38" H 10480 10654 50  0000 R CNN
F 1 "0" H 10480 10745 50  0000 R CNN
F 2 "Resistor_SMD:R_0805_2012Metric_Pad1.20x1.40mm_HandSolder" V 10480 10700 50  0001 C CNN
F 3 "~" H 10550 10700 50  0001 C CNN
	1    10550 10700
	1    0    0    -1  
$EndComp
$Comp
L Device:R R39
U 1 1 615DC943
P 10750 10700
F 0 "R39" H 10680 10654 50  0000 R CNN
F 1 "0" H 10680 10745 50  0000 R CNN
F 2 "Resistor_SMD:R_0805_2012Metric_Pad1.20x1.40mm_HandSolder" V 10680 10700 50  0001 C CNN
F 3 "~" H 10750 10700 50  0001 C CNN
	1    10750 10700
	1    0    0    -1  
$EndComp
$Comp
L Device:R R40
U 1 1 615DCE50
P 10950 10700
F 0 "R40" H 10880 10654 50  0000 R CNN
F 1 "0" H 10880 10745 50  0000 R CNN
F 2 "Resistor_SMD:R_0805_2012Metric_Pad1.20x1.40mm_HandSolder" V 10880 10700 50  0001 C CNN
F 3 "~" H 10950 10700 50  0001 C CNN
	1    10950 10700
	1    0    0    -1  
$EndComp
$Comp
L Device:R R41
U 1 1 615DD324
P 11150 10700
F 0 "R41" H 11080 10654 50  0000 R CNN
F 1 "0" H 11080 10745 50  0000 R CNN
F 2 "Resistor_SMD:R_0805_2012Metric_Pad1.20x1.40mm_HandSolder" V 11080 10700 50  0001 C CNN
F 3 "~" H 11150 10700 50  0001 C CNN
	1    11150 10700
	1    0    0    -1  
$EndComp
$Comp
L Device:R R42
U 1 1 615DD76F
P 11350 10700
F 0 "R42" H 11280 10654 50  0000 R CNN
F 1 "0" H 11280 10745 50  0000 R CNN
F 2 "Resistor_SMD:R_0805_2012Metric_Pad1.20x1.40mm_HandSolder" V 11280 10700 50  0001 C CNN
F 3 "~" H 11350 10700 50  0001 C CNN
	1    11350 10700
	1    0    0    -1  
$EndComp
$Comp
L Device:R R43
U 1 1 615DDA6B
P 11550 10700
F 0 "R43" H 11480 10654 50  0000 R CNN
F 1 "0" H 11480 10745 50  0000 R CNN
F 2 "Resistor_SMD:R_0805_2012Metric_Pad1.20x1.40mm_HandSolder" V 11480 10700 50  0001 C CNN
F 3 "~" H 11550 10700 50  0001 C CNN
	1    11550 10700
	1    0    0    -1  
$EndComp
$Comp
L power:GND #PWR0171
U 1 1 615DDE3D
P 8450 10850
F 0 "#PWR0171" H 8450 10600 50  0001 C CNN
F 1 "GND" H 8455 10677 50  0000 C CNN
F 2 "" H 8450 10850 50  0001 C CNN
F 3 "" H 8450 10850 50  0001 C CNN
	1    8450 10850
	1    0    0    -1  
$EndComp
$Comp
L power:GND #PWR0172
U 1 1 615DFA9C
P 10150 10850
F 0 "#PWR0172" H 10150 10600 50  0001 C CNN
F 1 "GND" H 10155 10677 50  0000 C CNN
F 2 "" H 10150 10850 50  0001 C CNN
F 3 "" H 10150 10850 50  0001 C CNN
	1    10150 10850
	1    0    0    -1  
$EndComp
Wire Wire Line
	9850 10850 9650 10850
Connection ~ 8450 10850
Connection ~ 8650 10850
Wire Wire Line
	8650 10850 8450 10850
Connection ~ 8850 10850
Wire Wire Line
	8850 10850 8650 10850
Connection ~ 9050 10850
Wire Wire Line
	9050 10850 8850 10850
Connection ~ 9250 10850
Wire Wire Line
	9250 10850 9050 10850
Connection ~ 9450 10850
Wire Wire Line
	9450 10850 9250 10850
Connection ~ 9650 10850
Wire Wire Line
	9650 10850 9450 10850
Wire Wire Line
	11550 10850 11350 10850
Connection ~ 10150 10850
Connection ~ 10350 10850
Wire Wire Line
	10350 10850 10150 10850
Connection ~ 10550 10850
Wire Wire Line
	10550 10850 10350 10850
Connection ~ 10750 10850
Wire Wire Line
	10750 10850 10550 10850
Connection ~ 10950 10850
Wire Wire Line
	10950 10850 10750 10850
Connection ~ 11150 10850
Wire Wire Line
	11150 10850 10950 10850
Connection ~ 11350 10850
Wire Wire Line
	11350 10850 11150 10850
Text GLabel 8450 10550 1    50   Input ~ 0
peltier_ctrl1
Text GLabel 8650 10550 1    50   Input ~ 0
peltier_ctrl2
Text GLabel 8850 10550 1    50   Input ~ 0
charge_ready
Text GLabel 9050 10550 1    50   Input ~ 0
discharge_ready
Text GLabel 9250 10550 1    50   Input ~ 0
current_ctrl
Text GLabel 9450 10550 1    50   Input ~ 0
current_mode
Text GLabel 14100 3900 0    50   Input ~ 0
shunt_pos_buff
Wire Wire Line
	14750 4100 14900 4100
Wire Wire Line
	14750 5150 14900 5150
Wire Wire Line
	14700 4100 14900 4100
Wire Wire Line
	14700 5150 14900 5150
Text GLabel 9650 10550 1    50   Input ~ 0
shunt_pos_buff
Text GLabel 9850 10550 1    50   Input ~ 0
shunt_voltage
Text GLabel 10150 10550 1    50   Input ~ 0
peltier_ctrl2_buff
Text GLabel 10350 10550 1    50   Input ~ 0
peltier_ctrl2_buff
Text GLabel 10550 10550 1    50   Input ~ 0
shunt_pos_buff
Text GLabel 10750 10550 1    50   Input ~ 0
shunt_neg_buff
Text GLabel 10950 10550 1    50   Input ~ 0
shunt_voltage
Text GLabel 11150 10550 1    50   Input ~ 0
current_ctrl_buff
Text GLabel 11350 10550 1    50   Input ~ 0
cr_buff
Text GLabel 11550 10550 1    50   Input ~ 0
dr_buff
Text Notes 9750 9750 0    50   ~ 0
TEST POINTS
Wire Wire Line
	8350 2150 8300 2150
Wire Wire Line
	8350 2250 8300 2250
$Comp
L Senior-Design-V1-rescue:AD8592ARMZ-REEL-AD8592ARMZ-REEL U11
U 1 1 616DBF87
P 11750 4550
F 0 "U11" H 11750 5320 50  0000 C CNN
F 1 "AD8592ARMZ-REEL" H 11750 5229 50  0000 C CNN
F 2 "AD8592ARMZ-REEL:SOP50P490X110-10N" H 11750 4550 50  0001 L BNN
F 3 "" H 11750 4550 50  0001 L BNN
F 4 "MSOP-10" H 11750 4550 50  0001 L BNN "PACKAGE"
F 5 "Analog Devices" H 11750 4550 50  0001 L BNN "SUPPLIER"
F 6 "AD8592ARMZ-REEL" H 11750 4550 50  0001 L BNN "MPN"
F 7 "unknown" H 11750 4550 50  0001 L BNN "OC_FARNELL"
F 8 "19M8921" H 11750 4550 50  0001 L BNN "OC_NEWARK"
	1    11750 4550
	1    0    0    -1  
$EndComp
Wire Notes Line
	10800 3250 10800 600 
Wire Notes Line
	13450 2600 13450 5650
Wire Notes Line
	10750 5700 15500 5700
Connection ~ 11050 3650
$Comp
L power:+5V #PWR0173
U 1 1 617C41EE
P 8350 3300
F 0 "#PWR0173" H 8350 3150 50  0001 C CNN
F 1 "+5V" H 8365 3473 50  0000 C CNN
F 2 "" H 8350 3300 50  0001 C CNN
F 3 "" H 8350 3300 50  0001 C CNN
	1    8350 3300
	1    0    0    -1  
$EndComp
$Comp
L Device:C C28
U 1 1 617C4C27
P 8150 3500
F 0 "C28" V 7898 3500 50  0000 C CNN
F 1 "10uF" V 7989 3500 50  0000 C CNN
F 2 "Capacitor_SMD:C_0805_2012Metric_Pad1.18x1.45mm_HandSolder" H 8188 3350 50  0001 C CNN
F 3 "~" H 8150 3500 50  0001 C CNN
	1    8150 3500
	-1   0    0    1   
$EndComp
$Comp
L power:GND #PWR0174
U 1 1 617C560C
P 8150 3650
F 0 "#PWR0174" H 8150 3400 50  0001 C CNN
F 1 "GND" H 8155 3477 50  0000 C CNN
F 2 "" H 8150 3650 50  0001 C CNN
F 3 "" H 8150 3650 50  0001 C CNN
	1    8150 3650
	1    0    0    -1  
$EndComp
Wire Wire Line
	8350 3800 8350 3350
Wire Wire Line
	8150 3350 8350 3350
Connection ~ 8350 3350
Wire Wire Line
	8350 3350 8350 3300
$Comp
L power:GND #PWR0175
U 1 1 61818F97
P 11050 5150
F 0 "#PWR0175" H 11050 4900 50  0001 C CNN
F 1 "GND" H 11055 4977 50  0000 C CNN
F 2 "" H 11050 5150 50  0001 C CNN
F 3 "" H 11050 5150 50  0001 C CNN
	1    11050 5150
	1    0    0    -1  
$EndComp
$Comp
L power:+5V #PWR0176
U 1 1 618196A1
P 10550 4050
F 0 "#PWR0176" H 10550 3900 50  0001 C CNN
F 1 "+5V" H 10565 4223 50  0000 C CNN
F 2 "" H 10550 4050 50  0001 C CNN
F 3 "" H 10550 4050 50  0001 C CNN
	1    10550 4050
	1    0    0    -1  
$EndComp
$Comp
L Device:R R46
U 1 1 6181A175
P 10550 4200
F 0 "R46" V 10343 4200 50  0000 C CNN
F 1 "1k" V 10434 4200 50  0000 C CNN
F 2 "Resistor_SMD:R_0805_2012Metric_Pad1.20x1.40mm_HandSolder" V 10480 4200 50  0001 C CNN
F 3 "~" H 10550 4200 50  0001 C CNN
	1    10550 4200
	1    0    0    -1  
$EndComp
$Comp
L Device:R R47
U 1 1 6181AE7E
P 10550 4600
F 0 "R47" V 10343 4600 50  0000 C CNN
F 1 "1k" V 10434 4600 50  0000 C CNN
F 2 "Resistor_SMD:R_0805_2012Metric_Pad1.20x1.40mm_HandSolder" V 10480 4600 50  0001 C CNN
F 3 "~" H 10550 4600 50  0001 C CNN
	1    10550 4600
	1    0    0    -1  
$EndComp
$Comp
L power:GND #PWR0177
U 1 1 6181B209
P 10550 4750
F 0 "#PWR0177" H 10550 4500 50  0001 C CNN
F 1 "GND" H 10555 4577 50  0000 C CNN
F 2 "" H 10550 4750 50  0001 C CNN
F 3 "" H 10550 4750 50  0001 C CNN
	1    10550 4750
	1    0    0    -1  
$EndComp
Wire Wire Line
	10550 4350 10550 4400
Wire Wire Line
	10550 4400 11050 4400
Wire Wire Line
	11050 4400 11050 4350
Connection ~ 10550 4400
Wire Wire Line
	10550 4400 10550 4450
Wire Wire Line
	12450 4150 12550 4150
Text GLabel 12550 4150 2    50   Input ~ 0
Buffered2.5v
$Comp
L power:VCC #PWR0178
U 1 1 61874322
P 14100 5050
F 0 "#PWR0178" H 14100 4900 50  0001 C CNN
F 1 "VCC" H 14115 5223 50  0000 C CNN
F 2 "" H 14100 5050 50  0001 C CNN
F 3 "" H 14100 5050 50  0001 C CNN
	1    14100 5050
	0    -1   -1   0   
$EndComp
Wire Wire Line
	8250 1950 8250 2050
Wire Wire Line
	8250 2050 7300 2050
Wire Wire Line
	7300 2050 7300 2100
Connection ~ 8250 1950
Wire Wire Line
	8250 1950 8350 1950
$Comp
L Device:R R45
U 1 1 6189791C
P 7300 2250
F 0 "R45" V 7093 2250 50  0000 C CNN
F 1 "200" V 7184 2250 50  0000 C CNN
F 2 "Resistor_SMD:R_0805_2012Metric_Pad1.20x1.40mm_HandSolder" V 7230 2250 50  0001 C CNN
F 3 "~" H 7300 2250 50  0001 C CNN
	1    7300 2250
	1    0    0    -1  
$EndComp
Wire Wire Line
	7300 2400 7300 2550
Text GLabel 7300 2550 0    50   Input ~ 0
Buffered2.5v
$EndSCHEMATC
