%TF.GenerationSoftware,KiCad,Pcbnew,(5.1.10)-1*%
%TF.CreationDate,2021-10-26T16:11:43-05:00*%
%TF.ProjectId,CompleteSchematicV1,436f6d70-6c65-4746-9553-6368656d6174,rev?*%
%TF.SameCoordinates,Original*%
%TF.FileFunction,Soldermask,Top*%
%TF.FilePolarity,Negative*%
%FSLAX46Y46*%
G04 Gerber Fmt 4.6, Leading zero omitted, Abs format (unit mm)*
G04 Created by KiCad (PCBNEW (5.1.10)-1) date 2021-10-26 16:11:43*
%MOMM*%
%LPD*%
G01*
G04 APERTURE LIST*
%ADD10C,0.100000*%
%ADD11R,1.500000X1.050000*%
%ADD12O,1.500000X1.050000*%
%ADD13O,2.500000X2.500000*%
%ADD14R,2.500000X2.500000*%
%ADD15R,0.127000X0.127000*%
%ADD16C,3.200000*%
%ADD17C,3.200001*%
%ADD18C,4.800001*%
%ADD19C,1.849999*%
%ADD20R,1.849999X1.849999*%
%ADD21O,2.190000X1.740000*%
%ADD22C,1.700000*%
%ADD23R,1.450000X0.300000*%
%ADD24O,4.500000X1.905000*%
%ADD25R,4.500000X1.905000*%
%ADD26R,1.500000X2.500000*%
%ADD27R,7.000000X7.000000*%
%ADD28R,1.528000X0.650000*%
%ADD29O,1.740000X2.190000*%
%ADD30O,1.600000X1.600000*%
%ADD31C,1.600000*%
%ADD32R,5.200000X5.200000*%
%ADD33R,1.200000X1.900000*%
%ADD34O,1.200000X1.900000*%
%ADD35R,1.500000X1.900000*%
%ADD36C,1.450000*%
%ADD37R,0.400000X1.350000*%
G04 APERTURE END LIST*
D10*
%TO.C,U12*%
G36*
X127786000Y-52945000D02*
G01*
X127586001Y-52945000D01*
X127586001Y-53544998D01*
X127587922Y-53564507D01*
X127593613Y-53583266D01*
X127602854Y-53600555D01*
X127615290Y-53615709D01*
X127630444Y-53628145D01*
X127647732Y-53637386D01*
X127666492Y-53643077D01*
X127686001Y-53644998D01*
X127705510Y-53643077D01*
X127724269Y-53637386D01*
X127741558Y-53628145D01*
X127756712Y-53615709D01*
X127769148Y-53600555D01*
X127778389Y-53583266D01*
X127784079Y-53564507D01*
X127786001Y-53544998D01*
X127786000Y-52945000D01*
G37*
X127786000Y-52945000D02*
X127586001Y-52945000D01*
X127586001Y-53544998D01*
X127587922Y-53564507D01*
X127593613Y-53583266D01*
X127602854Y-53600555D01*
X127615290Y-53615709D01*
X127630444Y-53628145D01*
X127647732Y-53637386D01*
X127666492Y-53643077D01*
X127686001Y-53644998D01*
X127705510Y-53643077D01*
X127724269Y-53637386D01*
X127741558Y-53628145D01*
X127756712Y-53615709D01*
X127769148Y-53600555D01*
X127778389Y-53583266D01*
X127784079Y-53564507D01*
X127786001Y-53544998D01*
X127786000Y-52945000D01*
G36*
X128186000Y-52945000D02*
G01*
X127986000Y-52945000D01*
X127986000Y-53544998D01*
X127987921Y-53564507D01*
X127993612Y-53583266D01*
X128002853Y-53600555D01*
X128015289Y-53615709D01*
X128030443Y-53628145D01*
X128047732Y-53637386D01*
X128066491Y-53643077D01*
X128086000Y-53644998D01*
X128105509Y-53643077D01*
X128124268Y-53637386D01*
X128141557Y-53628145D01*
X128156711Y-53615709D01*
X128169147Y-53600555D01*
X128178388Y-53583266D01*
X128184079Y-53564507D01*
X128186000Y-53544998D01*
X128186000Y-52945000D01*
G37*
X128186000Y-52945000D02*
X127986000Y-52945000D01*
X127986000Y-53544998D01*
X127987921Y-53564507D01*
X127993612Y-53583266D01*
X128002853Y-53600555D01*
X128015289Y-53615709D01*
X128030443Y-53628145D01*
X128047732Y-53637386D01*
X128066491Y-53643077D01*
X128086000Y-53644998D01*
X128105509Y-53643077D01*
X128124268Y-53637386D01*
X128141557Y-53628145D01*
X128156711Y-53615709D01*
X128169147Y-53600555D01*
X128178388Y-53583266D01*
X128184079Y-53564507D01*
X128186000Y-53544998D01*
X128186000Y-52945000D01*
G36*
X128585999Y-52945000D02*
G01*
X128385999Y-52945000D01*
X128385999Y-53544998D01*
X128387921Y-53564507D01*
X128393611Y-53583266D01*
X128402852Y-53600555D01*
X128415289Y-53615709D01*
X128430442Y-53628145D01*
X128447731Y-53637386D01*
X128466490Y-53643077D01*
X128485999Y-53644998D01*
X128505508Y-53643077D01*
X128524268Y-53637386D01*
X128541556Y-53628145D01*
X128556710Y-53615709D01*
X128569146Y-53600555D01*
X128578387Y-53583266D01*
X128584078Y-53564507D01*
X128585999Y-53544998D01*
X128585999Y-52945000D01*
G37*
X128585999Y-52945000D02*
X128385999Y-52945000D01*
X128385999Y-53544998D01*
X128387921Y-53564507D01*
X128393611Y-53583266D01*
X128402852Y-53600555D01*
X128415289Y-53615709D01*
X128430442Y-53628145D01*
X128447731Y-53637386D01*
X128466490Y-53643077D01*
X128485999Y-53644998D01*
X128505508Y-53643077D01*
X128524268Y-53637386D01*
X128541556Y-53628145D01*
X128556710Y-53615709D01*
X128569146Y-53600555D01*
X128578387Y-53583266D01*
X128584078Y-53564507D01*
X128585999Y-53544998D01*
X128585999Y-52945000D01*
G36*
X128986001Y-52945000D02*
G01*
X128786001Y-52945000D01*
X128786001Y-53544998D01*
X128787922Y-53564507D01*
X128793613Y-53583266D01*
X128802854Y-53600555D01*
X128815290Y-53615709D01*
X128830444Y-53628145D01*
X128847733Y-53637386D01*
X128866492Y-53643077D01*
X128886001Y-53644998D01*
X128905510Y-53643077D01*
X128924269Y-53637386D01*
X128941558Y-53628145D01*
X128956712Y-53615709D01*
X128969148Y-53600555D01*
X128978389Y-53583266D01*
X128984080Y-53564507D01*
X128986001Y-53544998D01*
X128986001Y-52945000D01*
G37*
X128986001Y-52945000D02*
X128786001Y-52945000D01*
X128786001Y-53544998D01*
X128787922Y-53564507D01*
X128793613Y-53583266D01*
X128802854Y-53600555D01*
X128815290Y-53615709D01*
X128830444Y-53628145D01*
X128847733Y-53637386D01*
X128866492Y-53643077D01*
X128886001Y-53644998D01*
X128905510Y-53643077D01*
X128924269Y-53637386D01*
X128941558Y-53628145D01*
X128956712Y-53615709D01*
X128969148Y-53600555D01*
X128978389Y-53583266D01*
X128984080Y-53564507D01*
X128986001Y-53544998D01*
X128986001Y-52945000D01*
G36*
X129186000Y-52944994D02*
G01*
X129386000Y-52944994D01*
X129386000Y-54045004D01*
X129385039Y-54054759D01*
X129382194Y-54064138D01*
X129377573Y-54072782D01*
X129371355Y-54080359D01*
X129363778Y-54086577D01*
X129355134Y-54091198D01*
X129345754Y-54094043D01*
X129336000Y-54095004D01*
X129235698Y-54095199D01*
X129225944Y-54094238D01*
X129216564Y-54091393D01*
X129207920Y-54086772D01*
X129200343Y-54080554D01*
X129194125Y-54072977D01*
X129189504Y-54064333D01*
X129186659Y-54054953D01*
X129185698Y-54045199D01*
X129186000Y-52944994D01*
G37*
X129186000Y-52944994D02*
X129386000Y-52944994D01*
X129386000Y-54045004D01*
X129385039Y-54054759D01*
X129382194Y-54064138D01*
X129377573Y-54072782D01*
X129371355Y-54080359D01*
X129363778Y-54086577D01*
X129355134Y-54091198D01*
X129345754Y-54094043D01*
X129336000Y-54095004D01*
X129235698Y-54095199D01*
X129225944Y-54094238D01*
X129216564Y-54091393D01*
X129207920Y-54086772D01*
X129200343Y-54080554D01*
X129194125Y-54072977D01*
X129189504Y-54064333D01*
X129186659Y-54054953D01*
X129185698Y-54045199D01*
X129186000Y-52944994D01*
G36*
X129785999Y-52945000D02*
G01*
X129585999Y-52945000D01*
X129585999Y-53544998D01*
X129587921Y-53564507D01*
X129593611Y-53583266D01*
X129602852Y-53600555D01*
X129615289Y-53615709D01*
X129630442Y-53628145D01*
X129647731Y-53637386D01*
X129666490Y-53643077D01*
X129685999Y-53644998D01*
X129705508Y-53643077D01*
X129724268Y-53637386D01*
X129741556Y-53628145D01*
X129756710Y-53615709D01*
X129769146Y-53600555D01*
X129778387Y-53583266D01*
X129784078Y-53564507D01*
X129785999Y-53544998D01*
X129785999Y-52945000D01*
G37*
X129785999Y-52945000D02*
X129585999Y-52945000D01*
X129585999Y-53544998D01*
X129587921Y-53564507D01*
X129593611Y-53583266D01*
X129602852Y-53600555D01*
X129615289Y-53615709D01*
X129630442Y-53628145D01*
X129647731Y-53637386D01*
X129666490Y-53643077D01*
X129685999Y-53644998D01*
X129705508Y-53643077D01*
X129724268Y-53637386D01*
X129741556Y-53628145D01*
X129756710Y-53615709D01*
X129769146Y-53600555D01*
X129778387Y-53583266D01*
X129784078Y-53564507D01*
X129785999Y-53544998D01*
X129785999Y-52945000D01*
G36*
X130186001Y-52945000D02*
G01*
X129986001Y-52945000D01*
X129986001Y-53544998D01*
X129987923Y-53564507D01*
X129993613Y-53583266D01*
X130002854Y-53600555D01*
X130015290Y-53615709D01*
X130030444Y-53628145D01*
X130047733Y-53637386D01*
X130066492Y-53643077D01*
X130086001Y-53644998D01*
X130105510Y-53643077D01*
X130124270Y-53637386D01*
X130141558Y-53628145D01*
X130156712Y-53615709D01*
X130169148Y-53600555D01*
X130178389Y-53583266D01*
X130184080Y-53564507D01*
X130186001Y-53544998D01*
X130186001Y-52945000D01*
G37*
X130186001Y-52945000D02*
X129986001Y-52945000D01*
X129986001Y-53544998D01*
X129987923Y-53564507D01*
X129993613Y-53583266D01*
X130002854Y-53600555D01*
X130015290Y-53615709D01*
X130030444Y-53628145D01*
X130047733Y-53637386D01*
X130066492Y-53643077D01*
X130086001Y-53644998D01*
X130105510Y-53643077D01*
X130124270Y-53637386D01*
X130141558Y-53628145D01*
X130156712Y-53615709D01*
X130169148Y-53600555D01*
X130178389Y-53583266D01*
X130184080Y-53564507D01*
X130186001Y-53544998D01*
X130186001Y-52945000D01*
G36*
X130586000Y-52945000D02*
G01*
X130386000Y-52945000D01*
X130386000Y-53544998D01*
X130387922Y-53564507D01*
X130393612Y-53583266D01*
X130402853Y-53600555D01*
X130415290Y-53615709D01*
X130430443Y-53628145D01*
X130447732Y-53637386D01*
X130466491Y-53643077D01*
X130486000Y-53644998D01*
X130505509Y-53643077D01*
X130524269Y-53637386D01*
X130541557Y-53628145D01*
X130556711Y-53615709D01*
X130569147Y-53600555D01*
X130578388Y-53583266D01*
X130584079Y-53564507D01*
X130586000Y-53544998D01*
X130586000Y-52945000D01*
G37*
X130586000Y-52945000D02*
X130386000Y-52945000D01*
X130386000Y-53544998D01*
X130387922Y-53564507D01*
X130393612Y-53583266D01*
X130402853Y-53600555D01*
X130415290Y-53615709D01*
X130430443Y-53628145D01*
X130447732Y-53637386D01*
X130466491Y-53643077D01*
X130486000Y-53644998D01*
X130505509Y-53643077D01*
X130524269Y-53637386D01*
X130541557Y-53628145D01*
X130556711Y-53615709D01*
X130569147Y-53600555D01*
X130578388Y-53583266D01*
X130584079Y-53564507D01*
X130586000Y-53544998D01*
X130586000Y-52945000D01*
G36*
X130985999Y-52945000D02*
G01*
X130786000Y-52945000D01*
X130785999Y-53544998D01*
X130787921Y-53564507D01*
X130793612Y-53583266D01*
X130802853Y-53600555D01*
X130815289Y-53615709D01*
X130830442Y-53628145D01*
X130847731Y-53637386D01*
X130866490Y-53643077D01*
X130886000Y-53644998D01*
X130905509Y-53643077D01*
X130924268Y-53637386D01*
X130941557Y-53628145D01*
X130956710Y-53615709D01*
X130969147Y-53600555D01*
X130978388Y-53583266D01*
X130984078Y-53564507D01*
X130986000Y-53544998D01*
X130985999Y-52945000D01*
G37*
X130985999Y-52945000D02*
X130786000Y-52945000D01*
X130785999Y-53544998D01*
X130787921Y-53564507D01*
X130793612Y-53583266D01*
X130802853Y-53600555D01*
X130815289Y-53615709D01*
X130830442Y-53628145D01*
X130847731Y-53637386D01*
X130866490Y-53643077D01*
X130886000Y-53644998D01*
X130905509Y-53643077D01*
X130924268Y-53637386D01*
X130941557Y-53628145D01*
X130956710Y-53615709D01*
X130969147Y-53600555D01*
X130978388Y-53583266D01*
X130984078Y-53564507D01*
X130986000Y-53544998D01*
X130985999Y-52945000D01*
G36*
X130735996Y-54235000D02*
G01*
X130936006Y-53945000D01*
X131586006Y-53945000D01*
X131586006Y-54544999D01*
X130385801Y-54545301D01*
X130376047Y-54544340D01*
X130366667Y-54541495D01*
X130358023Y-54536875D01*
X130350446Y-54530656D01*
X130344228Y-54523080D01*
X130339607Y-54514435D01*
X130336762Y-54505056D01*
X130335801Y-54495301D01*
X130335996Y-54285000D01*
X130336957Y-54275246D01*
X130344422Y-54257222D01*
X130350641Y-54249645D01*
X130358217Y-54243427D01*
X130366862Y-54238807D01*
X130376241Y-54235961D01*
X130385996Y-54235001D01*
X130735996Y-54235000D01*
G37*
X130735996Y-54235000D02*
X130936006Y-53945000D01*
X131586006Y-53945000D01*
X131586006Y-54544999D01*
X130385801Y-54545301D01*
X130376047Y-54544340D01*
X130366667Y-54541495D01*
X130358023Y-54536875D01*
X130350446Y-54530656D01*
X130344228Y-54523080D01*
X130339607Y-54514435D01*
X130336762Y-54505056D01*
X130335801Y-54495301D01*
X130335996Y-54285000D01*
X130336957Y-54275246D01*
X130344422Y-54257222D01*
X130350641Y-54249645D01*
X130358217Y-54243427D01*
X130366862Y-54238807D01*
X130376241Y-54235961D01*
X130385996Y-54235001D01*
X130735996Y-54235000D01*
G36*
X131586006Y-54945000D02*
G01*
X131586006Y-54745000D01*
X130385996Y-54745000D01*
X130376241Y-54745961D01*
X130366862Y-54748806D01*
X130358218Y-54753427D01*
X130350641Y-54759645D01*
X130344423Y-54767222D01*
X130339802Y-54775866D01*
X130336957Y-54785246D01*
X130335996Y-54795000D01*
X130335801Y-54895302D01*
X130336762Y-54905056D01*
X130339607Y-54914436D01*
X130344228Y-54923080D01*
X130350446Y-54930657D01*
X130358023Y-54936875D01*
X130366667Y-54941496D01*
X130376047Y-54944341D01*
X130385801Y-54945302D01*
X131586006Y-54945000D01*
G37*
X131586006Y-54945000D02*
X131586006Y-54745000D01*
X130385996Y-54745000D01*
X130376241Y-54745961D01*
X130366862Y-54748806D01*
X130358218Y-54753427D01*
X130350641Y-54759645D01*
X130344423Y-54767222D01*
X130339802Y-54775866D01*
X130336957Y-54785246D01*
X130335996Y-54795000D01*
X130335801Y-54895302D01*
X130336762Y-54905056D01*
X130339607Y-54914436D01*
X130344228Y-54923080D01*
X130350446Y-54930657D01*
X130358023Y-54936875D01*
X130366667Y-54941496D01*
X130376047Y-54944341D01*
X130385801Y-54945302D01*
X131586006Y-54945000D01*
G36*
X131586006Y-55345001D02*
G01*
X131586006Y-55145001D01*
X130385996Y-55145001D01*
X130376241Y-55145962D01*
X130366862Y-55148807D01*
X130358218Y-55153428D01*
X130350641Y-55159646D01*
X130344423Y-55167223D01*
X130339802Y-55175867D01*
X130336957Y-55185247D01*
X130335996Y-55195001D01*
X130335996Y-55245001D01*
X130336957Y-55254755D01*
X130339802Y-55264135D01*
X130344423Y-55272779D01*
X130350641Y-55280356D01*
X130358218Y-55286574D01*
X130366862Y-55291194D01*
X130376241Y-55294040D01*
X130385996Y-55295001D01*
X130785996Y-55295001D01*
X130856006Y-55345001D01*
X131586006Y-55345001D01*
G37*
X131586006Y-55345001D02*
X131586006Y-55145001D01*
X130385996Y-55145001D01*
X130376241Y-55145962D01*
X130366862Y-55148807D01*
X130358218Y-55153428D01*
X130350641Y-55159646D01*
X130344423Y-55167223D01*
X130339802Y-55175867D01*
X130336957Y-55185247D01*
X130335996Y-55195001D01*
X130335996Y-55245001D01*
X130336957Y-55254755D01*
X130339802Y-55264135D01*
X130344423Y-55272779D01*
X130350641Y-55280356D01*
X130358218Y-55286574D01*
X130366862Y-55291194D01*
X130376241Y-55294040D01*
X130385996Y-55295001D01*
X130785996Y-55295001D01*
X130856006Y-55345001D01*
X131586006Y-55345001D01*
G36*
X130385996Y-55545002D02*
G01*
X130376241Y-55545963D01*
X130366862Y-55548808D01*
X130358217Y-55553429D01*
X130350641Y-55559647D01*
X130344422Y-55567223D01*
X130339802Y-55575868D01*
X130336957Y-55585247D01*
X130335996Y-55595002D01*
X130335801Y-55695303D01*
X130335996Y-55995000D01*
X130335801Y-56095302D01*
X130336762Y-56105056D01*
X130344228Y-56123080D01*
X130350446Y-56130657D01*
X130358023Y-56136875D01*
X130366667Y-56141496D01*
X130376047Y-56144341D01*
X130385801Y-56145302D01*
X130791006Y-56145000D01*
X130936006Y-56332000D01*
X130936006Y-56545000D01*
X131586006Y-56545000D01*
X131586006Y-55545002D01*
X130385996Y-55545002D01*
G37*
X130385996Y-55545002D02*
X130376241Y-55545963D01*
X130366862Y-55548808D01*
X130358217Y-55553429D01*
X130350641Y-55559647D01*
X130344422Y-55567223D01*
X130339802Y-55575868D01*
X130336957Y-55585247D01*
X130335996Y-55595002D01*
X130335801Y-55695303D01*
X130335996Y-55995000D01*
X130335801Y-56095302D01*
X130336762Y-56105056D01*
X130344228Y-56123080D01*
X130350446Y-56130657D01*
X130358023Y-56136875D01*
X130366667Y-56141496D01*
X130376047Y-56144341D01*
X130385801Y-56145302D01*
X130791006Y-56145000D01*
X130936006Y-56332000D01*
X130936006Y-56545000D01*
X131586006Y-56545000D01*
X131586006Y-55545002D01*
X130385996Y-55545002D01*
G36*
X130986500Y-57545001D02*
G01*
X130986500Y-56947001D01*
X130571500Y-56545001D01*
X130036399Y-56544600D01*
X130026644Y-56545561D01*
X130017265Y-56548406D01*
X130008620Y-56553027D01*
X130001044Y-56559245D01*
X129994825Y-56566822D01*
X129990205Y-56575466D01*
X129987360Y-56584846D01*
X129986399Y-56594600D01*
X129986500Y-57545001D01*
X130986500Y-57545001D01*
G37*
X130986500Y-57545001D02*
X130986500Y-56947001D01*
X130571500Y-56545001D01*
X130036399Y-56544600D01*
X130026644Y-56545561D01*
X130017265Y-56548406D01*
X130008620Y-56553027D01*
X130001044Y-56559245D01*
X129994825Y-56566822D01*
X129990205Y-56575466D01*
X129987360Y-56584846D01*
X129986399Y-56594600D01*
X129986500Y-57545001D01*
X130986500Y-57545001D01*
G36*
X129785999Y-57545006D02*
G01*
X129585999Y-57545006D01*
X129585999Y-56444996D01*
X129586960Y-56435241D01*
X129589806Y-56425862D01*
X129594426Y-56417218D01*
X129600644Y-56409641D01*
X129608221Y-56403423D01*
X129616865Y-56398802D01*
X129626245Y-56395957D01*
X129635999Y-56394996D01*
X129685999Y-56394996D01*
X129695753Y-56395957D01*
X129705133Y-56398802D01*
X129713777Y-56403423D01*
X129721354Y-56409641D01*
X129727572Y-56417218D01*
X129732193Y-56425862D01*
X129735038Y-56435241D01*
X129735999Y-56444996D01*
X129735999Y-56844996D01*
X129785999Y-56915006D01*
X129785999Y-57545006D01*
G37*
X129785999Y-57545006D02*
X129585999Y-57545006D01*
X129585999Y-56444996D01*
X129586960Y-56435241D01*
X129589806Y-56425862D01*
X129594426Y-56417218D01*
X129600644Y-56409641D01*
X129608221Y-56403423D01*
X129616865Y-56398802D01*
X129626245Y-56395957D01*
X129635999Y-56394996D01*
X129685999Y-56394996D01*
X129695753Y-56395957D01*
X129705133Y-56398802D01*
X129713777Y-56403423D01*
X129721354Y-56409641D01*
X129727572Y-56417218D01*
X129732193Y-56425862D01*
X129735038Y-56435241D01*
X129735999Y-56444996D01*
X129735999Y-56844996D01*
X129785999Y-56915006D01*
X129785999Y-57545006D01*
G36*
X129186000Y-57545006D02*
G01*
X129386000Y-57545006D01*
X129386000Y-56444996D01*
X129385039Y-56435241D01*
X129382194Y-56425862D01*
X129377573Y-56417218D01*
X129371355Y-56409641D01*
X129363778Y-56403423D01*
X129355134Y-56398802D01*
X129345754Y-56395957D01*
X129336000Y-56394996D01*
X129235698Y-56394801D01*
X129225944Y-56395762D01*
X129216564Y-56398607D01*
X129207920Y-56403228D01*
X129200343Y-56409446D01*
X129194125Y-56417023D01*
X129189504Y-56425667D01*
X129186659Y-56435047D01*
X129185698Y-56444801D01*
X129186000Y-57545006D01*
G37*
X129186000Y-57545006D02*
X129386000Y-57545006D01*
X129386000Y-56444996D01*
X129385039Y-56435241D01*
X129382194Y-56425862D01*
X129377573Y-56417218D01*
X129371355Y-56409641D01*
X129363778Y-56403423D01*
X129355134Y-56398802D01*
X129345754Y-56395957D01*
X129336000Y-56394996D01*
X129235698Y-56394801D01*
X129225944Y-56395762D01*
X129216564Y-56398607D01*
X129207920Y-56403228D01*
X129200343Y-56409446D01*
X129194125Y-56417023D01*
X129189504Y-56425667D01*
X129186659Y-56435047D01*
X129185698Y-56444801D01*
X129186000Y-57545006D01*
G36*
X127986499Y-57545001D02*
G01*
X127986499Y-56947001D01*
X128401499Y-56545001D01*
X128936600Y-56544600D01*
X128946355Y-56545561D01*
X128955734Y-56548406D01*
X128964379Y-56553027D01*
X128971955Y-56559245D01*
X128978174Y-56566822D01*
X128982794Y-56575466D01*
X128985639Y-56584846D01*
X128986600Y-56594600D01*
X128986499Y-57545001D01*
X127986499Y-57545001D01*
G37*
X127986499Y-57545001D02*
X127986499Y-56947001D01*
X128401499Y-56545001D01*
X128936600Y-56544600D01*
X128946355Y-56545561D01*
X128955734Y-56548406D01*
X128964379Y-56553027D01*
X128971955Y-56559245D01*
X128978174Y-56566822D01*
X128982794Y-56575466D01*
X128985639Y-56584846D01*
X128986600Y-56594600D01*
X128986499Y-57545001D01*
X127986499Y-57545001D01*
G36*
X126985999Y-55944501D02*
G01*
X126985999Y-56544501D01*
X127585999Y-56544501D01*
X127585999Y-57544501D01*
X127785999Y-57544501D01*
X127785999Y-56677501D01*
X127985999Y-56544501D01*
X127985999Y-55994501D01*
X127985038Y-55984746D01*
X127982193Y-55975367D01*
X127977572Y-55966723D01*
X127971354Y-55959146D01*
X127963777Y-55952928D01*
X127955133Y-55948307D01*
X127945753Y-55945462D01*
X127935999Y-55944501D01*
X126985999Y-55944501D01*
G37*
X126985999Y-55944501D02*
X126985999Y-56544501D01*
X127585999Y-56544501D01*
X127585999Y-57544501D01*
X127785999Y-57544501D01*
X127785999Y-56677501D01*
X127985999Y-56544501D01*
X127985999Y-55994501D01*
X127985038Y-55984746D01*
X127982193Y-55975367D01*
X127977572Y-55966723D01*
X127971354Y-55959146D01*
X127963777Y-55952928D01*
X127955133Y-55948307D01*
X127945753Y-55945462D01*
X127935999Y-55944501D01*
X126985999Y-55944501D01*
G36*
X126985994Y-55545001D02*
G01*
X126985994Y-55745001D01*
X128086004Y-55745001D01*
X128095759Y-55744040D01*
X128105138Y-55741194D01*
X128113782Y-55736574D01*
X128121359Y-55730356D01*
X128127577Y-55722779D01*
X128132198Y-55714135D01*
X128135043Y-55704755D01*
X128136004Y-55695001D01*
X128136199Y-55594699D01*
X128135238Y-55584945D01*
X128132393Y-55575565D01*
X128127772Y-55566921D01*
X128121554Y-55559344D01*
X128113977Y-55553126D01*
X128105333Y-55548505D01*
X128095953Y-55545660D01*
X128086199Y-55544699D01*
X126985994Y-55545001D01*
G37*
X126985994Y-55545001D02*
X126985994Y-55745001D01*
X128086004Y-55745001D01*
X128095759Y-55744040D01*
X128105138Y-55741194D01*
X128113782Y-55736574D01*
X128121359Y-55730356D01*
X128127577Y-55722779D01*
X128132198Y-55714135D01*
X128135043Y-55704755D01*
X128136004Y-55695001D01*
X128136199Y-55594699D01*
X128135238Y-55584945D01*
X128132393Y-55575565D01*
X128127772Y-55566921D01*
X128121554Y-55559344D01*
X128113977Y-55553126D01*
X128105333Y-55548505D01*
X128095953Y-55545660D01*
X128086199Y-55544699D01*
X126985994Y-55545001D01*
G36*
X126985994Y-55144999D02*
G01*
X126985994Y-55344999D01*
X128086004Y-55344999D01*
X128095759Y-55344038D01*
X128105138Y-55341193D01*
X128113782Y-55336572D01*
X128121359Y-55330354D01*
X128127577Y-55322777D01*
X128132198Y-55314133D01*
X128135043Y-55304753D01*
X128136004Y-55294999D01*
X128136004Y-55244999D01*
X128135043Y-55235245D01*
X128132198Y-55225865D01*
X128127577Y-55217221D01*
X128121359Y-55209644D01*
X128113782Y-55203426D01*
X128105138Y-55198805D01*
X128095759Y-55195960D01*
X128086004Y-55194999D01*
X127686004Y-55194999D01*
X127615994Y-55144999D01*
X126985994Y-55144999D01*
G37*
X126985994Y-55144999D02*
X126985994Y-55344999D01*
X128086004Y-55344999D01*
X128095759Y-55344038D01*
X128105138Y-55341193D01*
X128113782Y-55336572D01*
X128121359Y-55330354D01*
X128127577Y-55322777D01*
X128132198Y-55314133D01*
X128135043Y-55304753D01*
X128136004Y-55294999D01*
X128136004Y-55244999D01*
X128135043Y-55235245D01*
X128132198Y-55225865D01*
X128127577Y-55217221D01*
X128121359Y-55209644D01*
X128113782Y-55203426D01*
X128105138Y-55198805D01*
X128095759Y-55195960D01*
X128086004Y-55194999D01*
X127686004Y-55194999D01*
X127615994Y-55144999D01*
X126985994Y-55144999D01*
G36*
X126985994Y-54745001D02*
G01*
X126985994Y-54945001D01*
X128086004Y-54945001D01*
X128095759Y-54944040D01*
X128105138Y-54941194D01*
X128113782Y-54936574D01*
X128121359Y-54930356D01*
X128127577Y-54922779D01*
X128132198Y-54914135D01*
X128135043Y-54904755D01*
X128136004Y-54895001D01*
X128136199Y-54794699D01*
X128135238Y-54784945D01*
X128132393Y-54775565D01*
X128127772Y-54766921D01*
X128121554Y-54759344D01*
X128113977Y-54753126D01*
X128105333Y-54748505D01*
X128095953Y-54745660D01*
X128086199Y-54744699D01*
X126985994Y-54745001D01*
G37*
X126985994Y-54745001D02*
X126985994Y-54945001D01*
X128086004Y-54945001D01*
X128095759Y-54944040D01*
X128105138Y-54941194D01*
X128113782Y-54936574D01*
X128121359Y-54930356D01*
X128127577Y-54922779D01*
X128132198Y-54914135D01*
X128135043Y-54904755D01*
X128136004Y-54895001D01*
X128136199Y-54794699D01*
X128135238Y-54784945D01*
X128132393Y-54775565D01*
X128127772Y-54766921D01*
X128121554Y-54759344D01*
X128113977Y-54753126D01*
X128105333Y-54748505D01*
X128095953Y-54745660D01*
X128086199Y-54744699D01*
X126985994Y-54745001D01*
G36*
X126985994Y-54344999D02*
G01*
X126985994Y-54544999D01*
X128086004Y-54544999D01*
X128095759Y-54544038D01*
X128105138Y-54541193D01*
X128113782Y-54536572D01*
X128121359Y-54530354D01*
X128127577Y-54522777D01*
X128132198Y-54514133D01*
X128135043Y-54504753D01*
X128136004Y-54494999D01*
X128136004Y-54444999D01*
X128135043Y-54435245D01*
X128132198Y-54425865D01*
X128127577Y-54417221D01*
X128121359Y-54409644D01*
X128113782Y-54403426D01*
X128105138Y-54398805D01*
X128095759Y-54395960D01*
X128086004Y-54394999D01*
X127686004Y-54394999D01*
X127615994Y-54344999D01*
X126985994Y-54344999D01*
G37*
X126985994Y-54344999D02*
X126985994Y-54544999D01*
X128086004Y-54544999D01*
X128095759Y-54544038D01*
X128105138Y-54541193D01*
X128113782Y-54536572D01*
X128121359Y-54530354D01*
X128127577Y-54522777D01*
X128132198Y-54514133D01*
X128135043Y-54504753D01*
X128136004Y-54494999D01*
X128136004Y-54444999D01*
X128135043Y-54435245D01*
X128132198Y-54425865D01*
X128127577Y-54417221D01*
X128121359Y-54409644D01*
X128113782Y-54403426D01*
X128105138Y-54398805D01*
X128095759Y-54395960D01*
X128086004Y-54394999D01*
X127686004Y-54394999D01*
X127615994Y-54344999D01*
X126985994Y-54344999D01*
G36*
X127566000Y-53945000D02*
G01*
X126986000Y-53945000D01*
X126986000Y-54145000D01*
X127635800Y-54145000D01*
X127645554Y-54144039D01*
X127654934Y-54141194D01*
X127663578Y-54136573D01*
X127670900Y-54130100D01*
X127677373Y-54122778D01*
X127681994Y-54114134D01*
X127684839Y-54104754D01*
X127685800Y-54095000D01*
X127685998Y-54065000D01*
X127566000Y-53945000D01*
G37*
X127566000Y-53945000D02*
X126986000Y-53945000D01*
X126986000Y-54145000D01*
X127635800Y-54145000D01*
X127645554Y-54144039D01*
X127654934Y-54141194D01*
X127663578Y-54136573D01*
X127670900Y-54130100D01*
X127677373Y-54122778D01*
X127681994Y-54114134D01*
X127684839Y-54104754D01*
X127685800Y-54095000D01*
X127685998Y-54065000D01*
X127566000Y-53945000D01*
%TD*%
D11*
%TO.C,Q3*%
X174371000Y-82931000D03*
D12*
X174371000Y-85471000D03*
X174371000Y-84201000D03*
%TD*%
D11*
%TO.C,Q2*%
X174371000Y-75692000D03*
D12*
X174371000Y-78232000D03*
X174371000Y-76962000D03*
%TD*%
D13*
%TO.C,RL1*%
X161290000Y-62237000D03*
X176290000Y-62237000D03*
X181290000Y-62237000D03*
X186290000Y-62237000D03*
X186290000Y-54737000D03*
X181290000Y-54737000D03*
X176290000Y-54737000D03*
D14*
X161290000Y-54737000D03*
%TD*%
%TO.C,L1*%
G36*
G01*
X135144000Y-59493000D02*
X135144000Y-63443000D01*
G75*
G02*
X134894000Y-63693000I-250000J0D01*
G01*
X132194000Y-63693000D01*
G75*
G02*
X131944000Y-63443000I0J250000D01*
G01*
X131944000Y-59493000D01*
G75*
G02*
X132194000Y-59243000I250000J0D01*
G01*
X134894000Y-59243000D01*
G75*
G02*
X135144000Y-59493000I0J-250000D01*
G01*
G37*
G36*
G01*
X140344000Y-59493000D02*
X140344000Y-63443000D01*
G75*
G02*
X140094000Y-63693000I-250000J0D01*
G01*
X137394000Y-63693000D01*
G75*
G02*
X137144000Y-63443000I0J250000D01*
G01*
X137144000Y-59493000D01*
G75*
G02*
X137394000Y-59243000I250000J0D01*
G01*
X140094000Y-59243000D01*
G75*
G02*
X140344000Y-59493000I0J-250000D01*
G01*
G37*
%TD*%
D15*
%TO.C,U12*%
X131241800Y-54051200D03*
X131241800Y-56032400D03*
X131241800Y-55651400D03*
X130505200Y-57175400D03*
X130860800Y-57175400D03*
X128498600Y-57175400D03*
X128879600Y-57175400D03*
X127685800Y-56972200D03*
X127330200Y-56413400D03*
X127686001Y-53294999D03*
X128086000Y-53294999D03*
X128485999Y-53294999D03*
X128886001Y-53294999D03*
X129286000Y-53519999D03*
X129685999Y-53294999D03*
X130086001Y-53294999D03*
X130486000Y-53294999D03*
X130885999Y-53294999D03*
X131241800Y-54432200D03*
X131011001Y-55245001D03*
X131011001Y-54845000D03*
X131241800Y-56413400D03*
X130098800Y-57175400D03*
X129685999Y-56970001D03*
X129286000Y-56970001D03*
X128117600Y-57175400D03*
X127330200Y-56057800D03*
X127335999Y-55644999D03*
X127335999Y-55245000D03*
X127335999Y-54845001D03*
X127335999Y-54444999D03*
X127335999Y-54045000D03*
%TD*%
%TO.C,R10*%
G36*
G01*
X136544000Y-48964001D02*
X136544000Y-48063999D01*
G75*
G02*
X136793999Y-47814000I249999J0D01*
G01*
X137494001Y-47814000D01*
G75*
G02*
X137744000Y-48063999I0J-249999D01*
G01*
X137744000Y-48964001D01*
G75*
G02*
X137494001Y-49214000I-249999J0D01*
G01*
X136793999Y-49214000D01*
G75*
G02*
X136544000Y-48964001I0J249999D01*
G01*
G37*
G36*
G01*
X134544000Y-48964001D02*
X134544000Y-48063999D01*
G75*
G02*
X134793999Y-47814000I249999J0D01*
G01*
X135494001Y-47814000D01*
G75*
G02*
X135744000Y-48063999I0J-249999D01*
G01*
X135744000Y-48964001D01*
G75*
G02*
X135494001Y-49214000I-249999J0D01*
G01*
X134793999Y-49214000D01*
G75*
G02*
X134544000Y-48964001I0J249999D01*
G01*
G37*
%TD*%
%TO.C,R9*%
G36*
G01*
X130625001Y-48892000D02*
X129724999Y-48892000D01*
G75*
G02*
X129475000Y-48642001I0J249999D01*
G01*
X129475000Y-47941999D01*
G75*
G02*
X129724999Y-47692000I249999J0D01*
G01*
X130625001Y-47692000D01*
G75*
G02*
X130875000Y-47941999I0J-249999D01*
G01*
X130875000Y-48642001D01*
G75*
G02*
X130625001Y-48892000I-249999J0D01*
G01*
G37*
G36*
G01*
X130625001Y-50892000D02*
X129724999Y-50892000D01*
G75*
G02*
X129475000Y-50642001I0J249999D01*
G01*
X129475000Y-49941999D01*
G75*
G02*
X129724999Y-49692000I249999J0D01*
G01*
X130625001Y-49692000D01*
G75*
G02*
X130875000Y-49941999I0J-249999D01*
G01*
X130875000Y-50642001D01*
G75*
G02*
X130625001Y-50892000I-249999J0D01*
G01*
G37*
%TD*%
%TO.C,R5*%
G36*
G01*
X126053001Y-48876000D02*
X125152999Y-48876000D01*
G75*
G02*
X124903000Y-48626001I0J249999D01*
G01*
X124903000Y-47925999D01*
G75*
G02*
X125152999Y-47676000I249999J0D01*
G01*
X126053001Y-47676000D01*
G75*
G02*
X126303000Y-47925999I0J-249999D01*
G01*
X126303000Y-48626001D01*
G75*
G02*
X126053001Y-48876000I-249999J0D01*
G01*
G37*
G36*
G01*
X126053001Y-50876000D02*
X125152999Y-50876000D01*
G75*
G02*
X124903000Y-50626001I0J249999D01*
G01*
X124903000Y-49925999D01*
G75*
G02*
X125152999Y-49676000I249999J0D01*
G01*
X126053001Y-49676000D01*
G75*
G02*
X126303000Y-49925999I0J-249999D01*
G01*
X126303000Y-50626001D01*
G75*
G02*
X126053001Y-50876000I-249999J0D01*
G01*
G37*
%TD*%
%TO.C,D1*%
G36*
G01*
X132137999Y-49853000D02*
X133038001Y-49853000D01*
G75*
G02*
X133288000Y-50102999I0J-249999D01*
G01*
X133288000Y-50753001D01*
G75*
G02*
X133038001Y-51003000I-249999J0D01*
G01*
X132137999Y-51003000D01*
G75*
G02*
X131888000Y-50753001I0J249999D01*
G01*
X131888000Y-50102999D01*
G75*
G02*
X132137999Y-49853000I249999J0D01*
G01*
G37*
G36*
G01*
X132137999Y-47803000D02*
X133038001Y-47803000D01*
G75*
G02*
X133288000Y-48052999I0J-249999D01*
G01*
X133288000Y-48703001D01*
G75*
G02*
X133038001Y-48953000I-249999J0D01*
G01*
X132137999Y-48953000D01*
G75*
G02*
X131888000Y-48703001I0J249999D01*
G01*
X131888000Y-48052999D01*
G75*
G02*
X132137999Y-47803000I249999J0D01*
G01*
G37*
%TD*%
%TO.C,C31*%
G36*
G01*
X127414000Y-49726000D02*
X128364000Y-49726000D01*
G75*
G02*
X128614000Y-49976000I0J-250000D01*
G01*
X128614000Y-50651000D01*
G75*
G02*
X128364000Y-50901000I-250000J0D01*
G01*
X127414000Y-50901000D01*
G75*
G02*
X127164000Y-50651000I0J250000D01*
G01*
X127164000Y-49976000D01*
G75*
G02*
X127414000Y-49726000I250000J0D01*
G01*
G37*
G36*
G01*
X127414000Y-47651000D02*
X128364000Y-47651000D01*
G75*
G02*
X128614000Y-47901000I0J-250000D01*
G01*
X128614000Y-48576000D01*
G75*
G02*
X128364000Y-48826000I-250000J0D01*
G01*
X127414000Y-48826000D01*
G75*
G02*
X127164000Y-48576000I0J250000D01*
G01*
X127164000Y-47901000D01*
G75*
G02*
X127414000Y-47651000I250000J0D01*
G01*
G37*
%TD*%
%TO.C,C30*%
G36*
G01*
X138763500Y-53754000D02*
X138763500Y-54704000D01*
G75*
G02*
X138513500Y-54954000I-250000J0D01*
G01*
X137838500Y-54954000D01*
G75*
G02*
X137588500Y-54704000I0J250000D01*
G01*
X137588500Y-53754000D01*
G75*
G02*
X137838500Y-53504000I250000J0D01*
G01*
X138513500Y-53504000D01*
G75*
G02*
X138763500Y-53754000I0J-250000D01*
G01*
G37*
G36*
G01*
X140838500Y-53754000D02*
X140838500Y-54704000D01*
G75*
G02*
X140588500Y-54954000I-250000J0D01*
G01*
X139913500Y-54954000D01*
G75*
G02*
X139663500Y-54704000I0J250000D01*
G01*
X139663500Y-53754000D01*
G75*
G02*
X139913500Y-53504000I250000J0D01*
G01*
X140588500Y-53504000D01*
G75*
G02*
X140838500Y-53754000I0J-250000D01*
G01*
G37*
%TD*%
%TO.C,C29*%
G36*
G01*
X134572500Y-54770000D02*
X134572500Y-55720000D01*
G75*
G02*
X134322500Y-55970000I-250000J0D01*
G01*
X133647500Y-55970000D01*
G75*
G02*
X133397500Y-55720000I0J250000D01*
G01*
X133397500Y-54770000D01*
G75*
G02*
X133647500Y-54520000I250000J0D01*
G01*
X134322500Y-54520000D01*
G75*
G02*
X134572500Y-54770000I0J-250000D01*
G01*
G37*
G36*
G01*
X136647500Y-54770000D02*
X136647500Y-55720000D01*
G75*
G02*
X136397500Y-55970000I-250000J0D01*
G01*
X135722500Y-55970000D01*
G75*
G02*
X135472500Y-55720000I0J250000D01*
G01*
X135472500Y-54770000D01*
G75*
G02*
X135722500Y-54520000I250000J0D01*
G01*
X136397500Y-54520000D01*
G75*
G02*
X136647500Y-54770000I0J-250000D01*
G01*
G37*
%TD*%
%TO.C,C9*%
G36*
G01*
X134572500Y-52484000D02*
X134572500Y-53434000D01*
G75*
G02*
X134322500Y-53684000I-250000J0D01*
G01*
X133647500Y-53684000D01*
G75*
G02*
X133397500Y-53434000I0J250000D01*
G01*
X133397500Y-52484000D01*
G75*
G02*
X133647500Y-52234000I250000J0D01*
G01*
X134322500Y-52234000D01*
G75*
G02*
X134572500Y-52484000I0J-250000D01*
G01*
G37*
G36*
G01*
X136647500Y-52484000D02*
X136647500Y-53434000D01*
G75*
G02*
X136397500Y-53684000I-250000J0D01*
G01*
X135722500Y-53684000D01*
G75*
G02*
X135472500Y-53434000I0J250000D01*
G01*
X135472500Y-52484000D01*
G75*
G02*
X135722500Y-52234000I250000J0D01*
G01*
X136397500Y-52234000D01*
G75*
G02*
X136647500Y-52484000I0J-250000D01*
G01*
G37*
%TD*%
%TO.C,C8*%
G36*
G01*
X134572500Y-57183000D02*
X134572500Y-58133000D01*
G75*
G02*
X134322500Y-58383000I-250000J0D01*
G01*
X133647500Y-58383000D01*
G75*
G02*
X133397500Y-58133000I0J250000D01*
G01*
X133397500Y-57183000D01*
G75*
G02*
X133647500Y-56933000I250000J0D01*
G01*
X134322500Y-56933000D01*
G75*
G02*
X134572500Y-57183000I0J-250000D01*
G01*
G37*
G36*
G01*
X136647500Y-57183000D02*
X136647500Y-58133000D01*
G75*
G02*
X136397500Y-58383000I-250000J0D01*
G01*
X135722500Y-58383000D01*
G75*
G02*
X135472500Y-58133000I0J250000D01*
G01*
X135472500Y-57183000D01*
G75*
G02*
X135722500Y-56933000I250000J0D01*
G01*
X136397500Y-56933000D01*
G75*
G02*
X136647500Y-57183000I0J-250000D01*
G01*
G37*
%TD*%
%TO.C,C7*%
G36*
G01*
X129446000Y-61283000D02*
X130396000Y-61283000D01*
G75*
G02*
X130646000Y-61533000I0J-250000D01*
G01*
X130646000Y-62208000D01*
G75*
G02*
X130396000Y-62458000I-250000J0D01*
G01*
X129446000Y-62458000D01*
G75*
G02*
X129196000Y-62208000I0J250000D01*
G01*
X129196000Y-61533000D01*
G75*
G02*
X129446000Y-61283000I250000J0D01*
G01*
G37*
G36*
G01*
X129446000Y-59208000D02*
X130396000Y-59208000D01*
G75*
G02*
X130646000Y-59458000I0J-250000D01*
G01*
X130646000Y-60133000D01*
G75*
G02*
X130396000Y-60383000I-250000J0D01*
G01*
X129446000Y-60383000D01*
G75*
G02*
X129196000Y-60133000I0J250000D01*
G01*
X129196000Y-59458000D01*
G75*
G02*
X129446000Y-59208000I250000J0D01*
G01*
G37*
%TD*%
%TO.C,C6*%
G36*
G01*
X122126500Y-56421000D02*
X122126500Y-57371000D01*
G75*
G02*
X121876500Y-57621000I-250000J0D01*
G01*
X121201500Y-57621000D01*
G75*
G02*
X120951500Y-57371000I0J250000D01*
G01*
X120951500Y-56421000D01*
G75*
G02*
X121201500Y-56171000I250000J0D01*
G01*
X121876500Y-56171000D01*
G75*
G02*
X122126500Y-56421000I0J-250000D01*
G01*
G37*
G36*
G01*
X124201500Y-56421000D02*
X124201500Y-57371000D01*
G75*
G02*
X123951500Y-57621000I-250000J0D01*
G01*
X123276500Y-57621000D01*
G75*
G02*
X123026500Y-57371000I0J250000D01*
G01*
X123026500Y-56421000D01*
G75*
G02*
X123276500Y-56171000I250000J0D01*
G01*
X123951500Y-56171000D01*
G75*
G02*
X124201500Y-56421000I0J-250000D01*
G01*
G37*
%TD*%
%TO.C,C5*%
G36*
G01*
X121760000Y-53271000D02*
X120810000Y-53271000D01*
G75*
G02*
X120560000Y-53021000I0J250000D01*
G01*
X120560000Y-52346000D01*
G75*
G02*
X120810000Y-52096000I250000J0D01*
G01*
X121760000Y-52096000D01*
G75*
G02*
X122010000Y-52346000I0J-250000D01*
G01*
X122010000Y-53021000D01*
G75*
G02*
X121760000Y-53271000I-250000J0D01*
G01*
G37*
G36*
G01*
X121760000Y-55346000D02*
X120810000Y-55346000D01*
G75*
G02*
X120560000Y-55096000I0J250000D01*
G01*
X120560000Y-54421000D01*
G75*
G02*
X120810000Y-54171000I250000J0D01*
G01*
X121760000Y-54171000D01*
G75*
G02*
X122010000Y-54421000I0J-250000D01*
G01*
X122010000Y-55096000D01*
G75*
G02*
X121760000Y-55346000I-250000J0D01*
G01*
G37*
%TD*%
%TO.C,C4*%
G36*
G01*
X125062000Y-53271000D02*
X124112000Y-53271000D01*
G75*
G02*
X123862000Y-53021000I0J250000D01*
G01*
X123862000Y-52346000D01*
G75*
G02*
X124112000Y-52096000I250000J0D01*
G01*
X125062000Y-52096000D01*
G75*
G02*
X125312000Y-52346000I0J-250000D01*
G01*
X125312000Y-53021000D01*
G75*
G02*
X125062000Y-53271000I-250000J0D01*
G01*
G37*
G36*
G01*
X125062000Y-55346000D02*
X124112000Y-55346000D01*
G75*
G02*
X123862000Y-55096000I0J250000D01*
G01*
X123862000Y-54421000D01*
G75*
G02*
X124112000Y-54171000I250000J0D01*
G01*
X125062000Y-54171000D01*
G75*
G02*
X125312000Y-54421000I0J-250000D01*
G01*
X125312000Y-55096000D01*
G75*
G02*
X125062000Y-55346000I-250000J0D01*
G01*
G37*
%TD*%
%TO.C,C3*%
G36*
G01*
X126779000Y-61304500D02*
X127729000Y-61304500D01*
G75*
G02*
X127979000Y-61554500I0J-250000D01*
G01*
X127979000Y-62229500D01*
G75*
G02*
X127729000Y-62479500I-250000J0D01*
G01*
X126779000Y-62479500D01*
G75*
G02*
X126529000Y-62229500I0J250000D01*
G01*
X126529000Y-61554500D01*
G75*
G02*
X126779000Y-61304500I250000J0D01*
G01*
G37*
G36*
G01*
X126779000Y-59229500D02*
X127729000Y-59229500D01*
G75*
G02*
X127979000Y-59479500I0J-250000D01*
G01*
X127979000Y-60154500D01*
G75*
G02*
X127729000Y-60404500I-250000J0D01*
G01*
X126779000Y-60404500D01*
G75*
G02*
X126529000Y-60154500I0J250000D01*
G01*
X126529000Y-59479500D01*
G75*
G02*
X126779000Y-59229500I250000J0D01*
G01*
G37*
%TD*%
%TO.C,C2*%
G36*
G01*
X126779000Y-65347000D02*
X127729000Y-65347000D01*
G75*
G02*
X127979000Y-65597000I0J-250000D01*
G01*
X127979000Y-66272000D01*
G75*
G02*
X127729000Y-66522000I-250000J0D01*
G01*
X126779000Y-66522000D01*
G75*
G02*
X126529000Y-66272000I0J250000D01*
G01*
X126529000Y-65597000D01*
G75*
G02*
X126779000Y-65347000I250000J0D01*
G01*
G37*
G36*
G01*
X126779000Y-63272000D02*
X127729000Y-63272000D01*
G75*
G02*
X127979000Y-63522000I0J-250000D01*
G01*
X127979000Y-64197000D01*
G75*
G02*
X127729000Y-64447000I-250000J0D01*
G01*
X126779000Y-64447000D01*
G75*
G02*
X126529000Y-64197000I0J250000D01*
G01*
X126529000Y-63522000D01*
G75*
G02*
X126779000Y-63272000I250000J0D01*
G01*
G37*
%TD*%
%TO.C,C1*%
G36*
G01*
X126779000Y-69411000D02*
X127729000Y-69411000D01*
G75*
G02*
X127979000Y-69661000I0J-250000D01*
G01*
X127979000Y-70336000D01*
G75*
G02*
X127729000Y-70586000I-250000J0D01*
G01*
X126779000Y-70586000D01*
G75*
G02*
X126529000Y-70336000I0J250000D01*
G01*
X126529000Y-69661000D01*
G75*
G02*
X126779000Y-69411000I250000J0D01*
G01*
G37*
G36*
G01*
X126779000Y-67336000D02*
X127729000Y-67336000D01*
G75*
G02*
X127979000Y-67586000I0J-250000D01*
G01*
X127979000Y-68261000D01*
G75*
G02*
X127729000Y-68511000I-250000J0D01*
G01*
X126779000Y-68511000D01*
G75*
G02*
X126529000Y-68261000I0J250000D01*
G01*
X126529000Y-67586000D01*
G75*
G02*
X126779000Y-67336000I250000J0D01*
G01*
G37*
%TD*%
%TO.C,R28*%
G36*
G01*
X109455000Y-87179999D02*
X109455000Y-88080001D01*
G75*
G02*
X109205001Y-88330000I-249999J0D01*
G01*
X108504999Y-88330000D01*
G75*
G02*
X108255000Y-88080001I0J249999D01*
G01*
X108255000Y-87179999D01*
G75*
G02*
X108504999Y-86930000I249999J0D01*
G01*
X109205001Y-86930000D01*
G75*
G02*
X109455000Y-87179999I0J-249999D01*
G01*
G37*
G36*
G01*
X111455000Y-87179999D02*
X111455000Y-88080001D01*
G75*
G02*
X111205001Y-88330000I-249999J0D01*
G01*
X110504999Y-88330000D01*
G75*
G02*
X110255000Y-88080001I0J249999D01*
G01*
X110255000Y-87179999D01*
G75*
G02*
X110504999Y-86930000I249999J0D01*
G01*
X111205001Y-86930000D01*
G75*
G02*
X111455000Y-87179999I0J-249999D01*
G01*
G37*
%TD*%
%TO.C,R43*%
G36*
G01*
X140646999Y-95142000D02*
X141547001Y-95142000D01*
G75*
G02*
X141797000Y-95391999I0J-249999D01*
G01*
X141797000Y-96092001D01*
G75*
G02*
X141547001Y-96342000I-249999J0D01*
G01*
X140646999Y-96342000D01*
G75*
G02*
X140397000Y-96092001I0J249999D01*
G01*
X140397000Y-95391999D01*
G75*
G02*
X140646999Y-95142000I249999J0D01*
G01*
G37*
G36*
G01*
X140646999Y-93142000D02*
X141547001Y-93142000D01*
G75*
G02*
X141797000Y-93391999I0J-249999D01*
G01*
X141797000Y-94092001D01*
G75*
G02*
X141547001Y-94342000I-249999J0D01*
G01*
X140646999Y-94342000D01*
G75*
G02*
X140397000Y-94092001I0J249999D01*
G01*
X140397000Y-93391999D01*
G75*
G02*
X140646999Y-93142000I249999J0D01*
G01*
G37*
%TD*%
%TO.C,R42*%
G36*
G01*
X156267999Y-91713000D02*
X157168001Y-91713000D01*
G75*
G02*
X157418000Y-91962999I0J-249999D01*
G01*
X157418000Y-92663001D01*
G75*
G02*
X157168001Y-92913000I-249999J0D01*
G01*
X156267999Y-92913000D01*
G75*
G02*
X156018000Y-92663001I0J249999D01*
G01*
X156018000Y-91962999D01*
G75*
G02*
X156267999Y-91713000I249999J0D01*
G01*
G37*
G36*
G01*
X156267999Y-89713000D02*
X157168001Y-89713000D01*
G75*
G02*
X157418000Y-89962999I0J-249999D01*
G01*
X157418000Y-90663001D01*
G75*
G02*
X157168001Y-90913000I-249999J0D01*
G01*
X156267999Y-90913000D01*
G75*
G02*
X156018000Y-90663001I0J249999D01*
G01*
X156018000Y-89962999D01*
G75*
G02*
X156267999Y-89713000I249999J0D01*
G01*
G37*
%TD*%
%TO.C,R41*%
G36*
G01*
X162176000Y-80321999D02*
X162176000Y-81222001D01*
G75*
G02*
X161926001Y-81472000I-249999J0D01*
G01*
X161225999Y-81472000D01*
G75*
G02*
X160976000Y-81222001I0J249999D01*
G01*
X160976000Y-80321999D01*
G75*
G02*
X161225999Y-80072000I249999J0D01*
G01*
X161926001Y-80072000D01*
G75*
G02*
X162176000Y-80321999I0J-249999D01*
G01*
G37*
G36*
G01*
X164176000Y-80321999D02*
X164176000Y-81222001D01*
G75*
G02*
X163926001Y-81472000I-249999J0D01*
G01*
X163225999Y-81472000D01*
G75*
G02*
X162976000Y-81222001I0J249999D01*
G01*
X162976000Y-80321999D01*
G75*
G02*
X163225999Y-80072000I249999J0D01*
G01*
X163926001Y-80072000D01*
G75*
G02*
X164176000Y-80321999I0J-249999D01*
G01*
G37*
%TD*%
%TO.C,R40*%
G36*
G01*
X130178000Y-83127001D02*
X130178000Y-82226999D01*
G75*
G02*
X130427999Y-81977000I249999J0D01*
G01*
X131128001Y-81977000D01*
G75*
G02*
X131378000Y-82226999I0J-249999D01*
G01*
X131378000Y-83127001D01*
G75*
G02*
X131128001Y-83377000I-249999J0D01*
G01*
X130427999Y-83377000D01*
G75*
G02*
X130178000Y-83127001I0J249999D01*
G01*
G37*
G36*
G01*
X128178000Y-83127001D02*
X128178000Y-82226999D01*
G75*
G02*
X128427999Y-81977000I249999J0D01*
G01*
X129128001Y-81977000D01*
G75*
G02*
X129378000Y-82226999I0J-249999D01*
G01*
X129378000Y-83127001D01*
G75*
G02*
X129128001Y-83377000I-249999J0D01*
G01*
X128427999Y-83377000D01*
G75*
G02*
X128178000Y-83127001I0J249999D01*
G01*
G37*
%TD*%
%TO.C,R39*%
G36*
G01*
X104197999Y-89189000D02*
X105098001Y-89189000D01*
G75*
G02*
X105348000Y-89438999I0J-249999D01*
G01*
X105348000Y-90139001D01*
G75*
G02*
X105098001Y-90389000I-249999J0D01*
G01*
X104197999Y-90389000D01*
G75*
G02*
X103948000Y-90139001I0J249999D01*
G01*
X103948000Y-89438999D01*
G75*
G02*
X104197999Y-89189000I249999J0D01*
G01*
G37*
G36*
G01*
X104197999Y-87189000D02*
X105098001Y-87189000D01*
G75*
G02*
X105348000Y-87438999I0J-249999D01*
G01*
X105348000Y-88139001D01*
G75*
G02*
X105098001Y-88389000I-249999J0D01*
G01*
X104197999Y-88389000D01*
G75*
G02*
X103948000Y-88139001I0J249999D01*
G01*
X103948000Y-87438999D01*
G75*
G02*
X104197999Y-87189000I249999J0D01*
G01*
G37*
%TD*%
%TO.C,R38*%
G36*
G01*
X138830000Y-88080001D02*
X138830000Y-87179999D01*
G75*
G02*
X139079999Y-86930000I249999J0D01*
G01*
X139780001Y-86930000D01*
G75*
G02*
X140030000Y-87179999I0J-249999D01*
G01*
X140030000Y-88080001D01*
G75*
G02*
X139780001Y-88330000I-249999J0D01*
G01*
X139079999Y-88330000D01*
G75*
G02*
X138830000Y-88080001I0J249999D01*
G01*
G37*
G36*
G01*
X136830000Y-88080001D02*
X136830000Y-87179999D01*
G75*
G02*
X137079999Y-86930000I249999J0D01*
G01*
X137780001Y-86930000D01*
G75*
G02*
X138030000Y-87179999I0J-249999D01*
G01*
X138030000Y-88080001D01*
G75*
G02*
X137780001Y-88330000I-249999J0D01*
G01*
X137079999Y-88330000D01*
G75*
G02*
X136830000Y-88080001I0J249999D01*
G01*
G37*
%TD*%
%TO.C,R37*%
G36*
G01*
X129470999Y-110620000D02*
X130371001Y-110620000D01*
G75*
G02*
X130621000Y-110869999I0J-249999D01*
G01*
X130621000Y-111570001D01*
G75*
G02*
X130371001Y-111820000I-249999J0D01*
G01*
X129470999Y-111820000D01*
G75*
G02*
X129221000Y-111570001I0J249999D01*
G01*
X129221000Y-110869999D01*
G75*
G02*
X129470999Y-110620000I249999J0D01*
G01*
G37*
G36*
G01*
X129470999Y-108620000D02*
X130371001Y-108620000D01*
G75*
G02*
X130621000Y-108869999I0J-249999D01*
G01*
X130621000Y-109570001D01*
G75*
G02*
X130371001Y-109820000I-249999J0D01*
G01*
X129470999Y-109820000D01*
G75*
G02*
X129221000Y-109570001I0J249999D01*
G01*
X129221000Y-108869999D01*
G75*
G02*
X129470999Y-108620000I249999J0D01*
G01*
G37*
%TD*%
%TO.C,R36*%
G36*
G01*
X119691999Y-108112000D02*
X120592001Y-108112000D01*
G75*
G02*
X120842000Y-108361999I0J-249999D01*
G01*
X120842000Y-109062001D01*
G75*
G02*
X120592001Y-109312000I-249999J0D01*
G01*
X119691999Y-109312000D01*
G75*
G02*
X119442000Y-109062001I0J249999D01*
G01*
X119442000Y-108361999D01*
G75*
G02*
X119691999Y-108112000I249999J0D01*
G01*
G37*
G36*
G01*
X119691999Y-106112000D02*
X120592001Y-106112000D01*
G75*
G02*
X120842000Y-106361999I0J-249999D01*
G01*
X120842000Y-107062001D01*
G75*
G02*
X120592001Y-107312000I-249999J0D01*
G01*
X119691999Y-107312000D01*
G75*
G02*
X119442000Y-107062001I0J249999D01*
G01*
X119442000Y-106361999D01*
G75*
G02*
X119691999Y-106112000I249999J0D01*
G01*
G37*
%TD*%
%TO.C,R32*%
G36*
G01*
X168840999Y-90316000D02*
X169741001Y-90316000D01*
G75*
G02*
X169991000Y-90565999I0J-249999D01*
G01*
X169991000Y-91266001D01*
G75*
G02*
X169741001Y-91516000I-249999J0D01*
G01*
X168840999Y-91516000D01*
G75*
G02*
X168591000Y-91266001I0J249999D01*
G01*
X168591000Y-90565999D01*
G75*
G02*
X168840999Y-90316000I249999J0D01*
G01*
G37*
G36*
G01*
X168840999Y-88316000D02*
X169741001Y-88316000D01*
G75*
G02*
X169991000Y-88565999I0J-249999D01*
G01*
X169991000Y-89266001D01*
G75*
G02*
X169741001Y-89516000I-249999J0D01*
G01*
X168840999Y-89516000D01*
G75*
G02*
X168591000Y-89266001I0J249999D01*
G01*
X168591000Y-88565999D01*
G75*
G02*
X168840999Y-88316000I249999J0D01*
G01*
G37*
%TD*%
D16*
%TO.C,H4*%
X185674000Y-43942000D03*
%TD*%
D17*
%TO.C,H3*%
X185674000Y-125095000D03*
%TD*%
D16*
%TO.C,H2*%
X100838000Y-43942000D03*
%TD*%
%TO.C,H1*%
X100838000Y-125095000D03*
%TD*%
D18*
%TO.C,Q1*%
X111125000Y-93510001D03*
X111125000Y-123659999D03*
D19*
X105665001Y-110400000D03*
D20*
X116584999Y-110400000D03*
%TD*%
D21*
%TO.C,J4*%
X154813000Y-104394000D03*
G36*
G01*
X153967999Y-100984000D02*
X155658001Y-100984000D01*
G75*
G02*
X155908000Y-101233999I0J-249999D01*
G01*
X155908000Y-102474001D01*
G75*
G02*
X155658001Y-102724000I-249999J0D01*
G01*
X153967999Y-102724000D01*
G75*
G02*
X153718000Y-102474001I0J249999D01*
G01*
X153718000Y-101233999D01*
G75*
G02*
X153967999Y-100984000I249999J0D01*
G01*
G37*
%TD*%
%TO.C,C15*%
G36*
G01*
X144620000Y-116411500D02*
X143670000Y-116411500D01*
G75*
G02*
X143420000Y-116161500I0J250000D01*
G01*
X143420000Y-115486500D01*
G75*
G02*
X143670000Y-115236500I250000J0D01*
G01*
X144620000Y-115236500D01*
G75*
G02*
X144870000Y-115486500I0J-250000D01*
G01*
X144870000Y-116161500D01*
G75*
G02*
X144620000Y-116411500I-250000J0D01*
G01*
G37*
G36*
G01*
X144620000Y-114336500D02*
X143670000Y-114336500D01*
G75*
G02*
X143420000Y-114086500I0J250000D01*
G01*
X143420000Y-113411500D01*
G75*
G02*
X143670000Y-113161500I250000J0D01*
G01*
X144620000Y-113161500D01*
G75*
G02*
X144870000Y-113411500I0J-250000D01*
G01*
X144870000Y-114086500D01*
G75*
G02*
X144620000Y-114336500I-250000J0D01*
G01*
G37*
%TD*%
D22*
%TO.C,J8*%
X155956000Y-119253000D03*
X153416000Y-119253000D03*
X150876000Y-119253000D03*
X155956000Y-121793000D03*
X153416000Y-121793000D03*
G36*
G01*
X151476000Y-122643000D02*
X150276000Y-122643000D01*
G75*
G02*
X150026000Y-122393000I0J250000D01*
G01*
X150026000Y-121193000D01*
G75*
G02*
X150276000Y-120943000I250000J0D01*
G01*
X151476000Y-120943000D01*
G75*
G02*
X151726000Y-121193000I0J-250000D01*
G01*
X151726000Y-122393000D01*
G75*
G02*
X151476000Y-122643000I-250000J0D01*
G01*
G37*
%TD*%
D21*
%TO.C,J1*%
X156972000Y-78740000D03*
G36*
G01*
X157817001Y-82150000D02*
X156126999Y-82150000D01*
G75*
G02*
X155877000Y-81900001I0J249999D01*
G01*
X155877000Y-80659999D01*
G75*
G02*
X156126999Y-80410000I249999J0D01*
G01*
X157817001Y-80410000D01*
G75*
G02*
X158067000Y-80659999I0J-249999D01*
G01*
X158067000Y-81900001D01*
G75*
G02*
X157817001Y-82150000I-249999J0D01*
G01*
G37*
%TD*%
%TO.C,F1*%
G36*
G01*
X164398000Y-78936001D02*
X164398000Y-78035999D01*
G75*
G02*
X164647999Y-77786000I249999J0D01*
G01*
X165298001Y-77786000D01*
G75*
G02*
X165548000Y-78035999I0J-249999D01*
G01*
X165548000Y-78936001D01*
G75*
G02*
X165298001Y-79186000I-249999J0D01*
G01*
X164647999Y-79186000D01*
G75*
G02*
X164398000Y-78936001I0J249999D01*
G01*
G37*
G36*
G01*
X162348000Y-78936001D02*
X162348000Y-78035999D01*
G75*
G02*
X162597999Y-77786000I249999J0D01*
G01*
X163248001Y-77786000D01*
G75*
G02*
X163498000Y-78035999I0J-249999D01*
G01*
X163498000Y-78936001D01*
G75*
G02*
X163248001Y-79186000I-249999J0D01*
G01*
X162597999Y-79186000D01*
G75*
G02*
X162348000Y-78936001I0J249999D01*
G01*
G37*
%TD*%
D23*
%TO.C,U11*%
X137734000Y-77105000D03*
X137734000Y-77605000D03*
X137734000Y-78105000D03*
X137734000Y-78605000D03*
X137734000Y-79105000D03*
X133284000Y-79105000D03*
X133284000Y-78605000D03*
X133284000Y-78105000D03*
X133284000Y-77605000D03*
X133284000Y-77105000D03*
%TD*%
%TO.C,U10*%
X144968000Y-98155000D03*
X144968000Y-97655000D03*
X144968000Y-97155000D03*
X144968000Y-96655000D03*
X144968000Y-96155000D03*
X149418000Y-96155000D03*
X149418000Y-96655000D03*
X149418000Y-97155000D03*
X149418000Y-97655000D03*
X149418000Y-98155000D03*
%TD*%
D24*
%TO.C,U9*%
X110617000Y-75946000D03*
X110617000Y-73406000D03*
X110617000Y-70866000D03*
X110617000Y-68326000D03*
D25*
X110617000Y-65786000D03*
%TD*%
D23*
%TO.C,U8*%
X123129000Y-82566000D03*
X123129000Y-83066000D03*
X123129000Y-83566000D03*
X123129000Y-84066000D03*
X123129000Y-84566000D03*
X118679000Y-84566000D03*
X118679000Y-84066000D03*
X118679000Y-83566000D03*
X118679000Y-83066000D03*
X118679000Y-82566000D03*
%TD*%
%TO.C,U7*%
X108016000Y-82947000D03*
X108016000Y-83447000D03*
X108016000Y-83947000D03*
X108016000Y-84447000D03*
X108016000Y-84947000D03*
X103566000Y-84947000D03*
X103566000Y-84447000D03*
X103566000Y-83947000D03*
X103566000Y-83447000D03*
X103566000Y-82947000D03*
%TD*%
D26*
%TO.C,U6*%
X109841000Y-51054000D03*
D27*
X112141000Y-57904000D03*
D26*
X114441000Y-51054000D03*
%TD*%
D28*
%TO.C,U5*%
X120948000Y-98679000D03*
X120948000Y-99949000D03*
X120948000Y-101219000D03*
X120948000Y-102489000D03*
X115526000Y-102489000D03*
X115526000Y-101219000D03*
X115526000Y-99949000D03*
X115526000Y-98679000D03*
%TD*%
%TO.C,U4*%
G36*
G01*
X137825000Y-83707000D02*
X137825000Y-83507000D01*
G75*
G02*
X137925000Y-83407000I100000J0D01*
G01*
X139350000Y-83407000D01*
G75*
G02*
X139450000Y-83507000I0J-100000D01*
G01*
X139450000Y-83707000D01*
G75*
G02*
X139350000Y-83807000I-100000J0D01*
G01*
X137925000Y-83807000D01*
G75*
G02*
X137825000Y-83707000I0J100000D01*
G01*
G37*
G36*
G01*
X137825000Y-84357000D02*
X137825000Y-84157000D01*
G75*
G02*
X137925000Y-84057000I100000J0D01*
G01*
X139350000Y-84057000D01*
G75*
G02*
X139450000Y-84157000I0J-100000D01*
G01*
X139450000Y-84357000D01*
G75*
G02*
X139350000Y-84457000I-100000J0D01*
G01*
X137925000Y-84457000D01*
G75*
G02*
X137825000Y-84357000I0J100000D01*
G01*
G37*
G36*
G01*
X137825000Y-85007000D02*
X137825000Y-84807000D01*
G75*
G02*
X137925000Y-84707000I100000J0D01*
G01*
X139350000Y-84707000D01*
G75*
G02*
X139450000Y-84807000I0J-100000D01*
G01*
X139450000Y-85007000D01*
G75*
G02*
X139350000Y-85107000I-100000J0D01*
G01*
X137925000Y-85107000D01*
G75*
G02*
X137825000Y-85007000I0J100000D01*
G01*
G37*
G36*
G01*
X137825000Y-85657000D02*
X137825000Y-85457000D01*
G75*
G02*
X137925000Y-85357000I100000J0D01*
G01*
X139350000Y-85357000D01*
G75*
G02*
X139450000Y-85457000I0J-100000D01*
G01*
X139450000Y-85657000D01*
G75*
G02*
X139350000Y-85757000I-100000J0D01*
G01*
X137925000Y-85757000D01*
G75*
G02*
X137825000Y-85657000I0J100000D01*
G01*
G37*
G36*
G01*
X133600000Y-85657000D02*
X133600000Y-85457000D01*
G75*
G02*
X133700000Y-85357000I100000J0D01*
G01*
X135125000Y-85357000D01*
G75*
G02*
X135225000Y-85457000I0J-100000D01*
G01*
X135225000Y-85657000D01*
G75*
G02*
X135125000Y-85757000I-100000J0D01*
G01*
X133700000Y-85757000D01*
G75*
G02*
X133600000Y-85657000I0J100000D01*
G01*
G37*
G36*
G01*
X133600000Y-85007000D02*
X133600000Y-84807000D01*
G75*
G02*
X133700000Y-84707000I100000J0D01*
G01*
X135125000Y-84707000D01*
G75*
G02*
X135225000Y-84807000I0J-100000D01*
G01*
X135225000Y-85007000D01*
G75*
G02*
X135125000Y-85107000I-100000J0D01*
G01*
X133700000Y-85107000D01*
G75*
G02*
X133600000Y-85007000I0J100000D01*
G01*
G37*
G36*
G01*
X133600000Y-84357000D02*
X133600000Y-84157000D01*
G75*
G02*
X133700000Y-84057000I100000J0D01*
G01*
X135125000Y-84057000D01*
G75*
G02*
X135225000Y-84157000I0J-100000D01*
G01*
X135225000Y-84357000D01*
G75*
G02*
X135125000Y-84457000I-100000J0D01*
G01*
X133700000Y-84457000D01*
G75*
G02*
X133600000Y-84357000I0J100000D01*
G01*
G37*
G36*
G01*
X133600000Y-83707000D02*
X133600000Y-83507000D01*
G75*
G02*
X133700000Y-83407000I100000J0D01*
G01*
X135125000Y-83407000D01*
G75*
G02*
X135225000Y-83507000I0J-100000D01*
G01*
X135225000Y-83707000D01*
G75*
G02*
X135125000Y-83807000I-100000J0D01*
G01*
X133700000Y-83807000D01*
G75*
G02*
X133600000Y-83707000I0J100000D01*
G01*
G37*
%TD*%
%TO.C,U3*%
G36*
G01*
X148493000Y-83707000D02*
X148493000Y-83507000D01*
G75*
G02*
X148593000Y-83407000I100000J0D01*
G01*
X150018000Y-83407000D01*
G75*
G02*
X150118000Y-83507000I0J-100000D01*
G01*
X150118000Y-83707000D01*
G75*
G02*
X150018000Y-83807000I-100000J0D01*
G01*
X148593000Y-83807000D01*
G75*
G02*
X148493000Y-83707000I0J100000D01*
G01*
G37*
G36*
G01*
X148493000Y-84357000D02*
X148493000Y-84157000D01*
G75*
G02*
X148593000Y-84057000I100000J0D01*
G01*
X150018000Y-84057000D01*
G75*
G02*
X150118000Y-84157000I0J-100000D01*
G01*
X150118000Y-84357000D01*
G75*
G02*
X150018000Y-84457000I-100000J0D01*
G01*
X148593000Y-84457000D01*
G75*
G02*
X148493000Y-84357000I0J100000D01*
G01*
G37*
G36*
G01*
X148493000Y-85007000D02*
X148493000Y-84807000D01*
G75*
G02*
X148593000Y-84707000I100000J0D01*
G01*
X150018000Y-84707000D01*
G75*
G02*
X150118000Y-84807000I0J-100000D01*
G01*
X150118000Y-85007000D01*
G75*
G02*
X150018000Y-85107000I-100000J0D01*
G01*
X148593000Y-85107000D01*
G75*
G02*
X148493000Y-85007000I0J100000D01*
G01*
G37*
G36*
G01*
X148493000Y-85657000D02*
X148493000Y-85457000D01*
G75*
G02*
X148593000Y-85357000I100000J0D01*
G01*
X150018000Y-85357000D01*
G75*
G02*
X150118000Y-85457000I0J-100000D01*
G01*
X150118000Y-85657000D01*
G75*
G02*
X150018000Y-85757000I-100000J0D01*
G01*
X148593000Y-85757000D01*
G75*
G02*
X148493000Y-85657000I0J100000D01*
G01*
G37*
G36*
G01*
X144268000Y-85657000D02*
X144268000Y-85457000D01*
G75*
G02*
X144368000Y-85357000I100000J0D01*
G01*
X145793000Y-85357000D01*
G75*
G02*
X145893000Y-85457000I0J-100000D01*
G01*
X145893000Y-85657000D01*
G75*
G02*
X145793000Y-85757000I-100000J0D01*
G01*
X144368000Y-85757000D01*
G75*
G02*
X144268000Y-85657000I0J100000D01*
G01*
G37*
G36*
G01*
X144268000Y-85007000D02*
X144268000Y-84807000D01*
G75*
G02*
X144368000Y-84707000I100000J0D01*
G01*
X145793000Y-84707000D01*
G75*
G02*
X145893000Y-84807000I0J-100000D01*
G01*
X145893000Y-85007000D01*
G75*
G02*
X145793000Y-85107000I-100000J0D01*
G01*
X144368000Y-85107000D01*
G75*
G02*
X144268000Y-85007000I0J100000D01*
G01*
G37*
G36*
G01*
X144268000Y-84357000D02*
X144268000Y-84157000D01*
G75*
G02*
X144368000Y-84057000I100000J0D01*
G01*
X145793000Y-84057000D01*
G75*
G02*
X145893000Y-84157000I0J-100000D01*
G01*
X145893000Y-84357000D01*
G75*
G02*
X145793000Y-84457000I-100000J0D01*
G01*
X144368000Y-84457000D01*
G75*
G02*
X144268000Y-84357000I0J100000D01*
G01*
G37*
G36*
G01*
X144268000Y-83707000D02*
X144268000Y-83507000D01*
G75*
G02*
X144368000Y-83407000I100000J0D01*
G01*
X145793000Y-83407000D01*
G75*
G02*
X145893000Y-83507000I0J-100000D01*
G01*
X145893000Y-83707000D01*
G75*
G02*
X145793000Y-83807000I-100000J0D01*
G01*
X144368000Y-83807000D01*
G75*
G02*
X144268000Y-83707000I0J100000D01*
G01*
G37*
%TD*%
D23*
%TO.C,U2*%
X127955000Y-100473000D03*
X127955000Y-100973000D03*
X127955000Y-101473000D03*
X127955000Y-101973000D03*
X127955000Y-102473000D03*
X123505000Y-102473000D03*
X123505000Y-101973000D03*
X123505000Y-101473000D03*
X123505000Y-100973000D03*
X123505000Y-100473000D03*
%TD*%
D28*
%TO.C,U1*%
X167557000Y-83566000D03*
X167557000Y-84836000D03*
X167557000Y-86106000D03*
X167557000Y-87376000D03*
X162135000Y-87376000D03*
X162135000Y-86106000D03*
X162135000Y-84836000D03*
X162135000Y-83566000D03*
%TD*%
D29*
%TO.C,therm1*%
X133604000Y-107315000D03*
G36*
G01*
X137014000Y-106469999D02*
X137014000Y-108160001D01*
G75*
G02*
X136764001Y-108410000I-249999J0D01*
G01*
X135523999Y-108410000D01*
G75*
G02*
X135274000Y-108160001I0J249999D01*
G01*
X135274000Y-106469999D01*
G75*
G02*
X135523999Y-106220000I249999J0D01*
G01*
X136764001Y-106220000D01*
G75*
G02*
X137014000Y-106469999I0J-249999D01*
G01*
G37*
%TD*%
D13*
%TO.C,RL2*%
X168014000Y-125349000D03*
X168014000Y-110349000D03*
X168014000Y-105349000D03*
X168014000Y-100349000D03*
X175514000Y-100349000D03*
X175514000Y-105349000D03*
X175514000Y-110349000D03*
D14*
X175514000Y-125349000D03*
%TD*%
%TO.C,R47*%
G36*
G01*
X129597999Y-79648000D02*
X130498001Y-79648000D01*
G75*
G02*
X130748000Y-79897999I0J-249999D01*
G01*
X130748000Y-80598001D01*
G75*
G02*
X130498001Y-80848000I-249999J0D01*
G01*
X129597999Y-80848000D01*
G75*
G02*
X129348000Y-80598001I0J249999D01*
G01*
X129348000Y-79897999D01*
G75*
G02*
X129597999Y-79648000I249999J0D01*
G01*
G37*
G36*
G01*
X129597999Y-77648000D02*
X130498001Y-77648000D01*
G75*
G02*
X130748000Y-77897999I0J-249999D01*
G01*
X130748000Y-78598001D01*
G75*
G02*
X130498001Y-78848000I-249999J0D01*
G01*
X129597999Y-78848000D01*
G75*
G02*
X129348000Y-78598001I0J249999D01*
G01*
X129348000Y-77897999D01*
G75*
G02*
X129597999Y-77648000I249999J0D01*
G01*
G37*
%TD*%
%TO.C,R46*%
G36*
G01*
X129597999Y-75584000D02*
X130498001Y-75584000D01*
G75*
G02*
X130748000Y-75833999I0J-249999D01*
G01*
X130748000Y-76534001D01*
G75*
G02*
X130498001Y-76784000I-249999J0D01*
G01*
X129597999Y-76784000D01*
G75*
G02*
X129348000Y-76534001I0J249999D01*
G01*
X129348000Y-75833999D01*
G75*
G02*
X129597999Y-75584000I249999J0D01*
G01*
G37*
G36*
G01*
X129597999Y-73584000D02*
X130498001Y-73584000D01*
G75*
G02*
X130748000Y-73833999I0J-249999D01*
G01*
X130748000Y-74534001D01*
G75*
G02*
X130498001Y-74784000I-249999J0D01*
G01*
X129597999Y-74784000D01*
G75*
G02*
X129348000Y-74534001I0J249999D01*
G01*
X129348000Y-73833999D01*
G75*
G02*
X129597999Y-73584000I249999J0D01*
G01*
G37*
%TD*%
%TO.C,R45*%
G36*
G01*
X119764000Y-88334001D02*
X119764000Y-87433999D01*
G75*
G02*
X120013999Y-87184000I249999J0D01*
G01*
X120714001Y-87184000D01*
G75*
G02*
X120964000Y-87433999I0J-249999D01*
G01*
X120964000Y-88334001D01*
G75*
G02*
X120714001Y-88584000I-249999J0D01*
G01*
X120013999Y-88584000D01*
G75*
G02*
X119764000Y-88334001I0J249999D01*
G01*
G37*
G36*
G01*
X117764000Y-88334001D02*
X117764000Y-87433999D01*
G75*
G02*
X118013999Y-87184000I249999J0D01*
G01*
X118714001Y-87184000D01*
G75*
G02*
X118964000Y-87433999I0J-249999D01*
G01*
X118964000Y-88334001D01*
G75*
G02*
X118714001Y-88584000I-249999J0D01*
G01*
X118013999Y-88584000D01*
G75*
G02*
X117764000Y-88334001I0J249999D01*
G01*
G37*
%TD*%
%TO.C,R44*%
G36*
G01*
X179381999Y-124860000D02*
X180282001Y-124860000D01*
G75*
G02*
X180532000Y-125109999I0J-249999D01*
G01*
X180532000Y-125810001D01*
G75*
G02*
X180282001Y-126060000I-249999J0D01*
G01*
X179381999Y-126060000D01*
G75*
G02*
X179132000Y-125810001I0J249999D01*
G01*
X179132000Y-125109999D01*
G75*
G02*
X179381999Y-124860000I249999J0D01*
G01*
G37*
G36*
G01*
X179381999Y-122860000D02*
X180282001Y-122860000D01*
G75*
G02*
X180532000Y-123109999I0J-249999D01*
G01*
X180532000Y-123810001D01*
G75*
G02*
X180282001Y-124060000I-249999J0D01*
G01*
X179381999Y-124060000D01*
G75*
G02*
X179132000Y-123810001I0J249999D01*
G01*
X179132000Y-123109999D01*
G75*
G02*
X179381999Y-122860000I249999J0D01*
G01*
G37*
%TD*%
%TO.C,R35*%
G36*
G01*
X161071000Y-50615001D02*
X161071000Y-49714999D01*
G75*
G02*
X161320999Y-49465000I249999J0D01*
G01*
X162021001Y-49465000D01*
G75*
G02*
X162271000Y-49714999I0J-249999D01*
G01*
X162271000Y-50615001D01*
G75*
G02*
X162021001Y-50865000I-249999J0D01*
G01*
X161320999Y-50865000D01*
G75*
G02*
X161071000Y-50615001I0J249999D01*
G01*
G37*
G36*
G01*
X159071000Y-50615001D02*
X159071000Y-49714999D01*
G75*
G02*
X159320999Y-49465000I249999J0D01*
G01*
X160021001Y-49465000D01*
G75*
G02*
X160271000Y-49714999I0J-249999D01*
G01*
X160271000Y-50615001D01*
G75*
G02*
X160021001Y-50865000I-249999J0D01*
G01*
X159320999Y-50865000D01*
G75*
G02*
X159071000Y-50615001I0J249999D01*
G01*
G37*
%TD*%
%TO.C,R30*%
G36*
G01*
X141547001Y-118710000D02*
X140646999Y-118710000D01*
G75*
G02*
X140397000Y-118460001I0J249999D01*
G01*
X140397000Y-117759999D01*
G75*
G02*
X140646999Y-117510000I249999J0D01*
G01*
X141547001Y-117510000D01*
G75*
G02*
X141797000Y-117759999I0J-249999D01*
G01*
X141797000Y-118460001D01*
G75*
G02*
X141547001Y-118710000I-249999J0D01*
G01*
G37*
G36*
G01*
X141547001Y-120710000D02*
X140646999Y-120710000D01*
G75*
G02*
X140397000Y-120460001I0J249999D01*
G01*
X140397000Y-119759999D01*
G75*
G02*
X140646999Y-119510000I249999J0D01*
G01*
X141547001Y-119510000D01*
G75*
G02*
X141797000Y-119759999I0J-249999D01*
G01*
X141797000Y-120460001D01*
G75*
G02*
X141547001Y-120710000I-249999J0D01*
G01*
G37*
%TD*%
%TO.C,R27*%
G36*
G01*
X160470001Y-86579000D02*
X159569999Y-86579000D01*
G75*
G02*
X159320000Y-86329001I0J249999D01*
G01*
X159320000Y-85628999D01*
G75*
G02*
X159569999Y-85379000I249999J0D01*
G01*
X160470001Y-85379000D01*
G75*
G02*
X160720000Y-85628999I0J-249999D01*
G01*
X160720000Y-86329001D01*
G75*
G02*
X160470001Y-86579000I-249999J0D01*
G01*
G37*
G36*
G01*
X160470001Y-88579000D02*
X159569999Y-88579000D01*
G75*
G02*
X159320000Y-88329001I0J249999D01*
G01*
X159320000Y-87628999D01*
G75*
G02*
X159569999Y-87379000I249999J0D01*
G01*
X160470001Y-87379000D01*
G75*
G02*
X160720000Y-87628999I0J-249999D01*
G01*
X160720000Y-88329001D01*
G75*
G02*
X160470001Y-88579000I-249999J0D01*
G01*
G37*
%TD*%
%TO.C,R17*%
G36*
G01*
X113734001Y-101819000D02*
X112833999Y-101819000D01*
G75*
G02*
X112584000Y-101569001I0J249999D01*
G01*
X112584000Y-100868999D01*
G75*
G02*
X112833999Y-100619000I249999J0D01*
G01*
X113734001Y-100619000D01*
G75*
G02*
X113984000Y-100868999I0J-249999D01*
G01*
X113984000Y-101569001D01*
G75*
G02*
X113734001Y-101819000I-249999J0D01*
G01*
G37*
G36*
G01*
X113734001Y-103819000D02*
X112833999Y-103819000D01*
G75*
G02*
X112584000Y-103569001I0J249999D01*
G01*
X112584000Y-102868999D01*
G75*
G02*
X112833999Y-102619000I249999J0D01*
G01*
X113734001Y-102619000D01*
G75*
G02*
X113984000Y-102868999I0J-249999D01*
G01*
X113984000Y-103569001D01*
G75*
G02*
X113734001Y-103819000I-249999J0D01*
G01*
G37*
%TD*%
%TO.C,R15*%
G36*
G01*
X139388001Y-118710000D02*
X138487999Y-118710000D01*
G75*
G02*
X138238000Y-118460001I0J249999D01*
G01*
X138238000Y-117759999D01*
G75*
G02*
X138487999Y-117510000I249999J0D01*
G01*
X139388001Y-117510000D01*
G75*
G02*
X139638000Y-117759999I0J-249999D01*
G01*
X139638000Y-118460001D01*
G75*
G02*
X139388001Y-118710000I-249999J0D01*
G01*
G37*
G36*
G01*
X139388001Y-120710000D02*
X138487999Y-120710000D01*
G75*
G02*
X138238000Y-120460001I0J249999D01*
G01*
X138238000Y-119759999D01*
G75*
G02*
X138487999Y-119510000I249999J0D01*
G01*
X139388001Y-119510000D01*
G75*
G02*
X139638000Y-119759999I0J-249999D01*
G01*
X139638000Y-120460001D01*
G75*
G02*
X139388001Y-120710000I-249999J0D01*
G01*
G37*
%TD*%
D30*
%TO.C,R8*%
X153162000Y-95631000D03*
D31*
X178562000Y-95631000D03*
%TD*%
%TO.C,R7*%
G36*
G01*
X169399000Y-77527999D02*
X169399000Y-78428001D01*
G75*
G02*
X169149001Y-78678000I-249999J0D01*
G01*
X168448999Y-78678000D01*
G75*
G02*
X168199000Y-78428001I0J249999D01*
G01*
X168199000Y-77527999D01*
G75*
G02*
X168448999Y-77278000I249999J0D01*
G01*
X169149001Y-77278000D01*
G75*
G02*
X169399000Y-77527999I0J-249999D01*
G01*
G37*
G36*
G01*
X171399000Y-77527999D02*
X171399000Y-78428001D01*
G75*
G02*
X171149001Y-78678000I-249999J0D01*
G01*
X170448999Y-78678000D01*
G75*
G02*
X170199000Y-78428001I0J249999D01*
G01*
X170199000Y-77527999D01*
G75*
G02*
X170448999Y-77278000I249999J0D01*
G01*
X171149001Y-77278000D01*
G75*
G02*
X171399000Y-77527999I0J-249999D01*
G01*
G37*
%TD*%
%TO.C,R6*%
G36*
G01*
X141027999Y-82839000D02*
X141928001Y-82839000D01*
G75*
G02*
X142178000Y-83088999I0J-249999D01*
G01*
X142178000Y-83789001D01*
G75*
G02*
X141928001Y-84039000I-249999J0D01*
G01*
X141027999Y-84039000D01*
G75*
G02*
X140778000Y-83789001I0J249999D01*
G01*
X140778000Y-83088999D01*
G75*
G02*
X141027999Y-82839000I249999J0D01*
G01*
G37*
G36*
G01*
X141027999Y-80839000D02*
X141928001Y-80839000D01*
G75*
G02*
X142178000Y-81088999I0J-249999D01*
G01*
X142178000Y-81789001D01*
G75*
G02*
X141928001Y-82039000I-249999J0D01*
G01*
X141027999Y-82039000D01*
G75*
G02*
X140778000Y-81789001I0J249999D01*
G01*
X140778000Y-81088999D01*
G75*
G02*
X141027999Y-80839000I249999J0D01*
G01*
G37*
%TD*%
%TO.C,R4*%
G36*
G01*
X114992999Y-81299000D02*
X115893001Y-81299000D01*
G75*
G02*
X116143000Y-81548999I0J-249999D01*
G01*
X116143000Y-82249001D01*
G75*
G02*
X115893001Y-82499000I-249999J0D01*
G01*
X114992999Y-82499000D01*
G75*
G02*
X114743000Y-82249001I0J249999D01*
G01*
X114743000Y-81548999D01*
G75*
G02*
X114992999Y-81299000I249999J0D01*
G01*
G37*
G36*
G01*
X114992999Y-79299000D02*
X115893001Y-79299000D01*
G75*
G02*
X116143000Y-79548999I0J-249999D01*
G01*
X116143000Y-80249001D01*
G75*
G02*
X115893001Y-80499000I-249999J0D01*
G01*
X114992999Y-80499000D01*
G75*
G02*
X114743000Y-80249001I0J249999D01*
G01*
X114743000Y-79548999D01*
G75*
G02*
X114992999Y-79299000I249999J0D01*
G01*
G37*
%TD*%
%TO.C,R3*%
G36*
G01*
X114265000Y-83750999D02*
X114265000Y-84651001D01*
G75*
G02*
X114015001Y-84901000I-249999J0D01*
G01*
X113314999Y-84901000D01*
G75*
G02*
X113065000Y-84651001I0J249999D01*
G01*
X113065000Y-83750999D01*
G75*
G02*
X113314999Y-83501000I249999J0D01*
G01*
X114015001Y-83501000D01*
G75*
G02*
X114265000Y-83750999I0J-249999D01*
G01*
G37*
G36*
G01*
X116265000Y-83750999D02*
X116265000Y-84651001D01*
G75*
G02*
X116015001Y-84901000I-249999J0D01*
G01*
X115314999Y-84901000D01*
G75*
G02*
X115065000Y-84651001I0J249999D01*
G01*
X115065000Y-83750999D01*
G75*
G02*
X115314999Y-83501000I249999J0D01*
G01*
X116015001Y-83501000D01*
G75*
G02*
X116265000Y-83750999I0J-249999D01*
G01*
G37*
%TD*%
%TO.C,R2*%
G36*
G01*
X120145000Y-79952001D02*
X120145000Y-79051999D01*
G75*
G02*
X120394999Y-78802000I249999J0D01*
G01*
X121095001Y-78802000D01*
G75*
G02*
X121345000Y-79051999I0J-249999D01*
G01*
X121345000Y-79952001D01*
G75*
G02*
X121095001Y-80202000I-249999J0D01*
G01*
X120394999Y-80202000D01*
G75*
G02*
X120145000Y-79952001I0J249999D01*
G01*
G37*
G36*
G01*
X118145000Y-79952001D02*
X118145000Y-79051999D01*
G75*
G02*
X118394999Y-78802000I249999J0D01*
G01*
X119095001Y-78802000D01*
G75*
G02*
X119345000Y-79051999I0J-249999D01*
G01*
X119345000Y-79952001D01*
G75*
G02*
X119095001Y-80202000I-249999J0D01*
G01*
X118394999Y-80202000D01*
G75*
G02*
X118145000Y-79952001I0J249999D01*
G01*
G37*
%TD*%
D30*
%TO.C,R1*%
X179324000Y-71501000D03*
D31*
X153924000Y-71501000D03*
%TD*%
D32*
%TO.C,MAIN1*%
X144354000Y-106127000D03*
G36*
G01*
X141491500Y-108752000D02*
X140541500Y-108752000D01*
G75*
G02*
X140479000Y-108689500I0J62500D01*
G01*
X140479000Y-108564500D01*
G75*
G02*
X140541500Y-108502000I62500J0D01*
G01*
X141491500Y-108502000D01*
G75*
G02*
X141554000Y-108564500I0J-62500D01*
G01*
X141554000Y-108689500D01*
G75*
G02*
X141491500Y-108752000I-62500J0D01*
G01*
G37*
G36*
G01*
X141491500Y-108252000D02*
X140541500Y-108252000D01*
G75*
G02*
X140479000Y-108189500I0J62500D01*
G01*
X140479000Y-108064500D01*
G75*
G02*
X140541500Y-108002000I62500J0D01*
G01*
X141491500Y-108002000D01*
G75*
G02*
X141554000Y-108064500I0J-62500D01*
G01*
X141554000Y-108189500D01*
G75*
G02*
X141491500Y-108252000I-62500J0D01*
G01*
G37*
G36*
G01*
X141491500Y-107752000D02*
X140541500Y-107752000D01*
G75*
G02*
X140479000Y-107689500I0J62500D01*
G01*
X140479000Y-107564500D01*
G75*
G02*
X140541500Y-107502000I62500J0D01*
G01*
X141491500Y-107502000D01*
G75*
G02*
X141554000Y-107564500I0J-62500D01*
G01*
X141554000Y-107689500D01*
G75*
G02*
X141491500Y-107752000I-62500J0D01*
G01*
G37*
G36*
G01*
X141491500Y-107252000D02*
X140541500Y-107252000D01*
G75*
G02*
X140479000Y-107189500I0J62500D01*
G01*
X140479000Y-107064500D01*
G75*
G02*
X140541500Y-107002000I62500J0D01*
G01*
X141491500Y-107002000D01*
G75*
G02*
X141554000Y-107064500I0J-62500D01*
G01*
X141554000Y-107189500D01*
G75*
G02*
X141491500Y-107252000I-62500J0D01*
G01*
G37*
G36*
G01*
X141491500Y-106752000D02*
X140541500Y-106752000D01*
G75*
G02*
X140479000Y-106689500I0J62500D01*
G01*
X140479000Y-106564500D01*
G75*
G02*
X140541500Y-106502000I62500J0D01*
G01*
X141491500Y-106502000D01*
G75*
G02*
X141554000Y-106564500I0J-62500D01*
G01*
X141554000Y-106689500D01*
G75*
G02*
X141491500Y-106752000I-62500J0D01*
G01*
G37*
G36*
G01*
X141491500Y-106252000D02*
X140541500Y-106252000D01*
G75*
G02*
X140479000Y-106189500I0J62500D01*
G01*
X140479000Y-106064500D01*
G75*
G02*
X140541500Y-106002000I62500J0D01*
G01*
X141491500Y-106002000D01*
G75*
G02*
X141554000Y-106064500I0J-62500D01*
G01*
X141554000Y-106189500D01*
G75*
G02*
X141491500Y-106252000I-62500J0D01*
G01*
G37*
G36*
G01*
X141491500Y-105752000D02*
X140541500Y-105752000D01*
G75*
G02*
X140479000Y-105689500I0J62500D01*
G01*
X140479000Y-105564500D01*
G75*
G02*
X140541500Y-105502000I62500J0D01*
G01*
X141491500Y-105502000D01*
G75*
G02*
X141554000Y-105564500I0J-62500D01*
G01*
X141554000Y-105689500D01*
G75*
G02*
X141491500Y-105752000I-62500J0D01*
G01*
G37*
G36*
G01*
X141491500Y-105252000D02*
X140541500Y-105252000D01*
G75*
G02*
X140479000Y-105189500I0J62500D01*
G01*
X140479000Y-105064500D01*
G75*
G02*
X140541500Y-105002000I62500J0D01*
G01*
X141491500Y-105002000D01*
G75*
G02*
X141554000Y-105064500I0J-62500D01*
G01*
X141554000Y-105189500D01*
G75*
G02*
X141491500Y-105252000I-62500J0D01*
G01*
G37*
G36*
G01*
X141491500Y-104752000D02*
X140541500Y-104752000D01*
G75*
G02*
X140479000Y-104689500I0J62500D01*
G01*
X140479000Y-104564500D01*
G75*
G02*
X140541500Y-104502000I62500J0D01*
G01*
X141491500Y-104502000D01*
G75*
G02*
X141554000Y-104564500I0J-62500D01*
G01*
X141554000Y-104689500D01*
G75*
G02*
X141491500Y-104752000I-62500J0D01*
G01*
G37*
G36*
G01*
X141491500Y-104252000D02*
X140541500Y-104252000D01*
G75*
G02*
X140479000Y-104189500I0J62500D01*
G01*
X140479000Y-104064500D01*
G75*
G02*
X140541500Y-104002000I62500J0D01*
G01*
X141491500Y-104002000D01*
G75*
G02*
X141554000Y-104064500I0J-62500D01*
G01*
X141554000Y-104189500D01*
G75*
G02*
X141491500Y-104252000I-62500J0D01*
G01*
G37*
G36*
G01*
X141491500Y-103752000D02*
X140541500Y-103752000D01*
G75*
G02*
X140479000Y-103689500I0J62500D01*
G01*
X140479000Y-103564500D01*
G75*
G02*
X140541500Y-103502000I62500J0D01*
G01*
X141491500Y-103502000D01*
G75*
G02*
X141554000Y-103564500I0J-62500D01*
G01*
X141554000Y-103689500D01*
G75*
G02*
X141491500Y-103752000I-62500J0D01*
G01*
G37*
G36*
G01*
X141916500Y-103327000D02*
X141791500Y-103327000D01*
G75*
G02*
X141729000Y-103264500I0J62500D01*
G01*
X141729000Y-102314500D01*
G75*
G02*
X141791500Y-102252000I62500J0D01*
G01*
X141916500Y-102252000D01*
G75*
G02*
X141979000Y-102314500I0J-62500D01*
G01*
X141979000Y-103264500D01*
G75*
G02*
X141916500Y-103327000I-62500J0D01*
G01*
G37*
G36*
G01*
X142416500Y-103327000D02*
X142291500Y-103327000D01*
G75*
G02*
X142229000Y-103264500I0J62500D01*
G01*
X142229000Y-102314500D01*
G75*
G02*
X142291500Y-102252000I62500J0D01*
G01*
X142416500Y-102252000D01*
G75*
G02*
X142479000Y-102314500I0J-62500D01*
G01*
X142479000Y-103264500D01*
G75*
G02*
X142416500Y-103327000I-62500J0D01*
G01*
G37*
G36*
G01*
X142916500Y-103327000D02*
X142791500Y-103327000D01*
G75*
G02*
X142729000Y-103264500I0J62500D01*
G01*
X142729000Y-102314500D01*
G75*
G02*
X142791500Y-102252000I62500J0D01*
G01*
X142916500Y-102252000D01*
G75*
G02*
X142979000Y-102314500I0J-62500D01*
G01*
X142979000Y-103264500D01*
G75*
G02*
X142916500Y-103327000I-62500J0D01*
G01*
G37*
G36*
G01*
X143416500Y-103327000D02*
X143291500Y-103327000D01*
G75*
G02*
X143229000Y-103264500I0J62500D01*
G01*
X143229000Y-102314500D01*
G75*
G02*
X143291500Y-102252000I62500J0D01*
G01*
X143416500Y-102252000D01*
G75*
G02*
X143479000Y-102314500I0J-62500D01*
G01*
X143479000Y-103264500D01*
G75*
G02*
X143416500Y-103327000I-62500J0D01*
G01*
G37*
G36*
G01*
X143916500Y-103327000D02*
X143791500Y-103327000D01*
G75*
G02*
X143729000Y-103264500I0J62500D01*
G01*
X143729000Y-102314500D01*
G75*
G02*
X143791500Y-102252000I62500J0D01*
G01*
X143916500Y-102252000D01*
G75*
G02*
X143979000Y-102314500I0J-62500D01*
G01*
X143979000Y-103264500D01*
G75*
G02*
X143916500Y-103327000I-62500J0D01*
G01*
G37*
G36*
G01*
X144416500Y-103327000D02*
X144291500Y-103327000D01*
G75*
G02*
X144229000Y-103264500I0J62500D01*
G01*
X144229000Y-102314500D01*
G75*
G02*
X144291500Y-102252000I62500J0D01*
G01*
X144416500Y-102252000D01*
G75*
G02*
X144479000Y-102314500I0J-62500D01*
G01*
X144479000Y-103264500D01*
G75*
G02*
X144416500Y-103327000I-62500J0D01*
G01*
G37*
G36*
G01*
X144916500Y-103327000D02*
X144791500Y-103327000D01*
G75*
G02*
X144729000Y-103264500I0J62500D01*
G01*
X144729000Y-102314500D01*
G75*
G02*
X144791500Y-102252000I62500J0D01*
G01*
X144916500Y-102252000D01*
G75*
G02*
X144979000Y-102314500I0J-62500D01*
G01*
X144979000Y-103264500D01*
G75*
G02*
X144916500Y-103327000I-62500J0D01*
G01*
G37*
G36*
G01*
X145416500Y-103327000D02*
X145291500Y-103327000D01*
G75*
G02*
X145229000Y-103264500I0J62500D01*
G01*
X145229000Y-102314500D01*
G75*
G02*
X145291500Y-102252000I62500J0D01*
G01*
X145416500Y-102252000D01*
G75*
G02*
X145479000Y-102314500I0J-62500D01*
G01*
X145479000Y-103264500D01*
G75*
G02*
X145416500Y-103327000I-62500J0D01*
G01*
G37*
G36*
G01*
X145916500Y-103327000D02*
X145791500Y-103327000D01*
G75*
G02*
X145729000Y-103264500I0J62500D01*
G01*
X145729000Y-102314500D01*
G75*
G02*
X145791500Y-102252000I62500J0D01*
G01*
X145916500Y-102252000D01*
G75*
G02*
X145979000Y-102314500I0J-62500D01*
G01*
X145979000Y-103264500D01*
G75*
G02*
X145916500Y-103327000I-62500J0D01*
G01*
G37*
G36*
G01*
X146416500Y-103327000D02*
X146291500Y-103327000D01*
G75*
G02*
X146229000Y-103264500I0J62500D01*
G01*
X146229000Y-102314500D01*
G75*
G02*
X146291500Y-102252000I62500J0D01*
G01*
X146416500Y-102252000D01*
G75*
G02*
X146479000Y-102314500I0J-62500D01*
G01*
X146479000Y-103264500D01*
G75*
G02*
X146416500Y-103327000I-62500J0D01*
G01*
G37*
G36*
G01*
X146916500Y-103327000D02*
X146791500Y-103327000D01*
G75*
G02*
X146729000Y-103264500I0J62500D01*
G01*
X146729000Y-102314500D01*
G75*
G02*
X146791500Y-102252000I62500J0D01*
G01*
X146916500Y-102252000D01*
G75*
G02*
X146979000Y-102314500I0J-62500D01*
G01*
X146979000Y-103264500D01*
G75*
G02*
X146916500Y-103327000I-62500J0D01*
G01*
G37*
G36*
G01*
X148166500Y-103752000D02*
X147216500Y-103752000D01*
G75*
G02*
X147154000Y-103689500I0J62500D01*
G01*
X147154000Y-103564500D01*
G75*
G02*
X147216500Y-103502000I62500J0D01*
G01*
X148166500Y-103502000D01*
G75*
G02*
X148229000Y-103564500I0J-62500D01*
G01*
X148229000Y-103689500D01*
G75*
G02*
X148166500Y-103752000I-62500J0D01*
G01*
G37*
G36*
G01*
X148166500Y-104252000D02*
X147216500Y-104252000D01*
G75*
G02*
X147154000Y-104189500I0J62500D01*
G01*
X147154000Y-104064500D01*
G75*
G02*
X147216500Y-104002000I62500J0D01*
G01*
X148166500Y-104002000D01*
G75*
G02*
X148229000Y-104064500I0J-62500D01*
G01*
X148229000Y-104189500D01*
G75*
G02*
X148166500Y-104252000I-62500J0D01*
G01*
G37*
G36*
G01*
X148166500Y-104752000D02*
X147216500Y-104752000D01*
G75*
G02*
X147154000Y-104689500I0J62500D01*
G01*
X147154000Y-104564500D01*
G75*
G02*
X147216500Y-104502000I62500J0D01*
G01*
X148166500Y-104502000D01*
G75*
G02*
X148229000Y-104564500I0J-62500D01*
G01*
X148229000Y-104689500D01*
G75*
G02*
X148166500Y-104752000I-62500J0D01*
G01*
G37*
G36*
G01*
X148166500Y-105252000D02*
X147216500Y-105252000D01*
G75*
G02*
X147154000Y-105189500I0J62500D01*
G01*
X147154000Y-105064500D01*
G75*
G02*
X147216500Y-105002000I62500J0D01*
G01*
X148166500Y-105002000D01*
G75*
G02*
X148229000Y-105064500I0J-62500D01*
G01*
X148229000Y-105189500D01*
G75*
G02*
X148166500Y-105252000I-62500J0D01*
G01*
G37*
G36*
G01*
X148166500Y-105752000D02*
X147216500Y-105752000D01*
G75*
G02*
X147154000Y-105689500I0J62500D01*
G01*
X147154000Y-105564500D01*
G75*
G02*
X147216500Y-105502000I62500J0D01*
G01*
X148166500Y-105502000D01*
G75*
G02*
X148229000Y-105564500I0J-62500D01*
G01*
X148229000Y-105689500D01*
G75*
G02*
X148166500Y-105752000I-62500J0D01*
G01*
G37*
G36*
G01*
X148166500Y-106252000D02*
X147216500Y-106252000D01*
G75*
G02*
X147154000Y-106189500I0J62500D01*
G01*
X147154000Y-106064500D01*
G75*
G02*
X147216500Y-106002000I62500J0D01*
G01*
X148166500Y-106002000D01*
G75*
G02*
X148229000Y-106064500I0J-62500D01*
G01*
X148229000Y-106189500D01*
G75*
G02*
X148166500Y-106252000I-62500J0D01*
G01*
G37*
G36*
G01*
X148166500Y-106752000D02*
X147216500Y-106752000D01*
G75*
G02*
X147154000Y-106689500I0J62500D01*
G01*
X147154000Y-106564500D01*
G75*
G02*
X147216500Y-106502000I62500J0D01*
G01*
X148166500Y-106502000D01*
G75*
G02*
X148229000Y-106564500I0J-62500D01*
G01*
X148229000Y-106689500D01*
G75*
G02*
X148166500Y-106752000I-62500J0D01*
G01*
G37*
G36*
G01*
X148166500Y-107252000D02*
X147216500Y-107252000D01*
G75*
G02*
X147154000Y-107189500I0J62500D01*
G01*
X147154000Y-107064500D01*
G75*
G02*
X147216500Y-107002000I62500J0D01*
G01*
X148166500Y-107002000D01*
G75*
G02*
X148229000Y-107064500I0J-62500D01*
G01*
X148229000Y-107189500D01*
G75*
G02*
X148166500Y-107252000I-62500J0D01*
G01*
G37*
G36*
G01*
X148166500Y-107752000D02*
X147216500Y-107752000D01*
G75*
G02*
X147154000Y-107689500I0J62500D01*
G01*
X147154000Y-107564500D01*
G75*
G02*
X147216500Y-107502000I62500J0D01*
G01*
X148166500Y-107502000D01*
G75*
G02*
X148229000Y-107564500I0J-62500D01*
G01*
X148229000Y-107689500D01*
G75*
G02*
X148166500Y-107752000I-62500J0D01*
G01*
G37*
G36*
G01*
X148166500Y-108252000D02*
X147216500Y-108252000D01*
G75*
G02*
X147154000Y-108189500I0J62500D01*
G01*
X147154000Y-108064500D01*
G75*
G02*
X147216500Y-108002000I62500J0D01*
G01*
X148166500Y-108002000D01*
G75*
G02*
X148229000Y-108064500I0J-62500D01*
G01*
X148229000Y-108189500D01*
G75*
G02*
X148166500Y-108252000I-62500J0D01*
G01*
G37*
G36*
G01*
X148166500Y-108752000D02*
X147216500Y-108752000D01*
G75*
G02*
X147154000Y-108689500I0J62500D01*
G01*
X147154000Y-108564500D01*
G75*
G02*
X147216500Y-108502000I62500J0D01*
G01*
X148166500Y-108502000D01*
G75*
G02*
X148229000Y-108564500I0J-62500D01*
G01*
X148229000Y-108689500D01*
G75*
G02*
X148166500Y-108752000I-62500J0D01*
G01*
G37*
G36*
G01*
X146916500Y-110002000D02*
X146791500Y-110002000D01*
G75*
G02*
X146729000Y-109939500I0J62500D01*
G01*
X146729000Y-108989500D01*
G75*
G02*
X146791500Y-108927000I62500J0D01*
G01*
X146916500Y-108927000D01*
G75*
G02*
X146979000Y-108989500I0J-62500D01*
G01*
X146979000Y-109939500D01*
G75*
G02*
X146916500Y-110002000I-62500J0D01*
G01*
G37*
G36*
G01*
X146416500Y-110002000D02*
X146291500Y-110002000D01*
G75*
G02*
X146229000Y-109939500I0J62500D01*
G01*
X146229000Y-108989500D01*
G75*
G02*
X146291500Y-108927000I62500J0D01*
G01*
X146416500Y-108927000D01*
G75*
G02*
X146479000Y-108989500I0J-62500D01*
G01*
X146479000Y-109939500D01*
G75*
G02*
X146416500Y-110002000I-62500J0D01*
G01*
G37*
G36*
G01*
X145916500Y-110002000D02*
X145791500Y-110002000D01*
G75*
G02*
X145729000Y-109939500I0J62500D01*
G01*
X145729000Y-108989500D01*
G75*
G02*
X145791500Y-108927000I62500J0D01*
G01*
X145916500Y-108927000D01*
G75*
G02*
X145979000Y-108989500I0J-62500D01*
G01*
X145979000Y-109939500D01*
G75*
G02*
X145916500Y-110002000I-62500J0D01*
G01*
G37*
G36*
G01*
X145416500Y-110002000D02*
X145291500Y-110002000D01*
G75*
G02*
X145229000Y-109939500I0J62500D01*
G01*
X145229000Y-108989500D01*
G75*
G02*
X145291500Y-108927000I62500J0D01*
G01*
X145416500Y-108927000D01*
G75*
G02*
X145479000Y-108989500I0J-62500D01*
G01*
X145479000Y-109939500D01*
G75*
G02*
X145416500Y-110002000I-62500J0D01*
G01*
G37*
G36*
G01*
X144916500Y-110002000D02*
X144791500Y-110002000D01*
G75*
G02*
X144729000Y-109939500I0J62500D01*
G01*
X144729000Y-108989500D01*
G75*
G02*
X144791500Y-108927000I62500J0D01*
G01*
X144916500Y-108927000D01*
G75*
G02*
X144979000Y-108989500I0J-62500D01*
G01*
X144979000Y-109939500D01*
G75*
G02*
X144916500Y-110002000I-62500J0D01*
G01*
G37*
G36*
G01*
X144416500Y-110002000D02*
X144291500Y-110002000D01*
G75*
G02*
X144229000Y-109939500I0J62500D01*
G01*
X144229000Y-108989500D01*
G75*
G02*
X144291500Y-108927000I62500J0D01*
G01*
X144416500Y-108927000D01*
G75*
G02*
X144479000Y-108989500I0J-62500D01*
G01*
X144479000Y-109939500D01*
G75*
G02*
X144416500Y-110002000I-62500J0D01*
G01*
G37*
G36*
G01*
X143916500Y-110002000D02*
X143791500Y-110002000D01*
G75*
G02*
X143729000Y-109939500I0J62500D01*
G01*
X143729000Y-108989500D01*
G75*
G02*
X143791500Y-108927000I62500J0D01*
G01*
X143916500Y-108927000D01*
G75*
G02*
X143979000Y-108989500I0J-62500D01*
G01*
X143979000Y-109939500D01*
G75*
G02*
X143916500Y-110002000I-62500J0D01*
G01*
G37*
G36*
G01*
X143416500Y-110002000D02*
X143291500Y-110002000D01*
G75*
G02*
X143229000Y-109939500I0J62500D01*
G01*
X143229000Y-108989500D01*
G75*
G02*
X143291500Y-108927000I62500J0D01*
G01*
X143416500Y-108927000D01*
G75*
G02*
X143479000Y-108989500I0J-62500D01*
G01*
X143479000Y-109939500D01*
G75*
G02*
X143416500Y-110002000I-62500J0D01*
G01*
G37*
G36*
G01*
X142916500Y-110002000D02*
X142791500Y-110002000D01*
G75*
G02*
X142729000Y-109939500I0J62500D01*
G01*
X142729000Y-108989500D01*
G75*
G02*
X142791500Y-108927000I62500J0D01*
G01*
X142916500Y-108927000D01*
G75*
G02*
X142979000Y-108989500I0J-62500D01*
G01*
X142979000Y-109939500D01*
G75*
G02*
X142916500Y-110002000I-62500J0D01*
G01*
G37*
G36*
G01*
X142416500Y-110002000D02*
X142291500Y-110002000D01*
G75*
G02*
X142229000Y-109939500I0J62500D01*
G01*
X142229000Y-108989500D01*
G75*
G02*
X142291500Y-108927000I62500J0D01*
G01*
X142416500Y-108927000D01*
G75*
G02*
X142479000Y-108989500I0J-62500D01*
G01*
X142479000Y-109939500D01*
G75*
G02*
X142416500Y-110002000I-62500J0D01*
G01*
G37*
G36*
G01*
X141916500Y-110002000D02*
X141791500Y-110002000D01*
G75*
G02*
X141729000Y-109939500I0J62500D01*
G01*
X141729000Y-108989500D01*
G75*
G02*
X141791500Y-108927000I62500J0D01*
G01*
X141916500Y-108927000D01*
G75*
G02*
X141979000Y-108989500I0J-62500D01*
G01*
X141979000Y-109939500D01*
G75*
G02*
X141916500Y-110002000I-62500J0D01*
G01*
G37*
%TD*%
D29*
%TO.C,J7*%
X121539000Y-61468000D03*
G36*
G01*
X124949000Y-60622999D02*
X124949000Y-62313001D01*
G75*
G02*
X124699001Y-62563000I-249999J0D01*
G01*
X123458999Y-62563000D01*
G75*
G02*
X123209000Y-62313001I0J249999D01*
G01*
X123209000Y-60622999D01*
G75*
G02*
X123458999Y-60373000I249999J0D01*
G01*
X124699001Y-60373000D01*
G75*
G02*
X124949000Y-60622999I0J-249999D01*
G01*
G37*
%TD*%
D21*
%TO.C,J6*%
X103251000Y-61214000D03*
G36*
G01*
X104096001Y-64624000D02*
X102405999Y-64624000D01*
G75*
G02*
X102156000Y-64374001I0J249999D01*
G01*
X102156000Y-63133999D01*
G75*
G02*
X102405999Y-62884000I249999J0D01*
G01*
X104096001Y-62884000D01*
G75*
G02*
X104346000Y-63133999I0J-249999D01*
G01*
X104346000Y-64374001D01*
G75*
G02*
X104096001Y-64624000I-249999J0D01*
G01*
G37*
%TD*%
D29*
%TO.C,J5*%
X126873000Y-107061000D03*
G36*
G01*
X123463000Y-107906001D02*
X123463000Y-106215999D01*
G75*
G02*
X123712999Y-105966000I249999J0D01*
G01*
X124953001Y-105966000D01*
G75*
G02*
X125203000Y-106215999I0J-249999D01*
G01*
X125203000Y-107906001D01*
G75*
G02*
X124953001Y-108156000I-249999J0D01*
G01*
X123712999Y-108156000D01*
G75*
G02*
X123463000Y-107906001I0J249999D01*
G01*
G37*
%TD*%
D33*
%TO.C,J3*%
X137054000Y-125062500D03*
X142854000Y-125062500D03*
D34*
X143454000Y-125062500D03*
X136454000Y-125062500D03*
D35*
X138954000Y-125062500D03*
D36*
X142454000Y-122362500D03*
D37*
X139954000Y-122362500D03*
X140604000Y-122362500D03*
X141254000Y-122362500D03*
X138654000Y-122362500D03*
X139304000Y-122362500D03*
D36*
X137454000Y-122362500D03*
D35*
X140954000Y-125062500D03*
%TD*%
D21*
%TO.C,J2*%
X154813000Y-110998000D03*
G36*
G01*
X153967999Y-107588000D02*
X155658001Y-107588000D01*
G75*
G02*
X155908000Y-107837999I0J-249999D01*
G01*
X155908000Y-109078001D01*
G75*
G02*
X155658001Y-109328000I-249999J0D01*
G01*
X153967999Y-109328000D01*
G75*
G02*
X153718000Y-109078001I0J249999D01*
G01*
X153718000Y-107837999D01*
G75*
G02*
X153967999Y-107588000I249999J0D01*
G01*
G37*
%TD*%
%TO.C,C28*%
G36*
G01*
X143223000Y-98737000D02*
X142273000Y-98737000D01*
G75*
G02*
X142023000Y-98487000I0J250000D01*
G01*
X142023000Y-97812000D01*
G75*
G02*
X142273000Y-97562000I250000J0D01*
G01*
X143223000Y-97562000D01*
G75*
G02*
X143473000Y-97812000I0J-250000D01*
G01*
X143473000Y-98487000D01*
G75*
G02*
X143223000Y-98737000I-250000J0D01*
G01*
G37*
G36*
G01*
X143223000Y-100812000D02*
X142273000Y-100812000D01*
G75*
G02*
X142023000Y-100562000I0J250000D01*
G01*
X142023000Y-99887000D01*
G75*
G02*
X142273000Y-99637000I250000J0D01*
G01*
X143223000Y-99637000D01*
G75*
G02*
X143473000Y-99887000I0J-250000D01*
G01*
X143473000Y-100562000D01*
G75*
G02*
X143223000Y-100812000I-250000J0D01*
G01*
G37*
%TD*%
%TO.C,C27*%
G36*
G01*
X179230000Y-109902500D02*
X180180000Y-109902500D01*
G75*
G02*
X180430000Y-110152500I0J-250000D01*
G01*
X180430000Y-110827500D01*
G75*
G02*
X180180000Y-111077500I-250000J0D01*
G01*
X179230000Y-111077500D01*
G75*
G02*
X178980000Y-110827500I0J250000D01*
G01*
X178980000Y-110152500D01*
G75*
G02*
X179230000Y-109902500I250000J0D01*
G01*
G37*
G36*
G01*
X179230000Y-107827500D02*
X180180000Y-107827500D01*
G75*
G02*
X180430000Y-108077500I0J-250000D01*
G01*
X180430000Y-108752500D01*
G75*
G02*
X180180000Y-109002500I-250000J0D01*
G01*
X179230000Y-109002500D01*
G75*
G02*
X178980000Y-108752500I0J250000D01*
G01*
X178980000Y-108077500D01*
G75*
G02*
X179230000Y-107827500I250000J0D01*
G01*
G37*
%TD*%
%TO.C,C26*%
G36*
G01*
X141953000Y-86164000D02*
X141003000Y-86164000D01*
G75*
G02*
X140753000Y-85914000I0J250000D01*
G01*
X140753000Y-85239000D01*
G75*
G02*
X141003000Y-84989000I250000J0D01*
G01*
X141953000Y-84989000D01*
G75*
G02*
X142203000Y-85239000I0J-250000D01*
G01*
X142203000Y-85914000D01*
G75*
G02*
X141953000Y-86164000I-250000J0D01*
G01*
G37*
G36*
G01*
X141953000Y-88239000D02*
X141003000Y-88239000D01*
G75*
G02*
X140753000Y-87989000I0J250000D01*
G01*
X140753000Y-87314000D01*
G75*
G02*
X141003000Y-87064000I250000J0D01*
G01*
X141953000Y-87064000D01*
G75*
G02*
X142203000Y-87314000I0J-250000D01*
G01*
X142203000Y-87989000D01*
G75*
G02*
X141953000Y-88239000I-250000J0D01*
G01*
G37*
%TD*%
%TO.C,C25*%
G36*
G01*
X151986000Y-86185500D02*
X151036000Y-86185500D01*
G75*
G02*
X150786000Y-85935500I0J250000D01*
G01*
X150786000Y-85260500D01*
G75*
G02*
X151036000Y-85010500I250000J0D01*
G01*
X151986000Y-85010500D01*
G75*
G02*
X152236000Y-85260500I0J-250000D01*
G01*
X152236000Y-85935500D01*
G75*
G02*
X151986000Y-86185500I-250000J0D01*
G01*
G37*
G36*
G01*
X151986000Y-88260500D02*
X151036000Y-88260500D01*
G75*
G02*
X150786000Y-88010500I0J250000D01*
G01*
X150786000Y-87335500D01*
G75*
G02*
X151036000Y-87085500I250000J0D01*
G01*
X151986000Y-87085500D01*
G75*
G02*
X152236000Y-87335500I0J-250000D01*
G01*
X152236000Y-88010500D01*
G75*
G02*
X151986000Y-88260500I-250000J0D01*
G01*
G37*
%TD*%
%TO.C,C24*%
G36*
G01*
X175583000Y-50767000D02*
X175583000Y-49817000D01*
G75*
G02*
X175833000Y-49567000I250000J0D01*
G01*
X176508000Y-49567000D01*
G75*
G02*
X176758000Y-49817000I0J-250000D01*
G01*
X176758000Y-50767000D01*
G75*
G02*
X176508000Y-51017000I-250000J0D01*
G01*
X175833000Y-51017000D01*
G75*
G02*
X175583000Y-50767000I0J250000D01*
G01*
G37*
G36*
G01*
X173508000Y-50767000D02*
X173508000Y-49817000D01*
G75*
G02*
X173758000Y-49567000I250000J0D01*
G01*
X174433000Y-49567000D01*
G75*
G02*
X174683000Y-49817000I0J-250000D01*
G01*
X174683000Y-50767000D01*
G75*
G02*
X174433000Y-51017000I-250000J0D01*
G01*
X173758000Y-51017000D01*
G75*
G02*
X173508000Y-50767000I0J250000D01*
G01*
G37*
%TD*%
%TO.C,C23*%
G36*
G01*
X139352000Y-76501500D02*
X140302000Y-76501500D01*
G75*
G02*
X140552000Y-76751500I0J-250000D01*
G01*
X140552000Y-77426500D01*
G75*
G02*
X140302000Y-77676500I-250000J0D01*
G01*
X139352000Y-77676500D01*
G75*
G02*
X139102000Y-77426500I0J250000D01*
G01*
X139102000Y-76751500D01*
G75*
G02*
X139352000Y-76501500I250000J0D01*
G01*
G37*
G36*
G01*
X139352000Y-74426500D02*
X140302000Y-74426500D01*
G75*
G02*
X140552000Y-74676500I0J-250000D01*
G01*
X140552000Y-75351500D01*
G75*
G02*
X140302000Y-75601500I-250000J0D01*
G01*
X139352000Y-75601500D01*
G75*
G02*
X139102000Y-75351500I0J250000D01*
G01*
X139102000Y-74676500D01*
G75*
G02*
X139352000Y-74426500I250000J0D01*
G01*
G37*
%TD*%
%TO.C,C22*%
G36*
G01*
X124874000Y-81984000D02*
X125824000Y-81984000D01*
G75*
G02*
X126074000Y-82234000I0J-250000D01*
G01*
X126074000Y-82909000D01*
G75*
G02*
X125824000Y-83159000I-250000J0D01*
G01*
X124874000Y-83159000D01*
G75*
G02*
X124624000Y-82909000I0J250000D01*
G01*
X124624000Y-82234000D01*
G75*
G02*
X124874000Y-81984000I250000J0D01*
G01*
G37*
G36*
G01*
X124874000Y-79909000D02*
X125824000Y-79909000D01*
G75*
G02*
X126074000Y-80159000I0J-250000D01*
G01*
X126074000Y-80834000D01*
G75*
G02*
X125824000Y-81084000I-250000J0D01*
G01*
X124874000Y-81084000D01*
G75*
G02*
X124624000Y-80834000I0J250000D01*
G01*
X124624000Y-80159000D01*
G75*
G02*
X124874000Y-79909000I250000J0D01*
G01*
G37*
%TD*%
%TO.C,C21*%
G36*
G01*
X129700000Y-99891000D02*
X130650000Y-99891000D01*
G75*
G02*
X130900000Y-100141000I0J-250000D01*
G01*
X130900000Y-100816000D01*
G75*
G02*
X130650000Y-101066000I-250000J0D01*
G01*
X129700000Y-101066000D01*
G75*
G02*
X129450000Y-100816000I0J250000D01*
G01*
X129450000Y-100141000D01*
G75*
G02*
X129700000Y-99891000I250000J0D01*
G01*
G37*
G36*
G01*
X129700000Y-97816000D02*
X130650000Y-97816000D01*
G75*
G02*
X130900000Y-98066000I0J-250000D01*
G01*
X130900000Y-98741000D01*
G75*
G02*
X130650000Y-98991000I-250000J0D01*
G01*
X129700000Y-98991000D01*
G75*
G02*
X129450000Y-98741000I0J250000D01*
G01*
X129450000Y-98066000D01*
G75*
G02*
X129700000Y-97816000I250000J0D01*
G01*
G37*
%TD*%
%TO.C,C20*%
G36*
G01*
X109761000Y-82343500D02*
X110711000Y-82343500D01*
G75*
G02*
X110961000Y-82593500I0J-250000D01*
G01*
X110961000Y-83268500D01*
G75*
G02*
X110711000Y-83518500I-250000J0D01*
G01*
X109761000Y-83518500D01*
G75*
G02*
X109511000Y-83268500I0J250000D01*
G01*
X109511000Y-82593500D01*
G75*
G02*
X109761000Y-82343500I250000J0D01*
G01*
G37*
G36*
G01*
X109761000Y-80268500D02*
X110711000Y-80268500D01*
G75*
G02*
X110961000Y-80518500I0J-250000D01*
G01*
X110961000Y-81193500D01*
G75*
G02*
X110711000Y-81443500I-250000J0D01*
G01*
X109761000Y-81443500D01*
G75*
G02*
X109511000Y-81193500I0J250000D01*
G01*
X109511000Y-80518500D01*
G75*
G02*
X109761000Y-80268500I250000J0D01*
G01*
G37*
%TD*%
%TO.C,C19*%
G36*
G01*
X122842000Y-97986000D02*
X123792000Y-97986000D01*
G75*
G02*
X124042000Y-98236000I0J-250000D01*
G01*
X124042000Y-98911000D01*
G75*
G02*
X123792000Y-99161000I-250000J0D01*
G01*
X122842000Y-99161000D01*
G75*
G02*
X122592000Y-98911000I0J250000D01*
G01*
X122592000Y-98236000D01*
G75*
G02*
X122842000Y-97986000I250000J0D01*
G01*
G37*
G36*
G01*
X122842000Y-95911000D02*
X123792000Y-95911000D01*
G75*
G02*
X124042000Y-96161000I0J-250000D01*
G01*
X124042000Y-96836000D01*
G75*
G02*
X123792000Y-97086000I-250000J0D01*
G01*
X122842000Y-97086000D01*
G75*
G02*
X122592000Y-96836000I0J250000D01*
G01*
X122592000Y-96161000D01*
G75*
G02*
X122842000Y-95911000I250000J0D01*
G01*
G37*
%TD*%
%TO.C,C18*%
G36*
G01*
X113215000Y-45753000D02*
X113215000Y-46703000D01*
G75*
G02*
X112965000Y-46953000I-250000J0D01*
G01*
X112290000Y-46953000D01*
G75*
G02*
X112040000Y-46703000I0J250000D01*
G01*
X112040000Y-45753000D01*
G75*
G02*
X112290000Y-45503000I250000J0D01*
G01*
X112965000Y-45503000D01*
G75*
G02*
X113215000Y-45753000I0J-250000D01*
G01*
G37*
G36*
G01*
X115290000Y-45753000D02*
X115290000Y-46703000D01*
G75*
G02*
X115040000Y-46953000I-250000J0D01*
G01*
X114365000Y-46953000D01*
G75*
G02*
X114115000Y-46703000I0J250000D01*
G01*
X114115000Y-45753000D01*
G75*
G02*
X114365000Y-45503000I250000J0D01*
G01*
X115040000Y-45503000D01*
G75*
G02*
X115290000Y-45753000I0J-250000D01*
G01*
G37*
%TD*%
%TO.C,C17*%
G36*
G01*
X110051000Y-46703000D02*
X110051000Y-45753000D01*
G75*
G02*
X110301000Y-45503000I250000J0D01*
G01*
X110976000Y-45503000D01*
G75*
G02*
X111226000Y-45753000I0J-250000D01*
G01*
X111226000Y-46703000D01*
G75*
G02*
X110976000Y-46953000I-250000J0D01*
G01*
X110301000Y-46953000D01*
G75*
G02*
X110051000Y-46703000I0J250000D01*
G01*
G37*
G36*
G01*
X107976000Y-46703000D02*
X107976000Y-45753000D01*
G75*
G02*
X108226000Y-45503000I250000J0D01*
G01*
X108901000Y-45503000D01*
G75*
G02*
X109151000Y-45753000I0J-250000D01*
G01*
X109151000Y-46703000D01*
G75*
G02*
X108901000Y-46953000I-250000J0D01*
G01*
X108226000Y-46953000D01*
G75*
G02*
X107976000Y-46703000I0J250000D01*
G01*
G37*
%TD*%
%TO.C,C16*%
G36*
G01*
X147018500Y-100236000D02*
X147018500Y-101186000D01*
G75*
G02*
X146768500Y-101436000I-250000J0D01*
G01*
X146093500Y-101436000D01*
G75*
G02*
X145843500Y-101186000I0J250000D01*
G01*
X145843500Y-100236000D01*
G75*
G02*
X146093500Y-99986000I250000J0D01*
G01*
X146768500Y-99986000D01*
G75*
G02*
X147018500Y-100236000I0J-250000D01*
G01*
G37*
G36*
G01*
X149093500Y-100236000D02*
X149093500Y-101186000D01*
G75*
G02*
X148843500Y-101436000I-250000J0D01*
G01*
X148168500Y-101436000D01*
G75*
G02*
X147918500Y-101186000I0J250000D01*
G01*
X147918500Y-100236000D01*
G75*
G02*
X148168500Y-99986000I250000J0D01*
G01*
X148843500Y-99986000D01*
G75*
G02*
X149093500Y-100236000I0J-250000D01*
G01*
G37*
%TD*%
%TO.C,C14*%
G36*
G01*
X143543000Y-119554500D02*
X144493000Y-119554500D01*
G75*
G02*
X144743000Y-119804500I0J-250000D01*
G01*
X144743000Y-120479500D01*
G75*
G02*
X144493000Y-120729500I-250000J0D01*
G01*
X143543000Y-120729500D01*
G75*
G02*
X143293000Y-120479500I0J250000D01*
G01*
X143293000Y-119804500D01*
G75*
G02*
X143543000Y-119554500I250000J0D01*
G01*
G37*
G36*
G01*
X143543000Y-117479500D02*
X144493000Y-117479500D01*
G75*
G02*
X144743000Y-117729500I0J-250000D01*
G01*
X144743000Y-118404500D01*
G75*
G02*
X144493000Y-118654500I-250000J0D01*
G01*
X143543000Y-118654500D01*
G75*
G02*
X143293000Y-118404500I0J250000D01*
G01*
X143293000Y-117729500D01*
G75*
G02*
X143543000Y-117479500I250000J0D01*
G01*
G37*
%TD*%
%TO.C,C13*%
G36*
G01*
X137127000Y-118676000D02*
X136177000Y-118676000D01*
G75*
G02*
X135927000Y-118426000I0J250000D01*
G01*
X135927000Y-117751000D01*
G75*
G02*
X136177000Y-117501000I250000J0D01*
G01*
X137127000Y-117501000D01*
G75*
G02*
X137377000Y-117751000I0J-250000D01*
G01*
X137377000Y-118426000D01*
G75*
G02*
X137127000Y-118676000I-250000J0D01*
G01*
G37*
G36*
G01*
X137127000Y-120751000D02*
X136177000Y-120751000D01*
G75*
G02*
X135927000Y-120501000I0J250000D01*
G01*
X135927000Y-119826000D01*
G75*
G02*
X136177000Y-119576000I250000J0D01*
G01*
X137127000Y-119576000D01*
G75*
G02*
X137377000Y-119826000I0J-250000D01*
G01*
X137377000Y-120501000D01*
G75*
G02*
X137127000Y-120751000I-250000J0D01*
G01*
G37*
%TD*%
%TO.C,C12*%
G36*
G01*
X114866000Y-73058000D02*
X114866000Y-74008000D01*
G75*
G02*
X114616000Y-74258000I-250000J0D01*
G01*
X113941000Y-74258000D01*
G75*
G02*
X113691000Y-74008000I0J250000D01*
G01*
X113691000Y-73058000D01*
G75*
G02*
X113941000Y-72808000I250000J0D01*
G01*
X114616000Y-72808000D01*
G75*
G02*
X114866000Y-73058000I0J-250000D01*
G01*
G37*
G36*
G01*
X116941000Y-73058000D02*
X116941000Y-74008000D01*
G75*
G02*
X116691000Y-74258000I-250000J0D01*
G01*
X116016000Y-74258000D01*
G75*
G02*
X115766000Y-74008000I0J250000D01*
G01*
X115766000Y-73058000D01*
G75*
G02*
X116016000Y-72808000I250000J0D01*
G01*
X116691000Y-72808000D01*
G75*
G02*
X116941000Y-73058000I0J-250000D01*
G01*
G37*
%TD*%
%TO.C,C11*%
G36*
G01*
X114866000Y-67851000D02*
X114866000Y-68801000D01*
G75*
G02*
X114616000Y-69051000I-250000J0D01*
G01*
X113941000Y-69051000D01*
G75*
G02*
X113691000Y-68801000I0J250000D01*
G01*
X113691000Y-67851000D01*
G75*
G02*
X113941000Y-67601000I250000J0D01*
G01*
X114616000Y-67601000D01*
G75*
G02*
X114866000Y-67851000I0J-250000D01*
G01*
G37*
G36*
G01*
X116941000Y-67851000D02*
X116941000Y-68801000D01*
G75*
G02*
X116691000Y-69051000I-250000J0D01*
G01*
X116016000Y-69051000D01*
G75*
G02*
X115766000Y-68801000I0J250000D01*
G01*
X115766000Y-67851000D01*
G75*
G02*
X116016000Y-67601000I250000J0D01*
G01*
X116691000Y-67601000D01*
G75*
G02*
X116941000Y-67851000I0J-250000D01*
G01*
G37*
%TD*%
%TO.C,C10*%
G36*
G01*
X169324000Y-83000000D02*
X170274000Y-83000000D01*
G75*
G02*
X170524000Y-83250000I0J-250000D01*
G01*
X170524000Y-83925000D01*
G75*
G02*
X170274000Y-84175000I-250000J0D01*
G01*
X169324000Y-84175000D01*
G75*
G02*
X169074000Y-83925000I0J250000D01*
G01*
X169074000Y-83250000D01*
G75*
G02*
X169324000Y-83000000I250000J0D01*
G01*
G37*
G36*
G01*
X169324000Y-80925000D02*
X170274000Y-80925000D01*
G75*
G02*
X170524000Y-81175000I0J-250000D01*
G01*
X170524000Y-81850000D01*
G75*
G02*
X170274000Y-82100000I-250000J0D01*
G01*
X169324000Y-82100000D01*
G75*
G02*
X169074000Y-81850000I0J250000D01*
G01*
X169074000Y-81175000D01*
G75*
G02*
X169324000Y-80925000I250000J0D01*
G01*
G37*
%TD*%
M02*
