M48
; DRILL file {KiCad (5.1.10)-1} date 10/26/21 16:11:39
; FORMAT={-:-/ absolute / inch / decimal}
; #@! TF.CreationDate,2021-10-26T16:11:39-05:00
; #@! TF.GenerationSoftware,Kicad,Pcbnew,(5.1.10)-1
; #@! TF.FileFunction,NonPlated,1,2,NPTH
FMAT,2
INCH
T1C0.1260
T2C0.1260
%
G90
G05
T1
X3.97Y-1.73
X3.97Y-4.925
X7.31Y-1.73
T2
X7.31Y-4.925
T0
M30
