(module 21-100411C_F234A4F+1_MXM (layer F.Cu)
  (fp_text reference REF** (at 0 0) (layer F.SilkS)
    (effects (font (size 1 1) (thickness .15)))
  )
  (fp_text value 21-100411C_F234A4F+1_MXM (at 0 0) (layer F.SilkS)
    (effects (font (size 1 1) (thickness .15)))
  )
  (fp_text user "Copyright 2021 Accelerated Designs. All rights reserved." (at 0 0) (layer Cmts.User)
    (effects (font (size .127 .127) (thickness .002)))
  )
  (fp_text user "*" (at -2.8956 -1.2192) (layer F.SilkS)
    (effects (font (size 1 1) (thickness .15)))
  )
  (fp_text user "*" (at -2.3622 -1.7526) (layer F.Fab)
    (effects (font (size 1 1) (thickness .15)))
  )
  (fp_text user "0.016in/0.4mm" (at -5.417 .2) (layer Dwgs.User)
    (effects (font (size 1 1) (thickness .15)))
  )
  (fp_text user "0.154in/3.9mm" (at 0 7.957) (layer Dwgs.User)
    (effects (font (size 1 1) (thickness .15)))
  )
  (fp_text user "0.154in/3.9mm" (at 9.659 0) (layer Dwgs.User)
    (effects (font (size 1 1) (thickness .15)))
  )
  (fp_text user "0.033in/0.838mm" (at 1.95 -4.998) (layer Dwgs.User)
    (effects (font (size 1 1) (thickness .15)))
  )
  (fp_text user "0.012in/0.305mm" (at -7.957 -1.2) (layer Dwgs.User)
    (effects (font (size 1 1) (thickness .15)))
  )
  (fp_text user "*" (at -2.8956 -1.2192) (layer F.SilkS)
    (effects (font (size 1 1) (thickness .15)))
  )
  (fp_text user "*" (at -2.3622 -1.7526) (layer F.Fab)
    (effects (font (size 1 1) (thickness .15)))
  )
  (fp_line (start -2 2) (end 2 2) (layer F.Fab) (width .1))
  (fp_line (start 2 2) (end 2 -2) (layer F.Fab) (width .1))
  (fp_line (start 2 -2) (end -2 -2) (layer F.Fab) (width .1))
  (fp_line (start -2 -2) (end -2 2) (layer F.Fab) (width .1))
  (fp_line (start -2 -.73) (end -.73 -2) (layer F.Fab) (width .1))
  (fp_line (start 2.127 1.63274) (end 2.127 2.127) (layer F.SilkS) (width .12))
  (fp_line (start 2.127 -2.127) (end 2.127 -1.63274) (layer F.SilkS) (width .12))
  (fp_line (start -2.127 -1.63274) (end -2.127 -2.127) (layer F.SilkS) (width .12))
  (fp_line (start -2.127 2.127) (end -2.127 1.632241) (layer F.SilkS) (width .12))
  (fp_poly (pts (xy 1.7005 2.300001) (xy 1.7005 1.702001) (xy 1.2855 1.300001) (xy .750399 1.2996) (xy .740644 1.300561) (xy .731265 1.303406) (xy .72262 1.308027) (xy .715044 1.314245) (xy .708825 1.321822) (xy .704205 1.330466) (xy .70136 1.339846) (xy .700399 1.3496) (xy .7005 2.300001)) (layer F.Cu) (width .1))
  (fp_poly (pts (xy -1.1 -2.3) (xy -1.3 -2.3) (xy -1.3 -1.700002) (xy -1.298079 -1.680493) (xy -1.292388 -1.661734) (xy -1.283147 -1.644445) (xy -1.270711 -1.629291) (xy -1.255557 -1.616855) (xy -1.238268 -1.607614) (xy -1.219509 -1.601923) (xy -1.2 -1.600002) (xy -1.180491 -1.601923) (xy -1.161732 -1.607614) (xy -1.144443 -1.616855) (xy -1.129289 -1.629291) (xy -1.116853 -1.644445) (xy -1.107612 -1.661734) (xy -1.101921 -1.680493) (xy -1.1 -1.700002)) (layer F.Cu) (width .1))
  (fp_poly (pts (xy -.700001 -2.3) (xy -.900001 -2.3) (xy -.900001 -1.700002) (xy -.898079 -1.680493) (xy -.892389 -1.661734) (xy -.883148 -1.644445) (xy -.870711 -1.629291) (xy -.855558 -1.616855) (xy -.838269 -1.607614) (xy -.81951 -1.601923) (xy -.800001 -1.600002) (xy -.780492 -1.601923) (xy -.761732 -1.607614) (xy -.744444 -1.616855) (xy -.72929 -1.629291) (xy -.716854 -1.644445) (xy -.707613 -1.661734) (xy -.701922 -1.680493) (xy -.700001 -1.700002)) (layer F.Cu) (width .1))
  (fp_poly (pts (xy -.299999 -2.3) (xy -.499999 -2.3) (xy -.499999 -1.700002) (xy -.498078 -1.680493) (xy -.492387 -1.661734) (xy -.483146 -1.644445) (xy -.47071 -1.629291) (xy -.455556 -1.616855) (xy -.438267 -1.607614) (xy -.419508 -1.601923) (xy -.399999 -1.600002) (xy -.38049 -1.601923) (xy -.361731 -1.607614) (xy -.344442 -1.616855) (xy -.329288 -1.629291) (xy -.316852 -1.644445) (xy -.307611 -1.661734) (xy -.30192 -1.680493) (xy -.299999 -1.700002)) (layer F.Cu) (width .1))
  (fp_poly (pts (xy .499999 -2.3) (xy .299999 -2.3) (xy .299999 -1.700002) (xy .301921 -1.680493) (xy .307611 -1.661734) (xy .316852 -1.644445) (xy .329289 -1.629291) (xy .344442 -1.616855) (xy .361731 -1.607614) (xy .38049 -1.601923) (xy .399999 -1.600002) (xy .419508 -1.601923) (xy .438268 -1.607614) (xy .455556 -1.616855) (xy .47071 -1.629291) (xy .483146 -1.644445) (xy .492387 -1.661734) (xy .498078 -1.680493) (xy .499999 -1.700002)) (layer F.Cu) (width .1))
  (fp_poly (pts (xy .900001 -2.3) (xy .700001 -2.3) (xy .700001 -1.700002) (xy .701923 -1.680493) (xy .707613 -1.661734) (xy .716854 -1.644445) (xy .72929 -1.629291) (xy .744444 -1.616855) (xy .761733 -1.607614) (xy .780492 -1.601923) (xy .800001 -1.600002) (xy .81951 -1.601923) (xy .83827 -1.607614) (xy .855558 -1.616855) (xy .870712 -1.629291) (xy .883148 -1.644445) (xy .892389 -1.661734) (xy .89808 -1.680493) (xy .900001 -1.700002)) (layer F.Cu) (width .1))
  (fp_poly (pts (xy 1.699999 -2.3) (xy 1.5 -2.3) (xy 1.499999 -1.700002) (xy 1.501921 -1.680493) (xy 1.507612 -1.661734) (xy 1.516853 -1.644445) (xy 1.529289 -1.629291) (xy 1.544442 -1.616855) (xy 1.561731 -1.607614) (xy 1.58049 -1.601923) (xy 1.6 -1.600002) (xy 1.619509 -1.601923) (xy 1.638268 -1.607614) (xy 1.655557 -1.616855) (xy 1.67071 -1.629291) (xy 1.683147 -1.644445) (xy 1.692388 -1.661734) (xy 1.698078 -1.680493) (xy 1.7 -1.700002)) (layer F.Cu) (width .1))
  (fp_poly (pts (xy 1.3 -2.3) (xy 1.1 -2.3) (xy 1.1 -1.700002) (xy 1.101922 -1.680493) (xy 1.107612 -1.661734) (xy 1.116853 -1.644445) (xy 1.12929 -1.629291) (xy 1.144443 -1.616855) (xy 1.161732 -1.607614) (xy 1.180491 -1.601923) (xy 1.2 -1.600002) (xy 1.219509 -1.601923) (xy 1.238269 -1.607614) (xy 1.255557 -1.616855) (xy 1.270711 -1.629291) (xy 1.283147 -1.644445) (xy 1.292388 -1.661734) (xy 1.298079 -1.680493) (xy 1.3 -1.700002)) (layer F.Cu) (width .1))
  (fp_poly (pts (xy 2.300006 .100001) (xy 2.300006 -.099999) (xy 1.099996 -.099999) (xy 1.090241 -.099038) (xy 1.080862 -.096193) (xy 1.072218 -.091572) (xy 1.064641 -.085354) (xy 1.058423 -.077777) (xy 1.053802 -.069133) (xy 1.050957 -.059753) (xy 1.049996 -.049999) (xy 1.049996 .000001) (xy 1.050957 .009755) (xy 1.053802 .019135) (xy 1.058423 .027779) (xy 1.064641 .035356) (xy 1.072218 .041574) (xy 1.080862 .046194) (xy 1.090241 .04904) (xy 1.099996 .050001) (xy 1.499996 .050001) (xy 1.570006 .100001)) (layer F.Cu) (width .1))
  (fp_poly (pts (xy -2.300006 -.100001) (xy -2.300006 .099999) (xy -1.199996 .099999) (xy -1.190241 .099038) (xy -1.180862 .096193) (xy -1.172218 .091572) (xy -1.164641 .085354) (xy -1.158423 .077777) (xy -1.153802 .069133) (xy -1.150957 .059753) (xy -1.149996 .049999) (xy -1.149996 -.000001) (xy -1.150957 -.009755) (xy -1.153802 -.019135) (xy -1.158423 -.027779) (xy -1.164641 -.035356) (xy -1.172218 -.041574) (xy -1.180862 -.046195) (xy -1.190241 -.04904) (xy -1.199996 -.050001) (xy -1.599996 -.050001) (xy -1.670006 -.100001)) (layer F.Cu) (width .1))
  (fp_poly (pts (xy .499999 2.300006) (xy .299999 2.300006) (xy .299999 1.199996) (xy .30096 1.190241) (xy .303806 1.180862) (xy .308426 1.172218) (xy .314644 1.164641) (xy .322221 1.158423) (xy .330865 1.153802) (xy .340245 1.150957) (xy .349999 1.149996) (xy .399999 1.149996) (xy .409753 1.150957) (xy .419133 1.153802) (xy .427777 1.158423) (xy .435354 1.164641) (xy .441572 1.172218) (xy .446193 1.180862) (xy .449038 1.190241) (xy .449999 1.199996) (xy .449999 1.599996) (xy .499999 1.670006)) (layer F.Cu) (width .1))
  (fp_poly (pts (xy 1.099996 .300002) (xy 1.090241 .300963) (xy 1.080862 .303808) (xy 1.072217 .308429) (xy 1.064641 .314647) (xy 1.058422 .322223) (xy 1.053802 .330868) (xy 1.050957 .340247) (xy 1.049996 .350002) (xy 1.049801 .450303) (xy 1.049996 .75) (xy 1.049801 .850302) (xy 1.050762 .860056) (xy 1.058228 .87808) (xy 1.064446 .885657) (xy 1.072023 .891875) (xy 1.080667 .896496) (xy 1.090047 .899341) (xy 1.099801 .900302) (xy 1.505006 .9) (xy 1.650006 1.087) (xy 1.650006 1.3) (xy 2.300006 1.3) (xy 2.300006 .300002)) (layer F.Cu) (width .1))
  (fp_poly (pts (xy 1.080862 -1.006193) (xy 1.080862 -1.006193) (xy 1.099996 -1.009999)) (layer F.Cu) (width .1))
  (fp_poly (pts (xy 1.449996 -1.01) (xy 1.650006 -1.3) (xy 2.300006 -1.3) (xy 2.300006 -.700001) (xy 1.099801 -.699699) (xy 1.090047 -.70066) (xy 1.080667 -.703505) (xy 1.072023 -.708125) (xy 1.064446 -.714344) (xy 1.058228 -.72192) (xy 1.053607 -.730565) (xy 1.050762 -.739944) (xy 1.049801 -.749699) (xy 1.049996 -.96) (xy 1.050957 -.969754) (xy 1.058422 -.987778) (xy 1.064641 -.995355) (xy 1.072217 -1.001573) (xy 1.080862 -1.006193) (xy 1.090241 -1.009039) (xy 1.099996 -1.009999)) (layer F.Cu) (width .1))
  (fp_line (start 2.554006 -.754) (end 2.554006 -1.554) (layer F.CrtYd) (width .05))
  (fp_line (start 2.554006 -1.554) (end 2.254 -1.554) (layer F.CrtYd) (width .05))
  (fp_line (start 2.254 -1.554) (end 2.254 -2.254) (layer F.CrtYd) (width .05))
  (fp_line (start 2.254 -2.254) (end 1.953999 -2.254) (layer F.CrtYd) (width .05))
  (fp_line (start 1.953999 -2.254) (end 1.953999 -2.554) (layer F.CrtYd) (width .05))
  (fp_line (start 1.953999 -2.554) (end .354 -2.554) (layer F.CrtYd) (width .05))
  (fp_line (start .354 -2.554) (end .354 -2.554006) (layer F.CrtYd) (width .05))
  (fp_line (start .354 -2.554006) (end -.354 -2.554006) (layer F.CrtYd) (width .05))
  (fp_line (start -.354 -2.554006) (end -.354 -2.554) (layer F.CrtYd) (width .05))
  (fp_line (start -.354 -2.554) (end -1.953999 -2.554) (layer F.CrtYd) (width .05))
  (fp_line (start -1.953999 -2.554) (end -1.953999 -2.254) (layer F.CrtYd) (width .05))
  (fp_line (start -1.953999 -2.254) (end -2.254 -2.254) (layer F.CrtYd) (width .05))
  (fp_line (start -2.254 -2.254) (end -2.254 -1.554) (layer F.CrtYd) (width .05))
  (fp_line (start -2.254 -1.554) (end -2.554 -1.554) (layer F.CrtYd) (width .05))
  (fp_line (start -2.554 -1.554) (end -2.554 -1.154001) (layer F.CrtYd) (width .05))
  (fp_line (start -2.554 -1.154001) (end -2.554006 -1.154001) (layer F.CrtYd) (width .05))
  (fp_line (start -2.554006 -1.154001) (end -2.554006 .754001) (layer F.CrtYd) (width .05))
  (fp_line (start -2.554006 .754001) (end -2.554001 .754001) (layer F.CrtYd) (width .05))
  (fp_line (start -2.554001 .754001) (end -2.554001 1.553501) (layer F.CrtYd) (width .05))
  (fp_line (start -2.554001 1.553501) (end -2.254 1.553501) (layer F.CrtYd) (width .05))
  (fp_line (start -2.254 1.553501) (end -2.254 2.254) (layer F.CrtYd) (width .05))
  (fp_line (start -2.254 2.254) (end -1.954001 2.254) (layer F.CrtYd) (width .05))
  (fp_line (start -1.954001 2.254) (end -1.954001 2.553501) (layer F.CrtYd) (width .05))
  (fp_line (start -1.954001 2.553501) (end -1.553501 2.553501) (layer F.CrtYd) (width .05))
  (fp_line (start -1.553501 2.553501) (end -1.553501 2.554001) (layer F.CrtYd) (width .05))
  (fp_line (start -1.553501 2.554001) (end -.354 2.554001) (layer F.CrtYd) (width .05))
  (fp_line (start -.354 2.554001) (end -.354 2.554006) (layer F.CrtYd) (width .05))
  (fp_line (start -.354 2.554006) (end .753999 2.554006) (layer F.CrtYd) (width .05))
  (fp_line (start .753999 2.554006) (end .753999 2.554001) (layer F.CrtYd) (width .05))
  (fp_line (start .753999 2.554001) (end 1.9545 2.554001) (layer F.CrtYd) (width .05))
  (fp_line (start 1.9545 2.554001) (end 1.9545 2.254) (layer F.CrtYd) (width .05))
  (fp_line (start 1.9545 2.254) (end 2.254 2.254) (layer F.CrtYd) (width .05))
  (fp_line (start 2.254 2.254) (end 2.254 1.554) (layer F.CrtYd) (width .05))
  (fp_line (start 2.254 1.554) (end 2.554006 1.554) (layer F.CrtYd) (width .05))
  (fp_line (start 2.554006 1.554) (end 2.554006 .046002) (layer F.CrtYd) (width .05))
  (fp_line (start 2.554006 .046002) (end 2.554006 .046002) (layer F.CrtYd) (width .05))
  (fp_line (start 2.554006 .046002) (end 2.554006 -.754) (layer F.CrtYd) (width .05))
  (fp_line (start 2.554006 -.754) (end 2.554006 -.754) (layer F.CrtYd) (width .05))
  (fp_poly (pts (xy -1.72 -1.3) (xy -2.3 -1.3) (xy -2.3 -1.1) (xy -1.6502 -1.1) (xy -1.640446 -1.100961) (xy -1.631066 -1.103806) (xy -1.622422 -1.108427) (xy -1.6151 -1.1149) (xy -1.608627 -1.122222) (xy -1.604006 -1.130866) (xy -1.601161 -1.140246) (xy -1.6002 -1.15) (xy -1.600002 -1.18)) (layer F.Cu) (width .1))
  (fp_poly (pts (xy -1.5 -2.3) (xy -1.699999 -2.3) (xy -1.699999 -1.700002) (xy -1.698078 -1.680493) (xy -1.692387 -1.661734) (xy -1.683146 -1.644445) (xy -1.67071 -1.629291) (xy -1.655556 -1.616855) (xy -1.638268 -1.607614) (xy -1.619508 -1.601923) (xy -1.599999 -1.600002) (xy -1.58049 -1.601923) (xy -1.561731 -1.607614) (xy -1.544442 -1.616855) (xy -1.529288 -1.629291) (xy -1.516852 -1.644445) (xy -1.507611 -1.661734) (xy -1.501921 -1.680493) (xy -1.499999 -1.700002)) (layer F.Cu) (width .1))
  (fp_poly (pts (xy -2.300001 .699501) (xy -2.300001 1.299501) (xy -1.700001 1.299501) (xy -1.700001 2.299501) (xy -1.500001 2.299501) (xy -1.500001 1.432501) (xy -1.300001 1.299501) (xy -1.300001 .749501) (xy -1.300962 .739746) (xy -1.303807 .730367) (xy -1.308428 .721723) (xy -1.314646 .714146) (xy -1.322223 .707928) (xy -1.330867 .703307) (xy -1.340247 .700462) (xy -1.350001 .699501)) (layer F.Cu) (width .1))
  (fp_poly (pts (xy -1.299501 2.300001) (xy -1.299501 1.702001) (xy -.884501 1.300001) (xy -.3494 1.2996) (xy -.339645 1.300561) (xy -.330266 1.303406) (xy -.321621 1.308027) (xy -.314045 1.314245) (xy -.307826 1.321822) (xy -.303206 1.330466) (xy -.300361 1.339846) (xy -.2994 1.3496) (xy -.299501 2.300001)) (layer F.Cu) (width .1))
  (fp_poly (pts (xy -2.300006 .300001) (xy -2.300006 .500001) (xy -1.199996 .500001) (xy -1.190241 .49904) (xy -1.180862 .496194) (xy -1.172218 .491574) (xy -1.164641 .485356) (xy -1.164641 .485356) (xy -1.158423 .477779) (xy -1.153802 .469135) (xy -1.150957 .459755) (xy -1.149996 .450001) (xy -1.149801 .349699) (xy -1.150762 .339945) (xy -1.153607 .330565) (xy -1.158228 .321921) (xy -1.164446 .314344) (xy -1.172023 .308126) (xy -1.180667 .303505) (xy -1.190047 .30066) (xy -1.199801 .299699)) (layer F.Cu) (width .1))
  (fp_poly (pts (xy -2.300006 -.499999) (xy -2.300006 -.299999) (xy -1.199996 -.299999) (xy -1.190241 -.30096) (xy -1.180862 -.303806) (xy -1.172218 -.308426) (xy -1.164641 -.314644) (xy -1.164641 -.314644) (xy -1.158423 -.322221) (xy -1.153802 -.330865) (xy -1.150957 -.340245) (xy -1.149996 -.349999) (xy -1.149801 -.450301) (xy -1.150762 -.460055) (xy -1.153607 -.469435) (xy -1.158228 -.478079) (xy -1.164446 -.485656) (xy -1.172023 -.491874) (xy -1.180667 -.496495) (xy -1.190047 -.49934) (xy -1.199801 -.500301)) (layer F.Cu) (width .1))
  (fp_poly (pts (xy -.1 2.300006) (xy .1 2.300006) (xy .1 1.199996) (xy .099039 1.190241) (xy .096194 1.180862) (xy .091573 1.172218) (xy .085355 1.164641) (xy .085355 1.164641) (xy .077778 1.158423) (xy .069134 1.153802) (xy .059754 1.150957) (xy .05 1.149996) (xy -.050302 1.149801) (xy -.060056 1.150762) (xy -.069436 1.153607) (xy -.07808 1.158228) (xy -.085657 1.164446) (xy -.091875 1.172023) (xy -.096496 1.180667) (xy -.099341 1.190047) (xy -.100302 1.199801)) (layer F.Cu) (width .1))
  (fp_poly (pts (xy -.1 -2.300006) (xy .1 -2.300006) (xy .1 -1.199996) (xy .099039 -1.190241) (xy .096194 -1.180862) (xy .091573 -1.172218) (xy .085355 -1.164641) (xy .085355 -1.164641) (xy .077778 -1.158423) (xy .069134 -1.153802) (xy .059754 -1.150957) (xy .05 -1.149996) (xy -.050302 -1.149801) (xy -.060056 -1.150762) (xy -.069436 -1.153607) (xy -.07808 -1.158228) (xy -.085657 -1.164446) (xy -.091875 -1.172023) (xy -.096496 -1.180667) (xy -.099341 -1.190047) (xy -.100302 -1.199801)) (layer F.Cu) (width .1))
  (fp_poly (pts (xy 2.300006 -.3) (xy 2.300006 -.5) (xy 1.099996 -.5) (xy 1.090241 -.499039) (xy 1.080862 -.496194) (xy 1.072218 -.491573) (xy 1.064641 -.485355) (xy 1.064641 -.485355) (xy 1.058423 -.477778) (xy 1.053802 -.469134) (xy 1.050957 -.459754) (xy 1.049996 -.45) (xy 1.049801 -.349698) (xy 1.050762 -.339944) (xy 1.053607 -.330564) (xy 1.058228 -.32192) (xy 1.064446 -.314343) (xy 1.072023 -.308125) (xy 1.080667 -.303504) (xy 1.090047 -.300659) (xy 1.099801 -.299698)) (layer F.Cu) (width .1))
  (fp_poly (pts (xy -2.300006 -.900001) (xy -2.300006 -.700001) (xy -1.199996 -.700001) (xy -1.190241 -.700962) (xy -1.180862 -.703807) (xy -1.172218 -.708428) (xy -1.164641 -.714646) (xy -1.158423 -.722223) (xy -1.153802 -.730867) (xy -1.150957 -.740247) (xy -1.149996 -.750001) (xy -1.149996 -.800001) (xy -1.150957 -.809755) (xy -1.153802 -.819135) (xy -1.158423 -.827779) (xy -1.164641 -.835356) (xy -1.172218 -.841574) (xy -1.180862 -.846195) (xy -1.190241 -.84904) (xy -1.199996 -.850001) (xy -1.599996 -.850001) (xy -1.670006 -.900001)) (layer F.Cu) (width .1))
  (fp_poly (pts (xy -1.5 -2.3) (xy -1.699999 -2.3) (xy -1.699999 -1.700002) (xy -1.698078 -1.680493) (xy -1.692387 -1.661734) (xy -1.683146 -1.644445) (xy -1.67071 -1.629291) (xy -1.655556 -1.616855) (xy -1.638268 -1.607614) (xy -1.619508 -1.601923) (xy -1.599999 -1.600002) (xy -1.58049 -1.601923) (xy -1.561731 -1.607614) (xy -1.544442 -1.616855) (xy -1.529288 -1.629291) (xy -1.516852 -1.644445) (xy -1.507611 -1.661734) (xy -1.501921 -1.680493) (xy -1.499999 -1.700002)) (layer F.Paste) (width .1))
  (fp_poly (pts (xy -1.1 -2.3) (xy -1.3 -2.3) (xy -1.3 -1.700002) (xy -1.298079 -1.680493) (xy -1.292388 -1.661734) (xy -1.283147 -1.644445) (xy -1.270711 -1.629291) (xy -1.255557 -1.616855) (xy -1.238268 -1.607614) (xy -1.219509 -1.601923) (xy -1.2 -1.600002) (xy -1.180491 -1.601923) (xy -1.161732 -1.607614) (xy -1.144443 -1.616855) (xy -1.129289 -1.629291) (xy -1.116853 -1.644445) (xy -1.107612 -1.661734) (xy -1.101921 -1.680493) (xy -1.1 -1.700002)) (layer F.Paste) (width .1))
  (fp_poly (pts (xy -.700001 -2.3) (xy -.900001 -2.3) (xy -.900001 -1.700002) (xy -.898079 -1.680493) (xy -.892389 -1.661734) (xy -.883148 -1.644445) (xy -.870711 -1.629291) (xy -.855558 -1.616855) (xy -.838269 -1.607614) (xy -.81951 -1.601923) (xy -.800001 -1.600002) (xy -.780492 -1.601923) (xy -.761732 -1.607614) (xy -.744444 -1.616855) (xy -.72929 -1.629291) (xy -.716854 -1.644445) (xy -.707613 -1.661734) (xy -.701922 -1.680493) (xy -.700001 -1.700002)) (layer F.Paste) (width .1))
  (fp_poly (pts (xy -.299999 -2.3) (xy -.499999 -2.3) (xy -.499999 -1.700002) (xy -.498078 -1.680493) (xy -.492387 -1.661734) (xy -.483146 -1.644445) (xy -.47071 -1.629291) (xy -.455556 -1.616855) (xy -.438267 -1.607614) (xy -.419508 -1.601923) (xy -.399999 -1.600002) (xy -.38049 -1.601923) (xy -.361731 -1.607614) (xy -.344442 -1.616855) (xy -.329288 -1.629291) (xy -.316852 -1.644445) (xy -.307611 -1.661734) (xy -.30192 -1.680493) (xy -.299999 -1.700002)) (layer F.Paste) (width .1))
  (fp_poly (pts (xy -.1 -2.300006) (xy .1 -2.300006) (xy .1 -1.199996) (xy .099039 -1.190241) (xy .096194 -1.180862) (xy .091573 -1.172218) (xy .085355 -1.164641) (xy .085355 -1.164641) (xy .077778 -1.158423) (xy .069134 -1.153802) (xy .059754 -1.150957) (xy .05 -1.149996) (xy -.050302 -1.149801) (xy -.060056 -1.150762) (xy -.069436 -1.153607) (xy -.07808 -1.158228) (xy -.085657 -1.164446) (xy -.091875 -1.172023) (xy -.096496 -1.180667) (xy -.099341 -1.190047) (xy -.100302 -1.199801)) (layer F.Paste) (width .1))
  (fp_poly (pts (xy .499999 -2.3) (xy .299999 -2.3) (xy .299999 -1.700002) (xy .301921 -1.680493) (xy .307611 -1.661734) (xy .316852 -1.644445) (xy .329289 -1.629291) (xy .344442 -1.616855) (xy .361731 -1.607614) (xy .38049 -1.601923) (xy .399999 -1.600002) (xy .419508 -1.601923) (xy .438268 -1.607614) (xy .455556 -1.616855) (xy .47071 -1.629291) (xy .483146 -1.644445) (xy .492387 -1.661734) (xy .498078 -1.680493) (xy .499999 -1.700002)) (layer F.Paste) (width .1))
  (fp_poly (pts (xy .900001 -2.3) (xy .700001 -2.3) (xy .700001 -1.700002) (xy .701923 -1.680493) (xy .707613 -1.661734) (xy .716854 -1.644445) (xy .72929 -1.629291) (xy .744444 -1.616855) (xy .761733 -1.607614) (xy .780492 -1.601923) (xy .800001 -1.600002) (xy .81951 -1.601923) (xy .83827 -1.607614) (xy .855558 -1.616855) (xy .870712 -1.629291) (xy .883148 -1.644445) (xy .892389 -1.661734) (xy .89808 -1.680493) (xy .900001 -1.700002)) (layer F.Paste) (width .1))
  (fp_poly (pts (xy 1.3 -2.3) (xy 1.1 -2.3) (xy 1.1 -1.700002) (xy 1.101922 -1.680493) (xy 1.107612 -1.661734) (xy 1.116853 -1.644445) (xy 1.12929 -1.629291) (xy 1.144443 -1.616855) (xy 1.161732 -1.607614) (xy 1.180491 -1.601923) (xy 1.2 -1.600002) (xy 1.219509 -1.601923) (xy 1.238269 -1.607614) (xy 1.255557 -1.616855) (xy 1.270711 -1.629291) (xy 1.283147 -1.644445) (xy 1.292388 -1.661734) (xy 1.298079 -1.680493) (xy 1.3 -1.700002)) (layer F.Paste) (width .1))
  (fp_poly (pts (xy 1.699999 -2.3) (xy 1.5 -2.3) (xy 1.499999 -1.700002) (xy 1.501921 -1.680493) (xy 1.507612 -1.661734) (xy 1.516853 -1.644445) (xy 1.529289 -1.629291) (xy 1.544442 -1.616855) (xy 1.561731 -1.607614) (xy 1.58049 -1.601923) (xy 1.6 -1.600002) (xy 1.619509 -1.601923) (xy 1.638268 -1.607614) (xy 1.655557 -1.616855) (xy 1.67071 -1.629291) (xy 1.683147 -1.644445) (xy 1.692388 -1.661734) (xy 1.698078 -1.680493) (xy 1.7 -1.700002)) (layer F.Paste) (width .1))
  (fp_poly (pts (xy 1.449996 -1.01) (xy 1.650006 -1.3) (xy 2.300006 -1.3) (xy 2.300006 -.700001) (xy 1.099801 -.699699) (xy 1.090047 -.70066) (xy 1.080667 -.703505) (xy 1.072023 -.708125) (xy 1.064446 -.714344) (xy 1.058228 -.72192) (xy 1.053607 -.730565) (xy 1.050762 -.739944) (xy 1.049801 -.749699) (xy 1.049996 -.96) (xy 1.050957 -.969754) (xy 1.058422 -.987778) (xy 1.064641 -.995355) (xy 1.072217 -1.001573) (xy 1.080862 -1.006193) (xy 1.090241 -1.009039) (xy 1.099996 -1.009999)) (layer F.Paste) (width .1))
  (fp_poly (pts (xy 2.300006 -.3) (xy 2.300006 -.5) (xy 1.099996 -.5) (xy 1.090241 -.499039) (xy 1.080862 -.496194) (xy 1.072218 -.491573) (xy 1.064641 -.485355) (xy 1.064641 -.485355) (xy 1.058423 -.477778) (xy 1.053802 -.469134) (xy 1.050957 -.459754) (xy 1.049996 -.45) (xy 1.049801 -.349698) (xy 1.050762 -.339944) (xy 1.053607 -.330564) (xy 1.058228 -.32192) (xy 1.064446 -.314343) (xy 1.072023 -.308125) (xy 1.080667 -.303504) (xy 1.090047 -.300659) (xy 1.099801 -.299698)) (layer F.Paste) (width .1))
  (fp_poly (pts (xy 2.300006 .100001) (xy 2.300006 -.099999) (xy 1.099996 -.099999) (xy 1.090241 -.099038) (xy 1.080862 -.096193) (xy 1.072218 -.091572) (xy 1.064641 -.085354) (xy 1.058423 -.077777) (xy 1.053802 -.069133) (xy 1.050957 -.059753) (xy 1.049996 -.049999) (xy 1.049996 .000001) (xy 1.050957 .009755) (xy 1.053802 .019135) (xy 1.058423 .027779) (xy 1.064641 .035356) (xy 1.072218 .041574) (xy 1.080862 .046194) (xy 1.090241 .04904) (xy 1.099996 .050001) (xy 1.499996 .050001) (xy 1.570006 .100001)) (layer F.Paste) (width .1))
  (fp_poly (pts (xy 1.099996 .300002) (xy 1.090241 .300963) (xy 1.080862 .303808) (xy 1.072217 .308429) (xy 1.064641 .314647) (xy 1.058422 .322223) (xy 1.053802 .330868) (xy 1.050957 .340247) (xy 1.049996 .350002) (xy 1.049801 .450303) (xy 1.049996 .75) (xy 1.049801 .850302) (xy 1.050762 .860056) (xy 1.058228 .87808) (xy 1.064446 .885657) (xy 1.072023 .891875) (xy 1.080667 .896496) (xy 1.090047 .899341) (xy 1.099801 .900302) (xy 1.505006 .9) (xy 1.650006 1.087) (xy 1.650006 1.3) (xy 2.300006 1.3) (xy 2.300006 .300002)) (layer F.Paste) (width .1))
  (fp_poly (pts (xy 1.7005 2.300001) (xy 1.7005 1.702001) (xy 1.2855 1.300001) (xy .750399 1.2996) (xy .740644 1.300561) (xy .731265 1.303406) (xy .72262 1.308027) (xy .715044 1.314245) (xy .708825 1.321822) (xy .704205 1.330466) (xy .70136 1.339846) (xy .700399 1.3496) (xy .7005 2.300001)) (layer F.Paste) (width .1))
  (fp_poly (pts (xy .499999 2.300006) (xy .299999 2.300006) (xy .299999 1.199996) (xy .30096 1.190241) (xy .303806 1.180862) (xy .308426 1.172218) (xy .314644 1.164641) (xy .322221 1.158423) (xy .330865 1.153802) (xy .340245 1.150957) (xy .349999 1.149996) (xy .399999 1.149996) (xy .409753 1.150957) (xy .419133 1.153802) (xy .427777 1.158423) (xy .435354 1.164641) (xy .441572 1.172218) (xy .446193 1.180862) (xy .449038 1.190241) (xy .449999 1.199996) (xy .449999 1.599996) (xy .499999 1.670006)) (layer F.Paste) (width .1))
  (fp_poly (pts (xy -.1 2.300006) (xy .1 2.300006) (xy .1 1.199996) (xy .099039 1.190241) (xy .096194 1.180862) (xy .091573 1.172218) (xy .085355 1.164641) (xy .085355 1.164641) (xy .077778 1.158423) (xy .069134 1.153802) (xy .059754 1.150957) (xy .05 1.149996) (xy -.050302 1.149801) (xy -.060056 1.150762) (xy -.069436 1.153607) (xy -.07808 1.158228) (xy -.085657 1.164446) (xy -.091875 1.172023) (xy -.096496 1.180667) (xy -.099341 1.190047) (xy -.100302 1.199801)) (layer F.Paste) (width .1))
  (fp_poly (pts (xy -1.299501 2.300001) (xy -1.299501 1.702001) (xy -.884501 1.300001) (xy -.3494 1.2996) (xy -.339645 1.300561) (xy -.330266 1.303406) (xy -.321621 1.308027) (xy -.314045 1.314245) (xy -.307826 1.321822) (xy -.303206 1.330466) (xy -.300361 1.339846) (xy -.2994 1.3496) (xy -.299501 2.300001)) (layer F.Paste) (width .1))
  (fp_poly (pts (xy -2.300001 .699501) (xy -2.300001 1.299501) (xy -1.700001 1.299501) (xy -1.700001 2.299501) (xy -1.500001 2.299501) (xy -1.500001 1.432501) (xy -1.300001 1.299501) (xy -1.300001 .749501) (xy -1.300962 .739746) (xy -1.303807 .730367) (xy -1.308428 .721723) (xy -1.314646 .714146) (xy -1.322223 .707928) (xy -1.330867 .703307) (xy -1.340247 .700462) (xy -1.350001 .699501)) (layer F.Paste) (width .1))
  (fp_poly (pts (xy -2.300006 .300001) (xy -2.300006 .500001) (xy -1.199996 .500001) (xy -1.190241 .49904) (xy -1.180862 .496194) (xy -1.172218 .491574) (xy -1.164641 .485356) (xy -1.164641 .485356) (xy -1.158423 .477779) (xy -1.153802 .469135) (xy -1.150957 .459755) (xy -1.149996 .450001) (xy -1.149801 .349699) (xy -1.150762 .339945) (xy -1.153607 .330565) (xy -1.158228 .321921) (xy -1.164446 .314344) (xy -1.172023 .308126) (xy -1.180667 .303505) (xy -1.190047 .30066) (xy -1.199801 .299699)) (layer F.Paste) (width .1))
  (fp_poly (pts (xy -2.300006 -.100001) (xy -2.300006 .099999) (xy -1.199996 .099999) (xy -1.190241 .099038) (xy -1.180862 .096193) (xy -1.172218 .091572) (xy -1.164641 .085354) (xy -1.158423 .077777) (xy -1.153802 .069133) (xy -1.150957 .059753) (xy -1.149996 .049999) (xy -1.149996 -.000001) (xy -1.150957 -.009755) (xy -1.153802 -.019135) (xy -1.158423 -.027779) (xy -1.164641 -.035356) (xy -1.172218 -.041574) (xy -1.180862 -.046195) (xy -1.190241 -.04904) (xy -1.199996 -.050001) (xy -1.599996 -.050001) (xy -1.670006 -.100001)) (layer F.Paste) (width .1))
  (fp_poly (pts (xy -2.300006 -.499999) (xy -2.300006 -.299999) (xy -1.199996 -.299999) (xy -1.190241 -.30096) (xy -1.180862 -.303806) (xy -1.172218 -.308426) (xy -1.164641 -.314644) (xy -1.164641 -.314644) (xy -1.158423 -.322221) (xy -1.153802 -.330865) (xy -1.150957 -.340245) (xy -1.149996 -.349999) (xy -1.149801 -.450301) (xy -1.150762 -.460055) (xy -1.153607 -.469435) (xy -1.158228 -.478079) (xy -1.164446 -.485656) (xy -1.172023 -.491874) (xy -1.180667 -.496495) (xy -1.190047 -.49934) (xy -1.199801 -.500301)) (layer F.Paste) (width .1))
  (fp_poly (pts (xy -2.300006 -.900001) (xy -2.300006 -.700001) (xy -1.199996 -.700001) (xy -1.190241 -.700962) (xy -1.180862 -.703807) (xy -1.172218 -.708428) (xy -1.164641 -.714646) (xy -1.158423 -.722223) (xy -1.153802 -.730867) (xy -1.150957 -.740247) (xy -1.149996 -.750001) (xy -1.149996 -.800001) (xy -1.150957 -.809755) (xy -1.153802 -.819135) (xy -1.158423 -.827779) (xy -1.164641 -.835356) (xy -1.172218 -.841574) (xy -1.180862 -.846195) (xy -1.190241 -.84904) (xy -1.199996 -.850001) (xy -1.599996 -.850001) (xy -1.670006 -.900001)) (layer F.Paste) (width .1))
  (fp_poly (pts (xy -1.72 -1.3) (xy -2.3 -1.3) (xy -2.3 -1.1) (xy -1.6502 -1.1) (xy -1.640446 -1.100961) (xy -1.631066 -1.103806) (xy -1.622422 -1.108427) (xy -1.6151 -1.1149) (xy -1.608627 -1.122222) (xy -1.604006 -1.130866) (xy -1.601161 -1.140246) (xy -1.6002 -1.15) (xy -1.600002 -1.18)) (layer F.Paste) (width .1))
  (fp_poly (pts (xy -1.5 -2.3) (xy -1.699999 -2.3) (xy -1.699999 -1.700002) (xy -1.698078 -1.680493) (xy -1.692387 -1.661734) (xy -1.683146 -1.644445) (xy -1.67071 -1.629291) (xy -1.655556 -1.616855) (xy -1.638268 -1.607614) (xy -1.619508 -1.601923) (xy -1.599999 -1.600002) (xy -1.58049 -1.601923) (xy -1.561731 -1.607614) (xy -1.544442 -1.616855) (xy -1.529288 -1.629291) (xy -1.516852 -1.644445) (xy -1.507611 -1.661734) (xy -1.501921 -1.680493) (xy -1.499999 -1.700002)) (layer F.Mask) (width .1))
  (fp_poly (pts (xy -1.1 -2.3) (xy -1.3 -2.3) (xy -1.3 -1.700002) (xy -1.298079 -1.680493) (xy -1.292388 -1.661734) (xy -1.283147 -1.644445) (xy -1.270711 -1.629291) (xy -1.255557 -1.616855) (xy -1.238268 -1.607614) (xy -1.219509 -1.601923) (xy -1.2 -1.600002) (xy -1.180491 -1.601923) (xy -1.161732 -1.607614) (xy -1.144443 -1.616855) (xy -1.129289 -1.629291) (xy -1.116853 -1.644445) (xy -1.107612 -1.661734) (xy -1.101921 -1.680493) (xy -1.1 -1.700002)) (layer F.Mask) (width .1))
  (fp_poly (pts (xy -.700001 -2.3) (xy -.900001 -2.3) (xy -.900001 -1.700002) (xy -.898079 -1.680493) (xy -.892389 -1.661734) (xy -.883148 -1.644445) (xy -.870711 -1.629291) (xy -.855558 -1.616855) (xy -.838269 -1.607614) (xy -.81951 -1.601923) (xy -.800001 -1.600002) (xy -.780492 -1.601923) (xy -.761732 -1.607614) (xy -.744444 -1.616855) (xy -.72929 -1.629291) (xy -.716854 -1.644445) (xy -.707613 -1.661734) (xy -.701922 -1.680493) (xy -.700001 -1.700002)) (layer F.Mask) (width .1))
  (fp_poly (pts (xy -.299999 -2.3) (xy -.499999 -2.3) (xy -.499999 -1.700002) (xy -.498078 -1.680493) (xy -.492387 -1.661734) (xy -.483146 -1.644445) (xy -.47071 -1.629291) (xy -.455556 -1.616855) (xy -.438267 -1.607614) (xy -.419508 -1.601923) (xy -.399999 -1.600002) (xy -.38049 -1.601923) (xy -.361731 -1.607614) (xy -.344442 -1.616855) (xy -.329288 -1.629291) (xy -.316852 -1.644445) (xy -.307611 -1.661734) (xy -.30192 -1.680493) (xy -.299999 -1.700002)) (layer F.Mask) (width .1))
  (fp_poly (pts (xy -.1 -2.300006) (xy .1 -2.300006) (xy .1 -1.199996) (xy .099039 -1.190241) (xy .096194 -1.180862) (xy .091573 -1.172218) (xy .085355 -1.164641) (xy .085355 -1.164641) (xy .077778 -1.158423) (xy .069134 -1.153802) (xy .059754 -1.150957) (xy .05 -1.149996) (xy -.050302 -1.149801) (xy -.060056 -1.150762) (xy -.069436 -1.153607) (xy -.07808 -1.158228) (xy -.085657 -1.164446) (xy -.091875 -1.172023) (xy -.096496 -1.180667) (xy -.099341 -1.190047) (xy -.100302 -1.199801)) (layer F.Mask) (width .1))
  (fp_poly (pts (xy .499999 -2.3) (xy .299999 -2.3) (xy .299999 -1.700002) (xy .301921 -1.680493) (xy .307611 -1.661734) (xy .316852 -1.644445) (xy .329289 -1.629291) (xy .344442 -1.616855) (xy .361731 -1.607614) (xy .38049 -1.601923) (xy .399999 -1.600002) (xy .419508 -1.601923) (xy .438268 -1.607614) (xy .455556 -1.616855) (xy .47071 -1.629291) (xy .483146 -1.644445) (xy .492387 -1.661734) (xy .498078 -1.680493) (xy .499999 -1.700002)) (layer F.Mask) (width .1))
  (fp_poly (pts (xy .900001 -2.3) (xy .700001 -2.3) (xy .700001 -1.700002) (xy .701923 -1.680493) (xy .707613 -1.661734) (xy .716854 -1.644445) (xy .72929 -1.629291) (xy .744444 -1.616855) (xy .761733 -1.607614) (xy .780492 -1.601923) (xy .800001 -1.600002) (xy .81951 -1.601923) (xy .83827 -1.607614) (xy .855558 -1.616855) (xy .870712 -1.629291) (xy .883148 -1.644445) (xy .892389 -1.661734) (xy .89808 -1.680493) (xy .900001 -1.700002)) (layer F.Mask) (width .1))
  (fp_poly (pts (xy 1.3 -2.3) (xy 1.1 -2.3) (xy 1.1 -1.700002) (xy 1.101922 -1.680493) (xy 1.107612 -1.661734) (xy 1.116853 -1.644445) (xy 1.12929 -1.629291) (xy 1.144443 -1.616855) (xy 1.161732 -1.607614) (xy 1.180491 -1.601923) (xy 1.2 -1.600002) (xy 1.219509 -1.601923) (xy 1.238269 -1.607614) (xy 1.255557 -1.616855) (xy 1.270711 -1.629291) (xy 1.283147 -1.644445) (xy 1.292388 -1.661734) (xy 1.298079 -1.680493) (xy 1.3 -1.700002)) (layer F.Mask) (width .1))
  (fp_poly (pts (xy 1.699999 -2.3) (xy 1.5 -2.3) (xy 1.499999 -1.700002) (xy 1.501921 -1.680493) (xy 1.507612 -1.661734) (xy 1.516853 -1.644445) (xy 1.529289 -1.629291) (xy 1.544442 -1.616855) (xy 1.561731 -1.607614) (xy 1.58049 -1.601923) (xy 1.6 -1.600002) (xy 1.619509 -1.601923) (xy 1.638268 -1.607614) (xy 1.655557 -1.616855) (xy 1.67071 -1.629291) (xy 1.683147 -1.644445) (xy 1.692388 -1.661734) (xy 1.698078 -1.680493) (xy 1.7 -1.700002)) (layer F.Mask) (width .1))
  (fp_poly (pts (xy 1.449996 -1.01) (xy 1.650006 -1.3) (xy 2.300006 -1.3) (xy 2.300006 -.700001) (xy 1.099801 -.699699) (xy 1.090047 -.70066) (xy 1.080667 -.703505) (xy 1.072023 -.708125) (xy 1.064446 -.714344) (xy 1.058228 -.72192) (xy 1.053607 -.730565) (xy 1.050762 -.739944) (xy 1.049801 -.749699) (xy 1.049996 -.96) (xy 1.050957 -.969754) (xy 1.058422 -.987778) (xy 1.064641 -.995355) (xy 1.072217 -1.001573) (xy 1.080862 -1.006193) (xy 1.090241 -1.009039) (xy 1.099996 -1.009999)) (layer F.Mask) (width .1))
  (fp_poly (pts (xy 2.300006 -.3) (xy 2.300006 -.5) (xy 1.099996 -.5) (xy 1.090241 -.499039) (xy 1.080862 -.496194) (xy 1.072218 -.491573) (xy 1.064641 -.485355) (xy 1.064641 -.485355) (xy 1.058423 -.477778) (xy 1.053802 -.469134) (xy 1.050957 -.459754) (xy 1.049996 -.45) (xy 1.049801 -.349698) (xy 1.050762 -.339944) (xy 1.053607 -.330564) (xy 1.058228 -.32192) (xy 1.064446 -.314343) (xy 1.072023 -.308125) (xy 1.080667 -.303504) (xy 1.090047 -.300659) (xy 1.099801 -.299698)) (layer F.Mask) (width .1))
  (fp_poly (pts (xy 2.300006 .100001) (xy 2.300006 -.099999) (xy 1.099996 -.099999) (xy 1.090241 -.099038) (xy 1.080862 -.096193) (xy 1.072218 -.091572) (xy 1.064641 -.085354) (xy 1.058423 -.077777) (xy 1.053802 -.069133) (xy 1.050957 -.059753) (xy 1.049996 -.049999) (xy 1.049996 .000001) (xy 1.050957 .009755) (xy 1.053802 .019135) (xy 1.058423 .027779) (xy 1.064641 .035356) (xy 1.072218 .041574) (xy 1.080862 .046194) (xy 1.090241 .04904) (xy 1.099996 .050001) (xy 1.499996 .050001) (xy 1.570006 .100001)) (layer F.Mask) (width .1))
  (fp_poly (pts (xy 1.099996 .300002) (xy 1.090241 .300963) (xy 1.080862 .303808) (xy 1.072217 .308429) (xy 1.064641 .314647) (xy 1.058422 .322223) (xy 1.053802 .330868) (xy 1.050957 .340247) (xy 1.049996 .350002) (xy 1.049801 .450303) (xy 1.049996 .75) (xy 1.049801 .850302) (xy 1.050762 .860056) (xy 1.058228 .87808) (xy 1.064446 .885657) (xy 1.072023 .891875) (xy 1.080667 .896496) (xy 1.090047 .899341) (xy 1.099801 .900302) (xy 1.505006 .9) (xy 1.650006 1.087) (xy 1.650006 1.3) (xy 2.300006 1.3) (xy 2.300006 .300002)) (layer F.Mask) (width .1))
  (fp_poly (pts (xy 1.7005 2.300001) (xy 1.7005 1.702001) (xy 1.2855 1.300001) (xy .750399 1.2996) (xy .740644 1.300561) (xy .731265 1.303406) (xy .72262 1.308027) (xy .715044 1.314245) (xy .708825 1.321822) (xy .704205 1.330466) (xy .70136 1.339846) (xy .700399 1.3496) (xy .7005 2.300001)) (layer F.Mask) (width .1))
  (fp_poly (pts (xy .499999 2.300006) (xy .299999 2.300006) (xy .299999 1.199996) (xy .30096 1.190241) (xy .303806 1.180862) (xy .308426 1.172218) (xy .314644 1.164641) (xy .322221 1.158423) (xy .330865 1.153802) (xy .340245 1.150957) (xy .349999 1.149996) (xy .399999 1.149996) (xy .409753 1.150957) (xy .419133 1.153802) (xy .427777 1.158423) (xy .435354 1.164641) (xy .441572 1.172218) (xy .446193 1.180862) (xy .449038 1.190241) (xy .449999 1.199996) (xy .449999 1.599996) (xy .499999 1.670006)) (layer F.Mask) (width .1))
  (fp_poly (pts (xy -.1 2.300006) (xy .1 2.300006) (xy .1 1.199996) (xy .099039 1.190241) (xy .096194 1.180862) (xy .091573 1.172218) (xy .085355 1.164641) (xy .085355 1.164641) (xy .077778 1.158423) (xy .069134 1.153802) (xy .059754 1.150957) (xy .05 1.149996) (xy -.050302 1.149801) (xy -.060056 1.150762) (xy -.069436 1.153607) (xy -.07808 1.158228) (xy -.085657 1.164446) (xy -.091875 1.172023) (xy -.096496 1.180667) (xy -.099341 1.190047) (xy -.100302 1.199801)) (layer F.Mask) (width .1))
  (fp_poly (pts (xy -1.299501 2.300001) (xy -1.299501 1.702001) (xy -.884501 1.300001) (xy -.3494 1.2996) (xy -.339645 1.300561) (xy -.330266 1.303406) (xy -.321621 1.308027) (xy -.314045 1.314245) (xy -.307826 1.321822) (xy -.303206 1.330466) (xy -.300361 1.339846) (xy -.2994 1.3496) (xy -.299501 2.300001)) (layer F.Mask) (width .1))
  (fp_poly (pts (xy -2.300001 .699501) (xy -2.300001 1.299501) (xy -1.700001 1.299501) (xy -1.700001 2.299501) (xy -1.500001 2.299501) (xy -1.500001 1.432501) (xy -1.300001 1.299501) (xy -1.300001 .749501) (xy -1.300962 .739746) (xy -1.303807 .730367) (xy -1.308428 .721723) (xy -1.314646 .714146) (xy -1.322223 .707928) (xy -1.330867 .703307) (xy -1.340247 .700462) (xy -1.350001 .699501)) (layer F.Mask) (width .1))
  (fp_poly (pts (xy -2.300006 .300001) (xy -2.300006 .500001) (xy -1.199996 .500001) (xy -1.190241 .49904) (xy -1.180862 .496194) (xy -1.172218 .491574) (xy -1.164641 .485356) (xy -1.164641 .485356) (xy -1.158423 .477779) (xy -1.153802 .469135) (xy -1.150957 .459755) (xy -1.149996 .450001) (xy -1.149801 .349699) (xy -1.150762 .339945) (xy -1.153607 .330565) (xy -1.158228 .321921) (xy -1.164446 .314344) (xy -1.172023 .308126) (xy -1.180667 .303505) (xy -1.190047 .30066) (xy -1.199801 .299699)) (layer F.Mask) (width .1))
  (fp_poly (pts (xy -2.300006 -.100001) (xy -2.300006 .099999) (xy -1.199996 .099999) (xy -1.190241 .099038) (xy -1.180862 .096193) (xy -1.172218 .091572) (xy -1.164641 .085354) (xy -1.158423 .077777) (xy -1.153802 .069133) (xy -1.150957 .059753) (xy -1.149996 .049999) (xy -1.149996 -.000001) (xy -1.150957 -.009755) (xy -1.153802 -.019135) (xy -1.158423 -.027779) (xy -1.164641 -.035356) (xy -1.172218 -.041574) (xy -1.180862 -.046195) (xy -1.190241 -.04904) (xy -1.199996 -.050001) (xy -1.599996 -.050001) (xy -1.670006 -.100001)) (layer F.Mask) (width .1))
  (fp_poly (pts (xy -2.300006 -.499999) (xy -2.300006 -.299999) (xy -1.199996 -.299999) (xy -1.190241 -.30096) (xy -1.180862 -.303806) (xy -1.172218 -.308426) (xy -1.164641 -.314644) (xy -1.164641 -.314644) (xy -1.158423 -.322221) (xy -1.153802 -.330865) (xy -1.150957 -.340245) (xy -1.149996 -.349999) (xy -1.149801 -.450301) (xy -1.150762 -.460055) (xy -1.153607 -.469435) (xy -1.158228 -.478079) (xy -1.164446 -.485656) (xy -1.172023 -.491874) (xy -1.180667 -.496495) (xy -1.190047 -.49934) (xy -1.199801 -.500301)) (layer F.Mask) (width .1))
  (fp_poly (pts (xy -2.300006 -.900001) (xy -2.300006 -.700001) (xy -1.199996 -.700001) (xy -1.190241 -.700962) (xy -1.180862 -.703807) (xy -1.172218 -.708428) (xy -1.164641 -.714646) (xy -1.158423 -.722223) (xy -1.153802 -.730867) (xy -1.150957 -.740247) (xy -1.149996 -.750001) (xy -1.149996 -.800001) (xy -1.150957 -.809755) (xy -1.153802 -.819135) (xy -1.158423 -.827779) (xy -1.164641 -.835356) (xy -1.172218 -.841574) (xy -1.180862 -.846195) (xy -1.190241 -.84904) (xy -1.199996 -.850001) (xy -1.599996 -.850001) (xy -1.670006 -.900001)) (layer F.Mask) (width .1))
  (fp_poly (pts (xy -1.72 -1.3) (xy -2.3 -1.3) (xy -2.3 -1.1) (xy -1.6502 -1.1) (xy -1.640446 -1.100961) (xy -1.631066 -1.103806) (xy -1.622422 -1.108427) (xy -1.6151 -1.1149) (xy -1.608627 -1.122222) (xy -1.604006 -1.130866) (xy -1.601161 -1.140246) (xy -1.6002 -1.15) (xy -1.600002 -1.18)) (layer F.Mask) (width .1))
  (fp_circle (center -2.823 -1.2) (end -2.823 -1.2) (layer F.Fab) (width .1))
  (pad 1 smd rect (at -1.950001 -1.2) (size .127 .127) (layers F.Cu F.Paste F.Mask))
  (pad 2 smd rect (at -1.950001 -.800001) (size .127 .127) (layers F.Cu F.Paste F.Mask))
  (pad 3 smd rect (at -1.950001 -.399999) (size .127 .127) (layers F.Cu F.Paste F.Mask))
  (pad 4 smd rect (at -1.950001 0) (size .127 .127) (layers F.Cu F.Paste F.Mask))
  (pad 5 smd rect (at -1.950001 .399999) (size .127 .127) (layers F.Cu F.Paste F.Mask))
  (pad 6 smd rect (at -1.9558 .8128) (size .127 .127) (layers F.Cu F.Paste F.Mask))
  (pad 9 smd rect (at -1.1684 1.9304 90) (size .127 .127) (layers F.Cu F.Paste F.Mask))
  (pad 12 smd rect (at 0 1.725001 90) (size .127 .127) (layers F.Cu F.Paste F.Mask))
  (pad 13 smd rect (at .399999 1.725001 90) (size .127 .127) (layers F.Cu F.Paste F.Mask))
  (pad 14 smd rect (at .8128 1.9304 90) (size .127 .127) (layers F.Cu F.Paste F.Mask))
  (pad 17 smd rect (at 1.9558 1.1684) (size .127 .127) (layers F.Cu F.Paste F.Mask))
  (pad 21 smd rect (at 1.725001 -.4) (size .127 .127) (layers F.Cu F.Paste F.Mask))
  (pad 20 smd rect (at 1.725001 .000001) (size .127 .127) (layers F.Cu F.Paste F.Mask))
  (pad 22 smd rect (at 1.9558 -.8128) (size .127 .127) (layers F.Cu F.Paste F.Mask))
  (pad 24 smd rect (at 1.599999 -1.950001 90) (size .127 .127) (layers F.Cu F.Paste F.Mask))
  (pad 25 smd rect (at 1.2 -1.950001 90) (size .127 .127) (layers F.Cu F.Paste F.Mask))
  (pad 26 smd rect (at .800001 -1.950001 90) (size .127 .127) (layers F.Cu F.Paste F.Mask))
  (pad 27 smd rect (at .399999 -1.950001 90) (size .127 .127) (layers F.Cu F.Paste F.Mask))
  (pad 28 smd rect (at 0 -1.725001 90) (size .127 .127) (layers F.Cu F.Paste F.Mask))
  (pad 29 smd rect (at -.399999 -1.950001 90) (size .127 .127) (layers F.Cu F.Paste F.Mask))
  (pad 30 smd rect (at -.800001 -1.950001 90) (size .127 .127) (layers F.Cu F.Paste F.Mask))
  (pad 31 smd rect (at -1.2 -1.950001 90) (size .127 .127) (layers F.Cu F.Paste F.Mask))
  (pad 32 smd rect (at -1.599999 -1.950001 90) (size .127 .127) (layers F.Cu F.Paste F.Mask))
  (pad 7 smd rect (at -1.9558 1.1684) (size .127 .127) (layers F.Cu F.Paste F.Mask))
  (pad 8 smd rect (at -1.6002 1.7272 90) (size .127 .127) (layers F.Cu F.Paste F.Mask))
  (pad 11 smd rect (at -.4064 1.9304 90) (size .127 .127) (layers F.Cu F.Paste F.Mask))
  (pad 10 smd rect (at -.7874 1.9304 90) (size .127 .127) (layers F.Cu F.Paste F.Mask))
  (pad 16 smd rect (at 1.5748 1.9304 90) (size .127 .127) (layers F.Cu F.Paste F.Mask))
  (pad 15 smd rect (at 1.2192 1.9304 90) (size .127 .127) (layers F.Cu F.Paste F.Mask))
  (pad 19 smd rect (at 1.9558 .4064) (size .127 .127) (layers F.Cu F.Paste F.Mask))
  (pad 18 smd rect (at 1.9558 .7874) (size .127 .127) (layers F.Cu F.Paste F.Mask))
  (pad 23 smd rect (at 1.9558 -1.1938) (size .127 .127) (layers F.Cu F.Paste F.Mask))
)
