EESchema Schematic File Version 4
EELAYER 30 0
EELAYER END
$Descr A4 11693 8268
encoding utf-8
Sheet 1 1
Title ""
Date ""
Rev ""
Comp ""
Comment1 ""
Comment2 ""
Comment3 ""
Comment4 ""
$EndDescr
$Comp
L AD8592ARMZ-REEL:AD8592ARMZ-REEL U1
U 1 1 618884DC
P 2550 5000
F 0 "U1" H 2550 5770 50  0000 C CNN
F 1 "AD8592ARMZ-REEL" H 2550 5679 50  0000 C CNN
F 2 "Battery:AD8592ARMZ-REEL" H 2550 5000 50  0001 L BNN
F 3 "" H 2550 5000 50  0001 L BNN
F 4 "MSOP-10" H 2550 5000 50  0001 L BNN "PACKAGE"
F 5 "Analog Devices" H 2550 5000 50  0001 L BNN "SUPPLIER"
F 6 "AD8592ARMZ-REEL" H 2550 5000 50  0001 L BNN "MPN"
F 7 "unknown" H 2550 5000 50  0001 L BNN "OC_FARNELL"
F 8 "19M8921" H 2550 5000 50  0001 L BNN "OC_NEWARK"
	1    2550 5000
	1    0    0    -1  
$EndComp
$Comp
L Relay:G2RL-2-DC5 RL1
U 1 1 6188BB42
P 4400 3500
F 0 "RL1" H 5030 3546 50  0000 L CNN
F 1 "G2RL-2-DC5" H 5030 3455 50  0000 L CNN
F 2 "Relay_THT:Relay_DPDT_Omron_G2RL" H 5050 3450 50  0001 L CNN
F 3 "https://omronfs.omron.com/en_US/ecb/products/pdf/en-g2rl.pdf" H 4400 3500 50  0001 C CNN
	1    4400 3500
	0    1    -1   0   
$EndComp
$Comp
L eec:MJ21194G Q1
U 1 1 6188CDE1
P 3700 5250
F 0 "Q1" H 3944 5296 50  0000 L CNN
F 1 "MJ21194G" H 3944 5205 50  0000 L CNN
F 2 "eec:On_Semiconductor-MJ21194G-0" H 3700 5750 50  0001 L CNN
F 3 "http://www.onsemi.cn/pub_link/Collateral/MJ21193-D.PDF" H 3700 5850 50  0001 L CNN
F 4 "Manufacturer URL" H 3700 5950 50  0001 L CNN "Component Link 1 Description"
F 5 "http://www.onsemi.com/" H 3700 6050 50  0001 L CNN "Component Link 1 URL"
F 6 "Package Specification" H 3700 6150 50  0001 L CNN "Component Link 3 Description"
F 7 "http://www.onsemi.com/pub_link/Collateral/1-07.PDF" H 3700 6250 50  0001 L CNN "Component Link 3 URL"
F 8 "Rev. 6" H 3700 6350 50  0001 L CNN "Datasheet Version"
F 9 "16" H 3700 6450 50  0001 L CNN "IC Continuous A"
F 10 "Through Hole" H 3700 6550 50  0001 L CNN "Mounting Technology"
F 11 "2-Pin Transistor Outline, Body 39.37 x 26.67 mm, Pitch 10.92 mm" H 3700 6650 50  0001 L CNN "Package Description"
F 12 "Rev. Z, 05/1988" H 3700 6750 50  0001 L CNN "Package Version"
F 13 "Tray" H 3700 6850 50  0001 L CNN "Packing"
F 14 "NPN" H 3700 6950 50  0001 L CNN "Polarity"
F 15 "Trans" H 3700 7050 50  0001 L CNN "category"
F 16 "9d749437038dec4a" H 3700 7150 50  0001 L CNN "library id"
F 17 "On Semiconductor" H 3700 7250 50  0001 L CNN "manufacturer"
F 18 "TO-204-3-1-07" H 3700 7350 50  0001 L CNN "package"
F 19 "Yes" H 3700 7450 50  0001 L CNN "rohs"
F 20 "25197A6D-B529-46A2-ABCE-3FF548204E5F" H 3700 7550 50  0001 L CNN "vault revision"
F 21 "4" H 3700 7650 50  0001 L CNN "fT Min MHz"
F 22 "75" H 3700 7750 50  0001 L CNN "hFE Max"
F 23 "yes" H 3700 7850 50  0001 L CNN "imported"
	1    3700 5250
	1    0    0    -1  
$EndComp
$Comp
L Device:R R1
U 1 1 6188FBC2
P 3450 5100
F 0 "R1" H 3520 5146 50  0000 L CNN
F 1 "20" H 3520 5055 50  0000 L CNN
F 2 "Resistor_THT:R_Axial_DIN0309_L9.0mm_D3.2mm_P5.08mm_Vertical" V 3380 5100 50  0001 C CNN
F 3 "~" H 3450 5100 50  0001 C CNN
	1    3450 5100
	1    0    0    -1  
$EndComp
$Comp
L power:GND #PWR0101
U 1 1 618957B0
P 1850 5600
F 0 "#PWR0101" H 1850 5350 50  0001 C CNN
F 1 "GND" H 1855 5427 50  0000 C CNN
F 2 "" H 1850 5600 50  0001 C CNN
F 3 "" H 1850 5600 50  0001 C CNN
	1    1850 5600
	1    0    0    -1  
$EndComp
$Comp
L power:GND #PWR0102
U 1 1 61895F18
P 3900 5450
F 0 "#PWR0102" H 3900 5200 50  0001 C CNN
F 1 "GND" H 3905 5277 50  0000 C CNN
F 2 "" H 3900 5450 50  0001 C CNN
F 3 "" H 3900 5450 50  0001 C CNN
	1    3900 5450
	1    0    0    -1  
$EndComp
$Comp
L power:GND #PWR0103
U 1 1 618966ED
P 4100 3900
F 0 "#PWR0103" H 4100 3650 50  0001 C CNN
F 1 "GND" H 4105 3727 50  0000 C CNN
F 2 "" H 4100 3900 50  0001 C CNN
F 3 "" H 4100 3900 50  0001 C CNN
	1    4100 3900
	-1   0    0    -1  
$EndComp
Wire Wire Line
	3250 4700 3250 4950
Wire Wire Line
	3250 4950 3450 4950
Wire Wire Line
	3250 4600 3250 4050
$Comp
L Connector:Conn_01x02_Male J1
U 1 1 61898021
P 5350 3200
F 0 "J1" H 5458 3381 50  0000 C CNN
F 1 "Peltier Devices " H 5458 3290 50  0000 C CNN
F 2 "Connector_Molex:Molex_KK-254_AE-6410-02A_1x02_P2.54mm_Vertical" H 5350 3200 50  0001 C CNN
F 3 "~" H 5350 3200 50  0001 C CNN
	1    5350 3200
	-1   0    0    -1  
$EndComp
$Comp
L Connector:Conn_01x02_Male J2
U 1 1 618AF9EC
P 3450 2600
F 0 "J2" H 3558 2781 50  0000 C CNN
F 1 "20v Power in" H 3558 2690 50  0000 C CNN
F 2 "Connector_Molex:Molex_KK-254_AE-6410-02A_1x02_P2.54mm_Vertical" H 3450 2600 50  0001 C CNN
F 3 "~" H 3450 2600 50  0001 C CNN
	1    3450 2600
	0    -1   1    0   
$EndComp
$Comp
L power:GND #PWR0104
U 1 1 618B04A4
P 3550 2800
F 0 "#PWR0104" H 3550 2550 50  0001 C CNN
F 1 "GND" H 3555 2627 50  0000 C CNN
F 2 "" H 3550 2800 50  0001 C CNN
F 3 "" H 3550 2800 50  0001 C CNN
	1    3550 2800
	0    -1   1    0   
$EndComp
Wire Wire Line
	4700 3200 4700 3400
Wire Wire Line
	4700 3600 4850 3600
Wire Wire Line
	4850 3000 4700 3000
$Comp
L Connector:Conn_01x02_Male J3
U 1 1 618B4EEB
P 1250 4800
F 0 "J3" H 1358 4981 50  0000 C CNN
F 1 "Control Signals" H 1358 4890 50  0000 C CNN
F 2 "Connector_Molex:Molex_KK-254_AE-6410-02A_1x02_P2.54mm_Vertical" H 1250 4800 50  0001 C CNN
F 3 "~" H 1250 4800 50  0001 C CNN
	1    1250 4800
	1    0    0    -1  
$EndComp
Wire Wire Line
	1450 4800 1850 4800
Wire Wire Line
	1450 4900 1450 5100
Wire Wire Line
	1450 5100 1850 5100
Wire Wire Line
	3250 4050 1700 4050
Wire Wire Line
	1700 4700 1850 4700
Wire Wire Line
	1850 5000 1800 5000
Wire Wire Line
	1800 5000 1800 4150
Wire Wire Line
	1800 4150 3450 4150
Connection ~ 3450 4950
$Comp
L Regulator_Linear:AZ1117-5.0 U2
U 1 1 618CF4BF
P 2350 3100
F 0 "U2" H 2350 3342 50  0000 C CNN
F 1 "AZ1117-5.0" H 2350 3251 50  0000 C CNN
F 2 "AZ1117CD-5.0TRG1:AZ1117CD50TRG1" H 2350 3350 50  0001 C CIN
F 3 "https://www.diodes.com/assets/Datasheets/AZ1117.pdf" H 2350 3100 50  0001 C CNN
	1    2350 3100
	-1   0    0    -1  
$EndComp
Wire Wire Line
	4850 3000 4850 3300
Wire Wire Line
	4700 3200 5150 3200
Connection ~ 4700 3200
Connection ~ 4850 3300
Wire Wire Line
	4850 3300 4850 3600
Wire Wire Line
	4850 3300 5150 3300
Wire Wire Line
	4700 4600 4700 3900
Connection ~ 3250 4600
Wire Wire Line
	3900 5050 3900 3500
Wire Wire Line
	3900 3500 4100 3500
Wire Wire Line
	3450 2800 3450 3100
Connection ~ 3450 3100
Wire Wire Line
	2050 3100 1850 3100
Wire Wire Line
	1850 3100 1850 3650
$Comp
L power:GND #PWR0105
U 1 1 618EF02F
P 2350 3400
F 0 "#PWR0105" H 2350 3150 50  0001 C CNN
F 1 "GND" H 2355 3227 50  0000 C CNN
F 2 "" H 2350 3400 50  0001 C CNN
F 3 "" H 2350 3400 50  0001 C CNN
	1    2350 3400
	-1   0    0    -1  
$EndComp
$Comp
L Device:C C2
U 1 1 61906FE5
P 2800 3250
F 0 "C2" H 2915 3296 50  0000 L CNN
F 1 "22uF" H 2915 3205 50  0000 L CNN
F 2 "Capacitor_THT:CP_Radial_D5.0mm_P2.50mm" H 2838 3100 50  0001 C CNN
F 3 "~" H 2800 3250 50  0001 C CNN
	1    2800 3250
	1    0    0    -1  
$EndComp
Connection ~ 2800 3100
Wire Wire Line
	2800 3100 2650 3100
$Comp
L Device:C C1
U 1 1 6190787B
P 2000 3650
F 0 "C1" V 1748 3650 50  0000 C CNN
F 1 "10uF" V 1839 3650 50  0000 C CNN
F 2 "Capacitor_THT:CP_Radial_D5.0mm_P2.50mm" H 2038 3500 50  0001 C CNN
F 3 "~" H 2000 3650 50  0001 C CNN
	1    2000 3650
	0    1    1    0   
$EndComp
Connection ~ 1850 3650
Wire Wire Line
	1850 3650 1850 4600
$Comp
L power:GND #PWR0106
U 1 1 61908AAB
P 2800 3400
F 0 "#PWR0106" H 2800 3150 50  0001 C CNN
F 1 "GND" H 2805 3227 50  0000 C CNN
F 2 "" H 2800 3400 50  0001 C CNN
F 3 "" H 2800 3400 50  0001 C CNN
	1    2800 3400
	-1   0    0    -1  
$EndComp
$Comp
L power:GND #PWR0107
U 1 1 61908DEA
P 2150 3650
F 0 "#PWR0107" H 2150 3400 50  0001 C CNN
F 1 "GND" H 2155 3477 50  0000 C CNN
F 2 "" H 2150 3650 50  0001 C CNN
F 3 "" H 2150 3650 50  0001 C CNN
	1    2150 3650
	-1   0    0    -1  
$EndComp
Wire Wire Line
	1700 4050 1700 4700
Wire Wire Line
	3450 4150 3450 4950
Wire Wire Line
	3450 5250 3700 5250
Wire Wire Line
	3250 4600 4700 4600
Wire Wire Line
	3450 3100 4100 3100
Wire Wire Line
	2800 3100 3150 3100
$Comp
L Mechanical:MountingHole H2
U 1 1 61948989
P 1950 6800
F 0 "H2" H 2050 6846 50  0000 L CNN
F 1 "MountingHole" H 2050 6755 50  0000 L CNN
F 2 "MountingHole:MountingHole_3.2mm_M3" H 1950 6800 50  0001 C CNN
F 3 "~" H 1950 6800 50  0001 C CNN
	1    1950 6800
	1    0    0    -1  
$EndComp
$Comp
L Mechanical:MountingHole H4
U 1 1 61948DFE
P 3050 6800
F 0 "H4" H 3150 6846 50  0000 L CNN
F 1 "MountingHole" H 3150 6755 50  0000 L CNN
F 2 "MountingHole:MountingHole_3.2mm_M3" H 3050 6800 50  0001 C CNN
F 3 "~" H 3050 6800 50  0001 C CNN
	1    3050 6800
	1    0    0    -1  
$EndComp
$Comp
L Mechanical:MountingHole H3
U 1 1 6194913E
P 2900 7200
F 0 "H3" H 3000 7246 50  0000 L CNN
F 1 "MountingHole" H 3000 7155 50  0000 L CNN
F 2 "MountingHole:MountingHole_3.2mm_M3" H 2900 7200 50  0001 C CNN
F 3 "~" H 2900 7200 50  0001 C CNN
	1    2900 7200
	1    0    0    -1  
$EndComp
$Comp
L Mechanical:MountingHole H1
U 1 1 61949313
P 1900 7250
F 0 "H1" H 2000 7296 50  0000 L CNN
F 1 "MountingHole" H 2000 7205 50  0000 L CNN
F 2 "MountingHole:MountingHole_3.2mm_M3" H 1900 7250 50  0001 C CNN
F 3 "~" H 1900 7250 50  0001 C CNN
	1    1900 7250
	1    0    0    -1  
$EndComp
$Comp
L Regulator_Linear:L7812 U3
U 1 1 61AD2443
P 2750 2450
F 0 "U3" H 2750 2599 50  0000 C CNN
F 1 "L7812" H 2750 2690 50  0000 C CNN
F 2 "Package_TO_SOT_THT:TO-220-3_Vertical" H 2775 2300 50  0001 L CIN
F 3 "http://www.st.com/content/ccc/resource/technical/document/datasheet/41/4f/b3/b0/12/d4/47/88/CD00000444.pdf/files/CD00000444.pdf/jcr:content/translations/en.CD00000444.pdf" H 2750 2400 50  0001 C CNN
	1    2750 2450
	-1   0    0    1   
$EndComp
$Comp
L Device:C C4
U 1 1 61AD89EF
P 2200 2300
F 0 "C4" H 2315 2346 50  0000 L CNN
F 1 "0.33uF" H 2315 2255 50  0000 L CNN
F 2 "Capacitor_SMD:C_0805_2012Metric_Pad1.18x1.45mm_HandSolder" H 2238 2150 50  0001 C CNN
F 3 "~" H 2200 2300 50  0001 C CNN
	1    2200 2300
	1    0    0    -1  
$EndComp
$Comp
L Device:C C3
U 1 1 61AD9218
P 3150 2300
F 0 "C3" H 3265 2346 50  0000 L CNN
F 1 "0.1F" H 3265 2255 50  0000 L CNN
F 2 "Capacitor_SMD:C_0805_2012Metric_Pad1.18x1.45mm_HandSolder" H 3188 2150 50  0001 C CNN
F 3 "~" H 3150 2300 50  0001 C CNN
	1    3150 2300
	1    0    0    -1  
$EndComp
Wire Wire Line
	2850 1750 2850 2150
Wire Wire Line
	2850 2150 2750 2150
Connection ~ 2750 2150
Wire Wire Line
	2750 2150 2200 2150
Wire Wire Line
	3150 2150 2850 2150
Connection ~ 2850 2150
$Comp
L power:GND #PWR0108
U 1 1 61ADA881
P 2850 1750
F 0 "#PWR0108" H 2850 1500 50  0001 C CNN
F 1 "GND" H 2855 1577 50  0000 C CNN
F 2 "" H 2850 1750 50  0001 C CNN
F 3 "" H 2850 1750 50  0001 C CNN
	1    2850 1750
	-1   0    0    -1  
$EndComp
$Comp
L Connector:Conn_01x02_Male J4
U 1 1 61ADB23C
P 1550 2550
F 0 "J4" H 1658 2731 50  0000 C CNN
F 1 "12v Power Out" H 1658 2640 50  0000 C CNN
F 2 "Connector_Molex:Molex_KK-254_AE-6410-02A_1x02_P2.54mm_Vertical" H 1550 2550 50  0001 C CNN
F 3 "~" H 1550 2550 50  0001 C CNN
	1    1550 2550
	1    0    0    1   
$EndComp
Wire Wire Line
	2450 2450 2200 2450
Wire Wire Line
	2200 2450 1750 2450
Connection ~ 2200 2450
$Comp
L power:GND #PWR0109
U 1 1 61ADD63C
P 2100 2550
F 0 "#PWR0109" H 2100 2300 50  0001 C CNN
F 1 "GND" H 2105 2377 50  0000 C CNN
F 2 "" H 2100 2550 50  0001 C CNN
F 3 "" H 2100 2550 50  0001 C CNN
	1    2100 2550
	-1   0    0    -1  
$EndComp
Wire Wire Line
	2100 2550 1750 2550
Wire Wire Line
	3050 2450 3150 2450
Wire Wire Line
	3150 2450 3150 3100
Connection ~ 3150 2450
Connection ~ 3150 3100
Wire Wire Line
	3150 3100 3450 3100
$EndSCHEMATC
