(module BatteryHolder_Keystone_3034_1x20mm (layer F.Cu) (tedit 5D9CBF18)
  (descr "Keystone 3034 SMD battery holder for 2020, 2025 and 2032 coincell batteries. http://www.keyelco.com/product-pdf.cfm?p=798")
  (tags "Keystone type 3034 coin cell retainer")
  (attr smd)
  (fp_text reference REF** (at 0 -11.5) (layer F.SilkS)
    (effects (font (size 1 1) (thickness 0.15)))
  )
  (fp_text value BatteryHolder_Keystone_3034_1x20mm (at 0 11.5) (layer F.Fab)
    (effects (font (size 1 1) (thickness 0.15)))
  )
  (fp_arc (start 7.31 6.85) (end 5.96 8.64) (angle -106.9) (layer F.CrtYd) (width 0.05))
  (fp_arc (start 0 0) (end -5.96 8.64) (angle -69.1) (layer F.CrtYd) (width 0.05))
  (fp_arc (start -7.31 6.85) (end -9.43 7.62) (angle -106.9) (layer F.CrtYd) (width 0.05))
  (fp_arc (start 0 0) (end 7.2 -7.64) (angle -86.6) (layer F.CrtYd) (width 0.05))
  (fp_arc (start -7.31 6.85) (end -9.19 7.53) (angle -107.5) (layer F.Fab) (width 0.1))
  (fp_arc (start 0 16.36) (end 6.1 8.43) (angle -75.1) (layer F.Fab) (width 0.1))
  (fp_arc (start 7.31 6.85) (end 6.1 8.43) (angle -107.5) (layer F.Fab) (width 0.1))
  (fp_arc (start 7.31 6.85) (end 6 8.55) (angle -107.5) (layer F.SilkS) (width 0.12))
  (fp_arc (start -7.31 6.85) (end -9.34 7.58) (angle -107.5) (layer F.SilkS) (width 0.12))
  (fp_text user %R (at 0 -2.9) (layer F.Fab)
    (effects (font (size 1 1) (thickness 0.15)))
  )
  (fp_circle (center 0 0) (end 0 10.25) (layer Dwgs.User) (width 0.15))
  (fp_line (start -10.78 3.63) (end -9.34 7.58) (layer F.SilkS) (width 0.12))
  (fp_line (start -8.7 -7.54) (end -10.78 -5.46) (layer F.SilkS) (width 0.12))
  (fp_line (start -5.2 -7.54) (end -8.7 -7.54) (layer F.SilkS) (width 0.12))
  (fp_line (start 8.7 -7.54) (end 10.78 -5.46) (layer F.SilkS) (width 0.12))
  (fp_line (start 10.78 3.63) (end 9.34 7.58) (layer F.SilkS) (width 0.12))
  (fp_line (start -10.78 -5.46) (end -10.78 -3) (layer F.SilkS) (width 0.12))
  (fp_line (start -10.78 3) (end -10.78 3.63) (layer F.SilkS) (width 0.12))
  (fp_line (start 10.78 -5.46) (end 10.78 -3) (layer F.SilkS) (width 0.12))
  (fp_line (start 10.78 3) (end 10.78 3.63) (layer F.SilkS) (width 0.12))
  (fp_line (start -9.19 7.53) (end -10.63 3.6) (layer F.Fab) (width 0.1))
  (fp_line (start -10.63 3.6) (end -10.63 -5.4) (layer F.Fab) (width 0.1))
  (fp_line (start -10.63 -5.4) (end -8.64 -7.39) (layer F.Fab) (width 0.1))
  (fp_line (start -8.64 -7.39) (end 8.64 -7.39) (layer F.Fab) (width 0.1))
  (fp_line (start 8.64 -7.39) (end 10.63 -5.4) (layer F.Fab) (width 0.1))
  (fp_line (start 10.63 -5.4) (end 10.63 3.6) (layer F.Fab) (width 0.1))
  (fp_line (start 10.63 3.6) (end 9.19 7.53) (layer F.Fab) (width 0.1))
  (fp_line (start 11.87 -2.79) (end 10.88 -2.79) (layer F.CrtYd) (width 0.05))
  (fp_line (start 10.88 -2.79) (end 10.88 -5.5) (layer F.CrtYd) (width 0.05))
  (fp_line (start 10.88 -5.5) (end 8.74 -7.64) (layer F.CrtYd) (width 0.05))
  (fp_line (start 8.74 -7.64) (end 7.2 -7.64) (layer F.CrtYd) (width 0.05))
  (fp_line (start -7.2 -7.64) (end -8.74 -7.64) (layer F.CrtYd) (width 0.05))
  (fp_line (start -8.74 -7.64) (end -10.88 -5.5) (layer F.CrtYd) (width 0.05))
  (fp_line (start -10.88 -5.5) (end -10.88 -2.79) (layer F.CrtYd) (width 0.05))
  (fp_line (start -10.88 -2.79) (end -11.87 -2.79) (layer F.CrtYd) (width 0.05))
  (fp_line (start -11.87 -2.79) (end -11.87 2.79) (layer F.CrtYd) (width 0.05))
  (fp_line (start -11.87 2.79) (end -10.88 2.79) (layer F.CrtYd) (width 0.05))
  (fp_line (start -10.88 2.79) (end -10.88 3.64) (layer F.CrtYd) (width 0.05))
  (fp_line (start -10.88 3.64) (end -9.44 7.62) (layer F.CrtYd) (width 0.05))
  (fp_line (start 9.43 7.63) (end 10.88 3.64) (layer F.CrtYd) (width 0.05))
  (fp_line (start 10.88 3.64) (end 10.88 2.79) (layer F.CrtYd) (width 0.05))
  (fp_line (start 10.88 2.79) (end 11.87 2.79) (layer F.CrtYd) (width 0.05))
  (fp_line (start 11.87 2.79) (end 11.87 -2.79) (layer F.CrtYd) (width 0.05))
  (fp_line (start 8.7 -7.54) (end 5.2 -7.54) (layer F.SilkS) (width 0.12))
  (pad 1 smd rect (at -10.985 0) (size 1.27 5.08) (layers F.Cu F.Paste F.Mask))
  (pad 1 smd rect (at 10.985 0) (size 1.27 5.08) (layers F.Cu F.Paste F.Mask))
  (pad 2 smd circle (at 0 0) (size 17.8 17.8) (layers F.Cu F.Mask))
  (model ${KISYS3DMOD}/Battery.3dshapes/BatteryHolder_Keystone_3034_1x20mm.wrl
    (at (xyz 0 0 0))
    (scale (xyz 1 1 1))
    (rotate (xyz 0 0 0))
  )
)
