(module BatteryHolder_Keystone_2468_2xAAA (layer F.Cu) (tedit 5C9A5FE6)
  (descr "2xAAA cell battery holder, Keystone P/N 2468, http://www.keyelco.com/product-pdf.cfm?p=1033")
  (tags "AAA battery cell holder")
  (fp_text reference REF** (at 0 -7) (layer F.SilkS)
    (effects (font (size 1 1) (thickness 0.15)))
  )
  (fp_text value BatteryHolder_Keystone_2468_2xAAA (at 23.9 7.35) (layer F.Fab)
    (effects (font (size 1 1) (thickness 0.15)))
  )
  (fp_text user + (at 35.1 12.7) (layer F.SilkS)
    (effects (font (size 1.5 1.5) (thickness 0.15)))
  )
  (fp_text user - (at 12.7 12.7) (layer F.SilkS)
    (effects (font (size 1.5 1.5) (thickness 0.15)))
  )
  (fp_text user - (at 35.1 0) (layer F.SilkS)
    (effects (font (size 1.5 1.5) (thickness 0.15)))
  )
  (fp_text user + (at 12.7 0) (layer F.SilkS)
    (effects (font (size 1.5 1.5) (thickness 0.15)))
  )
  (fp_text user - (at -3.81 12.7) (layer F.SilkS)
    (effects (font (size 1.5 1.5) (thickness 0.15)))
  )
  (fp_text user + (at -3.81 0) (layer F.SilkS)
    (effects (font (size 1.5 1.5) (thickness 0.15)))
  )
  (fp_text user %R (at 23.9 5.35) (layer F.Fab)
    (effects (font (size 1 1) (thickness 0.15)))
  )
  (fp_line (start 50.89 19.15) (end 50.89 -6.45) (layer F.CrtYd) (width 0.05))
  (fp_line (start -3.09 19.15) (end 50.89 19.15) (layer F.CrtYd) (width 0.05))
  (fp_line (start -3.09 -6.45) (end -3.09 19.15) (layer F.CrtYd) (width 0.05))
  (fp_line (start 50.89 -6.45) (end -3.09 -6.45) (layer F.CrtYd) (width 0.05))
  (fp_line (start 50.5 18.75) (end 50.5 -6.05) (layer F.SilkS) (width 0.12))
  (fp_line (start -2.7 18.755) (end 50.5 18.755) (layer F.SilkS) (width 0.12))
  (fp_line (start -2.7 -6.05) (end -2.7 18.75) (layer F.SilkS) (width 0.12))
  (fp_line (start 50.5 -6.055) (end -2.7 -6.055) (layer F.SilkS) (width 0.12))
  (fp_line (start 13.97 15.24) (end 13.97 10.16) (layer F.SilkS) (width 0.12))
  (fp_line (start 13.97 10.16) (end 32.56 10.16) (layer F.SilkS) (width 0.12))
  (fp_line (start 32.56 10.16) (end 32.56 11.43) (layer F.SilkS) (width 0.12))
  (fp_line (start 32.56 11.43) (end 33.83 11.43) (layer F.SilkS) (width 0.12))
  (fp_line (start 33.83 11.43) (end 33.83 13.97) (layer F.SilkS) (width 0.12))
  (fp_line (start 33.83 13.97) (end 32.56 13.97) (layer F.SilkS) (width 0.12))
  (fp_line (start 32.56 13.97) (end 32.56 15.24) (layer F.SilkS) (width 0.12))
  (fp_line (start 32.56 15.24) (end 13.97 15.24) (layer F.SilkS) (width 0.12))
  (fp_line (start 33.83 2.54) (end 15.24 2.54) (layer F.SilkS) (width 0.12))
  (fp_line (start 15.24 2.54) (end 15.24 1.27) (layer F.SilkS) (width 0.12))
  (fp_line (start 15.24 1.27) (end 13.97 1.27) (layer F.SilkS) (width 0.12))
  (fp_line (start 13.97 1.27) (end 13.97 -1.27) (layer F.SilkS) (width 0.12))
  (fp_line (start 13.97 -1.27) (end 15.24 -1.27) (layer F.SilkS) (width 0.12))
  (fp_line (start 15.24 -1.27) (end 15.24 -2.54) (layer F.SilkS) (width 0.12))
  (fp_line (start 15.24 -2.54) (end 33.83 -2.54) (layer F.SilkS) (width 0.12))
  (fp_line (start 33.83 -2.54) (end 33.83 2.54) (layer F.SilkS) (width 0.12))
  (fp_line (start -1.27 6) (end 21.59 6) (layer F.SilkS) (width 0.12))
  (fp_line (start 21.59 6) (end 21.59 6.7) (layer F.SilkS) (width 0.12))
  (fp_line (start 21.59 6.7) (end -1.27 6.7) (layer F.SilkS) (width 0.12))
  (fp_line (start 49.07 6) (end 28.75 6) (layer F.SilkS) (width 0.12))
  (fp_line (start 28.75 6) (end 28.75 6.7) (layer F.SilkS) (width 0.12))
  (fp_line (start 28.75 6.7) (end 49.07 6.7) (layer F.SilkS) (width 0.12))
  (fp_line (start 13.97 16.51) (end 13.97 17.78) (layer F.SilkS) (width 0.12))
  (fp_line (start 13.97 17.78) (end 33.83 17.78) (layer F.SilkS) (width 0.12))
  (fp_line (start 33.83 17.78) (end 33.83 16.51) (layer F.SilkS) (width 0.12))
  (fp_line (start 46.53 -3.81) (end 33.83 -3.81) (layer F.SilkS) (width 0.12))
  (fp_line (start 33.83 -3.81) (end 33.83 -5.08) (layer F.SilkS) (width 0.12))
  (fp_line (start 33.83 -5.08) (end 13.97 -5.08) (layer F.SilkS) (width 0.12))
  (fp_line (start 13.97 -5.08) (end 13.97 -3.81) (layer F.SilkS) (width 0.12))
  (fp_line (start 46.53 16.51) (end 33.83 16.51) (layer F.SilkS) (width 0.12))
  (fp_line (start 1.27 -3.81) (end 13.97 -3.81) (layer F.SilkS) (width 0.12))
  (fp_line (start 1.27 -3.81) (end 1.27 -5.08) (layer F.SilkS) (width 0.12))
  (fp_line (start 1.27 -5.08) (end -1.27 -5.08) (layer F.SilkS) (width 0.12))
  (fp_line (start -1.27 -5.08) (end -1.27 17.78) (layer F.SilkS) (width 0.12))
  (fp_line (start -1.27 17.78) (end 1.27 17.78) (layer F.SilkS) (width 0.12))
  (fp_line (start 1.27 17.78) (end 1.27 16.51) (layer F.SilkS) (width 0.12))
  (fp_line (start 1.27 16.51) (end 13.97 16.51) (layer F.SilkS) (width 0.12))
  (fp_line (start 49.07 -5.08) (end 46.53 -5.08) (layer F.SilkS) (width 0.12))
  (fp_line (start 46.53 -5.08) (end 46.53 -3.81) (layer F.SilkS) (width 0.12))
  (fp_line (start 49.07 -5.08) (end 49.07 17.78) (layer F.SilkS) (width 0.12))
  (fp_line (start 49.07 17.78) (end 46.53 17.78) (layer F.SilkS) (width 0.12))
  (fp_line (start 46.53 17.78) (end 46.53 16.51) (layer F.SilkS) (width 0.12))
  (fp_line (start -2.59 18.645) (end -2.59 -5.945) (layer F.Fab) (width 0.1))
  (fp_line (start 50.39 18.645) (end 50.39 -5.945) (layer F.Fab) (width 0.1))
  (fp_line (start -2.59 18.645) (end 50.39 18.645) (layer F.Fab) (width 0.1))
  (fp_line (start -2.59 -5.945) (end 50.39 -5.945) (layer F.Fab) (width 0.1))
  (pad "" np_thru_hole circle (at 38.61 8.7) (size 3.45 3.45) (drill 3.45) (layers *.Cu *.Mask))
  (pad "" np_thru_hole circle (at 8.64 4) (size 3.45 3.45) (drill 3.45) (layers *.Cu))
  (pad 2 thru_hole circle (at 0 12.7) (size 2 2) (drill 1.02) (layers *.Cu *.Mask))
  (pad 1 thru_hole rect (at 0 0) (size 2 2) (drill 1.02) (layers *.Cu *.Mask))
  (model ${KISYS3DMOD}/Battery.3dshapes/BatteryHolder_Keystone_2468_2xAAA.wrl
    (at (xyz 0 0 0))
    (scale (xyz 1 1 1))
    (rotate (xyz 0 0 0))
  )
)
