(module BatteryHolder_LINX_BAT-HLD-012-SMT (layer F.Cu) (tedit 5D9C8191)
  (descr "SMT battery holder for CR1216/1220/1225, https://linxtechnologies.com/wp/wp-content/uploads/bat-hld-012-smt.pdf")
  (tags "battery holder coin cell cr1216 cr1220 cr1225")
  (attr smd)
  (fp_text reference REF** (at 0 6) (layer F.SilkS)
    (effects (font (size 1 1) (thickness 0.15)))
  )
  (fp_text value BatteryHolder_LINX_BAT-HLD-012-SMT (at 0 -7) (layer F.Fab)
    (effects (font (size 1 1) (thickness 0.15)))
  )
  (fp_arc (start -3.6 2.4) (end -5.4 4.2) (angle -70.5) (layer F.SilkS) (width 0.12))
  (fp_arc (start -3.6 2.4) (end -1.8 4.2) (angle 90) (layer F.Fab) (width 0.1))
  (fp_arc (start 3.6 2.4) (end 5.4 4.2) (angle 90) (layer F.Fab) (width 0.1))
  (fp_text user %R (at 0 0) (layer F.Fab)
    (effects (font (size 1 1) (thickness 0.15)))
  )
  (fp_arc (start 3.6 2.4) (end 5.4 4.2) (angle 70.55996517) (layer F.SilkS) (width 0.12))
  (fp_arc (start 0 6) (end -1.8 4.2) (angle 90) (layer F.Fab) (width 0.1))
  (fp_line (start 6.55 2.85) (end 5.4 4.2) (layer F.SilkS) (width 0.12))
  (fp_line (start -6.55 2.85) (end -5.4 4.2) (layer F.SilkS) (width 0.12))
  (fp_line (start -4.9 -4.4) (end -3 -4.4) (layer F.SilkS) (width 0.12))
  (fp_line (start 4.9 -4.4) (end 3 -4.4) (layer F.SilkS) (width 0.12))
  (fp_line (start 4.9 -4.4) (end 6.55 -2.75) (layer F.SilkS) (width 0.12))
  (fp_line (start -6.55 -2.75) (end -4.9 -4.4) (layer F.SilkS) (width 0.12))
  (fp_line (start 6.55 -2.75) (end 6.75 -2.75) (layer F.Fab) (width 0.1))
  (fp_line (start 6.55 -2.75) (end 6.7 -2.9) (layer F.Fab) (width 0.1))
  (fp_line (start 5.05 -4.55) (end 4.9 -4.4) (layer F.Fab) (width 0.1))
  (fp_line (start -5.05 -4.55) (end -4.9 -4.4) (layer F.Fab) (width 0.1))
  (fp_line (start -6.55 -2.75) (end -6.7 -2.9) (layer F.Fab) (width 0.1))
  (fp_line (start -6.75 -2.75) (end -6.55 -2.75) (layer F.Fab) (width 0.1))
  (fp_line (start 6.75 2.85) (end 6.55 2.85) (layer F.Fab) (width 0.1))
  (fp_line (start -6.75 2.85) (end -6.55 2.85) (layer F.Fab) (width 0.1))
  (fp_line (start -3.55 6.75) (end -7.25 3.05) (layer F.CrtYd) (width 0.05))
  (fp_line (start 3.55 6.75) (end 7.25 3.05) (layer F.CrtYd) (width 0.05))
  (fp_line (start -3.55 6.75) (end 3.55 6.75) (layer F.CrtYd) (width 0.05))
  (fp_line (start 9.35 3.05) (end 7.25 3.05) (layer F.CrtYd) (width 0.05))
  (fp_line (start 9.35 -3.05) (end 9.35 3.05) (layer F.CrtYd) (width 0.05))
  (fp_line (start 7.25 -3.05) (end 9.35 -3.05) (layer F.CrtYd) (width 0.05))
  (fp_line (start 3.55 -6.75) (end 7.25 -3.05) (layer F.CrtYd) (width 0.05))
  (fp_line (start -3.55 -6.75) (end 3.55 -6.75) (layer F.CrtYd) (width 0.05))
  (fp_line (start -7.25 -3.05) (end -3.55 -6.75) (layer F.CrtYd) (width 0.05))
  (fp_line (start -9.35 3.05) (end -7.25 3.05) (layer F.CrtYd) (width 0.05))
  (fp_line (start -9.35 -3.05) (end -7.25 -3.05) (layer F.CrtYd) (width 0.05))
  (fp_line (start -9.35 3.05) (end -9.35 -3.05) (layer F.CrtYd) (width 0.05))
  (fp_circle (center 0 0) (end -6.25 0) (layer F.Fab) (width 0.1))
  (fp_line (start 6.55 2.85) (end 5.4 4.2) (layer F.Fab) (width 0.1))
  (fp_line (start -6.55 2.85) (end -5.4 4.2) (layer F.Fab) (width 0.1))
  (fp_line (start -6.55 -2.75) (end -4.9 -4.4) (layer F.Fab) (width 0.1))
  (fp_line (start -6.55 2.85) (end -6.55 -2.75) (layer F.Fab) (width 0.1))
  (fp_line (start 6.55 -2.75) (end 4.9 -4.4) (layer F.Fab) (width 0.1))
  (fp_line (start 6.55 2.85) (end 6.55 -2.75) (layer F.Fab) (width 0.1))
  (fp_line (start 6.7 -2.9) (end 5.05 -4.55) (layer F.Fab) (width 0.1))
  (fp_line (start -6.7 -2.9) (end -5.05 -4.55) (layer F.Fab) (width 0.1))
  (fp_line (start 4.9 -4.4) (end -4.9 -4.4) (layer F.Fab) (width 0.1))
  (fp_line (start 6.75 2.85) (end 6.75 -2.75) (layer F.Fab) (width 0.1))
  (fp_line (start -6.75 2.85) (end -6.75 -2.75) (layer F.Fab) (width 0.1))
  (fp_line (start 7.65 -2.55) (end 6.75 -2.55) (layer F.Fab) (width 0.1))
  (fp_line (start 7.65 -0.55) (end 7.65 -2.55) (layer F.Fab) (width 0.1))
  (fp_line (start 6.75 -0.55) (end 7.65 -0.55) (layer F.Fab) (width 0.1))
  (fp_line (start 7.65 0.55) (end 6.75 0.55) (layer F.Fab) (width 0.1))
  (fp_line (start 7.65 2.55) (end 7.65 0.55) (layer F.Fab) (width 0.1))
  (fp_line (start 6.75 2.55) (end 7.65 2.55) (layer F.Fab) (width 0.1))
  (fp_line (start -7.65 2.55) (end -6.75 2.55) (layer F.Fab) (width 0.1))
  (fp_line (start -7.65 0.55) (end -7.65 2.55) (layer F.Fab) (width 0.1))
  (fp_line (start -6.75 0.55) (end -7.65 0.55) (layer F.Fab) (width 0.1))
  (fp_line (start -7.65 -0.55) (end -6.75 -0.55) (layer F.Fab) (width 0.1))
  (fp_line (start -7.65 -2.55) (end -6.75 -2.55) (layer F.Fab) (width 0.1))
  (fp_line (start -7.65 -2.55) (end -7.65 -0.55) (layer F.Fab) (width 0.1))
  (pad 2 smd circle (at 0 0) (size 10.2 10.2) (layers F.Cu F.Mask))
  (pad 1 smd rect (at 7.6 0) (size 2.5 5.1) (layers F.Cu F.Paste F.Mask))
  (pad 1 smd rect (at -7.6 0) (size 2.5 5.1) (layers F.Cu F.Paste F.Mask))
  (model ${KISYS3DMOD}/Battery.3dshapes/BatteryHolder_LINX_BAT-HLD-012-SMT.wrl
    (at (xyz 0 0 0))
    (scale (xyz 1 1 1))
    (rotate (xyz 0 0 0))
  )
)
