(module Battery_Panasonic_CR2477-VCN_Vertical_CircularHoles (layer F.Cu) (tedit 5C857882)
  (descr "Panasonic CR-2477/VCN battery, https://industrial.panasonic.com/cdbs/www-data/pdf2/AAA4000/AAA4000D140.pdf")
  (tags "battery CR-2477 coin cell vertical")
  (fp_text reference REF** (at 4.325 -10.5) (layer F.SilkS)
    (effects (font (size 1 1) (thickness 0.15)))
  )
  (fp_text value Battery_Panasonic_CR2477-VCN_Vertical_CircularHoles (at 4.325 2.8) (layer F.Fab)
    (effects (font (size 1 1) (thickness 0.15)))
  )
  (fp_text user + (at -2.7 -0.75) (layer F.SilkS)
    (effects (font (size 1.5 1.5) (thickness 0.15)))
  )
  (fp_text user %R (at 4.325 -4.15 180) (layer F.Fab)
    (effects (font (size 1 1) (thickness 0.15)))
  )
  (fp_line (start -7.975 -8.4) (end 16.625 -8.4) (layer F.Fab) (width 0.1))
  (fp_line (start 16.625 -8.4) (end 16.625 0.1) (layer F.Fab) (width 0.1))
  (fp_line (start -7.975 -8.4) (end -7.975 0.1) (layer F.Fab) (width 0.1))
  (fp_line (start -7.975 0.1) (end 16.625 0.1) (layer F.Fab) (width 0.1))
  (fp_line (start -8.23 -9.75) (end 16.88 -9.75) (layer F.CrtYd) (width 0.05))
  (fp_line (start 16.88 -9.75) (end 16.88 1.95) (layer F.CrtYd) (width 0.05))
  (fp_line (start -8.23 -9.75) (end -8.23 1.95) (layer F.CrtYd) (width 0.05))
  (fp_line (start -8.23 1.95) (end 16.94 1.95) (layer F.CrtYd) (width 0.05))
  (fp_line (start 10.76 -8.51) (end 16.735 -8.51) (layer F.SilkS) (width 0.12))
  (fp_line (start 16.735 -8.51) (end 16.735 0.21) (layer F.SilkS) (width 0.12))
  (fp_line (start 2.11 0.21) (end 16.735 0.21) (layer F.SilkS) (width 0.12))
  (fp_line (start -8.085 -8.51) (end -8.085 0.21) (layer F.SilkS) (width 0.12))
  (fp_line (start -8.085 0.21) (end -2.11 0.21) (layer F.SilkS) (width 0.12))
  (fp_line (start -8.085 -8.51) (end 7.54 -8.51) (layer F.SilkS) (width 0.12))
  (pad 2 thru_hole circle (at 9.15 -8.3) (size 2.7 2.7) (drill 2.12) (layers *.Cu *.Mask))
  (pad 1 thru_hole rect (at 0 0) (size 3.7 3.7) (drill 3.12) (layers *.Cu *.Mask))
  (model ${KISYS3DMOD}/Battery.3dshapes/Battery_Panasonic_CR2477-VCN_Vertical_CircularHoles.wrl
    (at (xyz 0 0 0))
    (scale (xyz 1 1 1))
    (rotate (xyz 0 0 0))
  )
)
