(module BatteryHolder_Keystone_500 (layer F.Cu) (tedit 5C1118DA)
  (descr "Keystone #500, CR1220 battery holder, http://www.keyelco.com/product-pdf.cfm?p=710")
  (tags "CR1220 battery holder")
  (fp_text reference REF** (at -0.35 -3.6) (layer F.SilkS)
    (effects (font (size 1 1) (thickness 0.15)))
  )
  (fp_text value BatteryHolder_Keystone_500 (at 9.55 8.85) (layer F.Fab)
    (effects (font (size 1 1) (thickness 0.15)))
  )
  (fp_arc (start 9.53 0) (end 2.33 -2.6) (angle 320) (layer F.SilkS) (width 0.12))
  (fp_arc (start 9.53 0) (end 2.18 -2.85) (angle 317) (layer F.CrtYd) (width 0.05))
  (fp_text user %R (at 7.275 0) (layer F.Fab)
    (effects (font (size 1 1) (thickness 0.15)))
  )
  (fp_line (start 2.23 2.95) (end -1.42 2.95) (layer F.CrtYd) (width 0.05))
  (fp_line (start -1.42 2.95) (end -2.92 1.45) (layer F.CrtYd) (width 0.05))
  (fp_line (start -2.92 1.45) (end -2.92 -1.4) (layer F.CrtYd) (width 0.05))
  (fp_line (start -2.92 -1.4) (end -1.47 -2.85) (layer F.CrtYd) (width 0.05))
  (fp_line (start -1.47 -2.85) (end 2.18 -2.85) (layer F.CrtYd) (width 0.05))
  (fp_line (start 2.33 2.65) (end -1.32 2.65) (layer F.SilkS) (width 0.12))
  (fp_line (start -1.32 2.65) (end -2.67 1.3) (layer F.SilkS) (width 0.12))
  (fp_line (start -2.67 1.3) (end -2.67 -1.3) (layer F.SilkS) (width 0.12))
  (fp_line (start -2.67 -1.3) (end -1.32 -2.65) (layer F.SilkS) (width 0.12))
  (fp_line (start -1.32 -2.65) (end 2.33 -2.65) (layer F.SilkS) (width 0.12))
  (fp_line (start -1.27 2.54) (end 2.41 2.54) (layer F.Fab) (width 0.1))
  (fp_line (start -1.27 -2.54) (end 2.41 -2.54) (layer F.Fab) (width 0.1))
  (fp_line (start -1.27 2.54) (end -2.54 1.27) (layer F.Fab) (width 0.1))
  (fp_line (start -2.54 1.27) (end -2.54 -1.27) (layer F.Fab) (width 0.1))
  (fp_line (start -2.54 -1.27) (end -1.27 -2.54) (layer F.Fab) (width 0.1))
  (fp_line (start 13.08 -4.32) (end 14.61 -5.59) (layer F.Fab) (width 0.1))
  (fp_line (start 13.08 4.32) (end 14.61 5.59) (layer F.Fab) (width 0.1))
  (fp_circle (center 9.53 0) (end 3.94 0) (layer F.Fab) (width 0.1))
  (fp_circle (center 9.53 0) (end 2.41 2.54) (layer F.Fab) (width 0.1))
  (pad 2 thru_hole circle (at 9.53 0) (size 2.54 2.54) (drill 1.02) (layers *.Cu *.Mask))
  (pad 1 thru_hole circle (at 0 0) (size 2.5 2.5) (drill 1.02) (layers *.Cu *.Mask))
  (model ${KISYS3DMOD}/Battery.3dshapes/BatteryHolder_Keystone_500.wrl
    (at (xyz 0 0 0))
    (scale (xyz 1 1 1))
    (rotate (xyz 0 0 0))
  )
)
