PCBNEW-LibModule-V1  2021-10-05 03:16:33
# encoding utf-8
Units mm
$INDEX
AZ1117CD50TRG1
$EndINDEX
$MODULE AZ1117CD50TRG1
Po 0 0 0 15 615bb581 00000000 ~~
Li AZ1117CD50TRG1
Cd AZ1117CD-5.0TRG1-2
Kw Integrated Circuit
Sc 0
At SMD
AR 
Op 0 0 0
T0 0.000 -0.538 1.27 1.27 0 0.254 N V 21 N "IC**"
T1 0.000 -0.538 1.27 1.27 0 0.254 N I 21 N "AZ1117CD50TRG1"
DS -3.288 -3.425 3.288 -3.425 0.2 24
DS 3.288 -3.425 3.288 2.675 0.2 24
DS 3.288 2.675 -3.288 2.675 0.2 24
DS -3.288 2.675 -3.288 -3.425 0.2 24
DS -4.5 -7.925 4.5 -7.925 0.1 24
DS 4.5 -7.925 4.5 6.85 0.1 24
DS 4.5 6.85 -4.5 6.85 0.1 24
DS -4.5 6.85 -4.5 -7.925 0.1 24
DS -3.288 0.4 -3.288 2 0.1 21
DS 3.288 0.4 3.288 2 0.1 21
DS -1 2.675 1 2.675 0.1 21
DS -2.2 5.8 -2.2 5.8 0.2 21
DS -2.3 5.8 -2.3 5.8 0.2 21
DA -2.25 5.8 -2.200 5.8 -1800 0.2 21
DA -2.25 5.8 -2.300 5.8 -1800 0.2 21
$PAD
Po -2.300 3.425
Sh "1" R 1.500 2.500 0 0 0
At SMD N 00888000
Ne 0 ""
$EndPAD
$PAD
Po 0.000 -3.425
Sh "2" R 7.000 7.000 0 0 0
At SMD N 00888000
Ne 0 ""
$EndPAD
$PAD
Po 2.300 3.425
Sh "3" R 1.500 2.500 0 0 0
At SMD N 00888000
Ne 0 ""
$EndPAD
$EndMODULE AZ1117CD50TRG1
$EndLIBRARY
