M48
; DRILL file {KiCad (5.1.10)-1} date 10/26/21 21:58:06
; FORMAT={-:-/ absolute / inch / decimal}
; #@! TF.CreationDate,2021-10-26T21:58:06-05:00
; #@! TF.GenerationSoftware,Kicad,Pcbnew,(5.1.10)-1
; #@! TF.FileFunction,Plated,1,2,PTH
FMAT,2
INCH
T1C0.0157
T2C0.0315
T3C0.0469
T4C0.0531
T5C0.0591
T6C0.1650
%
G90
G05
T1
X1.9647Y-2.3513
X3.1346Y-2.7044
X3.248Y-2.705
X3.324Y-2.294
X3.364Y-2.081
X3.432Y-1.889
X3.511Y-2.705
X3.511Y-2.705
X3.548Y-2.38
X3.636Y-2.414
X3.669Y-1.7144
X3.844Y-2.686
X3.889Y-2.914
T2
X3.1346Y-3.001
X3.167Y-2.024
X3.233Y-3.001
X3.2654Y-2.024
X3.669Y-1.302
X3.669Y-1.502
T3
X2.029Y-3.024
X2.129Y-3.024
X2.636Y-2.991
X2.736Y-2.991
X3.579Y-2.986
X3.679Y-2.986
T4
X2.5375Y-1.086
X2.5375Y-1.516
T5
X1.9647Y-2.18
X1.9647Y-2.4753
X2.1616Y-2.18
X2.1616Y-2.4753
X2.3584Y-2.18
X2.3584Y-2.4753
X2.949Y-2.18
X2.949Y-2.4753
T6
X2.0155Y-1.301
X3.2025Y-1.301
T0
M30
